[
    {
        "client_msg_id": "aaa537d9-aa42-49c5-9f3a-520ea6f1d9dd",
        "type": "message",
        "text": "REACTing bi-weekly shares a selection of the most relevant articles published on COVID-19. This monitoring does not include pre-print articles. You'll find it here: <https:\/\/reacting.inserm.fr\/literature-review\/> ! Cheers everyone",
        "user": "UV9V03C8Y",
        "ts": "1584972645.016900",
        "team": "TUU48M0T1",
        "user_team": "TUU48M0T1",
        "source_team": "TUU48M0T1",
        "user_profile": {
            "avatar_hash": "177697fb7b8f",
            "image_72": "https:\/\/avatars.slack-edge.com\/2020-03-12\/996126178096_177697fb7b8ffa57649c_72.jpg",
            "first_name": "Camille",
            "real_name": "Camille Masselot",
            "display_name": "Camille Masselot",
            "team": "TUU48M0T1",
            "name": "masselot.camille",
            "is_restricted": false,
            "is_ultra_restricted": false
        },
        "attachments": [
            {
                "service_name": "Reacting",
                "title": "Literature review",
                "title_link": "https:\/\/reacting.inserm.fr\/literature-review\/",
                "text": "Our role Literature review COVID-19 funding opportunities REACTing bi-weekly shares a selection of the most relevant articles published on COVID-19. This monitoring does not include pre-print articles. This selection is not only a reference compilation, but we hilight the key points and messages from each article. Our objective is to help the scientific community, health-workers, [...]",
                "fallback": "Reacting: Literature review",
                "thumb_url": "https:\/\/reacting.inserm.fr\/wp-content\/uploads\/2020\/02\/cropped-favicon-reacting.png",
                "ts": 1584541243,
                "from_url": "https:\/\/reacting.inserm.fr\/literature-review\/",
                "thumb_width": 512,
                "thumb_height": 512,
                "service_icon": "https:\/\/reacting.inserm.fr\/wp-content\/uploads\/2020\/02\/cropped-favicon-reacting-180x180.png",
                "id": 1,
                "original_url": "https:\/\/reacting.inserm.fr\/literature-review\/"
            }
        ],
        "blocks": [
            {
                "type": "rich_text",
                "block_id": "svl5f",
                "elements": [
                    {
                        "type": "rich_text_section",
                        "elements": [
                            {
                                "type": "text",
                                "text": "REACTing bi-weekly shares a selection of the most relevant articles published on COVID-19. This monitoring does not include pre-print articles. You'll find it here: "
                            },
                            {
                                "type": "link",
                                "url": "https:\/\/reacting.inserm.fr\/literature-review\/"
                            },
                            {
                                "type": "text",
                                "text": " ! Cheers everyone"
                            }
                        ]
                    }
                ]
            }
        ],
        "reactions": [
            {
                "name": "+1",
                "users": [
                    "U010G1TCBN2",
                    "U0103128G4D"
                ],
                "count": 2
            }
        ]
    }
]