[
    {
        "client_msg_id": "5f5b7f7d-3a92-4727-a43f-6fec22fbf98e",
        "type": "message",
        "text": "SARS-CoV-2 transition state drug design literature: <https:\/\/www.zotero.org\/groups\/2466960\/sars-cov-2-transitionstate\/library>",
        "user": "U0105D9EDQB",
        "ts": "1584807491.011600",
        "team": "TUU48M0T1",
        "user_team": "TUU48M0T1",
        "source_team": "TUU48M0T1",
        "user_profile": {
            "avatar_hash": "67726d3f81c1",
            "image_72": "https:\/\/avatars.slack-edge.com\/2020-03-21\/1016938950901_67726d3f81c130db145e_72.jpg",
            "first_name": "",
            "real_name": "Jarvist Moore Frost",
            "display_name": "Jarvist Moore Frost",
            "team": "TUU48M0T1",
            "name": "jarvist.frost",
            "is_restricted": false,
            "is_ultra_restricted": false
        },
        "blocks": [
            {
                "type": "rich_text",
                "block_id": "gHRlE",
                "elements": [
                    {
                        "type": "rich_text_section",
                        "elements": [
                            {
                                "type": "text",
                                "text": "SARS-CoV-2 transition state drug design literature: "
                            },
                            {
                                "type": "link",
                                "url": "https:\/\/www.zotero.org\/groups\/2466960\/sars-cov-2-transitionstate\/library"
                            }
                        ]
                    }
                ]
            }
        ],
        "thread_ts": "1584807491.011600",
        "reply_count": 8,
        "reply_users_count": 2,
        "latest_reply": "1584823200.015500",
        "reply_users": [
            "U0103RQF7R8",
            "U0105D9EDQB"
        ],
        "replies": [
            {
                "user": "U0103RQF7R8",
                "ts": "1584807938.012200"
            },
            {
                "user": "U0105D9EDQB",
                "ts": "1584807996.012500"
            },
            {
                "user": "U0105D9EDQB",
                "ts": "1584808226.012700"
            },
            {
                "user": "U0103RQF7R8",
                "ts": "1584809304.013000"
            },
            {
                "user": "U0105D9EDQB",
                "ts": "1584822190.013200"
            },
            {
                "user": "U0105D9EDQB",
                "ts": "1584822211.013400"
            },
            {
                "user": "U0103RQF7R8",
                "ts": "1584822508.015200"
            },
            {
                "user": "U0105D9EDQB",
                "ts": "1584823200.015500"
            }
        ],
        "subscribed": false,
        "reactions": [
            {
                "name": "+1",
                "users": [
                    "U0103RQF7R8",
                    "U010G1TCBN2",
                    "UV9V03C8Y"
                ],
                "count": 3
            }
        ]
    },
    {
        "client_msg_id": "E41B2C04-53C5-4D6A-AF2C-07D25A8B9EFB",
        "type": "message",
        "text": "<@U0105D9EDQB>  some work we did on transition state searching: <https:\/\/pubs.acs.org\/doi\/10.1021\/jz5018703|https:\/\/pubs.acs.org\/doi\/10.1021\/jz5018703>",
        "user": "U0103RQF7R8",
        "ts": "1584807938.012200",
        "team": "TUU48M0T1",
        "user_team": "TUU48M0T1",
        "source_team": "TUU48M0T1",
        "user_profile": {
            "avatar_hash": "a6c12e0e64cd",
            "image_72": "https:\/\/avatars.slack-edge.com\/2020-03-21\/1005206447347_a6c12e0e64cdd801a393_72.jpg",
            "first_name": "",
            "real_name": "Greg Lever",
            "display_name": "",
            "team": "TUU48M0T1",
            "name": "greglever",
            "is_restricted": false,
            "is_ultra_restricted": false
        },
        "blocks": [
            {
                "type": "rich_text",
                "block_id": "v8T6U",
                "elements": [
                    {
                        "type": "rich_text_section",
                        "elements": [
                            {
                                "type": "user",
                                "user_id": "U0105D9EDQB"
                            },
                            {
                                "type": "text",
                                "text": "  some work we did on transition state searching: "
                            },
                            {
                                "type": "link",
                                "url": "https:\/\/pubs.acs.org\/doi\/10.1021\/jz5018703",
                                "text": "https:\/\/pubs.acs.org\/doi\/10.1021\/jz5018703"
                            }
                        ]
                    }
                ]
            }
        ],
        "thread_ts": "1584807491.011600",
        "parent_user_id": "U0105D9EDQB"
    },
    {
        "client_msg_id": "7bb78cd1-7786-47ec-80a2-16699cf7602b",
        "type": "message",
        "text": "Great! And with Adrian I see.",
        "user": "U0105D9EDQB",
        "ts": "1584807996.012500",
        "team": "TUU48M0T1",
        "user_team": "TUU48M0T1",
        "source_team": "TUU48M0T1",
        "user_profile": {
            "avatar_hash": "67726d3f81c1",
            "image_72": "https:\/\/avatars.slack-edge.com\/2020-03-21\/1016938950901_67726d3f81c130db145e_72.jpg",
            "first_name": "",
            "real_name": "Jarvist Moore Frost",
            "display_name": "Jarvist Moore Frost",
            "team": "TUU48M0T1",
            "name": "jarvist.frost",
            "is_restricted": false,
            "is_ultra_restricted": false
        },
        "blocks": [
            {
                "type": "rich_text",
                "block_id": "UuJ",
                "elements": [
                    {
                        "type": "rich_text_section",
                        "elements": [
                            {
                                "type": "text",
                                "text": "Great! And with Adrian I see."
                            }
                        ]
                    }
                ]
            }
        ],
        "thread_ts": "1584807491.011600",
        "parent_user_id": "U0105D9EDQB",
        "reactions": [
            {
                "name": "slightly_smiling_face",
                "users": [
                    "U0103RQF7R8"
                ],
                "count": 1
            }
        ]
    },
    {
        "client_msg_id": "14d52e95-f8bb-4538-9a8d-000463209aca",
        "type": "message",
        "text": "Any take home message from this?",
        "user": "U0105D9EDQB",
        "ts": "1584808226.012700",
        "team": "TUU48M0T1",
        "user_team": "TUU48M0T1",
        "source_team": "TUU48M0T1",
        "user_profile": {
            "avatar_hash": "67726d3f81c1",
            "image_72": "https:\/\/avatars.slack-edge.com\/2020-03-21\/1016938950901_67726d3f81c130db145e_72.jpg",
            "first_name": "",
            "real_name": "Jarvist Moore Frost",
            "display_name": "Jarvist Moore Frost",
            "team": "TUU48M0T1",
            "name": "jarvist.frost",
            "is_restricted": false,
            "is_ultra_restricted": false
        },
        "blocks": [
            {
                "type": "rich_text",
                "block_id": "=Oad",
                "elements": [
                    {
                        "type": "rich_text_section",
                        "elements": [
                            {
                                "type": "text",
                                "text": "Any take home message from this?"
                            }
                        ]
                    }
                ]
            }
        ],
        "thread_ts": "1584807491.011600",
        "parent_user_id": "U0105D9EDQB"
    },
    {
        "client_msg_id": "4ca67d4b-146c-4462-9a09-cb83f93e8519",
        "type": "message",
        "text": "By applying a density-functional approach to the problem we were able to perform a natural bond orbital analysis which enables one to identify active site residues which are important for transition state stabilisation and can be applied to many other enzyme-substrate reactions",
        "user": "U0103RQF7R8",
        "ts": "1584809304.013000",
        "team": "TUU48M0T1",
        "user_team": "TUU48M0T1",
        "source_team": "TUU48M0T1",
        "user_profile": {
            "avatar_hash": "a6c12e0e64cd",
            "image_72": "https:\/\/avatars.slack-edge.com\/2020-03-21\/1005206447347_a6c12e0e64cdd801a393_72.jpg",
            "first_name": "",
            "real_name": "Greg Lever",
            "display_name": "",
            "team": "TUU48M0T1",
            "name": "greglever",
            "is_restricted": false,
            "is_ultra_restricted": false
        },
        "blocks": [
            {
                "type": "rich_text",
                "block_id": "gWw",
                "elements": [
                    {
                        "type": "rich_text_section",
                        "elements": [
                            {
                                "type": "text",
                                "text": "By applying a density-functional approach to the problem we were able to perform a natural bond orbital analysis which enables one to identify active site residues which are important for transition state stabilisation and can be applied to many other enzyme-substrate reactions"
                            }
                        ]
                    }
                ]
            }
        ],
        "thread_ts": "1584807491.011600",
        "parent_user_id": "U0105D9EDQB"
    },
    {
        "client_msg_id": "cc9c34d3-72c1-460e-87bc-02a3efd3d7dc",
        "type": "message",
        "text": "Interesting. I'll definitely give it a read.",
        "user": "U0105D9EDQB",
        "ts": "1584822190.013200",
        "team": "TUU48M0T1",
        "user_team": "TUU48M0T1",
        "source_team": "TUU48M0T1",
        "user_profile": {
            "avatar_hash": "67726d3f81c1",
            "image_72": "https:\/\/avatars.slack-edge.com\/2020-03-21\/1016938950901_67726d3f81c130db145e_72.jpg",
            "first_name": "",
            "real_name": "Jarvist Moore Frost",
            "display_name": "Jarvist Moore Frost",
            "team": "TUU48M0T1",
            "name": "jarvist.frost",
            "is_restricted": false,
            "is_ultra_restricted": false
        },
        "blocks": [
            {
                "type": "rich_text",
                "block_id": "Ca4",
                "elements": [
                    {
                        "type": "rich_text_section",
                        "elements": [
                            {
                                "type": "text",
                                "text": "Interesting. I'll definitely give it a read."
                            }
                        ]
                    }
                ]
            }
        ],
        "thread_ts": "1584807491.011600",
        "parent_user_id": "U0105D9EDQB"
    },
    {
        "client_msg_id": "9b1d3ec5-85df-40b0-8d2d-9324d21c8838",
        "type": "message",
        "text": "Did it require the linear-scaling aspect, or is this something you'd expect to be present in a standard DFT calculation on an extracted cluster?",
        "user": "U0105D9EDQB",
        "ts": "1584822211.013400",
        "team": "TUU48M0T1",
        "user_team": "TUU48M0T1",
        "source_team": "TUU48M0T1",
        "user_profile": {
            "avatar_hash": "67726d3f81c1",
            "image_72": "https:\/\/avatars.slack-edge.com\/2020-03-21\/1016938950901_67726d3f81c130db145e_72.jpg",
            "first_name": "",
            "real_name": "Jarvist Moore Frost",
            "display_name": "Jarvist Moore Frost",
            "team": "TUU48M0T1",
            "name": "jarvist.frost",
            "is_restricted": false,
            "is_ultra_restricted": false
        },
        "blocks": [
            {
                "type": "rich_text",
                "block_id": "nxShi",
                "elements": [
                    {
                        "type": "rich_text_section",
                        "elements": [
                            {
                                "type": "text",
                                "text": "Did it require the linear-scaling aspect, or is this something you'd expect to be present in a standard DFT calculation on an extracted cluster?"
                            }
                        ]
                    }
                ]
            }
        ],
        "thread_ts": "1584807491.011600",
        "parent_user_id": "U0105D9EDQB"
    },
    {
        "client_msg_id": "949F5EC9-CFB5-4864-B949-4F90A62589CD",
        "type": "message",
        "text": "I would say the number of atoms involved will likely require the linear-scaling aspect, so for typical cubic-scaling DFT it may prove prohibitive, but that may just depend on your approach ",
        "user": "U0103RQF7R8",
        "ts": "1584822508.015200",
        "team": "TUU48M0T1",
        "user_team": "TUU48M0T1",
        "source_team": "TUU48M0T1",
        "user_profile": {
            "avatar_hash": "a6c12e0e64cd",
            "image_72": "https:\/\/avatars.slack-edge.com\/2020-03-21\/1005206447347_a6c12e0e64cdd801a393_72.jpg",
            "first_name": "",
            "real_name": "Greg Lever",
            "display_name": "",
            "team": "TUU48M0T1",
            "name": "greglever",
            "is_restricted": false,
            "is_ultra_restricted": false
        },
        "blocks": [
            {
                "type": "rich_text",
                "block_id": "5jj",
                "elements": [
                    {
                        "type": "rich_text_section",
                        "elements": [
                            {
                                "type": "text",
                                "text": "I would say the number of atoms involved will likely require the linear-scaling aspect, so for typical cubic-scaling DFT it may prove prohibitive, but that may just depend on your approach "
                            }
                        ]
                    }
                ]
            }
        ],
        "thread_ts": "1584807491.011600",
        "parent_user_id": "U0105D9EDQB"
    },
    {
        "client_msg_id": "d01b8265-9a16-4abc-8aeb-f9d507d7dec7",
        "type": "message",
        "text": "Computers are quite big these days, and an extracted cluster with the ligand + a shell of nearby residues is around 800 atoms, so not too painful (even with Hybrid DFT).",
        "user": "U0105D9EDQB",
        "ts": "1584823200.015500",
        "team": "TUU48M0T1",
        "user_team": "TUU48M0T1",
        "source_team": "TUU48M0T1",
        "user_profile": {
            "avatar_hash": "67726d3f81c1",
            "image_72": "https:\/\/avatars.slack-edge.com\/2020-03-21\/1016938950901_67726d3f81c130db145e_72.jpg",
            "first_name": "",
            "real_name": "Jarvist Moore Frost",
            "display_name": "Jarvist Moore Frost",
            "team": "TUU48M0T1",
            "name": "jarvist.frost",
            "is_restricted": false,
            "is_ultra_restricted": false
        },
        "blocks": [
            {
                "type": "rich_text",
                "block_id": "HEWw\/",
                "elements": [
                    {
                        "type": "rich_text_section",
                        "elements": [
                            {
                                "type": "text",
                                "text": "Computers are quite big these days, and an extracted cluster with the ligand + a shell of nearby residues is around 800 atoms, so not too painful (even with Hybrid DFT)."
                            }
                        ]
                    }
                ]
            }
        ],
        "thread_ts": "1584807491.011600",
        "parent_user_id": "U0105D9EDQB",
        "reactions": [
            {
                "name": "+1",
                "users": [
                    "U0103RQF7R8"
                ],
                "count": 1
            }
        ]
    }
]