<?xml version="1.0" encoding="UTF-8"?>
<graphml xmlns="http://graphml.graphdrawing.org/xmlns"
         xmlns:xsi="http://www.w3.org/2001/XMLSchema-instance"
         xsi:schemaLocation="http://graphml.graphdrawing.org/xmlns
         http://graphml.graphdrawing.org/xmlns/1.0/graphml.xsd">
<!-- Created by igraph -->
  <key id="v_name" for="node" attr.name="name" attr.type="string"/>
  <key id="v_type" for="node" attr.name="type" attr.type="boolean"/>
  <key id="e_Type" for="edge" attr.name="Type" attr.type="string"/>
  <key id="e_Weight" for="edge" attr.name="Weight" attr.type="double"/>
  <graph id="G" edgedefault="directed">
    <node id="n0">
      <data key="v_name">Gijs Van den Dool</data>
      <data key="v_type">false</data>
    </node>
    <node id="n1">
      <data key="v_name">Just One Giant Lab</data>
      <data key="v_type">false</data>
    </node>
    <node id="n2">
      <data key="v_name">Marc Santolini</data>
      <data key="v_type">false</data>
    </node>
    <node id="n3">
      <data key="v_name">Selim Ben Slama</data>
      <data key="v_type">false</data>
    </node>
    <node id="n4">
      <data key="v_name">Thomas Landrain</data>
      <data key="v_type">false</data>
    </node>
    <node id="n5">
      <data key="v_name">Liu Bov</data>
      <data key="v_type">false</data>
    </node>
    <node id="n6">
      <data key="v_name">Aral Sürmeli</data>
      <data key="v_type">false</data>
    </node>
    <node id="n7">
      <data key="v_name">Jeanne Bonnel</data>
      <data key="v_type">false</data>
    </node>
    <node id="n8">
      <data key="v_name">Mihaela Grigore</data>
      <data key="v_type">false</data>
    </node>
    <node id="n9">
      <data key="v_name">Lola Casamitjana</data>
      <data key="v_type">false</data>
    </node>
    <node id="n10">
      <data key="v_name">Luca Haenel</data>
      <data key="v_type">false</data>
    </node>
    <node id="n11">
      <data key="v_name">NIDHIBEN PATEL</data>
      <data key="v_type">false</data>
    </node>
    <node id="n12">
      <data key="v_name">Philippe Mougin</data>
      <data key="v_type">false</data>
    </node>
    <node id="n13">
      <data key="v_name">William Kane Olwit</data>
      <data key="v_type">false</data>
    </node>
    <node id="n14">
      <data key="v_name">Tom Chauveau</data>
      <data key="v_type">false</data>
    </node>
    <node id="n15">
      <data key="v_name">Enzo MULLER</data>
      <data key="v_type">false</data>
    </node>
    <node id="n16">
      <data key="v_name">jooyoung kim</data>
      <data key="v_type">false</data>
    </node>
    <node id="n17">
      <data key="v_name">Global Vaccination Risk Assessment </data>
      <data key="v_type">true</data>
    </node>
    <node id="n18">
      <data key="v_name">Harmonize Vaccination</data>
      <data key="v_type">true</data>
    </node>
    <node id="n19">
      <data key="v_name">HERA: a mobile health platform to improve refugee&apos;s health</data>
      <data key="v_type">true</data>
    </node>
    <node id="n20">
      <data key="v_name">Pass it on: A game about vaccination hesitancy (used to be named: We need to talk (Video Game about vaccination))</data>
      <data key="v_type">true</data>
    </node>
    <node id="n21">
      <data key="v_name">Qualitative analysis of Tweets on Vaccination</data>
      <data key="v_type">true</data>
    </node>
    <edge source="n0" target="n17">
      <data key="e_Type">commenter</data>
      <data key="e_Weight">4</data>
    </edge>
    <edge source="n1" target="n17">
      <data key="e_Type">commenter</data>
      <data key="e_Weight">1</data>
    </edge>
    <edge source="n2" target="n17">
      <data key="e_Type">commenter</data>
      <data key="e_Weight">2</data>
    </edge>
    <edge source="n3" target="n17">
      <data key="e_Type">commenter</data>
      <data key="e_Weight">1</data>
    </edge>
    <edge source="n4" target="n17">
      <data key="e_Type">commenter</data>
      <data key="e_Weight">1</data>
    </edge>
    <edge source="n0" target="n17">
      <data key="e_Type">poster</data>
      <data key="e_Weight">6</data>
    </edge>
    <edge source="n0" target="n18">
      <data key="e_Type">commenter</data>
      <data key="e_Weight">1</data>
    </edge>
    <edge source="n1" target="n18">
      <data key="e_Type">commenter</data>
      <data key="e_Weight">2</data>
    </edge>
    <edge source="n5" target="n18">
      <data key="e_Type">commenter</data>
      <data key="e_Weight">1</data>
    </edge>
    <edge source="n6" target="n18">
      <data key="e_Type">poster</data>
      <data key="e_Weight">1</data>
    </edge>
    <edge source="n0" target="n18">
      <data key="e_Type">poster</data>
      <data key="e_Weight">2</data>
    </edge>
    <edge source="n7" target="n18">
      <data key="e_Type">poster</data>
      <data key="e_Weight">1</data>
    </edge>
    <edge source="n8" target="n18">
      <data key="e_Type">poster</data>
      <data key="e_Weight">1</data>
    </edge>
    <edge source="n6" target="n19">
      <data key="e_Type">commenter</data>
      <data key="e_Weight">2</data>
    </edge>
    <edge source="n1" target="n19">
      <data key="e_Type">commenter</data>
      <data key="e_Weight">5</data>
    </edge>
    <edge source="n5" target="n19">
      <data key="e_Type">commenter</data>
      <data key="e_Weight">1</data>
    </edge>
    <edge source="n9" target="n19">
      <data key="e_Type">commenter</data>
      <data key="e_Weight">1</data>
    </edge>
    <edge source="n10" target="n19">
      <data key="e_Type">commenter</data>
      <data key="e_Weight">1</data>
    </edge>
    <edge source="n4" target="n19">
      <data key="e_Type">commenter</data>
      <data key="e_Weight">2</data>
    </edge>
    <edge source="n6" target="n19">
      <data key="e_Type">poster</data>
      <data key="e_Weight">4</data>
    </edge>
    <edge source="n1" target="n19">
      <data key="e_Type">poster</data>
      <data key="e_Weight">2</data>
    </edge>
    <edge source="n11" target="n19">
      <data key="e_Type">poster</data>
      <data key="e_Weight">1</data>
    </edge>
    <edge source="n12" target="n20">
      <data key="e_Type">commenter</data>
      <data key="e_Weight">1</data>
    </edge>
    <edge source="n11" target="n20">
      <data key="e_Type">poster</data>
      <data key="e_Weight">1</data>
    </edge>
    <edge source="n13" target="n20">
      <data key="e_Type">poster</data>
      <data key="e_Weight">1</data>
    </edge>
    <edge source="n6" target="n21">
      <data key="e_Type">commenter</data>
      <data key="e_Weight">1</data>
    </edge>
    <edge source="n0" target="n21">
      <data key="e_Type">commenter</data>
      <data key="e_Weight">1</data>
    </edge>
    <edge source="n1" target="n21">
      <data key="e_Type">commenter</data>
      <data key="e_Weight">1</data>
    </edge>
    <edge source="n5" target="n21">
      <data key="e_Type">commenter</data>
      <data key="e_Weight">2</data>
    </edge>
    <edge source="n10" target="n21">
      <data key="e_Type">commenter</data>
      <data key="e_Weight">2</data>
    </edge>
    <edge source="n2" target="n21">
      <data key="e_Type">commenter</data>
      <data key="e_Weight">1</data>
    </edge>
    <edge source="n14" target="n21">
      <data key="e_Type">commenter</data>
      <data key="e_Weight">1</data>
    </edge>
    <edge source="n13" target="n21">
      <data key="e_Type">commenter</data>
      <data key="e_Weight">5</data>
    </edge>
    <edge source="n6" target="n21">
      <data key="e_Type">poster</data>
      <data key="e_Weight">2</data>
    </edge>
    <edge source="n15" target="n21">
      <data key="e_Type">poster</data>
      <data key="e_Weight">1</data>
    </edge>
    <edge source="n0" target="n21">
      <data key="e_Type">poster</data>
      <data key="e_Weight">1</data>
    </edge>
    <edge source="n16" target="n21">
      <data key="e_Type">poster</data>
      <data key="e_Weight">1</data>
    </edge>
    <edge source="n1" target="n21">
      <data key="e_Type">poster</data>
      <data key="e_Weight">2</data>
    </edge>
    <edge source="n13" target="n21">
      <data key="e_Type">poster</data>
      <data key="e_Weight">7</data>
    </edge>
  </graph>
</graphml>
