[
    {
        "client_msg_id": "cf638a6e-2c31-40e4-be18-e5e7cfdb4264",
        "type": "message",
        "text": "Good morning 3D-printers: I’m acting as a liason with a contract at Northwestern hospital and we need 25 of these face shields by tomorrow. I’ve only got one printer working on it so far and we need more output, could anyone help? Thank you! <https:\/\/www.prusaprinters.org\/prints\/25857-prusa-protective-face-shield-rc2>",
        "user": "UV8FL0JCA",
        "ts": "1585056454.002200",
        "team": "TUU48M0T1",
        "user_team": "TUU48M0T1",
        "source_team": "TUU48M0T1",
        "user_profile": {
            "avatar_hash": "920c820f5900",
            "image_72": "https:\/\/avatars.slack-edge.com\/2020-03-17\/1009529536646_920c820f5900215fb339_72.jpg",
            "first_name": "Eric",
            "real_name": "Eric Chaves",
            "display_name": "Eric Chaves",
            "team": "TUU48M0T1",
            "name": "eric.chaves.llc",
            "is_restricted": false,
            "is_ultra_restricted": false
        },
        "attachments": [
            {
                "service_name": "PrusaPrinters",
                "title": "Prusa Protective Face Shield - RC2 : PrusaPrinters",
                "title_link": "https:\/\/www.prusaprinters.org\/prints\/25857-prusa-protective-face-shield-rc2",
                "text": "A prototype face shield that we developed. In three days, we went through dozens of prototypes and two verifications with the Czech Ministry of Health. Version RC2Changes from RC1: Increased wall thickness (slightly stiffer and more durable) Inner wall from 1.5 mm to 2 mm Outer wall from 2 mm to ...",
                "fallback": "PrusaPrinters: Prusa Protective Face Shield - RC2 : PrusaPrinters",
                "image_url": "https:\/\/media.prusaprinters.org\/thumbs\/cover\/1200x630\/media\/prints\/25857\/images\/261613_7194822b-d479-4c81-b71a-1308a86ca866\/stit_bij.jpg",
                "image_width": 476,
                "image_height": 250,
                "from_url": "https:\/\/www.prusaprinters.org\/prints\/25857-prusa-protective-face-shield-rc2",
                "image_bytes": 33121,
                "service_icon": "https:\/\/www.prusaprinters.org\/assets\/favicons\/apple-touch-icon.png",
                "id": 1,
                "original_url": "https:\/\/www.prusaprinters.org\/prints\/25857-prusa-protective-face-shield-rc2"
            }
        ],
        "blocks": [
            {
                "type": "rich_text",
                "block_id": "Guq",
                "elements": [
                    {
                        "type": "rich_text_section",
                        "elements": [
                            {
                                "type": "text",
                                "text": "Good morning 3D-printers: I’m acting as a liason with a contract at Northwestern hospital and we need 25 of these face shields by tomorrow. I’ve only got one printer working on it so far and we need more output, could anyone help? Thank you! "
                            },
                            {
                                "type": "link",
                                "url": "https:\/\/www.prusaprinters.org\/prints\/25857-prusa-protective-face-shield-rc2"
                            }
                        ]
                    }
                ]
            }
        ],
        "thread_ts": "1585056454.002200",
        "reply_count": 2,
        "reply_users_count": 2,
        "latest_reply": "1585057208.002700",
        "reply_users": [
            "UV6870881",
            "UV8FL0JCA"
        ],
        "replies": [
            {
                "user": "UV6870881",
                "ts": "1585056736.002400"
            },
            {
                "user": "UV8FL0JCA",
                "ts": "1585057208.002700"
            }
        ],
        "subscribed": false,
        "reactions": [
            {
                "name": "+1",
                "users": [
                    "UV6870881"
                ],
                "count": 1
            }
        ]
    },
    {
        "client_msg_id": "b1d74f86-d3e3-49b3-93f8-3e0614c3c9fb",
        "type": "message",
        "text": "Why not go to a home hardware or home depot cut out a plexiglass and hack headbands and put them together, if you tell them its for an hospital they would probably do it for you? I am not sure if any regulatory criteria is involved here, but thats what i would do if i had 24 hours to make them and one printer...my 2 cents",
        "user": "UV6870881",
        "ts": "1585056736.002400",
        "team": "TUU48M0T1",
        "user_team": "TUU48M0T1",
        "source_team": "TUU48M0T1",
        "user_profile": {
            "avatar_hash": "gbbbbcc3accd",
            "image_72": "https:\/\/secure.gravatar.com\/avatar\/bbbbcc3accdddb02dfb1c03a4a65b994.jpg?s=72&d=https%3A%2F%2Fa.slack-edge.com%2Fdf10d%2Fimg%2Favatars%2Fava_0011-72.png",
            "first_name": "Quant",
            "real_name": "Quant",
            "display_name": "",
            "team": "TUU48M0T1",
            "name": "admin",
            "is_restricted": false,
            "is_ultra_restricted": false
        },
        "blocks": [
            {
                "type": "rich_text",
                "block_id": "obU",
                "elements": [
                    {
                        "type": "rich_text_section",
                        "elements": [
                            {
                                "type": "text",
                                "text": "Why not go to a home hardware or home depot cut out a plexiglass and hack headbands and put them together, if you tell them its for an hospital they would probably do it for you? I am not sure if any regulatory criteria is involved here, but thats what i would do if i had 24 hours to make them and one printer...my 2 cents"
                            }
                        ]
                    }
                ]
            }
        ],
        "thread_ts": "1585056454.002200",
        "parent_user_id": "UV8FL0JCA"
    },
    {
        "client_msg_id": "e0700c50-133c-45db-94a6-83a4fb1315c8",
        "type": "message",
        "text": "Hey <@UV6870881>, not bad thinking… But we definitely have enough 3D printers in the network to cover it, and people have been asking to help, so we just need more sign ups from the community we have here.",
        "user": "UV8FL0JCA",
        "ts": "1585057208.002700",
        "team": "TUU48M0T1",
        "user_team": "TUU48M0T1",
        "source_team": "TUU48M0T1",
        "user_profile": {
            "avatar_hash": "920c820f5900",
            "image_72": "https:\/\/avatars.slack-edge.com\/2020-03-17\/1009529536646_920c820f5900215fb339_72.jpg",
            "first_name": "Eric",
            "real_name": "Eric Chaves",
            "display_name": "Eric Chaves",
            "team": "TUU48M0T1",
            "name": "eric.chaves.llc",
            "is_restricted": false,
            "is_ultra_restricted": false
        },
        "edited": {
            "user": "UV8FL0JCA",
            "ts": "1585057254.000000"
        },
        "blocks": [
            {
                "type": "rich_text",
                "block_id": "Frv2",
                "elements": [
                    {
                        "type": "rich_text_section",
                        "elements": [
                            {
                                "type": "text",
                                "text": "Hey "
                            },
                            {
                                "type": "user",
                                "user_id": "UV6870881"
                            },
                            {
                                "type": "text",
                                "text": ", not bad thinking… But we definitely have enough 3D printers in the network to cover it, and people have been asking to help, so we just need more sign ups from the community we have here."
                            }
                        ]
                    }
                ]
            }
        ],
        "thread_ts": "1585056454.002200",
        "parent_user_id": "UV8FL0JCA"
    },
    {
        "client_msg_id": "e4f99aaa-6d6a-4671-85cc-2ff08992bf5c",
        "type": "message",
        "text": "<@UV8FL0JCA> do you know Azul 3D and\/or its CTO, David Walker?",
        "user": "UUNGFHSV8",
        "ts": "1585065375.003500",
        "team": "TUU48M0T1",
        "user_team": "TUU48M0T1",
        "source_team": "TUU48M0T1",
        "user_profile": {
            "avatar_hash": "1c55ee32397a",
            "image_72": "https:\/\/avatars.slack-edge.com\/2020-03-07\/987349161984_1c55ee32397a85a87ec4_72.png",
            "first_name": "Isaac",
            "real_name": "Isaac Larkin",
            "display_name": "Isaac Larkin",
            "team": "TUU48M0T1",
            "name": "eyesmo",
            "is_restricted": false,
            "is_ultra_restricted": false
        },
        "blocks": [
            {
                "type": "rich_text",
                "block_id": "1vvU2",
                "elements": [
                    {
                        "type": "rich_text_section",
                        "elements": [
                            {
                                "type": "user",
                                "user_id": "UV8FL0JCA"
                            },
                            {
                                "type": "text",
                                "text": " do you know Azul 3D and\/or its CTO, David Walker?"
                            }
                        ]
                    }
                ]
            }
        ],
        "thread_ts": "1585065375.003500",
        "reply_count": 2,
        "reply_users_count": 2,
        "latest_reply": "1585070272.003800",
        "reply_users": [
            "UV8FL0JCA",
            "UUNGFHSV8"
        ],
        "replies": [
            {
                "user": "UV8FL0JCA",
                "ts": "1585070193.003600"
            },
            {
                "user": "UUNGFHSV8",
                "ts": "1585070272.003800"
            }
        ],
        "subscribed": false
    },
    {
        "client_msg_id": "51a844eb-5081-464a-a64e-3ac17e3b396c",
        "type": "message",
        "text": "hey <@UUNGFHSV8> no, i don’t. Should i connect? You don’t have a connection do you?",
        "user": "UV8FL0JCA",
        "ts": "1585070193.003600",
        "team": "TUU48M0T1",
        "user_team": "TUU48M0T1",
        "source_team": "TUU48M0T1",
        "user_profile": {
            "avatar_hash": "920c820f5900",
            "image_72": "https:\/\/avatars.slack-edge.com\/2020-03-17\/1009529536646_920c820f5900215fb339_72.jpg",
            "first_name": "Eric",
            "real_name": "Eric Chaves",
            "display_name": "Eric Chaves",
            "team": "TUU48M0T1",
            "name": "eric.chaves.llc",
            "is_restricted": false,
            "is_ultra_restricted": false
        },
        "blocks": [
            {
                "type": "rich_text",
                "block_id": "RyFf",
                "elements": [
                    {
                        "type": "rich_text_section",
                        "elements": [
                            {
                                "type": "text",
                                "text": "hey "
                            },
                            {
                                "type": "user",
                                "user_id": "UUNGFHSV8"
                            },
                            {
                                "type": "text",
                                "text": " no, i don’t. Should i connect? You don’t have a connection do you?"
                            }
                        ]
                    }
                ]
            }
        ],
        "thread_ts": "1585065375.003500",
        "parent_user_id": "UUNGFHSV8"
    },
    {
        "client_msg_id": "3898c394-de5d-4411-99b7-b724fe97dd13",
        "type": "message",
        "text": "I do, David was a postdoc in the lab I’m getting my PhD in. Waiting to hear back from a current postdoc in the lab who knows him better and is aware of his\/Azul’s COVID19 efforts",
        "user": "UUNGFHSV8",
        "ts": "1585070272.003800",
        "team": "TUU48M0T1",
        "user_team": "TUU48M0T1",
        "source_team": "TUU48M0T1",
        "user_profile": {
            "avatar_hash": "1c55ee32397a",
            "image_72": "https:\/\/avatars.slack-edge.com\/2020-03-07\/987349161984_1c55ee32397a85a87ec4_72.png",
            "first_name": "Isaac",
            "real_name": "Isaac Larkin",
            "display_name": "Isaac Larkin",
            "team": "TUU48M0T1",
            "name": "eyesmo",
            "is_restricted": false,
            "is_ultra_restricted": false
        },
        "blocks": [
            {
                "type": "rich_text",
                "block_id": "sB\/",
                "elements": [
                    {
                        "type": "rich_text_section",
                        "elements": [
                            {
                                "type": "text",
                                "text": "I do, David was a postdoc in the lab I’m getting my PhD in. Waiting to hear back from a current postdoc in the lab who knows him better and is aware of his\/Azul’s COVID19 efforts"
                            }
                        ]
                    }
                ]
            }
        ],
        "thread_ts": "1585065375.003500",
        "parent_user_id": "UUNGFHSV8"
    },
    {
        "type": "message",
        "subtype": "channel_join",
        "ts": "1585079042.004100",
        "user": "U010K92FMJT",
        "text": "<@U010K92FMJT> has joined the channel"
    }
]