[
    {
        "type": "message",
        "text": "",
        "user": "UV120B2P7",
        "ts": "1584566366.010400",
        "team": "TUU48M0T1",
        "user_team": "TUU48M0T1",
        "source_team": "TUU48M0T1",
        "user_profile": {
            "avatar_hash": "34ebddbce513",
            "image_72": "https:\/\/avatars.slack-edge.com\/2020-03-13\/988769523137_34ebddbce5135c5663e2_72.jpg",
            "first_name": "Yoshi",
            "real_name": "Yoshi Goto - SoundBio Lab, Seattle",
            "display_name": "Yoshi Goto - SoundBio Lab, Seattle",
            "team": "TUU48M0T1",
            "name": "yoshi",
            "is_restricted": false,
            "is_ultra_restricted": false
        },
        "attachments": [
            {
                "fallback": "[March 18th, 2020 6:48 AM] luca.haenel: The Guardian speaking about JOGL and the covid19 initiative :tada:\n<https:\/\/www.theguardian.com\/world\/2020\/mar\/18\/biohacking-online-forums-coronavirus-vaccines-testing>",
                "ts": "1584539282.316800",
                "author_id": "UUWPKNE2E",
                "author_subname": "Luca Haenel",
                "channel_id": "CURQC583E",
                "channel_name": "random",
                "is_msg_unfurl": true,
                "text": "The Guardian speaking about JOGL and the covid19 initiative :tada:\n<https:\/\/www.theguardian.com\/world\/2020\/mar\/18\/biohacking-online-forums-coronavirus-vaccines-testing>",
                "author_name": "Luca Haenel",
                "author_link": "https:\/\/open-covid19.slack.com\/team\/UUWPKNE2E",
                "author_icon": "https:\/\/avatars.slack-edge.com\/2020-03-12\/997456647751_f620efd9688ed753ecfc_48.jpg",
                "mrkdwn_in": [
                    "text"
                ],
                "color": "D0D0D0",
                "from_url": "https:\/\/open-covid19.slack.com\/archives\/CURQC583E\/p1584539282316800",
                "is_share": true,
                "footer": "Posted in #random"
            }
        ],
        "blocks": [
            {
                "type": "rich_text",
                "block_id": "lw39",
                "elements": [
                    {
                        "type": "rich_text_section",
                        "elements": []
                    }
                ]
            }
        ],
        "thread_ts": "1584566366.010400",
        "reply_count": 2,
        "reply_users_count": 1,
        "latest_reply": "1584575987.011500",
        "reply_users": [
            "UV0QTJCMT"
        ],
        "replies": [
            {
                "user": "UV0QTJCMT",
                "ts": "1584575982.011100"
            },
            {
                "user": "UV0QTJCMT",
                "ts": "1584575987.011500"
            }
        ],
        "subscribed": false,
        "reactions": [
            {
                "name": "100",
                "users": [
                    "UV0QTJCMT",
                    "UV02WET96",
                    "UV2BVBA4S"
                ],
                "count": 3
            }
        ]
    },
    {
        "client_msg_id": "B8D280B4-E6D1-4A2F-90C1-DE88111471AB",
        "type": "message",
        "text": "yup :) they made a few mistakes and typos but i’m reaching out to see if we can fix them ",
        "user": "UV0QTJCMT",
        "ts": "1584575982.011100",
        "team": "TUU48M0T1",
        "user_team": "TUU48M0T1",
        "source_team": "TUU48M0T1",
        "user_profile": {
            "avatar_hash": "11e3deb6d1a9",
            "image_72": "https:\/\/avatars.slack-edge.com\/2020-03-06\/986844736421_11e3deb6d1a949327ddd_72.png",
            "first_name": "Katherine",
            "real_name": "Katherine Holo",
            "display_name": "Kat Holo",
            "team": "TUU48M0T1",
            "name": "katherineh245",
            "is_restricted": false,
            "is_ultra_restricted": false
        },
        "blocks": [
            {
                "type": "rich_text",
                "block_id": "0yASD",
                "elements": [
                    {
                        "type": "rich_text_section",
                        "elements": [
                            {
                                "type": "text",
                                "text": "yup :) they made a few mistakes and typos but i’m reaching out to see if we can fix them "
                            }
                        ]
                    }
                ]
            }
        ],
        "thread_ts": "1584566366.010400",
        "parent_user_id": "UV120B2P7"
    },
    {
        "client_msg_id": "7CA8F2F4-C3A4-441D-853E-F485EAC84D94",
        "type": "message",
        "text": "but yup very exciting!",
        "user": "UV0QTJCMT",
        "ts": "1584575987.011500",
        "team": "TUU48M0T1",
        "user_team": "TUU48M0T1",
        "source_team": "TUU48M0T1",
        "user_profile": {
            "avatar_hash": "11e3deb6d1a9",
            "image_72": "https:\/\/avatars.slack-edge.com\/2020-03-06\/986844736421_11e3deb6d1a949327ddd_72.png",
            "first_name": "Katherine",
            "real_name": "Katherine Holo",
            "display_name": "Kat Holo",
            "team": "TUU48M0T1",
            "name": "katherineh245",
            "is_restricted": false,
            "is_ultra_restricted": false
        },
        "blocks": [
            {
                "type": "rich_text",
                "block_id": "fjt",
                "elements": [
                    {
                        "type": "rich_text_section",
                        "elements": [
                            {
                                "type": "text",
                                "text": "but yup very exciting!"
                            }
                        ]
                    }
                ]
            }
        ],
        "thread_ts": "1584566366.010400",
        "parent_user_id": "UV120B2P7"
    }
]