[
    {
        "client_msg_id": "4d145258-83a3-4cfb-a06c-160ca3c41846",
        "type": "message",
        "text": "here's the link to the preprint. <https:\/\/chemrxiv.org\/articles\/A_Single_and_Two-Stage_Closed-Tube_Molecular_Test_for_the_2019_Novel_Coronavirus_COVID-19_at_Home_Clinic_and_Points_of_Entry\/11860137\/1>. To note: timing of positives vs 'negs' with the colorimetric assay can be more tricky than a quenched method, perhaps - as <@UV7LUJG1Y> and <@UV3URUKK5> have pointed out too. We hope to get a primer set to test quenching reactions ordered very soon...",
        "user": "UV1A22N3W",
        "ts": "1585120409.004100",
        "team": "TUU48M0T1",
        "user_team": "TUU48M0T1",
        "source_team": "TUU48M0T1",
        "user_profile": {
            "avatar_hash": "71f827776ad6",
            "image_72": "https:\/\/avatars.slack-edge.com\/2020-03-09\/988125642964_71f827776ad610af05a2_72.jpg",
            "first_name": "",
            "real_name": "RachelA",
            "display_name": "RachelA",
            "team": "TUU48M0T1",
            "name": "raronoff",
            "is_restricted": false,
            "is_ultra_restricted": false
        },
        "attachments": [
            {
                "service_name": "figshare",
                "title": "A Single and Two-Stage, Closed-Tube, Molecular Test for the 2019 Novel Coronavirus (COVID-19) at Home, Clinic, and Points of Entry",
                "title_link": "https:\/\/chemrxiv.org\/articles\/A_Single_and_Two-Stage_Closed-Tube_Molecular_Test_for_the_2019_Novel_Coronavirus_COVID-19_at_Home_Clinic_and_Points_of_Entry\/11860137\/1",
                "text": "The 2019 novel coronavirus (COVID-19) is a newly emerged strain that has never been found in humans before. At present, the laboratory-based reverse transcription-polymerase chain reaction (RT-PCR) is the main method to confirm COVID-19 infection. The intensification of the COVID-19 epidemic overwhelms limited clinical resources in particular, but not only, in developing countries, resulting in many patients not being tested for the infection and in large queues of potentially infected individuals waiting to be tested while providing a breeding ground for the disease. We describe here a rapid, highly sensitive, point-of-care, molecular test amenable for use at home, in the clinic, and at points of entry by minimally trained individuals and with minimal instrumentation. Our test is based on loop mediated isothermal amplification (COVID-19 LAMP) and for higher sensitivity on nested nucleic acid, two stage isothermal amplification (COVID-19 Penn-RAMP). Both tests can be carried out in closed tubes with either fluorescence or colorimetric (e.g., leuco crystal violet LCV) detection. COVID-19 LAMP performs on par with COVID-19 RT-PCR. COVID-19 RAMP has 10 fold better sensitivity than COVID-19 LAMP and COVID-19 RT-PCR when testing purified targets and 100 times better sensitivity than COVID-19 LAMP and COVID-19 RT-PCR when testing rapidly prepared sample mimics. Due to fortunate scarcity of COVID-19 infections in the USA, we were not able to test our assays and methods with patient samples. We hope that such tests will be carried out by colleagues in impacted countries. Our Closed-Tube Penn-RAMP has the potential to significantly reduce false negatives while being amenable to use with minimal instrumentation and training.",
                "fallback": "figshare: A Single and Two-Stage, Closed-Tube, Molecular Test for the 2019 Novel Coronavirus (COVID-19) at Home, Clinic, and Points of Entry",
                "from_url": "https:\/\/chemrxiv.org\/articles\/A_Single_and_Two-Stage_Closed-Tube_Molecular_Test_for_the_2019_Novel_Coronavirus_COVID-19_at_Home_Clinic_and_Points_of_Entry\/11860137\/1",
                "service_icon": "http:\/\/website-p-eu.figstatic.com\/assets\/086fda4fe9430a35935ed4a3d2ad37fdd446f4af\/public\/global\/favicon\/apple-touch-icon-57x57.png",
                "id": 1,
                "original_url": "https:\/\/chemrxiv.org\/articles\/A_Single_and_Two-Stage_Closed-Tube_Molecular_Test_for_the_2019_Novel_Coronavirus_COVID-19_at_Home_Clinic_and_Points_of_Entry\/11860137\/1"
            }
        ],
        "blocks": [
            {
                "type": "rich_text",
                "block_id": "JJgAv",
                "elements": [
                    {
                        "type": "rich_text_section",
                        "elements": [
                            {
                                "type": "text",
                                "text": "here's the link to the preprint. "
                            },
                            {
                                "type": "link",
                                "url": "https:\/\/chemrxiv.org\/articles\/A_Single_and_Two-Stage_Closed-Tube_Molecular_Test_for_the_2019_Novel_Coronavirus_COVID-19_at_Home_Clinic_and_Points_of_Entry\/11860137\/1"
                            },
                            {
                                "type": "text",
                                "text": ". To note: timing of positives vs 'negs' with the colorimetric assay can be more tricky than a quenched method, perhaps - as "
                            },
                            {
                                "type": "user",
                                "user_id": "UV7LUJG1Y"
                            },
                            {
                                "type": "text",
                                "text": " and "
                            },
                            {
                                "type": "user",
                                "user_id": "UV3URUKK5"
                            },
                            {
                                "type": "text",
                                "text": " have pointed out too. We hope to get a primer set to test quenching reactions ordered very soon..."
                            }
                        ]
                    }
                ]
            }
        ]
    },
    {
        "client_msg_id": "4DF80AA7-F553-4FD4-B9DE-FF43476B24AE",
        "type": "message",
        "text": "I want to highlight the clever strategy from ^that preprint to avoid needing to open the tube, despite running a two-step RPA-LAMP reaction: set up the the RPA reaction in the tube’s cap and the LAMP reaction in the bottom of the tube. Add sample to the cap, carefully close the tube, and incubate at 38ºC for 15-20 min. Then centrifuge or repeatedly flip\/shake the tube, and run the LAMP reaction at 63ºC for 40 minutes",
        "user": "UUNGFHSV8",
        "ts": "1585148904.005900",
        "team": "TUU48M0T1",
        "user_team": "TUU48M0T1",
        "source_team": "TUU48M0T1",
        "user_profile": {
            "avatar_hash": "1c55ee32397a",
            "image_72": "https:\/\/avatars.slack-edge.com\/2020-03-07\/987349161984_1c55ee32397a85a87ec4_72.png",
            "first_name": "Isaac",
            "real_name": "Isaac Larkin",
            "display_name": "Isaac Larkin",
            "team": "TUU48M0T1",
            "name": "eyesmo",
            "is_restricted": false,
            "is_ultra_restricted": false
        },
        "blocks": [
            {
                "type": "rich_text",
                "block_id": "wuvI",
                "elements": [
                    {
                        "type": "rich_text_section",
                        "elements": [
                            {
                                "type": "text",
                                "text": "I want to highlight the clever strategy from ^that preprint to avoid needing to open the tube, despite running a two-step RPA-LAMP reaction: set up the the RPA reaction in the tube’s cap and the LAMP reaction in the bottom of the tube. Add sample to the cap, carefully close the tube, and incubate at 38ºC for 15-20 min. Then centrifuge or repeatedly flip\/shake the tube, and run the LAMP reaction at 63ºC for 40 minutes"
                            }
                        ]
                    }
                ]
            }
        ],
        "thread_ts": "1585148904.005900",
        "reply_count": 5,
        "reply_users_count": 4,
        "latest_reply": "1585244983.020500",
        "reply_users": [
            "UV1A22N3W",
            "U010D014546",
            "UV5CCJ9RC",
            "UUNGFHSV8"
        ],
        "replies": [
            {
                "user": "UV1A22N3W",
                "ts": "1585151309.006100"
            },
            {
                "user": "U010D014546",
                "ts": "1585152850.006300"
            },
            {
                "user": "UV5CCJ9RC",
                "ts": "1585221289.018900"
            },
            {
                "user": "UUNGFHSV8",
                "ts": "1585228979.020300"
            },
            {
                "user": "U010D014546",
                "ts": "1585244983.020500"
            }
        ],
        "subscribed": false,
        "reactions": [
            {
                "name": "+1",
                "users": [
                    "UV1A22N3W",
                    "UV3URUKK5"
                ],
                "count": 2
            }
        ]
    },
    {
        "client_msg_id": "6b9249b7-ae4f-4fcd-a6af-f14eb3c0a44a",
        "type": "message",
        "text": "still, it's after the isothermal amp is done, that there is extra risk from opening the tubes. (Again, the risk is about future false positives, from amplicon contamination, which is not trivial, unfortunately)",
        "user": "UV1A22N3W",
        "ts": "1585151309.006100",
        "team": "TUU48M0T1",
        "user_team": "TUU48M0T1",
        "source_team": "TUU48M0T1",
        "user_profile": {
            "avatar_hash": "71f827776ad6",
            "image_72": "https:\/\/avatars.slack-edge.com\/2020-03-09\/988125642964_71f827776ad610af05a2_72.jpg",
            "first_name": "",
            "real_name": "RachelA",
            "display_name": "RachelA",
            "team": "TUU48M0T1",
            "name": "raronoff",
            "is_restricted": false,
            "is_ultra_restricted": false
        },
        "blocks": [
            {
                "type": "rich_text",
                "block_id": "8m2",
                "elements": [
                    {
                        "type": "rich_text_section",
                        "elements": [
                            {
                                "type": "text",
                                "text": "still, it's after the isothermal amp is done, that there is extra risk from opening the tubes. (Again, the risk is about future false positives, from amplicon contamination, which is not trivial, unfortunately)"
                            }
                        ]
                    }
                ]
            }
        ],
        "thread_ts": "1585148904.005900",
        "parent_user_id": "UUNGFHSV8"
    },
    {
        "client_msg_id": "7275d03d-c93d-4eaf-b7e5-0bb574a1041e",
        "type": "message",
        "text": "Its unclear to me why the RAMP (RPA+LAMP) would work better than just using RPA with LAMP style primers. If the RPA is used to amplify starting DNA\/RNA template at lower initial concentrations why not just use RPA with LAMP style primers? What benefit does the LAMP based Bst strand displacement play here if RPA can do the same thing in the reaction? Interesting paper though, its been out for over a month. I wonder if they have made any more progress",
        "user": "U010D014546",
        "ts": "1585152850.006300",
        "team": "TUU48M0T1",
        "user_team": "TUU48M0T1",
        "source_team": "TUU48M0T1",
        "user_profile": {
            "avatar_hash": "gf60ced8560b",
            "image_72": "https:\/\/secure.gravatar.com\/avatar\/f60ced8560b19f702db2ea35c88e3b39.jpg?s=72&d=https%3A%2F%2Fa.slack-edge.com%2Fdf10d%2Fimg%2Favatars%2Fava_0013-72.png",
            "first_name": "Alex",
            "real_name": "Alex Brown",
            "display_name": "Alex Brown",
            "team": "TUU48M0T1",
            "name": "abrown",
            "is_restricted": false,
            "is_ultra_restricted": false
        },
        "blocks": [
            {
                "type": "rich_text",
                "block_id": "VAt",
                "elements": [
                    {
                        "type": "rich_text_section",
                        "elements": [
                            {
                                "type": "text",
                                "text": "Its unclear to me why the RAMP (RPA+LAMP) would work better than just using RPA with LAMP style primers. If the RPA is used to amplify starting DNA\/RNA template at lower initial concentrations why not just use RPA with LAMP style primers? What benefit does the LAMP based Bst strand displacement play here if RPA can do the same thing in the reaction? Interesting paper though, its been out for over a month. I wonder if they have made any more progress"
                            }
                        ]
                    }
                ]
            }
        ],
        "thread_ts": "1585148904.005900",
        "parent_user_id": "UUNGFHSV8"
    },
    {
        "type": "message",
        "subtype": "channel_join",
        "ts": "1585163026.006700",
        "user": "U010G9320HF",
        "text": "<@U010G9320HF> has joined the channel"
    },
    {
        "type": "message",
        "subtype": "channel_join",
        "ts": "1585167606.006900",
        "user": "UUPQGNNTV",
        "text": "<@UUPQGNNTV> has joined the channel"
    },
    {
        "client_msg_id": "d0652877-ba8e-45cc-881e-2be93bb64b79",
        "type": "message",
        "text": "<@U010D014546> I would be interested in testing a reverse-engineered LAMP assay for sure. I'm testing the NEB one using the N set A primers now, against the IDT plasmid containing the N gene sequence. It would be good to see how well the homemade mix worked compared to the commercial one.",
        "user": "UUPQGNNTV",
        "ts": "1585167724.008800",
        "team": "TUU48M0T1",
        "user_team": "TUU48M0T1",
        "source_team": "TUU48M0T1",
        "user_profile": {
            "avatar_hash": "c28127caf7eb",
            "image_72": "https:\/\/avatars.slack-edge.com\/2020-03-07\/989562470694_c28127caf7ebfe67df97_72.jpg",
            "first_name": "",
            "real_name": "Ellen Jorgensen",
            "display_name": "",
            "team": "TUU48M0T1",
            "name": "ejorgensen",
            "is_restricted": false,
            "is_ultra_restricted": false
        },
        "blocks": [
            {
                "type": "rich_text",
                "block_id": "KX5qT",
                "elements": [
                    {
                        "type": "rich_text_section",
                        "elements": [
                            {
                                "type": "user",
                                "user_id": "U010D014546"
                            },
                            {
                                "type": "text",
                                "text": " I would be interested in testing a reverse-engineered LAMP assay for sure. I'm testing the NEB one using the N set A primers now, against the IDT plasmid containing the N gene sequence. It would be good to see how well the homemade mix worked compared to the commercial one."
                            }
                        ]
                    }
                ]
            }
        ],
        "reactions": [
            {
                "name": "+1",
                "users": [
                    "UV1A22N3W"
                ],
                "count": 1
            }
        ]
    },
    {
        "client_msg_id": "BADE038C-417B-41CB-AF10-5DB33178E41B",
        "type": "message",
        "text": "Is anyone seeking to validate the LabGenomics RT-PCR kits from South Korea for FDA approval",
        "user": "U010FDH9JMD",
        "ts": "1585188540.010200",
        "team": "TUU48M0T1",
        "user_team": "TUU48M0T1",
        "source_team": "TUU48M0T1",
        "user_profile": {
            "avatar_hash": "684050f6bc69",
            "image_72": "https:\/\/avatars.slack-edge.com\/2020-03-19\/1003623726609_684050f6bc69e20acfdb_72.jpg",
            "first_name": "",
            "real_name": "Rosie Alegado",
            "display_name": "Rosie Alegado",
            "team": "TUU48M0T1",
            "name": "rosie.alegado",
            "is_restricted": false,
            "is_ultra_restricted": false
        },
        "blocks": [
            {
                "type": "rich_text",
                "block_id": "W=\/",
                "elements": [
                    {
                        "type": "rich_text_section",
                        "elements": [
                            {
                                "type": "text",
                                "text": "Is anyone seeking to validate the LabGenomics RT-PCR kits from South Korea for FDA approval"
                            }
                        ]
                    }
                ]
            }
        ]
    }
]