[
    {
        "client_msg_id": "c8a3e095-06dc-4ad7-9ae9-81a2d86fd032",
        "type": "message",
        "text": "<@UUPQGNNTV> have you already ordered primers?  any chance you could also test the N primer set from the mammoth protocol too?  we thought (Fran\/Guy and I) that these might be more promising (from potential secondary structures) for developing a 'covid19detective' quenched primer set. To compare the two sets in addition to the homemade mix would be awesome. (Choosing the best primer set as human RNA control is also still up in the air, but we are talking about finally making an official project in the front end of JOGL - if more people want to join in, maybe we can call it the 'DIT Covid19 Detective' project?  Just in case someone wants more background, Guy's GMO detective strategy is to have 4 tubes of the control gene and 4 tubes of the main test gene as lyophilised mix (very stable), and the readout is fluorescent and stable.  See: <https:\/\/gmodetective.com\/>. )",
        "user": "UV1A22N3W",
        "ts": "1585206455.018600",
        "team": "TUU48M0T1",
        "user_team": "TUU48M0T1",
        "source_team": "TUU48M0T1",
        "user_profile": {
            "avatar_hash": "71f827776ad6",
            "image_72": "https:\/\/avatars.slack-edge.com\/2020-03-09\/988125642964_71f827776ad610af05a2_72.jpg",
            "first_name": "",
            "real_name": "RachelA",
            "display_name": "RachelA",
            "team": "TUU48M0T1",
            "name": "raronoff",
            "is_restricted": false,
            "is_ultra_restricted": false
        },
        "blocks": [
            {
                "type": "rich_text",
                "block_id": "gGm",
                "elements": [
                    {
                        "type": "rich_text_section",
                        "elements": [
                            {
                                "type": "user",
                                "user_id": "UUPQGNNTV"
                            },
                            {
                                "type": "text",
                                "text": " have you already ordered primers?  any chance you could also test the N primer set from the mammoth protocol too?  we thought (Fran\/Guy and I) that these might be more promising (from potential secondary structures) for developing a 'covid19detective' quenched primer set. To compare the two sets in addition to the homemade mix would be awesome. (Choosing the best primer set as human RNA control is also still up in the air, but we are talking about finally making an official project in the front end of JOGL - if more people want to join in, maybe we can call it the 'DIT Covid19 Detective' project?  Just in case someone wants more background, Guy's GMO detective strategy is to have 4 tubes of the control gene and 4 tubes of the main test gene as lyophilised mix (very stable), and the readout is fluorescent and stable.  See: "
                            },
                            {
                                "type": "link",
                                "url": "https:\/\/gmodetective.com\/"
                            },
                            {
                                "type": "text",
                                "text": ". )"
                            }
                        ]
                    }
                ]
            }
        ]
    },
    {
        "type": "message",
        "subtype": "channel_join",
        "ts": "1585208182.018800",
        "user": "UV0CX49QB",
        "text": "<@UV0CX49QB> has joined the channel"
    },
    {
        "client_msg_id": "b1addde8-56ea-49af-a885-194f62cdfc4d",
        "type": "message",
        "text": "<@U010D014546> also curious about this. Maybe it's to increase sensitivity?",
        "user": "UV5CCJ9RC",
        "ts": "1585221289.018900",
        "team": "TUU48M0T1",
        "user_team": "TUU48M0T1",
        "source_team": "TUU48M0T1",
        "user_profile": {
            "avatar_hash": "2c79fe05f7e7",
            "image_72": "https:\/\/avatars.slack-edge.com\/2020-03-10\/992653932501_2c79fe05f7e75be19699_72.png",
            "first_name": "Chris",
            "real_name": "Chris Monaco",
            "display_name": "",
            "team": "TUU48M0T1",
            "name": "cmonaco.hr",
            "is_restricted": false,
            "is_ultra_restricted": false
        },
        "edited": {
            "user": "UV5CCJ9RC",
            "ts": "1585221513.000000"
        },
        "blocks": [
            {
                "type": "rich_text",
                "block_id": "PcB6T",
                "elements": [
                    {
                        "type": "rich_text_section",
                        "elements": [
                            {
                                "type": "user",
                                "user_id": "U010D014546"
                            },
                            {
                                "type": "text",
                                "text": " also curious about this. Maybe it's to increase sensitivity?"
                            }
                        ]
                    }
                ]
            }
        ],
        "thread_ts": "1585148904.005900",
        "parent_user_id": "UUNGFHSV8"
    },
    {
        "client_msg_id": "1DC46064-2ADB-48E5-8DD6-FF5BBC82D56D",
        "type": "message",
        "text": "Yes, they benchmarked RPA-LAMP against plain LAMP and got higher sensitivity",
        "user": "UUNGFHSV8",
        "ts": "1585228979.020300",
        "team": "TUU48M0T1",
        "user_team": "TUU48M0T1",
        "source_team": "TUU48M0T1",
        "user_profile": {
            "avatar_hash": "1c55ee32397a",
            "image_72": "https:\/\/avatars.slack-edge.com\/2020-03-07\/987349161984_1c55ee32397a85a87ec4_72.png",
            "first_name": "Isaac",
            "real_name": "Isaac Larkin",
            "display_name": "Isaac Larkin",
            "team": "TUU48M0T1",
            "name": "eyesmo",
            "is_restricted": false,
            "is_ultra_restricted": false
        },
        "blocks": [
            {
                "type": "rich_text",
                "block_id": "6nfW+",
                "elements": [
                    {
                        "type": "rich_text_section",
                        "elements": [
                            {
                                "type": "text",
                                "text": "Yes, they benchmarked RPA-LAMP against plain LAMP and got higher sensitivity"
                            }
                        ]
                    }
                ]
            }
        ],
        "thread_ts": "1585148904.005900",
        "parent_user_id": "UUNGFHSV8"
    },
    {
        "client_msg_id": "16bcc776-28f5-415f-b316-bf9872526782",
        "type": "message",
        "text": "Right but they didn't benchmark RPA Vs. RRA-LAMP Vs. LAMP. So its higher sensitivity, but does that mean you can just design LAMP primers and use RPA @37C to complete the reaction (in absence of LAMP reagent mix)? It kinda seems like it.",
        "user": "U010D014546",
        "ts": "1585244983.020500",
        "team": "TUU48M0T1",
        "user_team": "TUU48M0T1",
        "source_team": "TUU48M0T1",
        "user_profile": {
            "avatar_hash": "gf60ced8560b",
            "image_72": "https:\/\/secure.gravatar.com\/avatar\/f60ced8560b19f702db2ea35c88e3b39.jpg?s=72&d=https%3A%2F%2Fa.slack-edge.com%2Fdf10d%2Fimg%2Favatars%2Fava_0013-72.png",
            "first_name": "Alex",
            "real_name": "Alex Brown",
            "display_name": "Alex Brown",
            "team": "TUU48M0T1",
            "name": "abrown",
            "is_restricted": false,
            "is_ultra_restricted": false
        },
        "blocks": [
            {
                "type": "rich_text",
                "block_id": "oEpy",
                "elements": [
                    {
                        "type": "rich_text_section",
                        "elements": [
                            {
                                "type": "text",
                                "text": "Right but they didn't benchmark RPA Vs. RRA-LAMP Vs. LAMP. So its higher sensitivity, but does that mean you can just design LAMP primers and use RPA @37C to complete the reaction (in absence of LAMP reagent mix)? It kinda seems like it."
                            }
                        ]
                    }
                ]
            }
        ],
        "thread_ts": "1585148904.005900",
        "parent_user_id": "UUNGFHSV8",
        "reactions": [
            {
                "name": "thinking_face",
                "users": [
                    "UUNGFHSV8"
                ],
                "count": 1
            }
        ]
    },
    {
        "type": "message",
        "subtype": "channel_join",
        "ts": "1585245343.020800",
        "user": "U0104L8M4JW",
        "text": "<@U0104L8M4JW> has joined the channel"
    },
    {
        "client_msg_id": "e3f51bb0-5017-4854-b69a-74c7dbe74ad3",
        "type": "message",
        "text": "Does anyone know  what RT and Taq enzymes they use \"TaqPath 1-Step RT-qPCR Master Mix, CG\" - the more details the better. I know it's M-MLV and \"Fast DNA Polymerase\"",
        "user": "U0104L8M4JW",
        "ts": "1585245394.021000",
        "team": "TUU48M0T1",
        "user_team": "TUU48M0T1",
        "source_team": "TUU48M0T1",
        "user_profile": {
            "avatar_hash": "gef705cd0d30",
            "image_72": "https:\/\/secure.gravatar.com\/avatar\/ef705cd0d302406c1fdfd3d1fdf462d1.jpg?s=72&d=https%3A%2F%2Fa.slack-edge.com%2Fdf10d%2Fimg%2Favatars%2Fava_0010-72.png",
            "first_name": "yhaguy",
            "real_name": "yhaguy",
            "display_name": "yhaguy",
            "team": "TUU48M0T1",
            "name": "yunghan.au",
            "is_restricted": false,
            "is_ultra_restricted": false
        },
        "blocks": [
            {
                "type": "rich_text",
                "block_id": "i7u3\/",
                "elements": [
                    {
                        "type": "rich_text_section",
                        "elements": [
                            {
                                "type": "text",
                                "text": "Does anyone know  what RT and Taq enzymes they use \"TaqPath 1-Step RT-qPCR Master Mix, CG\" - the more details the better. I know it's M-MLV and \"Fast DNA Polymerase\""
                            }
                        ]
                    }
                ]
            }
        ]
    },
    {
        "type": "message",
        "subtype": "channel_join",
        "ts": "1585249955.021300",
        "user": "UV1V637PU",
        "text": "<@UV1V637PU> has joined the channel"
    },
    {
        "type": "message",
        "subtype": "channel_join",
        "ts": "1585254841.021500",
        "user": "U010QHBTBPY",
        "text": "<@U010QHBTBPY> has joined the channel"
    }
]