<?xml version="1.0" encoding="UTF-8"?>
<graphml xmlns="http://graphml.graphdrawing.org/xmlns"
         xmlns:xsi="http://www.w3.org/2001/XMLSchema-instance"
         xsi:schemaLocation="http://graphml.graphdrawing.org/xmlns
         http://graphml.graphdrawing.org/xmlns/1.0/graphml.xsd">
<!-- Created by igraph -->
  <key id="v_name" for="node" attr.name="name" attr.type="string"/>
  <key id="e_weight" for="edge" attr.name="weight" attr.type="double"/>
  <graph id="G" edgedefault="undirected">
    <node id="n0">
      <data key="v_name">Thomas Landrain</data>
    </node>
    <node id="n1">
      <data key="v_name">Marc Santolini</data>
    </node>
    <node id="n2">
      <data key="v_name">Leo Blondel</data>
    </node>
    <node id="n3">
      <data key="v_name">Lola Casamitjana</data>
    </node>
    <node id="n4">
      <data key="v_name">Marine Vouard</data>
    </node>
    <node id="n5">
      <data key="v_name">Camille Masselot</data>
    </node>
    <node id="n6">
      <data key="v_name">Pleen Le Jeune</data>
    </node>
    <node id="n7">
      <data key="v_name">Swann Bouvier Muller</data>
    </node>
    <node id="n8">
      <data key="v_name">Florian Grandjean</data>
    </node>
    <node id="n9">
      <data key="v_name">Fatima Wehbi</data>
    </node>
    <node id="n10">
      <data key="v_name">bruno Tison</data>
    </node>
    <node id="n11">
      <data key="v_name">Vanessa Chaddouk</data>
    </node>
    <node id="n12">
      <data key="v_name">Anna Ritscher</data>
    </node>
    <node id="n13">
      <data key="v_name">Ralf Bliem</data>
    </node>
    <node id="n14">
      <data key="v_name">Lukas Hutter</data>
    </node>
    <node id="n15">
      <data key="v_name">Ricardo Camilo Chavez Martínez</data>
    </node>
    <node id="n16">
      <data key="v_name">Benjamin Denjean</data>
    </node>
    <node id="n17">
      <data key="v_name">Michael Rera</data>
    </node>
    <node id="n18">
      <data key="v_name">Erin RobotGrrl</data>
    </node>
    <node id="n19">
      <data key="v_name">misha paul</data>
    </node>
    <node id="n20">
      <data key="v_name">Pascal Kolbe</data>
    </node>
    <node id="n21">
      <data key="v_name">Océane Rabillon</data>
    </node>
    <node id="n22">
      <data key="v_name">Bertha Uwase</data>
    </node>
    <node id="n23">
      <data key="v_name">Shirley HE</data>
    </node>
    <node id="n24">
      <data key="v_name">Kai Costantini</data>
    </node>
    <node id="n25">
      <data key="v_name">Bob VRIGNAUD</data>
    </node>
    <node id="n26">
      <data key="v_name">Ayça Akbaş</data>
    </node>
    <node id="n27">
      <data key="v_name">Abhay Inamdar</data>
    </node>
    <node id="n28">
      <data key="v_name">Audrey rousseaud</data>
    </node>
    <node id="n29">
      <data key="v_name">Nicolas Paries</data>
    </node>
    <node id="n30">
      <data key="v_name">Emmanuel Poisson-Quinton</data>
    </node>
    <node id="n31">
      <data key="v_name">William Kane Olwit</data>
    </node>
    <node id="n32">
      <data key="v_name">Agathe Machavoine</data>
    </node>
    <node id="n33">
      <data key="v_name">Michael Grebowicz</data>
    </node>
    <node id="n34">
      <data key="v_name">Mike Kresse</data>
    </node>
    <node id="n35">
      <data key="v_name">Matt Ronchetto</data>
    </node>
    <node id="n36">
      <data key="v_name">Laurent Marchesin</data>
    </node>
    <node id="n37">
      <data key="v_name">Sandeep Jaykumar</data>
    </node>
    <node id="n38">
      <data key="v_name">Antony Sar</data>
    </node>
    <node id="n39">
      <data key="v_name">Charles Letaillieur</data>
    </node>
    <node id="n40">
      <data key="v_name">Christopher LB Graham</data>
    </node>
    <node id="n41">
      <data key="v_name">Luca Haenel</data>
    </node>
    <node id="n42">
      <data key="v_name">Mauricio Cordova</data>
    </node>
    <node id="n43">
      <data key="v_name">MOSES SOUTA</data>
    </node>
    <node id="n44">
      <data key="v_name">Romain Di Vozzo</data>
    </node>
    <node id="n45">
      <data key="v_name">Paul Jerchel</data>
    </node>
    <node id="n46">
      <data key="v_name">Annette Dusabe</data>
    </node>
    <node id="n47">
      <data key="v_name">Aral Sürmeli</data>
    </node>
    <node id="n48">
      <data key="v_name">Yagiz Nizipli</data>
    </node>
    <node id="n49">
      <data key="v_name">Liu Bov</data>
    </node>
    <node id="n50">
      <data key="v_name">Aastha V</data>
    </node>
    <node id="n51">
      <data key="v_name">Cyril Mammar</data>
    </node>
    <node id="n52">
      <data key="v_name">Claudia Sarai Reyes Avila</data>
    </node>
    <node id="n53">
      <data key="v_name">Hitesh Kumar</data>
    </node>
    <node id="n54">
      <data key="v_name">Enzo MULLER</data>
    </node>
    <node id="n55">
      <data key="v_name">Alexandre Frydman</data>
    </node>
    <node id="n56">
      <data key="v_name">Antoine Heurtel</data>
    </node>
    <node id="n57">
      <data key="v_name">Toufic Khoriaty</data>
    </node>
    <node id="n58">
      <data key="v_name">Adrien Breger</data>
    </node>
    <node id="n59">
      <data key="v_name">vaibhav sahu</data>
    </node>
    <node id="n60">
      <data key="v_name">Yulia Venichenko</data>
    </node>
    <node id="n61">
      <data key="v_name">Khallil Doudou</data>
    </node>
    <node id="n62">
      <data key="v_name">guillaume Fagot</data>
    </node>
    <node id="n63">
      <data key="v_name">Ruben Cuadra</data>
    </node>
    <node id="n64">
      <data key="v_name">Robert Tolan</data>
    </node>
    <node id="n65">
      <data key="v_name">Bastian Greshake Tzovaras</data>
    </node>
    <node id="n66">
      <data key="v_name">noel ching</data>
    </node>
    <node id="n67">
      <data key="v_name">NIDHIBEN PATEL</data>
    </node>
    <node id="n68">
      <data key="v_name">Shibu Antony</data>
    </node>
    <node id="n69">
      <data key="v_name">Just One Giant Lab</data>
    </node>
    <node id="n70">
      <data key="v_name">Chetan Kumar Velumurugan</data>
    </node>
    <node id="n71">
      <data key="v_name">Antonin Counillon</data>
    </node>
    <node id="n72">
      <data key="v_name">rahel Becker</data>
    </node>
    <node id="n73">
      <data key="v_name">yassine Ait-baha</data>
    </node>
    <node id="n74">
      <data key="v_name">Adrien S</data>
    </node>
    <node id="n75">
      <data key="v_name">Yang-Min KIM</data>
    </node>
    <node id="n76">
      <data key="v_name">tristan alain</data>
    </node>
    <node id="n77">
      <data key="v_name">Mad Ball</data>
    </node>
    <node id="n78">
      <data key="v_name">Paul-Olivier Dehaye</data>
    </node>
    <node id="n79">
      <data key="v_name">Sevil TOPAL</data>
    </node>
    <node id="n80">
      <data key="v_name">Guilherme Kundlatsch</data>
    </node>
    <node id="n81">
      <data key="v_name">Alina Rodrigues</data>
    </node>
    <node id="n82">
      <data key="v_name">Marcelo de Souza</data>
    </node>
    <node id="n83">
      <data key="v_name">Muki Haklay</data>
    </node>
    <node id="n84">
      <data key="v_name">Imad Bougataya</data>
    </node>
    <node id="n85">
      <data key="v_name">Dalila Saulebekova</data>
    </node>
    <node id="n86">
      <data key="v_name">Alejandra Rodriguez Llerena</data>
    </node>
    <node id="n87">
      <data key="v_name">Victor Counillon</data>
    </node>
    <node id="n88">
      <data key="v_name">Jeanne Bonnel</data>
    </node>
    <node id="n89">
      <data key="v_name">Thea Chrysostomou</data>
    </node>
    <node id="n90">
      <data key="v_name">Mihaela Grigore</data>
    </node>
    <node id="n91">
      <data key="v_name">Selim Ben Slama</data>
    </node>
    <node id="n92">
      <data key="v_name">Thibault Morgenstern</data>
    </node>
    <node id="n93">
      <data key="v_name">Philippe Mougin</data>
    </node>
    <node id="n94">
      <data key="v_name">Florian Briand</data>
    </node>
    <node id="n95">
      <data key="v_name">Alexis Juif</data>
    </node>
    <node id="n96">
      <data key="v_name">Forum Shah</data>
    </node>
    <node id="n97">
      <data key="v_name">Gijs Van den Dool</data>
    </node>
    <node id="n98">
      <data key="v_name">Mose Wintner</data>
    </node>
    <node id="n99">
      <data key="v_name">Pierre Foulquié</data>
    </node>
    <node id="n100">
      <data key="v_name">Yahya JELLIL</data>
    </node>
    <node id="n101">
      <data key="v_name">Guillaume MESLAGE</data>
    </node>
    <node id="n102">
      <data key="v_name">Idir Boufadene</data>
    </node>
    <node id="n103">
      <data key="v_name">Brice Henault</data>
    </node>
    <node id="n104">
      <data key="v_name">Florian Carbuccia</data>
    </node>
    <node id="n105">
      <data key="v_name">Nuances de Verde</data>
    </node>
    <node id="n106">
      <data key="v_name">Mateo Quintero</data>
    </node>
    <node id="n107">
      <data key="v_name">Anisse JANY</data>
    </node>
    <node id="n108">
      <data key="v_name">Alan Cataldo</data>
    </node>
    <node id="n109">
      <data key="v_name">Hugo Gagliardi</data>
    </node>
    <node id="n110">
      <data key="v_name">Aurélien Aoustin</data>
    </node>
    <node id="n111">
      <data key="v_name">Miles Tonye</data>
    </node>
    <node id="n112">
      <data key="v_name">DIVIN BADIABO</data>
    </node>
    <node id="n113">
      <data key="v_name">Pot Ato</data>
    </node>
    <node id="n114">
      <data key="v_name">Aurelien Boch</data>
    </node>
    <node id="n115">
      <data key="v_name">Radhakrishna Sanka</data>
    </node>
    <node id="n116">
      <data key="v_name">UMUHOZA Roxane</data>
    </node>
    <node id="n117">
      <data key="v_name">David Kong</data>
    </node>
    <node id="n118">
      <data key="v_name">Adam Arabian</data>
    </node>
    <node id="n119">
      <data key="v_name">Zach Mueller</data>
    </node>
    <node id="n120">
      <data key="v_name">Naina Goel</data>
    </node>
    <node id="n121">
      <data key="v_name">Bartlomiej Zogala</data>
    </node>
    <node id="n122">
      <data key="v_name">Kat Holo</data>
    </node>
    <node id="n123">
      <data key="v_name">mathieu grisolia</data>
    </node>
    <node id="n124">
      <data key="v_name">Reginald Smith</data>
    </node>
    <node id="n125">
      <data key="v_name">Adrien Rigobello</data>
    </node>
    <node id="n126">
      <data key="v_name">Juan Calvo</data>
    </node>
    <node id="n127">
      <data key="v_name">A P</data>
    </node>
    <node id="n128">
      <data key="v_name">Tim Artz</data>
    </node>
    <node id="n129">
      <data key="v_name">Always Prime</data>
    </node>
    <node id="n130">
      <data key="v_name">Luke Tospace</data>
    </node>
    <node id="n131">
      <data key="v_name">TAUAN BERNARDO</data>
    </node>
    <node id="n132">
      <data key="v_name">Lakshmi Balasubramanian</data>
    </node>
    <node id="n133">
      <data key="v_name">Abdelhamid Raheem Abdulrazzq</data>
    </node>
    <node id="n134">
      <data key="v_name">Michael Bryan</data>
    </node>
    <node id="n135">
      <data key="v_name">Guillaume Rémont</data>
    </node>
    <node id="n136">
      <data key="v_name">Manuel Herrera</data>
    </node>
    <node id="n137">
      <data key="v_name">Roy Hui</data>
    </node>
    <node id="n138">
      <data key="v_name">Narcisse Zekpa</data>
    </node>
    <node id="n139">
      <data key="v_name">Vimal Raghubir</data>
    </node>
    <node id="n140">
      <data key="v_name">furkan öztürk</data>
    </node>
    <node id="n141">
      <data key="v_name">iván Larrauri</data>
    </node>
    <node id="n142">
      <data key="v_name">Kamil Dabrowski</data>
    </node>
    <node id="n143">
      <data key="v_name">Kishore Vasan</data>
    </node>
    <node id="n144">
      <data key="v_name">Antonio 174772711</data>
    </node>
    <node id="n145">
      <data key="v_name">Agnes Chavez</data>
    </node>
    <node id="n146">
      <data key="v_name">Antoine Coq</data>
    </node>
    <node id="n147">
      <data key="v_name">Pax Zhang</data>
    </node>
    <node id="n148">
      <data key="v_name">Phillip Nichols</data>
    </node>
    <node id="n149">
      <data key="v_name">Sarah Lasso</data>
    </node>
    <node id="n150">
      <data key="v_name">Intensify World</data>
    </node>
    <node id="n151">
      <data key="v_name">Silvino Miranda</data>
    </node>
    <node id="n152">
      <data key="v_name">Charles Montez</data>
    </node>
    <node id="n153">
      <data key="v_name">Nuno Filipe</data>
    </node>
    <node id="n154">
      <data key="v_name">Catherine Villeret</data>
    </node>
    <node id="n155">
      <data key="v_name">vivien roussel</data>
    </node>
    <node id="n156">
      <data key="v_name">Stephanie Vincent</data>
    </node>
    <node id="n157">
      <data key="v_name">Emma Barme</data>
    </node>
    <node id="n158">
      <data key="v_name">Sophie AFLALO</data>
    </node>
    <node id="n159">
      <data key="v_name">Francois Routhiau</data>
    </node>
    <node id="n160">
      <data key="v_name">VINOD SCARIA</data>
    </node>
    <node id="n161">
      <data key="v_name">Shreya Rangarajan</data>
    </node>
    <node id="n162">
      <data key="v_name">Manan Saksena</data>
    </node>
    <node id="n163">
      <data key="v_name">Meghna Ranpuria</data>
    </node>
    <node id="n164">
      <data key="v_name">Adeeb Mohammed salim</data>
    </node>
    <node id="n165">
      <data key="v_name">kanav anand</data>
    </node>
    <node id="n166">
      <data key="v_name">Hernán Morales Durand</data>
    </node>
    <node id="n167">
      <data key="v_name">tauheed khan</data>
    </node>
    <node id="n168">
      <data key="v_name">Rodolfo Maciéczyk</data>
    </node>
    <node id="n169">
      <data key="v_name">April Lenhard</data>
    </node>
    <node id="n170">
      <data key="v_name">Jessica Sagot</data>
    </node>
    <node id="n171">
      <data key="v_name">Pascal Piazzalunga</data>
    </node>
    <node id="n172">
      <data key="v_name">Arunesh Duttta</data>
    </node>
    <node id="n173">
      <data key="v_name">Lalhming Muana</data>
    </node>
    <node id="n174">
      <data key="v_name">Peter Molloy</data>
    </node>
    <node id="n175">
      <data key="v_name">Jonathan QUILLES</data>
    </node>
    <node id="n176">
      <data key="v_name">Patrice Blanchardie</data>
    </node>
    <node id="n177">
      <data key="v_name">Faisal Riyaz</data>
    </node>
    <node id="n178">
      <data key="v_name">Erik Zepka</data>
    </node>
    <node id="n179">
      <data key="v_name">Eesmyal Santos-Brault</data>
    </node>
    <node id="n180">
      <data key="v_name">Sanna Toropainen</data>
    </node>
    <node id="n181">
      <data key="v_name">Donald diffang</data>
    </node>
    <node id="n182">
      <data key="v_name">Scott Leibrand</data>
    </node>
    <node id="n183">
      <data key="v_name">Yassine Bridi</data>
    </node>
    <node id="n184">
      <data key="v_name">Ankit Raj</data>
    </node>
    <node id="n185">
      <data key="v_name">Anthony Cu</data>
    </node>
    <node id="n186">
      <data key="v_name">Valéry Ridde</data>
    </node>
    <node id="n187">
      <data key="v_name">Sofia Meister</data>
    </node>
    <node id="n188">
      <data key="v_name">Amish Chadha</data>
    </node>
    <node id="n189">
      <data key="v_name">Jean-Christophe Despres</data>
    </node>
    <node id="n190">
      <data key="v_name">Julie Legault</data>
    </node>
    <node id="n191">
      <data key="v_name">Cyrielle DL</data>
    </node>
    <node id="n192">
      <data key="v_name">Flavio Sartoretto</data>
    </node>
    <node id="n193">
      <data key="v_name">Antoine Bourguilleau</data>
    </node>
    <node id="n194">
      <data key="v_name">Shivam Garg</data>
    </node>
    <node id="n195">
      <data key="v_name">Tim Lipp</data>
    </node>
    <node id="n196">
      <data key="v_name">Anteneh Gashaw</data>
    </node>
    <node id="n197">
      <data key="v_name">Huwaidar alSumari</data>
    </node>
    <node id="n198">
      <data key="v_name">Thomas Killick</data>
    </node>
    <node id="n199">
      <data key="v_name">Viththiyakaran Nadarajah</data>
    </node>
    <node id="n200">
      <data key="v_name">BARATH KUMAR TR</data>
    </node>
    <node id="n201">
      <data key="v_name">Cécile Pélissier</data>
    </node>
    <node id="n202">
      <data key="v_name">Antonio Mangiapane</data>
    </node>
    <node id="n203">
      <data key="v_name">Petru Margunean</data>
    </node>
    <node id="n204">
      <data key="v_name">Angela Peebles</data>
    </node>
    <node id="n205">
      <data key="v_name">Manuel Pélégrin</data>
    </node>
    <node id="n206">
      <data key="v_name">Bilal Ghalib</data>
    </node>
    <node id="n207">
      <data key="v_name">Adam Krovina</data>
    </node>
    <node id="n208">
      <data key="v_name">Juan Carlos Trabanino</data>
    </node>
    <node id="n209">
      <data key="v_name">SERGIO GIUSTI</data>
    </node>
    <node id="n210">
      <data key="v_name">Theodore Dottavio</data>
    </node>
    <node id="n211">
      <data key="v_name">Stéphane MORICO</data>
    </node>
    <node id="n212">
      <data key="v_name">Ellen Jorgensen</data>
    </node>
    <node id="n213">
      <data key="v_name">Andrew Robinson</data>
    </node>
    <node id="n214">
      <data key="v_name">Thomas Chappuis</data>
    </node>
    <node id="n215">
      <data key="v_name">DIVYA SINGH</data>
    </node>
    <node id="n216">
      <data key="v_name">adrian Molecule</data>
    </node>
    <node id="n217">
      <data key="v_name">Bill Foote</data>
    </node>
    <node id="n218">
      <data key="v_name">Cesar VALENCIA GALLARDO</data>
    </node>
    <node id="n219">
      <data key="v_name">Arsalan Noorafkan</data>
    </node>
    <node id="n220">
      <data key="v_name">Avi (Dr Khalil Betz-Heinemann)</data>
    </node>
    <node id="n221">
      <data key="v_name">Charles Beach</data>
    </node>
    <node id="n222">
      <data key="v_name">Anthony Lejuez</data>
    </node>
    <node id="n223">
      <data key="v_name">Siddharth Shankar Swain</data>
    </node>
    <node id="n224">
      <data key="v_name">Arpit Jangir</data>
    </node>
    <node id="n225">
      <data key="v_name">Sarah Ware</data>
    </node>
    <node id="n226">
      <data key="v_name">Amos Traore</data>
    </node>
    <node id="n227">
      <data key="v_name">Aisen Chacin</data>
    </node>
    <node id="n228">
      <data key="v_name">luciano catazzo</data>
    </node>
    <node id="n229">
      <data key="v_name">Fundación Instituto de Biología Integrativa</data>
    </node>
    <node id="n230">
      <data key="v_name">jean-pierre tafani</data>
    </node>
    <node id="n231">
      <data key="v_name">Jordan Elevons</data>
    </node>
    <node id="n232">
      <data key="v_name">Juanpe Rivas</data>
    </node>
    <node id="n233">
      <data key="v_name">Jaleel UCA</data>
    </node>
    <node id="n234">
      <data key="v_name">John Urbanik</data>
    </node>
    <edge source="n0" target="n1">
      <data key="e_weight">1</data>
    </edge>
    <edge source="n0" target="n2">
      <data key="e_weight">1</data>
    </edge>
    <edge source="n0" target="n3">
      <data key="e_weight">1</data>
    </edge>
    <edge source="n0" target="n4">
      <data key="e_weight">1</data>
    </edge>
    <edge source="n0" target="n5">
      <data key="e_weight">1</data>
    </edge>
    <edge source="n0" target="n117">
      <data key="e_weight">2</data>
    </edge>
    <edge source="n0" target="n118">
      <data key="e_weight">1</data>
    </edge>
    <edge source="n0" target="n119">
      <data key="e_weight">2</data>
    </edge>
    <edge source="n0" target="n122">
      <data key="e_weight">1</data>
    </edge>
    <edge source="n0" target="n123">
      <data key="e_weight">1</data>
    </edge>
    <edge source="n0" target="n124">
      <data key="e_weight">1</data>
    </edge>
    <edge source="n0" target="n125">
      <data key="e_weight">1</data>
    </edge>
    <edge source="n0" target="n126">
      <data key="e_weight">1</data>
    </edge>
    <edge source="n0" target="n127">
      <data key="e_weight">1</data>
    </edge>
    <edge source="n0" target="n137">
      <data key="e_weight">1</data>
    </edge>
    <edge source="n0" target="n138">
      <data key="e_weight">1</data>
    </edge>
    <edge source="n0" target="n139">
      <data key="e_weight">1</data>
    </edge>
    <edge source="n0" target="n140">
      <data key="e_weight">1</data>
    </edge>
    <edge source="n0" target="n141">
      <data key="e_weight">1</data>
    </edge>
    <edge source="n0" target="n202">
      <data key="e_weight">1</data>
    </edge>
    <edge source="n0" target="n203">
      <data key="e_weight">1</data>
    </edge>
    <edge source="n0" target="n204">
      <data key="e_weight">1</data>
    </edge>
    <edge source="n0" target="n205">
      <data key="e_weight">1</data>
    </edge>
    <edge source="n0" target="n206">
      <data key="e_weight">1</data>
    </edge>
    <edge source="n1" target="n2">
      <data key="e_weight">1</data>
    </edge>
    <edge source="n1" target="n3">
      <data key="e_weight">1</data>
    </edge>
    <edge source="n1" target="n4">
      <data key="e_weight">1</data>
    </edge>
    <edge source="n1" target="n5">
      <data key="e_weight">1</data>
    </edge>
    <edge source="n1" target="n40">
      <data key="e_weight">1</data>
    </edge>
    <edge source="n1" target="n49">
      <data key="e_weight">1</data>
    </edge>
    <edge source="n1" target="n60">
      <data key="e_weight">1</data>
    </edge>
    <edge source="n1" target="n61">
      <data key="e_weight">1</data>
    </edge>
    <edge source="n1" target="n62">
      <data key="e_weight">1</data>
    </edge>
    <edge source="n1" target="n31">
      <data key="e_weight">1</data>
    </edge>
    <edge source="n1" target="n52">
      <data key="e_weight">1</data>
    </edge>
    <edge source="n1" target="n63">
      <data key="e_weight">1</data>
    </edge>
    <edge source="n1" target="n64">
      <data key="e_weight">1</data>
    </edge>
    <edge source="n1" target="n65">
      <data key="e_weight">1</data>
    </edge>
    <edge source="n1" target="n41">
      <data key="e_weight">1</data>
    </edge>
    <edge source="n1" target="n67">
      <data key="e_weight">1</data>
    </edge>
    <edge source="n1" target="n68">
      <data key="e_weight">1</data>
    </edge>
    <edge source="n1" target="n120">
      <data key="e_weight">1</data>
    </edge>
    <edge source="n1" target="n121">
      <data key="e_weight">1</data>
    </edge>
    <edge source="n2" target="n3">
      <data key="e_weight">1</data>
    </edge>
    <edge source="n2" target="n4">
      <data key="e_weight">1</data>
    </edge>
    <edge source="n2" target="n5">
      <data key="e_weight">1</data>
    </edge>
    <edge source="n2" target="n18">
      <data key="e_weight">1</data>
    </edge>
    <edge source="n2" target="n19">
      <data key="e_weight">1</data>
    </edge>
    <edge source="n2" target="n166">
      <data key="e_weight">1</data>
    </edge>
    <edge source="n2" target="n167">
      <data key="e_weight">1</data>
    </edge>
    <edge source="n2" target="n168">
      <data key="e_weight">1</data>
    </edge>
    <edge source="n2" target="n169">
      <data key="e_weight">1</data>
    </edge>
    <edge source="n2" target="n170">
      <data key="e_weight">1</data>
    </edge>
    <edge source="n3" target="n4">
      <data key="e_weight">1</data>
    </edge>
    <edge source="n3" target="n5">
      <data key="e_weight">1</data>
    </edge>
    <edge source="n4" target="n5">
      <data key="e_weight">1</data>
    </edge>
    <edge source="n5" target="n66">
      <data key="e_weight">1</data>
    </edge>
    <edge source="n5" target="n69">
      <data key="e_weight">1</data>
    </edge>
    <edge source="n5" target="n185">
      <data key="e_weight">1</data>
    </edge>
    <edge source="n5" target="n186">
      <data key="e_weight">1</data>
    </edge>
    <edge source="n5" target="n187">
      <data key="e_weight">1</data>
    </edge>
    <edge source="n5" target="n188">
      <data key="e_weight">1</data>
    </edge>
    <edge source="n6" target="n7">
      <data key="e_weight">1</data>
    </edge>
    <edge source="n6" target="n8">
      <data key="e_weight">1</data>
    </edge>
    <edge source="n6" target="n9">
      <data key="e_weight">1</data>
    </edge>
    <edge source="n6" target="n10">
      <data key="e_weight">1</data>
    </edge>
    <edge source="n6" target="n11">
      <data key="e_weight">1</data>
    </edge>
    <edge source="n7" target="n8">
      <data key="e_weight">1</data>
    </edge>
    <edge source="n7" target="n9">
      <data key="e_weight">1</data>
    </edge>
    <edge source="n7" target="n10">
      <data key="e_weight">1</data>
    </edge>
    <edge source="n7" target="n11">
      <data key="e_weight">1</data>
    </edge>
    <edge source="n8" target="n9">
      <data key="e_weight">1</data>
    </edge>
    <edge source="n8" target="n10">
      <data key="e_weight">1</data>
    </edge>
    <edge source="n8" target="n11">
      <data key="e_weight">1</data>
    </edge>
    <edge source="n9" target="n10">
      <data key="e_weight">1</data>
    </edge>
    <edge source="n9" target="n11">
      <data key="e_weight">1</data>
    </edge>
    <edge source="n10" target="n11">
      <data key="e_weight">1</data>
    </edge>
    <edge source="n10" target="n20">
      <data key="e_weight">1</data>
    </edge>
    <edge source="n10" target="n21">
      <data key="e_weight">1</data>
    </edge>
    <edge source="n10" target="n22">
      <data key="e_weight">1</data>
    </edge>
    <edge source="n10" target="n23">
      <data key="e_weight">1</data>
    </edge>
    <edge source="n10" target="n24">
      <data key="e_weight">1</data>
    </edge>
    <edge source="n12" target="n13">
      <data key="e_weight">1</data>
    </edge>
    <edge source="n12" target="n14">
      <data key="e_weight">1</data>
    </edge>
    <edge source="n12" target="n15">
      <data key="e_weight">1</data>
    </edge>
    <edge source="n12" target="n16">
      <data key="e_weight">1</data>
    </edge>
    <edge source="n12" target="n17">
      <data key="e_weight">1</data>
    </edge>
    <edge source="n13" target="n14">
      <data key="e_weight">1</data>
    </edge>
    <edge source="n13" target="n15">
      <data key="e_weight">1</data>
    </edge>
    <edge source="n13" target="n16">
      <data key="e_weight">1</data>
    </edge>
    <edge source="n13" target="n17">
      <data key="e_weight">1</data>
    </edge>
    <edge source="n14" target="n15">
      <data key="e_weight">1</data>
    </edge>
    <edge source="n14" target="n16">
      <data key="e_weight">1</data>
    </edge>
    <edge source="n14" target="n17">
      <data key="e_weight">1</data>
    </edge>
    <edge source="n15" target="n16">
      <data key="e_weight">1</data>
    </edge>
    <edge source="n15" target="n17">
      <data key="e_weight">1</data>
    </edge>
    <edge source="n16" target="n17">
      <data key="e_weight">1</data>
    </edge>
    <edge source="n18" target="n19">
      <data key="e_weight">1</data>
    </edge>
    <edge source="n20" target="n21">
      <data key="e_weight">1</data>
    </edge>
    <edge source="n20" target="n22">
      <data key="e_weight">1</data>
    </edge>
    <edge source="n20" target="n23">
      <data key="e_weight">1</data>
    </edge>
    <edge source="n20" target="n24">
      <data key="e_weight">1</data>
    </edge>
    <edge source="n21" target="n22">
      <data key="e_weight">1</data>
    </edge>
    <edge source="n21" target="n23">
      <data key="e_weight">1</data>
    </edge>
    <edge source="n21" target="n24">
      <data key="e_weight">1</data>
    </edge>
    <edge source="n22" target="n23">
      <data key="e_weight">1</data>
    </edge>
    <edge source="n22" target="n24">
      <data key="e_weight">1</data>
    </edge>
    <edge source="n23" target="n24">
      <data key="e_weight">1</data>
    </edge>
    <edge source="n25" target="n26">
      <data key="e_weight">1</data>
    </edge>
    <edge source="n25" target="n27">
      <data key="e_weight">1</data>
    </edge>
    <edge source="n25" target="n28">
      <data key="e_weight">1</data>
    </edge>
    <edge source="n25" target="n29">
      <data key="e_weight">1</data>
    </edge>
    <edge source="n25" target="n30">
      <data key="e_weight">2</data>
    </edge>
    <edge source="n26" target="n27">
      <data key="e_weight">1</data>
    </edge>
    <edge source="n26" target="n28">
      <data key="e_weight">1</data>
    </edge>
    <edge source="n26" target="n29">
      <data key="e_weight">1</data>
    </edge>
    <edge source="n26" target="n30">
      <data key="e_weight">1</data>
    </edge>
    <edge source="n27" target="n28">
      <data key="e_weight">1</data>
    </edge>
    <edge source="n27" target="n29">
      <data key="e_weight">1</data>
    </edge>
    <edge source="n27" target="n30">
      <data key="e_weight">1</data>
    </edge>
    <edge source="n28" target="n29">
      <data key="e_weight">1</data>
    </edge>
    <edge source="n28" target="n30">
      <data key="e_weight">1</data>
    </edge>
    <edge source="n29" target="n30">
      <data key="e_weight">1</data>
    </edge>
    <edge source="n31" target="n32">
      <data key="e_weight">1</data>
    </edge>
    <edge source="n31" target="n33">
      <data key="e_weight">1</data>
    </edge>
    <edge source="n31" target="n34">
      <data key="e_weight">1</data>
    </edge>
    <edge source="n31" target="n35">
      <data key="e_weight">1</data>
    </edge>
    <edge source="n31" target="n36">
      <data key="e_weight">1</data>
    </edge>
    <edge source="n31" target="n40">
      <data key="e_weight">1</data>
    </edge>
    <edge source="n31" target="n41">
      <data key="e_weight">1</data>
    </edge>
    <edge source="n31" target="n47">
      <data key="e_weight">1</data>
    </edge>
    <edge source="n31" target="n48">
      <data key="e_weight">1</data>
    </edge>
    <edge source="n31" target="n49">
      <data key="e_weight">1</data>
    </edge>
    <edge source="n31" target="n51">
      <data key="e_weight">1</data>
    </edge>
    <edge source="n31" target="n52">
      <data key="e_weight">2</data>
    </edge>
    <edge source="n31" target="n53">
      <data key="e_weight">1</data>
    </edge>
    <edge source="n31" target="n54">
      <data key="e_weight">1</data>
    </edge>
    <edge source="n31" target="n55">
      <data key="e_weight">1</data>
    </edge>
    <edge source="n31" target="n63">
      <data key="e_weight">1</data>
    </edge>
    <edge source="n31" target="n64">
      <data key="e_weight">1</data>
    </edge>
    <edge source="n31" target="n65">
      <data key="e_weight">1</data>
    </edge>
    <edge source="n32" target="n33">
      <data key="e_weight">1</data>
    </edge>
    <edge source="n32" target="n34">
      <data key="e_weight">1</data>
    </edge>
    <edge source="n32" target="n35">
      <data key="e_weight">1</data>
    </edge>
    <edge source="n32" target="n36">
      <data key="e_weight">1</data>
    </edge>
    <edge source="n33" target="n34">
      <data key="e_weight">1</data>
    </edge>
    <edge source="n33" target="n35">
      <data key="e_weight">1</data>
    </edge>
    <edge source="n33" target="n36">
      <data key="e_weight">1</data>
    </edge>
    <edge source="n34" target="n35">
      <data key="e_weight">1</data>
    </edge>
    <edge source="n34" target="n36">
      <data key="e_weight">1</data>
    </edge>
    <edge source="n35" target="n36">
      <data key="e_weight">1</data>
    </edge>
    <edge source="n40" target="n41">
      <data key="e_weight">1</data>
    </edge>
    <edge source="n40" target="n49">
      <data key="e_weight">1</data>
    </edge>
    <edge source="n40" target="n60">
      <data key="e_weight">1</data>
    </edge>
    <edge source="n40" target="n61">
      <data key="e_weight">1</data>
    </edge>
    <edge source="n40" target="n62">
      <data key="e_weight">1</data>
    </edge>
    <edge source="n40" target="n127">
      <data key="e_weight">1</data>
    </edge>
    <edge source="n40" target="n128">
      <data key="e_weight">1</data>
    </edge>
    <edge source="n40" target="n129">
      <data key="e_weight">1</data>
    </edge>
    <edge source="n40" target="n130">
      <data key="e_weight">1</data>
    </edge>
    <edge source="n40" target="n131">
      <data key="e_weight">1</data>
    </edge>
    <edge source="n40" target="n132">
      <data key="e_weight">1</data>
    </edge>
    <edge source="n40" target="n133">
      <data key="e_weight">1</data>
    </edge>
    <edge source="n40" target="n134">
      <data key="e_weight">1</data>
    </edge>
    <edge source="n40" target="n135">
      <data key="e_weight">1</data>
    </edge>
    <edge source="n40" target="n136">
      <data key="e_weight">1</data>
    </edge>
    <edge source="n41" target="n68">
      <data key="e_weight">2</data>
    </edge>
    <edge source="n41" target="n97">
      <data key="e_weight">1</data>
    </edge>
    <edge source="n41" target="n98">
      <data key="e_weight">1</data>
    </edge>
    <edge source="n41" target="n67">
      <data key="e_weight">1</data>
    </edge>
    <edge source="n41" target="n120">
      <data key="e_weight">1</data>
    </edge>
    <edge source="n41" target="n121">
      <data key="e_weight">1</data>
    </edge>
    <edge source="n42" target="n43">
      <data key="e_weight">1</data>
    </edge>
    <edge source="n44" target="n45">
      <data key="e_weight">1</data>
    </edge>
    <edge source="n47" target="n48">
      <data key="e_weight">1</data>
    </edge>
    <edge source="n47" target="n49">
      <data key="e_weight">1</data>
    </edge>
    <edge source="n48" target="n49">
      <data key="e_weight">1</data>
    </edge>
    <edge source="n49" target="n59">
      <data key="e_weight">1</data>
    </edge>
    <edge source="n49" target="n60">
      <data key="e_weight">1</data>
    </edge>
    <edge source="n49" target="n61">
      <data key="e_weight">1</data>
    </edge>
    <edge source="n49" target="n62">
      <data key="e_weight">1</data>
    </edge>
    <edge source="n49" target="n70">
      <data key="e_weight">1</data>
    </edge>
    <edge source="n49" target="n71">
      <data key="e_weight">1</data>
    </edge>
    <edge source="n49" target="n72">
      <data key="e_weight">1</data>
    </edge>
    <edge source="n49" target="n73">
      <data key="e_weight">1</data>
    </edge>
    <edge source="n49" target="n166">
      <data key="e_weight">1</data>
    </edge>
    <edge source="n49" target="n178">
      <data key="e_weight">1</data>
    </edge>
    <edge source="n49" target="n182">
      <data key="e_weight">1</data>
    </edge>
    <edge source="n49" target="n183">
      <data key="e_weight">1</data>
    </edge>
    <edge source="n49" target="n184">
      <data key="e_weight">1</data>
    </edge>
    <edge source="n51" target="n52">
      <data key="e_weight">1</data>
    </edge>
    <edge source="n51" target="n53">
      <data key="e_weight">1</data>
    </edge>
    <edge source="n51" target="n54">
      <data key="e_weight">1</data>
    </edge>
    <edge source="n51" target="n55">
      <data key="e_weight">1</data>
    </edge>
    <edge source="n52" target="n53">
      <data key="e_weight">1</data>
    </edge>
    <edge source="n52" target="n54">
      <data key="e_weight">1</data>
    </edge>
    <edge source="n52" target="n55">
      <data key="e_weight">1</data>
    </edge>
    <edge source="n52" target="n63">
      <data key="e_weight">1</data>
    </edge>
    <edge source="n52" target="n64">
      <data key="e_weight">1</data>
    </edge>
    <edge source="n52" target="n65">
      <data key="e_weight">1</data>
    </edge>
    <edge source="n52" target="n99">
      <data key="e_weight">1</data>
    </edge>
    <edge source="n52" target="n106">
      <data key="e_weight">1</data>
    </edge>
    <edge source="n52" target="n107">
      <data key="e_weight">1</data>
    </edge>
    <edge source="n52" target="n108">
      <data key="e_weight">1</data>
    </edge>
    <edge source="n52" target="n109">
      <data key="e_weight">1</data>
    </edge>
    <edge source="n53" target="n54">
      <data key="e_weight">1</data>
    </edge>
    <edge source="n53" target="n55">
      <data key="e_weight">1</data>
    </edge>
    <edge source="n54" target="n55">
      <data key="e_weight">1</data>
    </edge>
    <edge source="n56" target="n57">
      <data key="e_weight">1</data>
    </edge>
    <edge source="n60" target="n61">
      <data key="e_weight">1</data>
    </edge>
    <edge source="n60" target="n62">
      <data key="e_weight">1</data>
    </edge>
    <edge source="n61" target="n62">
      <data key="e_weight">1</data>
    </edge>
    <edge source="n63" target="n64">
      <data key="e_weight">1</data>
    </edge>
    <edge source="n63" target="n65">
      <data key="e_weight">1</data>
    </edge>
    <edge source="n64" target="n65">
      <data key="e_weight">1</data>
    </edge>
    <edge source="n65" target="n77">
      <data key="e_weight">2</data>
    </edge>
    <edge source="n65" target="n78">
      <data key="e_weight">1</data>
    </edge>
    <edge source="n65" target="n79">
      <data key="e_weight">1</data>
    </edge>
    <edge source="n65" target="n118">
      <data key="e_weight">1</data>
    </edge>
    <edge source="n65" target="n177">
      <data key="e_weight">1</data>
    </edge>
    <edge source="n65" target="n178">
      <data key="e_weight">1</data>
    </edge>
    <edge source="n65" target="n179">
      <data key="e_weight">1</data>
    </edge>
    <edge source="n67" target="n68">
      <data key="e_weight">2</data>
    </edge>
    <edge source="n67" target="n69">
      <data key="e_weight">1</data>
    </edge>
    <edge source="n67" target="n120">
      <data key="e_weight">1</data>
    </edge>
    <edge source="n67" target="n121">
      <data key="e_weight">1</data>
    </edge>
    <edge source="n68" target="n69">
      <data key="e_weight">1</data>
    </edge>
    <edge source="n68" target="n97">
      <data key="e_weight">1</data>
    </edge>
    <edge source="n68" target="n98">
      <data key="e_weight">1</data>
    </edge>
    <edge source="n68" target="n120">
      <data key="e_weight">1</data>
    </edge>
    <edge source="n68" target="n121">
      <data key="e_weight">1</data>
    </edge>
    <edge source="n69" target="n185">
      <data key="e_weight">1</data>
    </edge>
    <edge source="n69" target="n186">
      <data key="e_weight">1</data>
    </edge>
    <edge source="n69" target="n187">
      <data key="e_weight">1</data>
    </edge>
    <edge source="n69" target="n188">
      <data key="e_weight">1</data>
    </edge>
    <edge source="n70" target="n71">
      <data key="e_weight">1</data>
    </edge>
    <edge source="n70" target="n72">
      <data key="e_weight">1</data>
    </edge>
    <edge source="n70" target="n73">
      <data key="e_weight">1</data>
    </edge>
    <edge source="n71" target="n72">
      <data key="e_weight">1</data>
    </edge>
    <edge source="n71" target="n73">
      <data key="e_weight">1</data>
    </edge>
    <edge source="n72" target="n73">
      <data key="e_weight">1</data>
    </edge>
    <edge source="n74" target="n75">
      <data key="e_weight">1</data>
    </edge>
    <edge source="n74" target="n76">
      <data key="e_weight">1</data>
    </edge>
    <edge source="n75" target="n76">
      <data key="e_weight">1</data>
    </edge>
    <edge source="n77" target="n78">
      <data key="e_weight">1</data>
    </edge>
    <edge source="n77" target="n79">
      <data key="e_weight">1</data>
    </edge>
    <edge source="n77" target="n118">
      <data key="e_weight">1</data>
    </edge>
    <edge source="n77" target="n177">
      <data key="e_weight">1</data>
    </edge>
    <edge source="n77" target="n178">
      <data key="e_weight">1</data>
    </edge>
    <edge source="n77" target="n179">
      <data key="e_weight">1</data>
    </edge>
    <edge source="n78" target="n79">
      <data key="e_weight">1</data>
    </edge>
    <edge source="n80" target="n81">
      <data key="e_weight">1</data>
    </edge>
    <edge source="n80" target="n82">
      <data key="e_weight">1</data>
    </edge>
    <edge source="n81" target="n82">
      <data key="e_weight">1</data>
    </edge>
    <edge source="n83" target="n84">
      <data key="e_weight">1</data>
    </edge>
    <edge source="n86" target="n87">
      <data key="e_weight">1</data>
    </edge>
    <edge source="n88" target="n89">
      <data key="e_weight">1</data>
    </edge>
    <edge source="n88" target="n90">
      <data key="e_weight">1</data>
    </edge>
    <edge source="n88" target="n91">
      <data key="e_weight">1</data>
    </edge>
    <edge source="n88" target="n92">
      <data key="e_weight">1</data>
    </edge>
    <edge source="n88" target="n93">
      <data key="e_weight">1</data>
    </edge>
    <edge source="n89" target="n90">
      <data key="e_weight">1</data>
    </edge>
    <edge source="n89" target="n91">
      <data key="e_weight">1</data>
    </edge>
    <edge source="n89" target="n92">
      <data key="e_weight">1</data>
    </edge>
    <edge source="n89" target="n93">
      <data key="e_weight">1</data>
    </edge>
    <edge source="n90" target="n91">
      <data key="e_weight">1</data>
    </edge>
    <edge source="n90" target="n92">
      <data key="e_weight">1</data>
    </edge>
    <edge source="n90" target="n93">
      <data key="e_weight">1</data>
    </edge>
    <edge source="n91" target="n92">
      <data key="e_weight">1</data>
    </edge>
    <edge source="n91" target="n93">
      <data key="e_weight">1</data>
    </edge>
    <edge source="n92" target="n93">
      <data key="e_weight">1</data>
    </edge>
    <edge source="n95" target="n96">
      <data key="e_weight">1</data>
    </edge>
    <edge source="n97" target="n98">
      <data key="e_weight">1</data>
    </edge>
    <edge source="n99" target="n100">
      <data key="e_weight">1</data>
    </edge>
    <edge source="n99" target="n101">
      <data key="e_weight">1</data>
    </edge>
    <edge source="n99" target="n102">
      <data key="e_weight">1</data>
    </edge>
    <edge source="n99" target="n103">
      <data key="e_weight">1</data>
    </edge>
    <edge source="n99" target="n104">
      <data key="e_weight">1</data>
    </edge>
    <edge source="n99" target="n106">
      <data key="e_weight">1</data>
    </edge>
    <edge source="n99" target="n107">
      <data key="e_weight">1</data>
    </edge>
    <edge source="n99" target="n108">
      <data key="e_weight">1</data>
    </edge>
    <edge source="n99" target="n109">
      <data key="e_weight">1</data>
    </edge>
    <edge source="n99" target="n110">
      <data key="e_weight">1</data>
    </edge>
    <edge source="n99" target="n111">
      <data key="e_weight">1</data>
    </edge>
    <edge source="n99" target="n112">
      <data key="e_weight">1</data>
    </edge>
    <edge source="n99" target="n113">
      <data key="e_weight">1</data>
    </edge>
    <edge source="n99" target="n114">
      <data key="e_weight">1</data>
    </edge>
    <edge source="n100" target="n101">
      <data key="e_weight">1</data>
    </edge>
    <edge source="n100" target="n102">
      <data key="e_weight">1</data>
    </edge>
    <edge source="n100" target="n103">
      <data key="e_weight">1</data>
    </edge>
    <edge source="n100" target="n104">
      <data key="e_weight">1</data>
    </edge>
    <edge source="n101" target="n102">
      <data key="e_weight">1</data>
    </edge>
    <edge source="n101" target="n103">
      <data key="e_weight">1</data>
    </edge>
    <edge source="n101" target="n104">
      <data key="e_weight">1</data>
    </edge>
    <edge source="n102" target="n103">
      <data key="e_weight">1</data>
    </edge>
    <edge source="n102" target="n104">
      <data key="e_weight">1</data>
    </edge>
    <edge source="n103" target="n104">
      <data key="e_weight">1</data>
    </edge>
    <edge source="n106" target="n107">
      <data key="e_weight">1</data>
    </edge>
    <edge source="n106" target="n108">
      <data key="e_weight">1</data>
    </edge>
    <edge source="n106" target="n109">
      <data key="e_weight">1</data>
    </edge>
    <edge source="n107" target="n108">
      <data key="e_weight">1</data>
    </edge>
    <edge source="n107" target="n109">
      <data key="e_weight">1</data>
    </edge>
    <edge source="n108" target="n109">
      <data key="e_weight">1</data>
    </edge>
    <edge source="n110" target="n111">
      <data key="e_weight">1</data>
    </edge>
    <edge source="n110" target="n112">
      <data key="e_weight">1</data>
    </edge>
    <edge source="n110" target="n113">
      <data key="e_weight">1</data>
    </edge>
    <edge source="n110" target="n114">
      <data key="e_weight">1</data>
    </edge>
    <edge source="n111" target="n112">
      <data key="e_weight">1</data>
    </edge>
    <edge source="n111" target="n113">
      <data key="e_weight">1</data>
    </edge>
    <edge source="n111" target="n114">
      <data key="e_weight">1</data>
    </edge>
    <edge source="n112" target="n113">
      <data key="e_weight">1</data>
    </edge>
    <edge source="n112" target="n114">
      <data key="e_weight">1</data>
    </edge>
    <edge source="n113" target="n114">
      <data key="e_weight">1</data>
    </edge>
    <edge source="n117" target="n118">
      <data key="e_weight">1</data>
    </edge>
    <edge source="n117" target="n119">
      <data key="e_weight">2</data>
    </edge>
    <edge source="n117" target="n122">
      <data key="e_weight">1</data>
    </edge>
    <edge source="n117" target="n123">
      <data key="e_weight">1</data>
    </edge>
    <edge source="n117" target="n124">
      <data key="e_weight">1</data>
    </edge>
    <edge source="n118" target="n119">
      <data key="e_weight">1</data>
    </edge>
    <edge source="n118" target="n177">
      <data key="e_weight">1</data>
    </edge>
    <edge source="n118" target="n178">
      <data key="e_weight">1</data>
    </edge>
    <edge source="n118" target="n179">
      <data key="e_weight">1</data>
    </edge>
    <edge source="n118" target="n196">
      <data key="e_weight">4</data>
    </edge>
    <edge source="n118" target="n197">
      <data key="e_weight">1</data>
    </edge>
    <edge source="n118" target="n198">
      <data key="e_weight">1</data>
    </edge>
    <edge source="n118" target="n201">
      <data key="e_weight">1</data>
    </edge>
    <edge source="n118" target="n216">
      <data key="e_weight">1</data>
    </edge>
    <edge source="n118" target="n217">
      <data key="e_weight">1</data>
    </edge>
    <edge source="n118" target="n218">
      <data key="e_weight">1</data>
    </edge>
    <edge source="n119" target="n122">
      <data key="e_weight">1</data>
    </edge>
    <edge source="n119" target="n123">
      <data key="e_weight">1</data>
    </edge>
    <edge source="n119" target="n124">
      <data key="e_weight">1</data>
    </edge>
    <edge source="n120" target="n121">
      <data key="e_weight">1</data>
    </edge>
    <edge source="n121" target="n133">
      <data key="e_weight">1</data>
    </edge>
    <edge source="n121" target="n134">
      <data key="e_weight">1</data>
    </edge>
    <edge source="n121" target="n142">
      <data key="e_weight">1</data>
    </edge>
    <edge source="n121" target="n143">
      <data key="e_weight">1</data>
    </edge>
    <edge source="n121" target="n144">
      <data key="e_weight">1</data>
    </edge>
    <edge source="n122" target="n123">
      <data key="e_weight">1</data>
    </edge>
    <edge source="n122" target="n124">
      <data key="e_weight">1</data>
    </edge>
    <edge source="n123" target="n124">
      <data key="e_weight">1</data>
    </edge>
    <edge source="n125" target="n126">
      <data key="e_weight">1</data>
    </edge>
    <edge source="n125" target="n127">
      <data key="e_weight">1</data>
    </edge>
    <edge source="n126" target="n127">
      <data key="e_weight">1</data>
    </edge>
    <edge source="n127" target="n128">
      <data key="e_weight">1</data>
    </edge>
    <edge source="n127" target="n129">
      <data key="e_weight">1</data>
    </edge>
    <edge source="n127" target="n130">
      <data key="e_weight">1</data>
    </edge>
    <edge source="n127" target="n131">
      <data key="e_weight">1</data>
    </edge>
    <edge source="n128" target="n129">
      <data key="e_weight">1</data>
    </edge>
    <edge source="n128" target="n130">
      <data key="e_weight">1</data>
    </edge>
    <edge source="n128" target="n131">
      <data key="e_weight">1</data>
    </edge>
    <edge source="n129" target="n130">
      <data key="e_weight">1</data>
    </edge>
    <edge source="n129" target="n131">
      <data key="e_weight">1</data>
    </edge>
    <edge source="n130" target="n131">
      <data key="e_weight">1</data>
    </edge>
    <edge source="n132" target="n133">
      <data key="e_weight">1</data>
    </edge>
    <edge source="n132" target="n134">
      <data key="e_weight">1</data>
    </edge>
    <edge source="n132" target="n135">
      <data key="e_weight">1</data>
    </edge>
    <edge source="n132" target="n136">
      <data key="e_weight">1</data>
    </edge>
    <edge source="n132" target="n213">
      <data key="e_weight">1</data>
    </edge>
    <edge source="n133" target="n134">
      <data key="e_weight">2</data>
    </edge>
    <edge source="n133" target="n135">
      <data key="e_weight">1</data>
    </edge>
    <edge source="n133" target="n136">
      <data key="e_weight">1</data>
    </edge>
    <edge source="n133" target="n142">
      <data key="e_weight">1</data>
    </edge>
    <edge source="n133" target="n143">
      <data key="e_weight">1</data>
    </edge>
    <edge source="n133" target="n144">
      <data key="e_weight">1</data>
    </edge>
    <edge source="n134" target="n135">
      <data key="e_weight">1</data>
    </edge>
    <edge source="n134" target="n136">
      <data key="e_weight">1</data>
    </edge>
    <edge source="n134" target="n142">
      <data key="e_weight">1</data>
    </edge>
    <edge source="n134" target="n143">
      <data key="e_weight">1</data>
    </edge>
    <edge source="n134" target="n144">
      <data key="e_weight">1</data>
    </edge>
    <edge source="n135" target="n136">
      <data key="e_weight">1</data>
    </edge>
    <edge source="n137" target="n138">
      <data key="e_weight">1</data>
    </edge>
    <edge source="n137" target="n139">
      <data key="e_weight">1</data>
    </edge>
    <edge source="n137" target="n140">
      <data key="e_weight">1</data>
    </edge>
    <edge source="n137" target="n141">
      <data key="e_weight">1</data>
    </edge>
    <edge source="n138" target="n139">
      <data key="e_weight">1</data>
    </edge>
    <edge source="n138" target="n140">
      <data key="e_weight">1</data>
    </edge>
    <edge source="n138" target="n141">
      <data key="e_weight">1</data>
    </edge>
    <edge source="n139" target="n140">
      <data key="e_weight">1</data>
    </edge>
    <edge source="n139" target="n141">
      <data key="e_weight">1</data>
    </edge>
    <edge source="n140" target="n141">
      <data key="e_weight">1</data>
    </edge>
    <edge source="n142" target="n143">
      <data key="e_weight">1</data>
    </edge>
    <edge source="n142" target="n144">
      <data key="e_weight">1</data>
    </edge>
    <edge source="n143" target="n144">
      <data key="e_weight">1</data>
    </edge>
    <edge source="n145" target="n146">
      <data key="e_weight">1</data>
    </edge>
    <edge source="n145" target="n147">
      <data key="e_weight">1</data>
    </edge>
    <edge source="n145" target="n148">
      <data key="e_weight">1</data>
    </edge>
    <edge source="n145" target="n149">
      <data key="e_weight">1</data>
    </edge>
    <edge source="n146" target="n147">
      <data key="e_weight">1</data>
    </edge>
    <edge source="n146" target="n148">
      <data key="e_weight">1</data>
    </edge>
    <edge source="n146" target="n149">
      <data key="e_weight">1</data>
    </edge>
    <edge source="n147" target="n148">
      <data key="e_weight">1</data>
    </edge>
    <edge source="n147" target="n149">
      <data key="e_weight">1</data>
    </edge>
    <edge source="n148" target="n149">
      <data key="e_weight">1</data>
    </edge>
    <edge source="n150" target="n151">
      <data key="e_weight">1</data>
    </edge>
    <edge source="n154" target="n155">
      <data key="e_weight">1</data>
    </edge>
    <edge source="n154" target="n156">
      <data key="e_weight">1</data>
    </edge>
    <edge source="n154" target="n157">
      <data key="e_weight">1</data>
    </edge>
    <edge source="n154" target="n158">
      <data key="e_weight">1</data>
    </edge>
    <edge source="n154" target="n159">
      <data key="e_weight">1</data>
    </edge>
    <edge source="n155" target="n156">
      <data key="e_weight">1</data>
    </edge>
    <edge source="n155" target="n157">
      <data key="e_weight">1</data>
    </edge>
    <edge source="n155" target="n158">
      <data key="e_weight">1</data>
    </edge>
    <edge source="n155" target="n159">
      <data key="e_weight">1</data>
    </edge>
    <edge source="n156" target="n157">
      <data key="e_weight">1</data>
    </edge>
    <edge source="n156" target="n158">
      <data key="e_weight">1</data>
    </edge>
    <edge source="n156" target="n159">
      <data key="e_weight">1</data>
    </edge>
    <edge source="n157" target="n158">
      <data key="e_weight">1</data>
    </edge>
    <edge source="n157" target="n159">
      <data key="e_weight">1</data>
    </edge>
    <edge source="n158" target="n159">
      <data key="e_weight">1</data>
    </edge>
    <edge source="n160" target="n161">
      <data key="e_weight">1</data>
    </edge>
    <edge source="n160" target="n162">
      <data key="e_weight">1</data>
    </edge>
    <edge source="n160" target="n163">
      <data key="e_weight">1</data>
    </edge>
    <edge source="n160" target="n164">
      <data key="e_weight">1</data>
    </edge>
    <edge source="n160" target="n165">
      <data key="e_weight">1</data>
    </edge>
    <edge source="n161" target="n162">
      <data key="e_weight">1</data>
    </edge>
    <edge source="n161" target="n163">
      <data key="e_weight">1</data>
    </edge>
    <edge source="n161" target="n164">
      <data key="e_weight">1</data>
    </edge>
    <edge source="n161" target="n165">
      <data key="e_weight">1</data>
    </edge>
    <edge source="n162" target="n163">
      <data key="e_weight">1</data>
    </edge>
    <edge source="n162" target="n164">
      <data key="e_weight">1</data>
    </edge>
    <edge source="n162" target="n165">
      <data key="e_weight">1</data>
    </edge>
    <edge source="n163" target="n164">
      <data key="e_weight">1</data>
    </edge>
    <edge source="n163" target="n165">
      <data key="e_weight">1</data>
    </edge>
    <edge source="n164" target="n165">
      <data key="e_weight">1</data>
    </edge>
    <edge source="n166" target="n167">
      <data key="e_weight">1</data>
    </edge>
    <edge source="n166" target="n168">
      <data key="e_weight">1</data>
    </edge>
    <edge source="n166" target="n169">
      <data key="e_weight">1</data>
    </edge>
    <edge source="n166" target="n170">
      <data key="e_weight">1</data>
    </edge>
    <edge source="n166" target="n178">
      <data key="e_weight">1</data>
    </edge>
    <edge source="n166" target="n182">
      <data key="e_weight">1</data>
    </edge>
    <edge source="n166" target="n183">
      <data key="e_weight">1</data>
    </edge>
    <edge source="n166" target="n184">
      <data key="e_weight">1</data>
    </edge>
    <edge source="n167" target="n168">
      <data key="e_weight">1</data>
    </edge>
    <edge source="n167" target="n169">
      <data key="e_weight">1</data>
    </edge>
    <edge source="n167" target="n170">
      <data key="e_weight">1</data>
    </edge>
    <edge source="n168" target="n169">
      <data key="e_weight">1</data>
    </edge>
    <edge source="n168" target="n170">
      <data key="e_weight">1</data>
    </edge>
    <edge source="n169" target="n170">
      <data key="e_weight">1</data>
    </edge>
    <edge source="n171" target="n172">
      <data key="e_weight">1</data>
    </edge>
    <edge source="n171" target="n173">
      <data key="e_weight">1</data>
    </edge>
    <edge source="n171" target="n174">
      <data key="e_weight">1</data>
    </edge>
    <edge source="n171" target="n175">
      <data key="e_weight">1</data>
    </edge>
    <edge source="n172" target="n173">
      <data key="e_weight">1</data>
    </edge>
    <edge source="n172" target="n174">
      <data key="e_weight">1</data>
    </edge>
    <edge source="n172" target="n175">
      <data key="e_weight">1</data>
    </edge>
    <edge source="n172" target="n196">
      <data key="e_weight">1</data>
    </edge>
    <edge source="n172" target="n199">
      <data key="e_weight">1</data>
    </edge>
    <edge source="n172" target="n200">
      <data key="e_weight">1</data>
    </edge>
    <edge source="n173" target="n174">
      <data key="e_weight">1</data>
    </edge>
    <edge source="n173" target="n175">
      <data key="e_weight">1</data>
    </edge>
    <edge source="n173" target="n207">
      <data key="e_weight">1</data>
    </edge>
    <edge source="n173" target="n208">
      <data key="e_weight">1</data>
    </edge>
    <edge source="n173" target="n209">
      <data key="e_weight">1</data>
    </edge>
    <edge source="n173" target="n210">
      <data key="e_weight">1</data>
    </edge>
    <edge source="n173" target="n211">
      <data key="e_weight">1</data>
    </edge>
    <edge source="n174" target="n175">
      <data key="e_weight">1</data>
    </edge>
    <edge source="n174" target="n180">
      <data key="e_weight">1</data>
    </edge>
    <edge source="n174" target="n181">
      <data key="e_weight">1</data>
    </edge>
    <edge source="n177" target="n178">
      <data key="e_weight">1</data>
    </edge>
    <edge source="n177" target="n179">
      <data key="e_weight">1</data>
    </edge>
    <edge source="n178" target="n179">
      <data key="e_weight">1</data>
    </edge>
    <edge source="n178" target="n182">
      <data key="e_weight">1</data>
    </edge>
    <edge source="n178" target="n183">
      <data key="e_weight">1</data>
    </edge>
    <edge source="n178" target="n184">
      <data key="e_weight">1</data>
    </edge>
    <edge source="n180" target="n181">
      <data key="e_weight">1</data>
    </edge>
    <edge source="n182" target="n183">
      <data key="e_weight">1</data>
    </edge>
    <edge source="n182" target="n184">
      <data key="e_weight">1</data>
    </edge>
    <edge source="n183" target="n184">
      <data key="e_weight">1</data>
    </edge>
    <edge source="n185" target="n186">
      <data key="e_weight">1</data>
    </edge>
    <edge source="n185" target="n187">
      <data key="e_weight">1</data>
    </edge>
    <edge source="n185" target="n188">
      <data key="e_weight">1</data>
    </edge>
    <edge source="n186" target="n187">
      <data key="e_weight">1</data>
    </edge>
    <edge source="n186" target="n188">
      <data key="e_weight">1</data>
    </edge>
    <edge source="n187" target="n188">
      <data key="e_weight">1</data>
    </edge>
    <edge source="n190" target="n191">
      <data key="e_weight">1</data>
    </edge>
    <edge source="n190" target="n192">
      <data key="e_weight">1</data>
    </edge>
    <edge source="n190" target="n193">
      <data key="e_weight">1</data>
    </edge>
    <edge source="n190" target="n194">
      <data key="e_weight">1</data>
    </edge>
    <edge source="n190" target="n195">
      <data key="e_weight">1</data>
    </edge>
    <edge source="n191" target="n192">
      <data key="e_weight">1</data>
    </edge>
    <edge source="n191" target="n193">
      <data key="e_weight">1</data>
    </edge>
    <edge source="n191" target="n194">
      <data key="e_weight">1</data>
    </edge>
    <edge source="n191" target="n195">
      <data key="e_weight">1</data>
    </edge>
    <edge source="n192" target="n193">
      <data key="e_weight">1</data>
    </edge>
    <edge source="n192" target="n194">
      <data key="e_weight">1</data>
    </edge>
    <edge source="n192" target="n195">
      <data key="e_weight">1</data>
    </edge>
    <edge source="n193" target="n194">
      <data key="e_weight">1</data>
    </edge>
    <edge source="n193" target="n195">
      <data key="e_weight">1</data>
    </edge>
    <edge source="n194" target="n195">
      <data key="e_weight">1</data>
    </edge>
    <edge source="n196" target="n197">
      <data key="e_weight">1</data>
    </edge>
    <edge source="n196" target="n198">
      <data key="e_weight">1</data>
    </edge>
    <edge source="n196" target="n199">
      <data key="e_weight">1</data>
    </edge>
    <edge source="n196" target="n200">
      <data key="e_weight">2</data>
    </edge>
    <edge source="n196" target="n201">
      <data key="e_weight">1</data>
    </edge>
    <edge source="n196" target="n215">
      <data key="e_weight">1</data>
    </edge>
    <edge source="n199" target="n200">
      <data key="e_weight">1</data>
    </edge>
    <edge source="n200" target="n215">
      <data key="e_weight">1</data>
    </edge>
    <edge source="n202" target="n203">
      <data key="e_weight">1</data>
    </edge>
    <edge source="n202" target="n204">
      <data key="e_weight">1</data>
    </edge>
    <edge source="n202" target="n205">
      <data key="e_weight">1</data>
    </edge>
    <edge source="n202" target="n206">
      <data key="e_weight">1</data>
    </edge>
    <edge source="n203" target="n204">
      <data key="e_weight">1</data>
    </edge>
    <edge source="n203" target="n205">
      <data key="e_weight">1</data>
    </edge>
    <edge source="n203" target="n206">
      <data key="e_weight">1</data>
    </edge>
    <edge source="n204" target="n205">
      <data key="e_weight">1</data>
    </edge>
    <edge source="n204" target="n206">
      <data key="e_weight">1</data>
    </edge>
    <edge source="n205" target="n206">
      <data key="e_weight">1</data>
    </edge>
    <edge source="n207" target="n208">
      <data key="e_weight">1</data>
    </edge>
    <edge source="n207" target="n209">
      <data key="e_weight">1</data>
    </edge>
    <edge source="n207" target="n210">
      <data key="e_weight">1</data>
    </edge>
    <edge source="n207" target="n211">
      <data key="e_weight">1</data>
    </edge>
    <edge source="n208" target="n209">
      <data key="e_weight">1</data>
    </edge>
    <edge source="n208" target="n210">
      <data key="e_weight">1</data>
    </edge>
    <edge source="n208" target="n211">
      <data key="e_weight">1</data>
    </edge>
    <edge source="n208" target="n227">
      <data key="e_weight">1</data>
    </edge>
    <edge source="n208" target="n228">
      <data key="e_weight">1</data>
    </edge>
    <edge source="n209" target="n210">
      <data key="e_weight">1</data>
    </edge>
    <edge source="n209" target="n211">
      <data key="e_weight">1</data>
    </edge>
    <edge source="n210" target="n211">
      <data key="e_weight">1</data>
    </edge>
    <edge source="n211" target="n226">
      <data key="e_weight">1</data>
    </edge>
    <edge source="n212" target="n225">
      <data key="e_weight">1</data>
    </edge>
    <edge source="n212" target="n229">
      <data key="e_weight">1</data>
    </edge>
    <edge source="n216" target="n217">
      <data key="e_weight">1</data>
    </edge>
    <edge source="n216" target="n218">
      <data key="e_weight">1</data>
    </edge>
    <edge source="n217" target="n218">
      <data key="e_weight">1</data>
    </edge>
    <edge source="n220" target="n221">
      <data key="e_weight">1</data>
    </edge>
    <edge source="n220" target="n222">
      <data key="e_weight">1</data>
    </edge>
    <edge source="n220" target="n223">
      <data key="e_weight">1</data>
    </edge>
    <edge source="n220" target="n224">
      <data key="e_weight">1</data>
    </edge>
    <edge source="n220" target="n225">
      <data key="e_weight">1</data>
    </edge>
    <edge source="n221" target="n222">
      <data key="e_weight">1</data>
    </edge>
    <edge source="n221" target="n223">
      <data key="e_weight">1</data>
    </edge>
    <edge source="n221" target="n224">
      <data key="e_weight">1</data>
    </edge>
    <edge source="n221" target="n225">
      <data key="e_weight">1</data>
    </edge>
    <edge source="n222" target="n223">
      <data key="e_weight">1</data>
    </edge>
    <edge source="n222" target="n224">
      <data key="e_weight">1</data>
    </edge>
    <edge source="n222" target="n225">
      <data key="e_weight">1</data>
    </edge>
    <edge source="n223" target="n224">
      <data key="e_weight">1</data>
    </edge>
    <edge source="n223" target="n225">
      <data key="e_weight">1</data>
    </edge>
    <edge source="n224" target="n225">
      <data key="e_weight">1</data>
    </edge>
    <edge source="n225" target="n229">
      <data key="e_weight">1</data>
    </edge>
    <edge source="n227" target="n228">
      <data key="e_weight">1</data>
    </edge>
  </graph>
</graphml>
