[
    {
        "client_msg_id": "93DAE30C-DD4B-4BAD-835F-6D8F18185170",
        "type": "message",
        "text": "Who knows Bill Gates? ;) Wonder which mail-in kit he plans to distribute in Seattle?? ",
        "user": "UV1A22N3W",
        "ts": "1583827330.018400",
        "team": "TUU48M0T1",
        "user_team": "TUU48M0T1",
        "source_team": "TUU48M0T1",
        "user_profile": {
            "avatar_hash": "71f827776ad6",
            "image_72": "https:\/\/avatars.slack-edge.com\/2020-03-09\/988125642964_71f827776ad610af05a2_72.jpg",
            "first_name": "",
            "real_name": "RachelA",
            "display_name": "RachelA",
            "team": "TUU48M0T1",
            "name": "raronoff",
            "is_restricted": false,
            "is_ultra_restricted": false
        },
        "blocks": [
            {
                "type": "rich_text",
                "block_id": "zmyG2",
                "elements": [
                    {
                        "type": "rich_text_section",
                        "elements": [
                            {
                                "type": "text",
                                "text": "Who knows Bill Gates? ;) Wonder which mail-in kit he plans to distribute in Seattle?? "
                            }
                        ]
                    }
                ]
            }
        ],
        "thread_ts": "1583827330.018400",
        "reply_count": 7,
        "reply_users_count": 5,
        "latest_reply": "1583913113.022400",
        "reply_users": [
            "UV0QTJCMT",
            "UV1G2M821",
            "UV3HA9MM4",
            "UV13874FN",
            "UV1A22N3W"
        ],
        "replies": [
            {
                "user": "UV0QTJCMT",
                "ts": "1583829484.019000"
            },
            {
                "user": "UV1G2M821",
                "ts": "1583859926.019900"
            },
            {
                "user": "UV1G2M821",
                "ts": "1583859952.020100"
            },
            {
                "user": "UV3HA9MM4",
                "ts": "1583878456.021100"
            },
            {
                "user": "UV13874FN",
                "ts": "1583897825.021700"
            },
            {
                "user": "UV13874FN",
                "ts": "1583898751.022000"
            },
            {
                "user": "UV1A22N3W",
                "ts": "1583913113.022400"
            }
        ],
        "subscribed": false
    },
    {
        "client_msg_id": "30CF0AD8-A74A-4FE9-BD5E-3F29BE4A57E8",
        "type": "message",
        "text": "<@UV1G2M821> doesn’t one of his daughters go to ur school lol",
        "user": "UV0QTJCMT",
        "ts": "1583829484.019000",
        "team": "TUU48M0T1",
        "user_team": "TUU48M0T1",
        "source_team": "TUU48M0T1",
        "user_profile": {
            "avatar_hash": "11e3deb6d1a9",
            "image_72": "https:\/\/avatars.slack-edge.com\/2020-03-06\/986844736421_11e3deb6d1a949327ddd_72.png",
            "first_name": "Katherine",
            "real_name": "Katherine Holo",
            "display_name": "Kat Holo",
            "team": "TUU48M0T1",
            "name": "katherineh245",
            "is_restricted": false,
            "is_ultra_restricted": false
        },
        "blocks": [
            {
                "type": "rich_text",
                "block_id": "QhJ3E",
                "elements": [
                    {
                        "type": "rich_text_section",
                        "elements": [
                            {
                                "type": "user",
                                "user_id": "UV1G2M821"
                            },
                            {
                                "type": "text",
                                "text": " doesn’t one of his daughters go to ur school lol"
                            }
                        ]
                    }
                ]
            }
        ],
        "thread_ts": "1583827330.018400",
        "parent_user_id": "UV1A22N3W"
    },
    {
        "client_msg_id": "b89b2936-149c-4b89-bbb9-76a0ff981de4",
        "type": "message",
        "text": "I am on leave currently till the end of the week but I could talk to my professors and back this up via our Institute and university. Maybe they'd be willing then?",
        "user": "UUP8XJTH8",
        "ts": "1583830251.019200",
        "team": "TUU48M0T1",
        "user_team": "TUU48M0T1",
        "source_team": "TUU48M0T1",
        "user_profile": {
            "avatar_hash": "551563ed5769",
            "image_72": "https:\/\/avatars.slack-edge.com\/2020-03-09\/990308488310_551563ed5769d8569a8f_72.jpg",
            "first_name": "",
            "real_name": "Muhammad Ismail",
            "display_name": "Muhammad Ismail",
            "team": "TUU48M0T1",
            "name": "ismail",
            "is_restricted": false,
            "is_ultra_restricted": false
        },
        "blocks": [
            {
                "type": "rich_text",
                "block_id": "MyV",
                "elements": [
                    {
                        "type": "rich_text_section",
                        "elements": [
                            {
                                "type": "text",
                                "text": "I am on leave currently till the end of the week but I could talk to my professors and back this up via our Institute and university. Maybe they'd be willing then?"
                            }
                        ]
                    }
                ]
            }
        ],
        "thread_ts": "1583716719.008500",
        "parent_user_id": "UUNGFHSV8"
    },
    {
        "client_msg_id": "549b4c7b-c4e3-46c7-a79a-060ae5f19612",
        "type": "message",
        "text": "I could also recruit students to help out.",
        "user": "UUP8XJTH8",
        "ts": "1583830276.019400",
        "team": "TUU48M0T1",
        "user_team": "TUU48M0T1",
        "source_team": "TUU48M0T1",
        "user_profile": {
            "avatar_hash": "551563ed5769",
            "image_72": "https:\/\/avatars.slack-edge.com\/2020-03-09\/990308488310_551563ed5769d8569a8f_72.jpg",
            "first_name": "",
            "real_name": "Muhammad Ismail",
            "display_name": "Muhammad Ismail",
            "team": "TUU48M0T1",
            "name": "ismail",
            "is_restricted": false,
            "is_ultra_restricted": false
        },
        "blocks": [
            {
                "type": "rich_text",
                "block_id": "QCOwy",
                "elements": [
                    {
                        "type": "rich_text_section",
                        "elements": [
                            {
                                "type": "text",
                                "text": "I could also recruit students to help out."
                            }
                        ]
                    }
                ]
            }
        ],
        "thread_ts": "1583716719.008500",
        "parent_user_id": "UUNGFHSV8"
    },
    {
        "client_msg_id": "3ef3a106-3422-4777-b800-c450b040671e",
        "type": "message",
        "text": "Yep",
        "user": "UV1G2M821",
        "ts": "1583859926.019900",
        "team": "TUU48M0T1",
        "user_team": "TUU48M0T1",
        "source_team": "TUU48M0T1",
        "user_profile": {
            "avatar_hash": "g6c81739f7f1",
            "image_72": "https:\/\/secure.gravatar.com\/avatar\/6c81739f7f11c3a1ef96178feb476842.jpg?s=72&d=https%3A%2F%2Fa.slack-edge.com%2Fdf10d%2Fimg%2Favatars%2Fava_0008-72.png",
            "first_name": "",
            "real_name": "Charlie Anderson",
            "display_name": "",
            "team": "TUU48M0T1",
            "name": "canderson5816",
            "is_restricted": false,
            "is_ultra_restricted": false
        },
        "blocks": [
            {
                "type": "rich_text",
                "block_id": "uSFu",
                "elements": [
                    {
                        "type": "rich_text_section",
                        "elements": [
                            {
                                "type": "text",
                                "text": "Yep"
                            }
                        ]
                    }
                ]
            }
        ],
        "thread_ts": "1583827330.018400",
        "parent_user_id": "UV1A22N3W"
    },
    {
        "client_msg_id": "622eacd2-6071-4aa3-8b12-958106f811e3",
        "type": "message",
        "text": "I don't know her super well tho",
        "user": "UV1G2M821",
        "ts": "1583859952.020100",
        "team": "TUU48M0T1",
        "user_team": "TUU48M0T1",
        "source_team": "TUU48M0T1",
        "user_profile": {
            "avatar_hash": "g6c81739f7f1",
            "image_72": "https:\/\/secure.gravatar.com\/avatar\/6c81739f7f11c3a1ef96178feb476842.jpg?s=72&d=https%3A%2F%2Fa.slack-edge.com%2Fdf10d%2Fimg%2Favatars%2Fava_0008-72.png",
            "first_name": "",
            "real_name": "Charlie Anderson",
            "display_name": "",
            "team": "TUU48M0T1",
            "name": "canderson5816",
            "is_restricted": false,
            "is_ultra_restricted": false
        },
        "blocks": [
            {
                "type": "rich_text",
                "block_id": "R7i",
                "elements": [
                    {
                        "type": "rich_text_section",
                        "elements": [
                            {
                                "type": "text",
                                "text": "I don't know her super well tho"
                            }
                        ]
                    }
                ]
            }
        ],
        "thread_ts": "1583827330.018400",
        "parent_user_id": "UV1A22N3W"
    },
    {
        "client_msg_id": "92473cd8-8adb-4f0d-af4a-e4e5d7d8f433",
        "type": "message",
        "text": "Perhaps you could ask her anyway <@UV1G2M821> if you felt comfortable doing so… I’d bet she’s as keen to start seeing the back of this as everyone else.  I’m sure she’d pass her dad a message about you all :simple_smile:  No harm in asking.",
        "user": "UV3HA9MM4",
        "ts": "1583878456.021100",
        "team": "TUU48M0T1",
        "user_team": "TUU48M0T1",
        "source_team": "TUU48M0T1",
        "user_profile": {
            "avatar_hash": "b2f89757c831",
            "image_72": "https:\/\/avatars.slack-edge.com\/2020-03-07\/987455908032_b2f89757c8312ec04011_72.jpg",
            "first_name": "AJP",
            "real_name": "AJP",
            "display_name": "AJP",
            "team": "TUU48M0T1",
            "name": "bioajp",
            "is_restricted": false,
            "is_ultra_restricted": false
        },
        "blocks": [
            {
                "type": "rich_text",
                "block_id": "wov",
                "elements": [
                    {
                        "type": "rich_text_section",
                        "elements": [
                            {
                                "type": "text",
                                "text": "Perhaps you could ask her anyway "
                            },
                            {
                                "type": "user",
                                "user_id": "UV1G2M821"
                            },
                            {
                                "type": "text",
                                "text": " if you felt comfortable doing so… I’d bet she’s as keen to start seeing the back of this as everyone else.  I’m sure she’d pass her dad a message about you all "
                            },
                            {
                                "type": "emoji",
                                "name": "simple_smile"
                            },
                            {
                                "type": "text",
                                "text": "  No harm in asking."
                            }
                        ]
                    }
                ]
            }
        ],
        "thread_ts": "1583827330.018400",
        "parent_user_id": "UV1A22N3W",
        "reactions": [
            {
                "name": "+1",
                "users": [
                    "UV1G2M821"
                ],
                "count": 1
            }
        ]
    },
    {
        "client_msg_id": "c927ed7c-93e1-4a18-b03e-b82c9665b4b4",
        "type": "message",
        "text": "<https:\/\/testguide.labmed.uw.edu\/public\/view\/NCVQLT>",
        "user": "UV13874FN",
        "ts": "1583897825.021700",
        "team": "TUU48M0T1",
        "user_team": "TUU48M0T1",
        "source_team": "TUU48M0T1",
        "user_profile": {
            "avatar_hash": "31797d60dac0",
            "image_72": "https:\/\/avatars.slack-edge.com\/2020-03-18\/1000251468817_31797d60dac08dcca856_72.png",
            "first_name": "",
            "real_name": "Eric Xia",
            "display_name": "Eric Xia",
            "team": "TUU48M0T1",
            "name": "ericpingxia",
            "is_restricted": false,
            "is_ultra_restricted": false
        },
        "blocks": [
            {
                "type": "rich_text",
                "block_id": "h6I1",
                "elements": [
                    {
                        "type": "rich_text_section",
                        "elements": [
                            {
                                "type": "link",
                                "url": "https:\/\/testguide.labmed.uw.edu\/public\/view\/NCVQLT"
                            }
                        ]
                    }
                ]
            }
        ],
        "thread_ts": "1583827330.018400",
        "parent_user_id": "UV1A22N3W"
    },
    {
        "client_msg_id": "d08bc7f9-bb24-44f4-828a-272fe522b0dd",
        "type": "message",
        "text": "I do work with the Gates Foundation discovery center, I will ask around about any possibilities in terms of funding.",
        "user": "UV13874FN",
        "ts": "1583898751.022000",
        "team": "TUU48M0T1",
        "user_team": "TUU48M0T1",
        "source_team": "TUU48M0T1",
        "user_profile": {
            "avatar_hash": "31797d60dac0",
            "image_72": "https:\/\/avatars.slack-edge.com\/2020-03-18\/1000251468817_31797d60dac08dcca856_72.png",
            "first_name": "",
            "real_name": "Eric Xia",
            "display_name": "Eric Xia",
            "team": "TUU48M0T1",
            "name": "ericpingxia",
            "is_restricted": false,
            "is_ultra_restricted": false
        },
        "blocks": [
            {
                "type": "rich_text",
                "block_id": "kwg",
                "elements": [
                    {
                        "type": "rich_text_section",
                        "elements": [
                            {
                                "type": "text",
                                "text": "I do work with the Gates Foundation discovery center, I will ask around about any possibilities in terms of funding."
                            }
                        ]
                    }
                ]
            }
        ],
        "thread_ts": "1583827330.018400",
        "parent_user_id": "UV1A22N3W",
        "reactions": [
            {
                "name": "heart",
                "users": [
                    "UV0QTJCMT",
                    "UV1A22N3W",
                    "UV3HA9MM4",
                    "UUWLPKCLB"
                ],
                "count": 4
            },
            {
                "name": "+1",
                "users": [
                    "UV39M083H",
                    "UUVC28VNW"
                ],
                "count": 2
            }
        ]
    }
]