[
    {
        "client_msg_id": "334fba12-b657-483b-9d95-12595f284809",
        "type": "message",
        "text": "Our team created *#CivicTechHub* during the German *#Wirvsvirus* Government Hackathon. CivicTechHub is a gateway to and bridge between civic tech communities which can combat global crises, such as COVID-19. Welcome to our app: <https:\/\/civictechhub.netlify.com\/>",
        "user": "U010ANJJTNJ",
        "ts": "1584951314.034600",
        "team": "TUU48M0T1",
        "user_team": "TUU48M0T1",
        "source_team": "TUU48M0T1",
        "user_profile": {
            "avatar_hash": "g6745aa360cf",
            "image_72": "https:\/\/secure.gravatar.com\/avatar\/6745aa360cf699aaffbcc79a071070b7.jpg?s=72&d=https%3A%2F%2Fa.slack-edge.com%2Fdf10d%2Fimg%2Favatars%2Fava_0001-72.png",
            "first_name": "",
            "real_name": "Vincent Mia Edie Verheyen",
            "display_name": "",
            "team": "TUU48M0T1",
            "name": "vincent.mia.edie.verh",
            "is_restricted": false,
            "is_ultra_restricted": false
        },
        "attachments": [
            {
                "title": "CivicTechHub",
                "title_link": "https:\/\/civictechhub.netlify.com\/",
                "text": "We connect international grassroot movements bringing together technology and civic ressources to mobilise crowd-sourced innovation and join forces worldwide to speed up impact.",
                "fallback": "CivicTechHub",
                "from_url": "https:\/\/civictechhub.netlify.com\/",
                "service_icon": "https:\/\/civictechhub.netlify.com\/app-icon.png",
                "service_name": "civictechhub.netlify.com",
                "id": 1,
                "original_url": "https:\/\/civictechhub.netlify.com\/"
            }
        ],
        "blocks": [
            {
                "type": "rich_text",
                "block_id": "jJQ\/",
                "elements": [
                    {
                        "type": "rich_text_section",
                        "elements": [
                            {
                                "type": "text",
                                "text": "Our team created "
                            },
                            {
                                "type": "text",
                                "text": "#CivicTechHub",
                                "style": {
                                    "bold": true
                                }
                            },
                            {
                                "type": "text",
                                "text": " during the German "
                            },
                            {
                                "type": "text",
                                "text": "#Wirvsvirus",
                                "style": {
                                    "bold": true
                                }
                            },
                            {
                                "type": "text",
                                "text": " Government Hackathon. CivicTechHub is a gateway to and bridge between civic tech communities which can combat global crises, such as COVID-19. Welcome to our app: "
                            },
                            {
                                "type": "link",
                                "url": "https:\/\/civictechhub.netlify.com\/"
                            }
                        ]
                    }
                ]
            }
        ],
        "reactions": [
            {
                "name": "+1",
                "users": [
                    "UUWPKNE2E"
                ],
                "count": 1
            }
        ]
    },
    {
        "client_msg_id": "7DEF667D-2CB4-4947-B9BB-12BA05543D8D",
        "type": "message",
        "text": "<https:\/\/www.zdnet.com\/google-amp\/article\/tableau-makes-johns-hopkins-coronavirus-data-available-for-the-rest-of-us\/|https:\/\/www.zdnet.com\/google-amp\/article\/tableau-makes-johns-hopkins-coronavirus-data-available-for-the-rest-of-us\/>",
        "user": "U010GHT685A",
        "ts": "1584953830.035500",
        "team": "TUU48M0T1",
        "user_team": "TUU48M0T1",
        "source_team": "TUU48M0T1",
        "user_profile": {
            "avatar_hash": "g8b82eba32dc",
            "image_72": "https:\/\/secure.gravatar.com\/avatar\/8b82eba32dceb4a94f0d2f641621be24.jpg?s=72&d=https%3A%2F%2Fa.slack-edge.com%2Fdf10d%2Fimg%2Favatars%2Fava_0014-72.png",
            "first_name": "",
            "real_name": "Cody Kochmann",
            "display_name": "",
            "team": "TUU48M0T1",
            "name": "kochmanncody",
            "is_restricted": false,
            "is_ultra_restricted": false
        },
        "attachments": [
            {
                "service_name": "ZDNet",
                "title": "Tableau makes Johns Hopkins Coronavirus data available for the rest of us | ZDNet",
                "title_link": "https:\/\/www.zdnet.com\/google-amp\/article\/tableau-makes-johns-hopkins-coronavirus-data-available-for-the-rest-of-us\/",
                "text": "Tableau takes Hopkins' Coronavirus data, preps it and makes it available to all interested parties, in dashboard, Tableau data set, Google Sheet and CSV formats.",
                "fallback": "ZDNet: Tableau makes Johns Hopkins Coronavirus data available for the rest of us | ZDNet",
                "image_url": "https:\/\/zdnet4.cbsistatic.com\/hub\/i\/r\/2020\/03\/18\/fb266fd5-1996-4181-89f0-d39a12717ebe\/thumbnail\/770x578\/32e65a7e742945f647bb44917ec8f0cb\/istock-1208299788.jpg",
                "from_url": "https:\/\/www.zdnet.com\/google-amp\/article\/tableau-makes-johns-hopkins-coronavirus-data-available-for-the-rest-of-us\/",
                "image_width": 333,
                "image_height": 250,
                "image_bytes": 49594,
                "service_icon": "https:\/\/zdnet2.cbsistatic.com\/fly\/bundles\/zdnetcss\/images\/logos\/logo-192x192.png",
                "id": 1,
                "original_url": "https:\/\/www.zdnet.com\/google-amp\/article\/tableau-makes-johns-hopkins-coronavirus-data-available-for-the-rest-of-us\/"
            }
        ],
        "blocks": [
            {
                "type": "rich_text",
                "block_id": "9Zbm",
                "elements": [
                    {
                        "type": "rich_text_section",
                        "elements": [
                            {
                                "type": "link",
                                "url": "https:\/\/www.zdnet.com\/google-amp\/article\/tableau-makes-johns-hopkins-coronavirus-data-available-for-the-rest-of-us\/",
                                "text": "https:\/\/www.zdnet.com\/google-amp\/article\/tableau-makes-johns-hopkins-coronavirus-data-available-for-the-rest-of-us\/"
                            }
                        ]
                    }
                ]
            }
        ]
    },
    {
        "client_msg_id": "4FEC1232-353F-4D79-855D-347ADA229273",
        "type": "message",
        "text": "comms, at least?",
        "user": "UV1A22N3W",
        "ts": "1584955345.036900",
        "team": "TUU48M0T1",
        "user_team": "TUU48M0T1",
        "source_team": "TUU48M0T1",
        "user_profile": {
            "avatar_hash": "71f827776ad6",
            "image_72": "https:\/\/avatars.slack-edge.com\/2020-03-09\/988125642964_71f827776ad610af05a2_72.jpg",
            "first_name": "",
            "real_name": "RachelA",
            "display_name": "RachelA",
            "team": "TUU48M0T1",
            "name": "raronoff",
            "is_restricted": false,
            "is_ultra_restricted": false
        },
        "blocks": [
            {
                "type": "rich_text",
                "block_id": "\/5aB",
                "elements": [
                    {
                        "type": "rich_text_section",
                        "elements": [
                            {
                                "type": "text",
                                "text": "comms, at least?"
                            }
                        ]
                    }
                ]
            }
        ],
        "thread_ts": "1584928707.032400",
        "parent_user_id": "U010566NJHG",
        "reactions": [
            {
                "name": "+1",
                "users": [
                    "U010566NJHG"
                ],
                "count": 1
            }
        ]
    },
    {
        "type": "message",
        "text": "",
        "files": [
            {
                "id": "F0108H1L1A5",
                "created": 1584955679,
                "timestamp": 1584955679,
                "name": "IMG_7535.PNG",
                "title": "File from iOS",
                "mimetype": "image\/png",
                "filetype": "png",
                "pretty_type": "PNG",
                "user": "UV1A22N3W",
                "editable": false,
                "size": 248348,
                "mode": "hosted",
                "is_external": false,
                "external_type": "",
                "is_public": true,
                "public_url_shared": false,
                "display_as_bot": false,
                "username": "",
                "url_private": "https:\/\/files.slack.com\/files-pri\/TUU48M0T1-F0108H1L1A5\/img_7535.png?t=xoxe-980144714919-1031585465028-1034106672247-1815eabca44f30d1d2d966083f8c8bbb",
                "url_private_download": "https:\/\/files.slack.com\/files-pri\/TUU48M0T1-F0108H1L1A5\/download\/img_7535.png?t=xoxe-980144714919-1031585465028-1034106672247-1815eabca44f30d1d2d966083f8c8bbb",
                "thumb_64": "https:\/\/files.slack.com\/files-tmb\/TUU48M0T1-F0108H1L1A5-d6c4aa34eb\/img_7535_64.png?t=xoxe-980144714919-1031585465028-1034106672247-1815eabca44f30d1d2d966083f8c8bbb",
                "thumb_80": "https:\/\/files.slack.com\/files-tmb\/TUU48M0T1-F0108H1L1A5-d6c4aa34eb\/img_7535_80.png?t=xoxe-980144714919-1031585465028-1034106672247-1815eabca44f30d1d2d966083f8c8bbb",
                "thumb_360": "https:\/\/files.slack.com\/files-tmb\/TUU48M0T1-F0108H1L1A5-d6c4aa34eb\/img_7535_360.png?t=xoxe-980144714919-1031585465028-1034106672247-1815eabca44f30d1d2d966083f8c8bbb",
                "thumb_360_w": 203,
                "thumb_360_h": 360,
                "thumb_480": "https:\/\/files.slack.com\/files-tmb\/TUU48M0T1-F0108H1L1A5-d6c4aa34eb\/img_7535_480.png?t=xoxe-980144714919-1031585465028-1034106672247-1815eabca44f30d1d2d966083f8c8bbb",
                "thumb_480_w": 270,
                "thumb_480_h": 480,
                "thumb_160": "https:\/\/files.slack.com\/files-tmb\/TUU48M0T1-F0108H1L1A5-d6c4aa34eb\/img_7535_160.png?t=xoxe-980144714919-1031585465028-1034106672247-1815eabca44f30d1d2d966083f8c8bbb",
                "thumb_720": "https:\/\/files.slack.com\/files-tmb\/TUU48M0T1-F0108H1L1A5-d6c4aa34eb\/img_7535_720.png?t=xoxe-980144714919-1031585465028-1034106672247-1815eabca44f30d1d2d966083f8c8bbb",
                "thumb_720_w": 406,
                "thumb_720_h": 720,
                "thumb_800": "https:\/\/files.slack.com\/files-tmb\/TUU48M0T1-F0108H1L1A5-d6c4aa34eb\/img_7535_800.png?t=xoxe-980144714919-1031585465028-1034106672247-1815eabca44f30d1d2d966083f8c8bbb",
                "thumb_800_w": 451,
                "thumb_800_h": 800,
                "thumb_960": "https:\/\/files.slack.com\/files-tmb\/TUU48M0T1-F0108H1L1A5-d6c4aa34eb\/img_7535_960.png?t=xoxe-980144714919-1031585465028-1034106672247-1815eabca44f30d1d2d966083f8c8bbb",
                "thumb_960_w": 541,
                "thumb_960_h": 960,
                "thumb_1024": "https:\/\/files.slack.com\/files-tmb\/TUU48M0T1-F0108H1L1A5-d6c4aa34eb\/img_7535_1024.png?t=xoxe-980144714919-1031585465028-1034106672247-1815eabca44f30d1d2d966083f8c8bbb",
                "thumb_1024_w": 577,
                "thumb_1024_h": 1024,
                "image_exif_rotation": 1,
                "original_w": 640,
                "original_h": 1136,
                "thumb_tiny": "AwAwABux\/Z1t\/cP\/AH0aT7Babtu05\/3jVpyQhKjJ7ComO770JPHpQBH\/AGdbf3D\/AN9Gj+zrb+4f++jVhSc7duFHSn0ANddxBBxj2phRh\/y1IPvUtMKKTyoOfWgBFRxjMh9+KkpKWgBD7Z\/Okwff86qnULYj\/WMPoDSfb7b\/AJ6P+RoAtjOe\/wCdOqmL+2Bz5jH6g0v9o2398\/8AfJoA\/9k=",
                "permalink": "https:\/\/open-covid19.slack.com\/files\/UV1A22N3W\/F0108H1L1A5\/img_7535.png",
                "permalink_public": "https:\/\/slack-files.com\/TUU48M0T1-F0108H1L1A5-92b2a9049e",
                "is_starred": false,
                "has_rich_preview": false
            }
        ],
        "upload": true,
        "user": "UV1A22N3W",
        "display_as_bot": false,
        "ts": "1584955686.037100",
        "reactions": [
            {
                "name": "100",
                "users": [
                    "UV3URUKK5",
                    "UVC7J1K7Y"
                ],
                "count": 2
            }
        ]
    },
    {
        "client_msg_id": "81a20054-c98b-41d9-acff-045a506732ce",
        "type": "message",
        "text": "<https:\/\/www.isinnova.it\/easy-covid19-eng\/>",
        "user": "UUWPKNE2E",
        "ts": "1584960439.038600",
        "team": "TUU48M0T1",
        "user_team": "TUU48M0T1",
        "source_team": "TUU48M0T1",
        "user_profile": {
            "avatar_hash": "f620efd9688e",
            "image_72": "https:\/\/avatars.slack-edge.com\/2020-03-12\/997456647751_f620efd9688ed753ecfc_72.jpg",
            "first_name": "Luca",
            "real_name": "Luca Haenel",
            "display_name": "Luca Haenel - JOGL Developer",
            "team": "TUU48M0T1",
            "name": "luca.haenel",
            "is_restricted": false,
            "is_ultra_restricted": false
        },
        "attachments": [
            {
                "service_name": "Isinnova",
                "title": "Easy – Covid19 ENG | Isinnova",
                "title_link": "https:\/\/www.isinnova.it\/easy-covid19-eng\/",
                "text": "EASY COVID 19 Versione italiana Emergency mask for hospital ventilators In recent days we have been contacted by a former head physician of",
                "fallback": "Isinnova: Easy – Covid19 ENG | Isinnova",
                "thumb_url": "https:\/\/www.isinnova.it\/wp-content\/uploads\/2018\/11\/Logo-Isinnova-Modifiche-5-1-e1541584415349.png",
                "from_url": "https:\/\/www.isinnova.it\/easy-covid19-eng\/",
                "thumb_width": 100,
                "thumb_height": 46,
                "service_icon": "https:\/\/www.isinnova.it\/wp-content\/uploads\/2017\/03\/favicip.png",
                "id": 1,
                "original_url": "https:\/\/www.isinnova.it\/easy-covid19-eng\/"
            }
        ],
        "blocks": [
            {
                "type": "rich_text",
                "block_id": "F24",
                "elements": [
                    {
                        "type": "rich_text_section",
                        "elements": [
                            {
                                "type": "link",
                                "url": "https:\/\/www.isinnova.it\/easy-covid19-eng\/"
                            }
                        ]
                    }
                ]
            }
        ]
    },
    {
        "client_msg_id": "4a0092f6-cc3c-47a5-977b-14ea8a98b0fe",
        "type": "message",
        "text": "for the projects related to hospital ventilators",
        "user": "UUWPKNE2E",
        "ts": "1584960532.039200",
        "team": "TUU48M0T1",
        "user_team": "TUU48M0T1",
        "source_team": "TUU48M0T1",
        "user_profile": {
            "avatar_hash": "f620efd9688e",
            "image_72": "https:\/\/avatars.slack-edge.com\/2020-03-12\/997456647751_f620efd9688ed753ecfc_72.jpg",
            "first_name": "Luca",
            "real_name": "Luca Haenel",
            "display_name": "Luca Haenel - JOGL Developer",
            "team": "TUU48M0T1",
            "name": "luca.haenel",
            "is_restricted": false,
            "is_ultra_restricted": false
        },
        "blocks": [
            {
                "type": "rich_text",
                "block_id": "Mxj\/",
                "elements": [
                    {
                        "type": "rich_text_section",
                        "elements": [
                            {
                                "type": "text",
                                "text": "for the projects related to hospital ventilators"
                            }
                        ]
                    }
                ]
            }
        ],
        "reactions": [
            {
                "name": "sparkling_heart",
                "users": [
                    "UVC7J1K7Y"
                ],
                "count": 1
            },
            {
                "name": "sparkles",
                "users": [
                    "UVC7J1K7Y"
                ],
                "count": 1
            },
            {
                "name": "four_leaf_clover",
                "users": [
                    "UVC7J1K7Y"
                ],
                "count": 1
            },
            {
                "name": "crystal_ball",
                "users": [
                    "UVC7J1K7Y"
                ],
                "count": 1
            },
            {
                "name": "thought_balloon",
                "users": [
                    "UVC7J1K7Y"
                ],
                "count": 1
            },
            {
                "name": "free",
                "users": [
                    "UVC7J1K7Y"
                ],
                "count": 1
            },
            {
                "name": "peace_symbol",
                "users": [
                    "UVC7J1K7Y"
                ],
                "count": 1
            },
            {
                "name": "dove_of_peace",
                "users": [
                    "UVC7J1K7Y"
                ],
                "count": 1
            }
        ]
    },
    {
        "client_msg_id": "14225a64-e001-4a59-b736-b85ffe341766",
        "type": "message",
        "text": "Your website needs work... confirmation email goes to spam, confirmation button does not work, ice-breaker is impossible to skip (while not being mandatory...).",
        "user": "U010J80FY3E",
        "ts": "1584962991.042200",
        "team": "TUU48M0T1",
        "user_team": "TUU48M0T1",
        "source_team": "TUU48M0T1",
        "user_profile": {
            "avatar_hash": "af52a6341e3c",
            "image_72": "https:\/\/avatars.slack-edge.com\/2020-03-24\/1021697349140_af52a6341e3c5562f810_72.jpg",
            "first_name": "Cyrielle",
            "real_name": "Cyrielle DL",
            "display_name": "Cyrielle DL",
            "team": "TUU48M0T1",
            "name": "iria_cyrielle",
            "is_restricted": false,
            "is_ultra_restricted": false
        },
        "blocks": [
            {
                "type": "rich_text",
                "block_id": "nqx",
                "elements": [
                    {
                        "type": "rich_text_section",
                        "elements": [
                            {
                                "type": "text",
                                "text": "Your website needs work... confirmation email goes to spam, confirmation button does not work, ice-breaker is impossible to skip (while not being mandatory...)."
                            }
                        ]
                    }
                ]
            }
        ]
    },
    {
        "client_msg_id": "1838c608-0374-4d33-bbae-9e63417e8861",
        "type": "message",
        "text": "Basic Online Course starting this week about COVID19 from London School of Hygiene and Tropical Medicine <https:\/\/www.futurelearn.com\/courses\/covid19-novel-coronavirus>",
        "user": "U010566NJHG",
        "ts": "1584974078.044900",
        "team": "TUU48M0T1",
        "user_team": "TUU48M0T1",
        "source_team": "TUU48M0T1",
        "user_profile": {
            "avatar_hash": "103225790dbb",
            "image_72": "https:\/\/avatars.slack-edge.com\/2020-03-23\/1018037453952_103225790dbb62abe3e8_72.jpg",
            "first_name": "Avi",
            "real_name": "Avi Khalil",
            "display_name": "Avi",
            "team": "TUU48M0T1",
            "name": "kavb",
            "is_restricted": false,
            "is_ultra_restricted": false
        },
        "edited": {
            "user": "U010566NJHG",
            "ts": "1584974150.000000"
        },
        "attachments": [
            {
                "service_name": "FutureLearn",
                "title": "COVID-19 Coronavirus - Online Course - FutureLearn",
                "title_link": "https:\/\/www.futurelearn.com\/courses\/covid19-novel-coronavirus",
                "text": "Understand the causes of coronavirus, how coronavirus spreads, and other coronavirus facts in this online course from the London School of Hygiene &amp; Tropical Medicine.",
                "fallback": "FutureLearn: COVID-19 Coronavirus - Online Course - FutureLearn",
                "image_url": "https:\/\/ugc.futurelearn.com\/uploads\/images\/83\/f5\/regular_83f5c0b1-16c2-42e8-ba25-87e83a96cf61.jpg",
                "from_url": "https:\/\/www.futurelearn.com\/courses\/covid19-novel-coronavirus",
                "image_width": 375,
                "image_height": 250,
                "image_bytes": 30772,
                "service_icon": "https:\/\/cdn.futurelearn.com\/packs\/app\/assets\/images\/apple-touch-icon-57x57-b029779362bd1a4e0884703a3df786ec.png",
                "id": 1,
                "original_url": "https:\/\/www.futurelearn.com\/courses\/covid19-novel-coronavirus"
            }
        ],
        "blocks": [
            {
                "type": "rich_text",
                "block_id": "LBkIH",
                "elements": [
                    {
                        "type": "rich_text_section",
                        "elements": [
                            {
                                "type": "text",
                                "text": "Basic Online Course starting this week about COVID19 from London School of Hygiene and Tropical Medicine "
                            },
                            {
                                "type": "link",
                                "url": "https:\/\/www.futurelearn.com\/courses\/covid19-novel-coronavirus"
                            }
                        ]
                    }
                ]
            }
        ],
        "reactions": [
            {
                "name": "+1",
                "users": [
                    "UV9V03C8Y",
                    "UVC7J1K7Y",
                    "U01084P4ELX",
                    "U0103RQF7R8",
                    "U0103LPAWQ4"
                ],
                "count": 5
            }
        ]
    },
    {
        "client_msg_id": "bc5a706f-79a0-4b2c-b2da-c385e8773504",
        "type": "message",
        "text": ":nose:",
        "user": "UVC7J1K7Y",
        "ts": "1584978354.048100",
        "team": "TUU48M0T1",
        "user_team": "TUU48M0T1",
        "source_team": "TUU48M0T1",
        "user_profile": {
            "avatar_hash": "25366518f42c",
            "image_72": "https:\/\/avatars.slack-edge.com\/2020-03-12\/995707246548_25366518f42c2b4ddd3c_72.jpg",
            "first_name": "JaswinderBrar",
            "real_name": "JaswinderBrar",
            "display_name": "JaswinderBrar",
            "team": "TUU48M0T1",
            "name": "jaswindersbrar123",
            "is_restricted": false,
            "is_ultra_restricted": false
        },
        "blocks": [
            {
                "type": "rich_text",
                "block_id": "mE6",
                "elements": [
                    {
                        "type": "rich_text_section",
                        "elements": [
                            {
                                "type": "emoji",
                                "name": "nose"
                            }
                        ]
                    }
                ]
            }
        ],
        "thread_ts": "1584978354.048100",
        "reply_count": 1,
        "reply_users_count": 1,
        "latest_reply": "1584978376.048500",
        "reply_users": [
            "UVC7J1K7Y"
        ],
        "replies": [
            {
                "user": "UVC7J1K7Y",
                "ts": "1584978376.048500"
            }
        ],
        "subscribed": false,
        "reactions": [
            {
                "name": "kiss",
                "users": [
                    "UVC7J1K7Y"
                ],
                "count": 1
            }
        ]
    },
    {
        "client_msg_id": "8f0ecbb2-0e17-49da-ab81-82a7c767ab6e",
        "type": "message",
        "text": "<https:\/\/twitter.com\/jay_bee12345\/status\/1242115265661259776?s=20>",
        "user": "UVC7J1K7Y",
        "ts": "1584978376.048500",
        "team": "TUU48M0T1",
        "user_team": "TUU48M0T1",
        "source_team": "TUU48M0T1",
        "user_profile": {
            "avatar_hash": "25366518f42c",
            "image_72": "https:\/\/avatars.slack-edge.com\/2020-03-12\/995707246548_25366518f42c2b4ddd3c_72.jpg",
            "first_name": "JaswinderBrar",
            "real_name": "JaswinderBrar",
            "display_name": "JaswinderBrar",
            "team": "TUU48M0T1",
            "name": "jaswindersbrar123",
            "is_restricted": false,
            "is_ultra_restricted": false
        },
        "blocks": [
            {
                "type": "rich_text",
                "block_id": "C=C2n",
                "elements": [
                    {
                        "type": "rich_text_section",
                        "elements": [
                            {
                                "type": "link",
                                "url": "https:\/\/twitter.com\/jay_bee12345\/status\/1242115265661259776?s=20"
                            }
                        ]
                    }
                ]
            }
        ],
        "thread_ts": "1584978354.048100",
        "parent_user_id": "UVC7J1K7Y",
        "reactions": [
            {
                "name": "bulb",
                "users": [
                    "UVC7J1K7Y"
                ],
                "count": 1
            },
            {
                "name": "sparkles",
                "users": [
                    "UVC7J1K7Y"
                ],
                "count": 1
            }
        ]
    },
    {
        "client_msg_id": "139c0b25-0214-4aba-aa2e-d73a3a58164c",
        "type": "message",
        "text": "Hi.  I notice that under OpenCOVID19 on Slack, it say my \"free trial\" ends after 85 days.  I'm new to slack, and 85 days from now feels like a couple of years away, but is there anything we need to do?\n\nI clicked on the pay link, and it's asking for over five grand, so I assume someone is (or will be) in touch with Slack to get the price down to \"free\" :slightly_smiling_face:  Just thought I'd see if anyone knows something about this.",
        "user": "U010GFNDDL4",
        "ts": "1584988045.053000",
        "team": "TUU48M0T1",
        "user_team": "TUU48M0T1",
        "source_team": "TUU48M0T1",
        "user_profile": {
            "avatar_hash": "b056393f8b03",
            "image_72": "https:\/\/avatars.slack-edge.com\/2020-03-21\/1017096790757_b056393f8b03bb5aef51_72.jpg",
            "first_name": "",
            "real_name": "Bill Foote",
            "display_name": "Bill Foote",
            "team": "TUU48M0T1",
            "name": "billf",
            "is_restricted": false,
            "is_ultra_restricted": false
        },
        "blocks": [
            {
                "type": "rich_text",
                "block_id": "IXce",
                "elements": [
                    {
                        "type": "rich_text_section",
                        "elements": [
                            {
                                "type": "text",
                                "text": "Hi.  I notice that under OpenCOVID19 on Slack, it say my \"free trial\" ends after 85 days.  I'm new to slack, and 85 days from now feels like a couple of years away, but is there anything we need to do?\n\nI clicked on the pay link, and it's asking for over five grand, so I assume someone is (or will be) in touch with Slack to get the price down to \"free\" "
                            },
                            {
                                "type": "emoji",
                                "name": "slightly_smiling_face"
                            },
                            {
                                "type": "text",
                                "text": "  Just thought I'd see if anyone knows something about this."
                            }
                        ]
                    }
                ]
            }
        ],
        "thread_ts": "1584988045.053000",
        "reply_count": 3,
        "reply_users_count": 2,
        "latest_reply": "1585115810.008800",
        "reply_users": [
            "UUS2G6N6M",
            "U010GFNDDL4"
        ],
        "replies": [
            {
                "user": "UUS2G6N6M",
                "ts": "1585113687.008300"
            },
            {
                "user": "UUS2G6N6M",
                "ts": "1585113693.008600"
            },
            {
                "user": "U010GFNDDL4",
                "ts": "1585115810.008800"
            }
        ],
        "subscribed": false
    },
    {
        "client_msg_id": "25412145-8536-446d-b061-8b016d3871e1",
        "type": "message",
        "text": "A lot of the focus on masks and ventilators are part of #flatteningthecurve. Do we have any lawyers in opencovid19 for a brainstorm on #raisingthebar, which are ways in which healthcare capacity can be increased through legal interventions such as postponing elective surgery? Beyond that community wide testing is *the* bottleneck in terms of mitigating the massive harms that things like social isolation themselves cause. I am so pumped for the outcomes of the #Covid19DetectionKit project!",
        "user": "U010566NJHG",
        "ts": "1584990322.057700",
        "team": "TUU48M0T1",
        "user_team": "TUU48M0T1",
        "source_team": "TUU48M0T1",
        "user_profile": {
            "avatar_hash": "103225790dbb",
            "image_72": "https:\/\/avatars.slack-edge.com\/2020-03-23\/1018037453952_103225790dbb62abe3e8_72.jpg",
            "first_name": "Avi",
            "real_name": "Avi Khalil",
            "display_name": "Avi",
            "team": "TUU48M0T1",
            "name": "kavb",
            "is_restricted": false,
            "is_ultra_restricted": false
        },
        "blocks": [
            {
                "type": "rich_text",
                "block_id": "EFlY",
                "elements": [
                    {
                        "type": "rich_text_section",
                        "elements": [
                            {
                                "type": "text",
                                "text": "A lot of the focus on masks and ventilators are part of #flatteningthecurve. Do we have any lawyers in opencovid19 for a brainstorm on #raisingthebar, which are ways in which healthcare capacity can be increased through legal interventions such as postponing elective surgery? Beyond that community wide testing is"
                            },
                            {
                                "type": "text",
                                "text": " the",
                                "style": {
                                    "bold": true
                                }
                            },
                            {
                                "type": "text",
                                "text": " bottleneck in terms of mitigating the massive harms that things like social isolation themselves cause. I am so pumped for the outcomes of the #Covid19DetectionKit project!"
                            }
                        ]
                    }
                ]
            }
        ]
    },
    {
        "client_msg_id": "43B932C5-3F4B-4E32-8954-9E4FAA48D618",
        "type": "message",
        "text": "I am not an expert, but thought to share this bit about Ventilator Induced Lung Injury that I just found\n<https:\/\/www.facebook.com\/brent.regan.370\/videos\/the-ventilator-problem-can-be-solved-heres-how\/1333250890200601\/|https:\/\/www.facebook.com\/brent.regan.370\/videos\/the-ventilator-problem-can-be-solved-heres-how\/1333250890200601\/>\n<https:\/\/percussionaire.com\/products\/phasitron|https:\/\/percussionaire.com\/products\/phasitron>",
        "user": "U0100AN3E9J",
        "ts": "1584992580.057900",
        "team": "TUU48M0T1",
        "user_team": "TUU48M0T1",
        "source_team": "TUU48M0T1",
        "user_profile": {
            "avatar_hash": "ga85b00f9b08",
            "image_72": "https:\/\/secure.gravatar.com\/avatar\/a85b00f9b0879618ac76e6aff39cfb7b.jpg?s=72&d=https%3A%2F%2Fa.slack-edge.com%2Fdf10d%2Fimg%2Favatars%2Fava_0008-72.png",
            "first_name": "Justin",
            "real_name": "Justin",
            "display_name": "",
            "team": "TUU48M0T1",
            "name": "alohadesignwork",
            "is_restricted": false,
            "is_ultra_restricted": false
        },
        "attachments": [
            {
                "service_name": "Facebook Watch",
                "title": "Brent",
                "title_link": "https:\/\/www.facebook.com\/brent.regan.370\/videos\/the-ventilator-problem-can-be-solved-heres-how\/1333250890200601\/",
                "text": "The ventilator problem can be solved. Here's how.",
                "fallback": "Facebook Watch: Brent",
                "thumb_url": "https:\/\/scontent-iad3-1.xx.fbcdn.net\/v\/t15.5256-10\/p200x200\/77120876_1333253323533691_6020018013967745024_n.jpg?_nc_cat=109&_nc_sid=1055be&_nc_ohc=o0LonpNzZlYAX8eEANN&_nc_ht=scontent-iad3-1.xx&_nc_tp=6&oh=b409a67a0d3c63724d99fc2f2ffec205&oe=5EA04435",
                "from_url": "https:\/\/www.facebook.com\/brent.regan.370\/videos\/the-ventilator-problem-can-be-solved-heres-how\/1333250890200601\/",
                "thumb_width": 266,
                "thumb_height": 200,
                "service_icon": "https:\/\/static.xx.fbcdn.net\/rsrc.php\/yz\/r\/KFyVIAWzntM.ico",
                "id": 1,
                "original_url": "https:\/\/www.facebook.com\/brent.regan.370\/videos\/the-ventilator-problem-can-be-solved-heres-how\/1333250890200601\/"
            },
            {
                "service_name": "Percussionaire",
                "title": "Phasitron Air Delivery System for Lungs | Percussionaire",
                "title_link": "https:\/\/percussionaire.com\/products\/phasitron",
                "text": "The Phasitron promotes lung healing through an open-circuit air delivery system that provides fresh oxygen while gently reducing CO2, mucus and swelling.",
                "fallback": "Percussionaire: Phasitron Air Delivery System for Lungs | Percussionaire",
                "thumb_url": "https:\/\/percussionaire.com\/assets\/images\/open_graph.png",
                "from_url": "https:\/\/percussionaire.com\/products\/phasitron",
                "thumb_width": 700,
                "thumb_height": 368,
                "service_icon": "https:\/\/percussionaire.com\/favicon.png",
                "id": 2,
                "original_url": "https:\/\/percussionaire.com\/products\/phasitron"
            }
        ],
        "blocks": [
            {
                "type": "rich_text",
                "block_id": "YZr",
                "elements": [
                    {
                        "type": "rich_text_section",
                        "elements": [
                            {
                                "type": "text",
                                "text": "I am not an expert, but thought to share this bit about Ventilator Induced Lung Injury that I just found\n"
                            },
                            {
                                "type": "link",
                                "url": "https:\/\/www.facebook.com\/brent.regan.370\/videos\/the-ventilator-problem-can-be-solved-heres-how\/1333250890200601\/",
                                "text": "https:\/\/www.facebook.com\/brent.regan.370\/videos\/the-ventilator-problem-can-be-solved-heres-how\/1333250890200601\/"
                            },
                            {
                                "type": "text",
                                "text": "\n"
                            },
                            {
                                "type": "link",
                                "url": "https:\/\/percussionaire.com\/products\/phasitron",
                                "text": "https:\/\/percussionaire.com\/products\/phasitron"
                            }
                        ]
                    }
                ]
            }
        ]
    },
    {
        "client_msg_id": "7BA8E87E-7DDB-49DB-9E09-B854830E2B42",
        "type": "message",
        "text": "To anybody who has or doesn’t have a scientific background : this vid explains covid-19 in a great way. Great for everybody : I want to share this link explaining covid-19 in a very simple and friendly way : Whatever your background is, you get a great overview: <https:\/\/youtu.be\/BtN-goy9VOY|https:\/\/youtu.be\/BtN-goy9VOY>",
        "user": "U01019BQXM3",
        "ts": "1584996212.060200",
        "team": "TUU48M0T1",
        "user_team": "TUU48M0T1",
        "source_team": "TUU48M0T1",
        "user_profile": {
            "avatar_hash": "7e0f35d8cc55",
            "image_72": "https:\/\/avatars.slack-edge.com\/2020-03-15\/988667349730_7e0f35d8cc556cd89565_72.jpg",
            "first_name": "Marc",
            "real_name": "Marc Bokobza",
            "display_name": "Marc Bokobza",
            "team": "TUU48M0T1",
            "name": "marcbokobza1",
            "is_restricted": false,
            "is_ultra_restricted": false
        },
        "attachments": [
            {
                "service_name": "YouTube",
                "service_url": "https:\/\/www.youtube.com\/",
                "title": "The Coronavirus Explained &amp; What You Should Do",
                "title_link": "https:\/\/youtu.be\/BtN-goy9VOY",
                "author_name": "Kurzgesagt – In a Nutshell",
                "author_link": "https:\/\/www.youtube.com\/user\/Kurzgesagt",
                "thumb_url": "https:\/\/i.ytimg.com\/vi\/BtN-goy9VOY\/hqdefault.jpg",
                "thumb_width": 480,
                "thumb_height": 360,
                "fallback": "YouTube Video: The Coronavirus Explained & What You Should Do",
                "video_html": "<iframe width=\"400\" height=\"225\" src=\"https:\/\/www.youtube.com\/embed\/BtN-goy9VOY?feature=oembed&autoplay=1&iv_load_policy=3\" frameborder=\"0\" allow=\"accelerometer; autoplay; encrypted-media; gyroscope; picture-in-picture\" allowfullscreen><\/iframe>",
                "video_html_width": 400,
                "video_html_height": 225,
                "from_url": "https:\/\/youtu.be\/BtN-goy9VOY",
                "service_icon": "https:\/\/a.slack-edge.com\/80588\/img\/unfurl_icons\/youtube.png",
                "id": 1,
                "original_url": "https:\/\/youtu.be\/BtN-goy9VOY"
            }
        ],
        "blocks": [
            {
                "type": "rich_text",
                "block_id": "K4yxD",
                "elements": [
                    {
                        "type": "rich_text_section",
                        "elements": [
                            {
                                "type": "text",
                                "text": "To anybody who has or doesn’t have a scientific background : this vid explains covid-19 in a great way. Great for everybody : I want to share this link explaining covid-19 in a very simple and friendly way : Whatever your background is, you get a great overview: "
                            },
                            {
                                "type": "link",
                                "url": "https:\/\/youtu.be\/BtN-goy9VOY",
                                "text": "https:\/\/youtu.be\/BtN-goy9VOY"
                            }
                        ]
                    }
                ]
            }
        ],
        "thread_ts": "1584996212.060200",
        "reply_count": 1,
        "reply_users_count": 1,
        "latest_reply": "1584996577.060600",
        "reply_users": [
            "U0103128G4D"
        ],
        "replies": [
            {
                "user": "U0103128G4D",
                "ts": "1584996577.060600"
            }
        ],
        "subscribed": false,
        "reactions": [
            {
                "name": "+1",
                "users": [
                    "U0103128G4D",
                    "UUWPKNE2E",
                    "UVC7J1K7Y",
                    "UV9V03C8Y"
                ],
                "count": 4
            }
        ]
    },
    {
        "client_msg_id": "3debb365-6d81-47b3-a4ba-2e73a9ab2cf5",
        "type": "message",
        "text": "Kurzgesagt is amazing!",
        "user": "U0103128G4D",
        "ts": "1584996577.060600",
        "team": "TUU48M0T1",
        "user_team": "TUU48M0T1",
        "source_team": "TUU48M0T1",
        "user_profile": {
            "avatar_hash": "g76b7a7fcf75",
            "image_72": "https:\/\/secure.gravatar.com\/avatar\/76b7a7fcf754c895c0bf9763dfdebde4.jpg?s=72&d=https%3A%2F%2Fa.slack-edge.com%2Fdf10d%2Fimg%2Favatars%2Fava_0005-72.png",
            "first_name": "",
            "real_name": "Melody Wu",
            "display_name": "Melody Wu",
            "team": "TUU48M0T1",
            "name": "melody_w",
            "is_restricted": false,
            "is_ultra_restricted": false
        },
        "edited": {
            "user": "U0103128G4D",
            "ts": "1584996599.000000"
        },
        "blocks": [
            {
                "type": "rich_text",
                "block_id": "\/IR",
                "elements": [
                    {
                        "type": "rich_text_section",
                        "elements": [
                            {
                                "type": "text",
                                "text": "Kurzgesagt is amazing!"
                            }
                        ]
                    }
                ]
            }
        ],
        "thread_ts": "1584996212.060200",
        "parent_user_id": "U01019BQXM3",
        "reactions": [
            {
                "name": "heart_eyes",
                "users": [
                    "U01019BQXM3"
                ],
                "count": 1
            }
        ]
    },
    {
        "client_msg_id": "df1dc816-1a25-4ab1-b3a2-d6819ec37d86",
        "type": "message",
        "text": "Hey,\nthere are various hackathons around the globe, here are some project presentations here <https:\/\/www.youtube.com\/watch?v=7_06Ylgic90> from Data natives\n\nmay be interesting...",
        "user": "U010B412MF1",
        "ts": "1585000502.062000",
        "team": "TUU48M0T1",
        "user_team": "TUU48M0T1",
        "source_team": "TUU48M0T1",
        "user_profile": {
            "avatar_hash": "218d963a797f",
            "image_72": "https:\/\/avatars.slack-edge.com\/2020-03-19\/1013072792629_218d963a797fbf4410c0_72.png",
            "first_name": "",
            "real_name": "liu",
            "display_name": "liu",
            "team": "TUU48M0T1",
            "name": "liubov.tupikina",
            "is_restricted": false,
            "is_ultra_restricted": false
        },
        "attachments": [
            {
                "service_name": "YouTube",
                "service_url": "https:\/\/www.youtube.com\/",
                "title": "#HackCorona Project Pitches 22\/03\/2020",
                "title_link": "https:\/\/www.youtube.com\/watch?v=7_06Ylgic90",
                "author_name": "Data Natives",
                "author_link": "https:\/\/www.youtube.com\/channel\/UC8x0-23MLoRgs5ee4uias4w",
                "thumb_url": "https:\/\/i.ytimg.com\/vi\/7_06Ylgic90\/hqdefault.jpg",
                "thumb_width": 480,
                "thumb_height": 360,
                "fallback": "YouTube Video: #HackCorona Project Pitches 22\/03\/2020",
                "video_html": "<iframe width=\"400\" height=\"225\" src=\"https:\/\/www.youtube.com\/embed\/7_06Ylgic90?feature=oembed&autoplay=1&iv_load_policy=3\" frameborder=\"0\" allow=\"accelerometer; autoplay; encrypted-media; gyroscope; picture-in-picture\" allowfullscreen><\/iframe>",
                "video_html_width": 400,
                "video_html_height": 225,
                "from_url": "https:\/\/www.youtube.com\/watch?v=7_06Ylgic90",
                "service_icon": "https:\/\/a.slack-edge.com\/80588\/img\/unfurl_icons\/youtube.png",
                "id": 1,
                "original_url": "https:\/\/www.youtube.com\/watch?v=7_06Ylgic90"
            }
        ],
        "blocks": [
            {
                "type": "rich_text",
                "block_id": "Fye",
                "elements": [
                    {
                        "type": "rich_text_section",
                        "elements": [
                            {
                                "type": "text",
                                "text": "Hey,\nthere are various hackathons around the globe, here are some project presentations here "
                            },
                            {
                                "type": "link",
                                "url": "https:\/\/www.youtube.com\/watch?v=7_06Ylgic90"
                            },
                            {
                                "type": "text",
                                "text": " from Data natives\n\nmay be interesting..."
                            }
                        ]
                    }
                ]
            }
        ],
        "reactions": [
            {
                "name": "+1",
                "users": [
                    "UUWPKNE2E",
                    "UVC7J1K7Y"
                ],
                "count": 2
            }
        ]
    },
    {
        "client_msg_id": "cb2ec405-ebea-497f-bca7-03cad5a068de",
        "type": "message",
        "text": "argh my jogl isnt loading o wait ther",
        "user": "UVC7J1K7Y",
        "ts": "1585006961.063100",
        "team": "TUU48M0T1",
        "user_team": "TUU48M0T1",
        "source_team": "TUU48M0T1",
        "user_profile": {
            "avatar_hash": "25366518f42c",
            "image_72": "https:\/\/avatars.slack-edge.com\/2020-03-12\/995707246548_25366518f42c2b4ddd3c_72.jpg",
            "first_name": "JaswinderBrar",
            "real_name": "JaswinderBrar",
            "display_name": "JaswinderBrar",
            "team": "TUU48M0T1",
            "name": "jaswindersbrar123",
            "is_restricted": false,
            "is_ultra_restricted": false
        },
        "blocks": [
            {
                "type": "rich_text",
                "block_id": "5yxpk",
                "elements": [
                    {
                        "type": "rich_text_section",
                        "elements": [
                            {
                                "type": "text",
                                "text": "argh my jogl isnt loading o wait ther"
                            }
                        ]
                    }
                ]
            }
        ]
    },
    {
        "client_msg_id": "1b8e9d2c-ef2f-4648-8900-91c788db712d",
        "type": "message",
        "text": "<https:\/\/www.dailymail.co.uk\/news\/article-8143099\/The-ventilators-diving-masks-Italy.html>",
        "user": "UVC7J1K7Y",
        "ts": "1585006963.063300",
        "team": "TUU48M0T1",
        "user_team": "TUU48M0T1",
        "source_team": "TUU48M0T1",
        "user_profile": {
            "avatar_hash": "25366518f42c",
            "image_72": "https:\/\/avatars.slack-edge.com\/2020-03-12\/995707246548_25366518f42c2b4ddd3c_72.jpg",
            "first_name": "JaswinderBrar",
            "real_name": "JaswinderBrar",
            "display_name": "JaswinderBrar",
            "team": "TUU48M0T1",
            "name": "jaswindersbrar123",
            "is_restricted": false,
            "is_ultra_restricted": false
        },
        "attachments": [
            {
                "service_name": "Mail Online",
                "title": "The ventilators made from diving masks in Italy",
                "title_link": "https:\/\/www.dailymail.co.uk\/news\/article-8143099\/The-ventilators-diving-masks-Italy.html",
                "text": "A Brescia-based startup firm has offered the contraptions for free to local hospitals in the region of Lombardy which is at the centre of Europe's worst virus outbreak.",
                "fallback": "Mail Online: The ventilators made from diving masks in Italy",
                "image_url": "https:\/\/i.dailymail.co.uk\/1s\/2020\/03\/23\/16\/26305092-0-image-a-45_1584980862290.jpg",
                "image_width": 416,
                "image_height": 250,
                "ts": 1584977007,
                "from_url": "https:\/\/www.dailymail.co.uk\/news\/article-8143099\/The-ventilators-diving-masks-Italy.html",
                "image_bytes": 62370,
                "service_icon": "https:\/\/www.dailymail.co.uk\/favicon.ico",
                "id": 1,
                "original_url": "https:\/\/www.dailymail.co.uk\/news\/article-8143099\/The-ventilators-diving-masks-Italy.html"
            }
        ],
        "blocks": [
            {
                "type": "rich_text",
                "block_id": "AOW",
                "elements": [
                    {
                        "type": "rich_text_section",
                        "elements": [
                            {
                                "type": "link",
                                "url": "https:\/\/www.dailymail.co.uk\/news\/article-8143099\/The-ventilators-diving-masks-Italy.html"
                            }
                        ]
                    }
                ]
            }
        ],
        "reactions": [
            {
                "name": "dove_of_peace",
                "users": [
                    "UVC7J1K7Y"
                ],
                "count": 1
            },
            {
                "name": "wave",
                "users": [
                    "UVC7J1K7Y"
                ],
                "count": 1
            },
            {
                "name": "man-swimming",
                "users": [
                    "UVC7J1K7Y"
                ],
                "count": 1
            },
            {
                "name": "sparkles",
                "users": [
                    "UVC7J1K7Y"
                ],
                "count": 1
            }
        ]
    },
    {
        "client_msg_id": "3073d8fe-ade4-4437-a9d1-afcfddd43d13",
        "type": "message",
        "text": "<https:\/\/www.intersurgical.com\/info\/starmedCPAPhoods>",
        "user": "UVC7J1K7Y",
        "ts": "1585007011.063800",
        "team": "TUU48M0T1",
        "user_team": "TUU48M0T1",
        "source_team": "TUU48M0T1",
        "user_profile": {
            "avatar_hash": "25366518f42c",
            "image_72": "https:\/\/avatars.slack-edge.com\/2020-03-12\/995707246548_25366518f42c2b4ddd3c_72.jpg",
            "first_name": "JaswinderBrar",
            "real_name": "JaswinderBrar",
            "display_name": "JaswinderBrar",
            "team": "TUU48M0T1",
            "name": "jaswindersbrar123",
            "is_restricted": false,
            "is_ultra_restricted": false
        },
        "blocks": [
            {
                "type": "rich_text",
                "block_id": "2RTgl",
                "elements": [
                    {
                        "type": "rich_text_section",
                        "elements": [
                            {
                                "type": "link",
                                "url": "https:\/\/www.intersurgical.com\/info\/starmedCPAPhoods"
                            }
                        ]
                    }
                ]
            }
        ],
        "reactions": [
            {
                "name": "peace_symbol",
                "users": [
                    "UVC7J1K7Y"
                ],
                "count": 1
            },
            {
                "name": "link",
                "users": [
                    "UVC7J1K7Y"
                ],
                "count": 1
            },
            {
                "name": "sparkles",
                "users": [
                    "UVC7J1K7Y"
                ],
                "count": 1
            }
        ]
    },
    {
        "type": "message",
        "text": "",
        "files": [
            {
                "id": "F010NPA2P39",
                "created": 1585007065,
                "timestamp": 1585007065,
                "name": "CA012 CaStar UP CPAP.jpg",
                "title": "CA012 CaStar UP CPAP.jpg",
                "mimetype": "image\/jpeg",
                "filetype": "jpg",
                "pretty_type": "JPEG",
                "user": "UVC7J1K7Y",
                "editable": false,
                "size": 34229,
                "mode": "hosted",
                "is_external": false,
                "external_type": "",
                "is_public": true,
                "public_url_shared": false,
                "display_as_bot": false,
                "username": "",
                "url_private": "https:\/\/files.slack.com\/files-pri\/TUU48M0T1-F010NPA2P39\/ca012_castar_up_cpap.jpg?t=xoxe-980144714919-1031585465028-1034106672247-1815eabca44f30d1d2d966083f8c8bbb",
                "url_private_download": "https:\/\/files.slack.com\/files-pri\/TUU48M0T1-F010NPA2P39\/download\/ca012_castar_up_cpap.jpg?t=xoxe-980144714919-1031585465028-1034106672247-1815eabca44f30d1d2d966083f8c8bbb",
                "thumb_64": "https:\/\/files.slack.com\/files-tmb\/TUU48M0T1-F010NPA2P39-db0e04748b\/ca012_castar_up_cpap_64.jpg?t=xoxe-980144714919-1031585465028-1034106672247-1815eabca44f30d1d2d966083f8c8bbb",
                "thumb_80": "https:\/\/files.slack.com\/files-tmb\/TUU48M0T1-F010NPA2P39-db0e04748b\/ca012_castar_up_cpap_80.jpg?t=xoxe-980144714919-1031585465028-1034106672247-1815eabca44f30d1d2d966083f8c8bbb",
                "thumb_360": "https:\/\/files.slack.com\/files-tmb\/TUU48M0T1-F010NPA2P39-db0e04748b\/ca012_castar_up_cpap_360.jpg?t=xoxe-980144714919-1031585465028-1034106672247-1815eabca44f30d1d2d966083f8c8bbb",
                "thumb_360_w": 350,
                "thumb_360_h": 315,
                "thumb_160": "https:\/\/files.slack.com\/files-tmb\/TUU48M0T1-F010NPA2P39-db0e04748b\/ca012_castar_up_cpap_160.jpg?t=xoxe-980144714919-1031585465028-1034106672247-1815eabca44f30d1d2d966083f8c8bbb",
                "image_exif_rotation": 1,
                "original_w": 350,
                "original_h": 315,
                "thumb_tiny": "AwArADCYU7NMFKzbVye3NIgeCacDWfvkkycEr7CpIJnBw6nbnGfSgrlLwNLTFpc0ElcGlKmQFR3o+X3qVCp6DH40MaRHFFJDFtUDd702QuzqCFK8ZqaSUJhSQCf0qADdMApBzzxUmnQmBpc0gJA\/xFJk45OaozZCzhRzQkwVT5xUDsB1qCQnzKbGA0ygjOWFVYEXWiiYgnILDOKYVhgBYHn3phAfUJA3I6fpUF0oEwAHGKi2pd9Cd5WUhh80bjIP86kSQOMioI+bOUH+Egj2pkBPmj6VdiGf\/9k=",
                "permalink": "https:\/\/open-covid19.slack.com\/files\/UVC7J1K7Y\/F010NPA2P39\/ca012_castar_up_cpap.jpg",
                "permalink_public": "https:\/\/slack-files.com\/TUU48M0T1-F010NPA2P39-517c8c1e8c",
                "is_starred": false,
                "has_rich_preview": false
            }
        ],
        "upload": true,
        "user": "UVC7J1K7Y",
        "display_as_bot": false,
        "ts": "1585007068.063900",
        "client_msg_id": "c5442b21-f91f-49de-91f7-d02ed1c643e0",
        "thread_ts": "1585007068.063900",
        "reply_count": 1,
        "reply_users_count": 1,
        "latest_reply": "1585007375.066000",
        "reply_users": [
            "UVC7J1K7Y"
        ],
        "replies": [
            {
                "user": "UVC7J1K7Y",
                "ts": "1585007375.066000"
            }
        ],
        "subscribed": false,
        "reactions": [
            {
                "name": "peace_symbol",
                "users": [
                    "UVC7J1K7Y"
                ],
                "count": 1
            },
            {
                "name": "sparkles",
                "users": [
                    "UVC7J1K7Y"
                ],
                "count": 1
            }
        ]
    },
    {
        "type": "message",
        "text": "",
        "files": [
            {
                "id": "F010NKJE5D4",
                "created": 1585007368,
                "timestamp": 1585007368,
                "name": "prayer png.png",
                "title": "prayer png.png",
                "mimetype": "image\/png",
                "filetype": "png",
                "pretty_type": "PNG",
                "user": "UVC7J1K7Y",
                "editable": false,
                "size": 237586,
                "mode": "hosted",
                "is_external": false,
                "external_type": "",
                "is_public": true,
                "public_url_shared": false,
                "display_as_bot": false,
                "username": "",
                "url_private": "https:\/\/files.slack.com\/files-pri\/TUU48M0T1-F010NKJE5D4\/prayer_png.png?t=xoxe-980144714919-1031585465028-1034106672247-1815eabca44f30d1d2d966083f8c8bbb",
                "url_private_download": "https:\/\/files.slack.com\/files-pri\/TUU48M0T1-F010NKJE5D4\/download\/prayer_png.png?t=xoxe-980144714919-1031585465028-1034106672247-1815eabca44f30d1d2d966083f8c8bbb",
                "thumb_64": "https:\/\/files.slack.com\/files-tmb\/TUU48M0T1-F010NKJE5D4-00db7c369a\/prayer_png_64.png?t=xoxe-980144714919-1031585465028-1034106672247-1815eabca44f30d1d2d966083f8c8bbb",
                "thumb_80": "https:\/\/files.slack.com\/files-tmb\/TUU48M0T1-F010NKJE5D4-00db7c369a\/prayer_png_80.png?t=xoxe-980144714919-1031585465028-1034106672247-1815eabca44f30d1d2d966083f8c8bbb",
                "thumb_360": "https:\/\/files.slack.com\/files-tmb\/TUU48M0T1-F010NKJE5D4-00db7c369a\/prayer_png_360.png?t=xoxe-980144714919-1031585465028-1034106672247-1815eabca44f30d1d2d966083f8c8bbb",
                "thumb_360_w": 293,
                "thumb_360_h": 360,
                "thumb_480": "https:\/\/files.slack.com\/files-tmb\/TUU48M0T1-F010NKJE5D4-00db7c369a\/prayer_png_480.png?t=xoxe-980144714919-1031585465028-1034106672247-1815eabca44f30d1d2d966083f8c8bbb",
                "thumb_480_w": 390,
                "thumb_480_h": 480,
                "thumb_160": "https:\/\/files.slack.com\/files-tmb\/TUU48M0T1-F010NKJE5D4-00db7c369a\/prayer_png_160.png?t=xoxe-980144714919-1031585465028-1034106672247-1815eabca44f30d1d2d966083f8c8bbb",
                "thumb_720": "https:\/\/files.slack.com\/files-tmb\/TUU48M0T1-F010NKJE5D4-00db7c369a\/prayer_png_720.png?t=xoxe-980144714919-1031585465028-1034106672247-1815eabca44f30d1d2d966083f8c8bbb",
                "thumb_720_w": 585,
                "thumb_720_h": 720,
                "thumb_800": "https:\/\/files.slack.com\/files-tmb\/TUU48M0T1-F010NKJE5D4-00db7c369a\/prayer_png_800.png?t=xoxe-980144714919-1031585465028-1034106672247-1815eabca44f30d1d2d966083f8c8bbb",
                "thumb_800_w": 800,
                "thumb_800_h": 984,
                "thumb_960": "https:\/\/files.slack.com\/files-tmb\/TUU48M0T1-F010NKJE5D4-00db7c369a\/prayer_png_960.png?t=xoxe-980144714919-1031585465028-1034106672247-1815eabca44f30d1d2d966083f8c8bbb",
                "thumb_960_w": 781,
                "thumb_960_h": 960,
                "thumb_1024": "https:\/\/files.slack.com\/files-tmb\/TUU48M0T1-F010NKJE5D4-00db7c369a\/prayer_png_1024.png?t=xoxe-980144714919-1031585465028-1034106672247-1815eabca44f30d1d2d966083f8c8bbb",
                "thumb_1024_w": 833,
                "thumb_1024_h": 1024,
                "image_exif_rotation": 1,
                "original_w": 1561,
                "original_h": 1920,
                "thumb_tiny": "AwAwACfMooooAKKKKACiiigAooooAKKKKACiiigAooooAKKKKACiiigD\/9k=",
                "permalink": "https:\/\/open-covid19.slack.com\/files\/UVC7J1K7Y\/F010NKJE5D4\/prayer_png.png",
                "permalink_public": "https:\/\/slack-files.com\/TUU48M0T1-F010NKJE5D4-c9bb68f0ee",
                "is_starred": false,
                "has_rich_preview": false
            }
        ],
        "upload": true,
        "user": "UVC7J1K7Y",
        "display_as_bot": false,
        "ts": "1585007375.066000",
        "client_msg_id": "ee8c4043-1a55-4aea-beb0-8c0545b144d9",
        "thread_ts": "1585007068.063900",
        "parent_user_id": "UVC7J1K7Y"
    }
]