[
    {
        "client_msg_id": "fdf64ab8-ce1a-40f0-804c-d02ad5d7d478",
        "type": "message",
        "text": "I anyone could have a look at <#C01001T20RJ|treatments> channel and invalidate my speculation.",
        "user": "UVCT4AT54",
        "ts": "1584288469.152800",
        "team": "TUU48M0T1",
        "user_team": "TUU48M0T1",
        "source_team": "TUU48M0T1",
        "user_profile": {
            "avatar_hash": "deae325ec149",
            "image_72": "https:\/\/avatars.slack-edge.com\/2020-03-13\/999319371812_deae325ec1496af7deb8_72.jpg",
            "first_name": "",
            "real_name": "Adrian Pascu",
            "display_name": "Adrian Pascu",
            "team": "TUU48M0T1",
            "name": "ionut.cepleanu",
            "is_restricted": false,
            "is_ultra_restricted": false
        },
        "blocks": [
            {
                "type": "rich_text",
                "block_id": "hANq",
                "elements": [
                    {
                        "type": "rich_text_section",
                        "elements": [
                            {
                                "type": "text",
                                "text": "I anyone could have a look at "
                            },
                            {
                                "type": "channel",
                                "channel_id": "C01001T20RJ"
                            },
                            {
                                "type": "text",
                                "text": " channel and invalidate my speculation."
                            }
                        ]
                    }
                ]
            }
        ]
    },
    {
        "client_msg_id": "940F4125-F537-470A-A27C-2D977F8F9F0A",
        "type": "message",
        "text": "When will the next zoom video call happen ?",
        "user": "U01019BQXM3",
        "ts": "1584295160.155400",
        "team": "TUU48M0T1",
        "user_team": "TUU48M0T1",
        "source_team": "TUU48M0T1",
        "user_profile": {
            "avatar_hash": "7e0f35d8cc55",
            "image_72": "https:\/\/avatars.slack-edge.com\/2020-03-15\/988667349730_7e0f35d8cc556cd89565_72.jpg",
            "first_name": "Marc",
            "real_name": "Marc Bokobza",
            "display_name": "Marc Bokobza",
            "team": "TUU48M0T1",
            "name": "marcbokobza1",
            "is_restricted": false,
            "is_ultra_restricted": false
        },
        "blocks": [
            {
                "type": "rich_text",
                "block_id": "7p5",
                "elements": [
                    {
                        "type": "rich_text_section",
                        "elements": [
                            {
                                "type": "text",
                                "text": "When will the next zoom video call happen ?"
                            }
                        ]
                    }
                ]
            }
        ]
    },
    {
        "client_msg_id": "0e7366ee-005e-4c08-a1c9-3504534ccb08",
        "type": "message",
        "text": "Hi <@U01019BQXM3> it will be this Wednesday at 6pm Paris time",
        "user": "UV02WET96",
        "ts": "1584295221.155900",
        "team": "TUU48M0T1",
        "user_team": "TUU48M0T1",
        "source_team": "TUU48M0T1",
        "user_profile": {
            "avatar_hash": "a99c74a194f8",
            "image_72": "https:\/\/avatars.slack-edge.com\/2020-03-07\/975708504851_a99c74a194f86715ca7d_72.png",
            "first_name": "Thomas",
            "real_name": "Thomas Landrain",
            "display_name": "Thomas Landrain - CoFounder\/CEO JOGL",
            "team": "TUU48M0T1",
            "name": "thomas",
            "is_restricted": false,
            "is_ultra_restricted": false
        },
        "blocks": [
            {
                "type": "rich_text",
                "block_id": "gvc",
                "elements": [
                    {
                        "type": "rich_text_section",
                        "elements": [
                            {
                                "type": "text",
                                "text": "Hi "
                            },
                            {
                                "type": "user",
                                "user_id": "U01019BQXM3"
                            },
                            {
                                "type": "text",
                                "text": " it will be this Wednesday at 6pm Paris time"
                            }
                        ]
                    }
                ]
            }
        ]
    },
    {
        "client_msg_id": "771202AC-D6F7-4366-BD67-E9E04E94E0C4",
        "type": "message",
        "text": "Perfect",
        "user": "U01019BQXM3",
        "ts": "1584295842.156100",
        "team": "TUU48M0T1",
        "user_team": "TUU48M0T1",
        "source_team": "TUU48M0T1",
        "user_profile": {
            "avatar_hash": "7e0f35d8cc55",
            "image_72": "https:\/\/avatars.slack-edge.com\/2020-03-15\/988667349730_7e0f35d8cc556cd89565_72.jpg",
            "first_name": "Marc",
            "real_name": "Marc Bokobza",
            "display_name": "Marc Bokobza",
            "team": "TUU48M0T1",
            "name": "marcbokobza1",
            "is_restricted": false,
            "is_ultra_restricted": false
        },
        "blocks": [
            {
                "type": "rich_text",
                "block_id": "yiP",
                "elements": [
                    {
                        "type": "rich_text_section",
                        "elements": [
                            {
                                "type": "text",
                                "text": "Perfect"
                            }
                        ]
                    }
                ]
            }
        ]
    },
    {
        "client_msg_id": "ffb36208-518a-4ae8-b614-7361dbfed88c",
        "type": "message",
        "text": "Nice article, check point 6 :grin:\n<https:\/\/singularityhub.com\/2020\/03\/15\/coronavirus-seven-ways-collective-intelligence-is-tackling-the-pandemic>",
        "user": "UUWPKNE2E",
        "ts": "1584307391.158200",
        "team": "TUU48M0T1",
        "user_team": "TUU48M0T1",
        "source_team": "TUU48M0T1",
        "user_profile": {
            "avatar_hash": "f620efd9688e",
            "image_72": "https:\/\/avatars.slack-edge.com\/2020-03-12\/997456647751_f620efd9688ed753ecfc_72.jpg",
            "first_name": "Luca",
            "real_name": "Luca Haenel",
            "display_name": "Luca Haenel - JOGL Developer",
            "team": "TUU48M0T1",
            "name": "luca.haenel",
            "is_restricted": false,
            "is_ultra_restricted": false
        },
        "attachments": [
            {
                "service_name": "Singularity Hub",
                "title": "Coronavirus: Seven Ways Collective Intelligence Is Tackling the Pandemic",
                "title_link": "https:\/\/singularityhub.com\/2020\/03\/15\/coronavirus-seven-ways-collective-intelligence-is-tackling-the-pandemic",
                "text": "Tackling a global pandemic is a complex task, but collective intelligence is now being used around the world by communities and governments to respond.",
                "fallback": "Singularity Hub: Coronavirus: Seven Ways Collective Intelligence Is Tackling the Pandemic",
                "image_url": "https:\/\/singularityhub.com\/wp-content\/uploads\/2020\/03\/earth-night-city-lights-network-blue-oceans.jpg",
                "image_width": 444,
                "image_height": 250,
                "ts": 1584280851,
                "from_url": "https:\/\/singularityhub.com\/2020\/03\/15\/coronavirus-seven-ways-collective-intelligence-is-tackling-the-pandemic",
                "image_bytes": 309204,
                "service_icon": "https:\/\/singularityhub.com\/wp-content\/uploads\/2017\/09\/index.png",
                "id": 1,
                "original_url": "https:\/\/singularityhub.com\/2020\/03\/15\/coronavirus-seven-ways-collective-intelligence-is-tackling-the-pandemic"
            }
        ],
        "blocks": [
            {
                "type": "rich_text",
                "block_id": "1O7v\/",
                "elements": [
                    {
                        "type": "rich_text_section",
                        "elements": [
                            {
                                "type": "text",
                                "text": "Nice article, check point 6 "
                            },
                            {
                                "type": "emoji",
                                "name": "grin"
                            },
                            {
                                "type": "text",
                                "text": "\n"
                            },
                            {
                                "type": "link",
                                "url": "https:\/\/singularityhub.com\/2020\/03\/15\/coronavirus-seven-ways-collective-intelligence-is-tackling-the-pandemic"
                            }
                        ]
                    }
                ]
            }
        ],
        "reactions": [
            {
                "name": "raised_hands",
                "users": [
                    "UV02WET96",
                    "UV8T52QJ3",
                    "UV90DGB4N",
                    "UV3HA9MM4"
                ],
                "count": 4
            }
        ]
    },
    {
        "client_msg_id": "a37ec9bf-29a5-4957-95c9-1475b582c0db",
        "type": "message",
        "text": "I'm writing a form for gathering more collective intelligence: <https:\/\/forms.gle\/kC2jWSDueLypDHZg8>",
        "user": "UV8T52QJ3",
        "ts": "1584314663.161600",
        "team": "TUU48M0T1",
        "user_team": "TUU48M0T1",
        "source_team": "TUU48M0T1",
        "user_profile": {
            "avatar_hash": "g96f14063d73",
            "image_72": "https:\/\/secure.gravatar.com\/avatar\/96f14063d73cc7867772731f881de414.jpg?s=72&d=https%3A%2F%2Fa.slack-edge.com%2Fdf10d%2Fimg%2Favatars%2Fava_0005-72.png",
            "first_name": "Hernán",
            "real_name": "Hernán Morales Durand",
            "display_name": "Hernán Morales Durand",
            "team": "TUU48M0T1",
            "name": "hernan.morales",
            "is_restricted": false,
            "is_ultra_restricted": false
        },
        "attachments": [
            {
                "service_name": "Google Docs",
                "title": "Tell us and share your COVID-19 challenge or idea!",
                "title_link": "https:\/\/forms.gle\/kC2jWSDueLypDHZg8",
                "text": "Just 2 questions. The more precise the better. We can help each other. Don't be afraid to share your doubts\/challenges. There is a lot of people helping each others in the open source jogl-covid-19 community",
                "fallback": "Google Docs: Tell us and share your COVID-19 challenge or idea!",
                "image_url": "https:\/\/lh3.googleusercontent.com\/ejb8D6pMUcvGpGC4cYBq-SYr7YtTx4q8SEYXfErTekQUFJ5pqa30WwxjIp9-fpMatudghs0",
                "image_width": 333,
                "image_height": 250,
                "from_url": "https:\/\/forms.gle\/kC2jWSDueLypDHZg8",
                "image_bytes": 93858,
                "service_icon": "http:\/\/ssl.gstatic.com\/docs\/forms\/device_home\/ios_120.png",
                "id": 1,
                "original_url": "https:\/\/forms.gle\/kC2jWSDueLypDHZg8"
            }
        ],
        "blocks": [
            {
                "type": "rich_text",
                "block_id": "NMLK",
                "elements": [
                    {
                        "type": "rich_text_section",
                        "elements": [
                            {
                                "type": "text",
                                "text": "I'm writing a form for gathering more collective intelligence: "
                            },
                            {
                                "type": "link",
                                "url": "https:\/\/forms.gle\/kC2jWSDueLypDHZg8"
                            }
                        ]
                    }
                ]
            }
        ],
        "thread_ts": "1584314663.161600",
        "reply_count": 12,
        "reply_users_count": 5,
        "latest_reply": "1584380542.200700",
        "reply_users": [
            "UUWPKNE2E",
            "UV3JN6XUK",
            "UV8T52QJ3",
            "UV02WET96",
            "UV0QTJCMT"
        ],
        "replies": [
            {
                "user": "UUWPKNE2E",
                "ts": "1584346803.171800"
            },
            {
                "user": "UV3JN6XUK",
                "ts": "1584347292.172200"
            },
            {
                "user": "UV3JN6XUK",
                "ts": "1584347314.172400"
            },
            {
                "user": "UV3JN6XUK",
                "ts": "1584347326.172600"
            },
            {
                "user": "UUWPKNE2E",
                "ts": "1584370181.188500"
            },
            {
                "user": "UUWPKNE2E",
                "ts": "1584370193.188700"
            },
            {
                "user": "UV8T52QJ3",
                "ts": "1584374015.194700"
            },
            {
                "user": "UV02WET96",
                "ts": "1584374130.194900"
            },
            {
                "user": "UUWPKNE2E",
                "ts": "1584374988.196400"
            },
            {
                "user": "UV0QTJCMT",
                "ts": "1584379256.199700"
            },
            {
                "user": "UV8T52QJ3",
                "ts": "1584380485.200400"
            },
            {
                "user": "UV8T52QJ3",
                "ts": "1584380542.200700"
            }
        ],
        "subscribed": false
    },
    {
        "client_msg_id": "34974a3e-6962-4067-b13e-2c1eabbc2f7c",
        "type": "message",
        "text": "Please let me know any improvements or suggestions",
        "user": "UV8T52QJ3",
        "ts": "1584314685.162100",
        "team": "TUU48M0T1",
        "user_team": "TUU48M0T1",
        "source_team": "TUU48M0T1",
        "user_profile": {
            "avatar_hash": "g96f14063d73",
            "image_72": "https:\/\/secure.gravatar.com\/avatar\/96f14063d73cc7867772731f881de414.jpg?s=72&d=https%3A%2F%2Fa.slack-edge.com%2Fdf10d%2Fimg%2Favatars%2Fava_0005-72.png",
            "first_name": "Hernán",
            "real_name": "Hernán Morales Durand",
            "display_name": "Hernán Morales Durand",
            "team": "TUU48M0T1",
            "name": "hernan.morales",
            "is_restricted": false,
            "is_ultra_restricted": false
        },
        "blocks": [
            {
                "type": "rich_text",
                "block_id": "HJw",
                "elements": [
                    {
                        "type": "rich_text_section",
                        "elements": [
                            {
                                "type": "text",
                                "text": "Please let me know any improvements or suggestions"
                            }
                        ]
                    }
                ]
            }
        ],
        "reactions": [
            {
                "name": "+1",
                "users": [
                    "UV2SC7ZE3",
                    "UUWPKNE2E"
                ],
                "count": 2
            }
        ]
    },
    {
        "client_msg_id": "9b26c633-cd57-4758-a925-5b8210fd2d7d",
        "type": "message",
        "text": "With all this telework happening, I've written a service to help admins get WireGuard VPN up and running in their environment quickly. <https:\/\/github.com\/nickadam\/ordig>",
        "user": "UV2QYU1PC",
        "ts": "1584320299.165700",
        "team": "TUU48M0T1",
        "user_team": "TUU48M0T1",
        "source_team": "TUU48M0T1",
        "user_profile": {
            "avatar_hash": "g5f38cb26249",
            "image_72": "https:\/\/secure.gravatar.com\/avatar\/5f38cb26249136cf2e5a805f0a32e7f1.jpg?s=72&d=https%3A%2F%2Fa.slack-edge.com%2Fdf10d%2Fimg%2Favatars%2Fava_0019-72.png",
            "first_name": "",
            "real_name": "Nick Vissari",
            "display_name": "Nick Vissari",
            "team": "TUU48M0T1",
            "name": "networknerd",
            "is_restricted": false,
            "is_ultra_restricted": false
        },
        "attachments": [
            {
                "fallback": "nickadam\/ordig",
                "text": "Automatic WireGuard VPN for Windows",
                "title": "nickadam\/ordig",
                "footer": "<https:\/\/github.com\/nickadam\/ordig|nickadam\/ordig>",
                "id": 1,
                "footer_icon": "https:\/\/github.githubassets.com\/favicon.ico",
                "ts": 1584290780,
                "color": "24292f",
                "fields": [
                    {
                        "title": "Stars",
                        "value": "1",
                        "short": true
                    },
                    {
                        "title": "Language",
                        "value": "JavaScript",
                        "short": true
                    }
                ],
                "mrkdwn_in": [
                    "text",
                    "fields"
                ],
                "bot_id": "BUW789DM0",
                "app_unfurl_url": "https:\/\/github.com\/nickadam\/ordig",
                "is_app_unfurl": true
            }
        ],
        "blocks": [
            {
                "type": "rich_text",
                "block_id": "9\/Tx",
                "elements": [
                    {
                        "type": "rich_text_section",
                        "elements": [
                            {
                                "type": "text",
                                "text": "With all this telework happening, I've written a service to help admins get WireGuard VPN up and running in their environment quickly. "
                            },
                            {
                                "type": "link",
                                "url": "https:\/\/github.com\/nickadam\/ordig"
                            }
                        ]
                    }
                ]
            }
        ],
        "reactions": [
            {
                "name": "clap",
                "users": [
                    "U0101204092"
                ],
                "count": 1
            }
        ]
    },
    {
        "type": "message",
        "text": "Hi! I thought it may be helpful to share to those who don't already know that you can star a channel to keep it in a separate section above the rest of the channels. I would recommend starring just the projects\/challenge you are actively working on so that those are separated from the many channels where you just want to observe. Hope that's helpful!",
        "files": [
            {
                "id": "FV30H66GJ",
                "created": 1584330253,
                "timestamp": 1584330253,
                "name": "Screen Shot 2020-03-15 at 8.41.02 PM.png",
                "title": "Screen Shot 2020-03-15 at 8.41.02 PM.png",
                "mimetype": "image\/png",
                "filetype": "png",
                "pretty_type": "PNG",
                "user": "UUS2G6N6M",
                "editable": false,
                "size": 15057,
                "mode": "hosted",
                "is_external": false,
                "external_type": "",
                "is_public": true,
                "public_url_shared": false,
                "display_as_bot": false,
                "username": "",
                "url_private": "https:\/\/files.slack.com\/files-pri\/TUU48M0T1-FV30H66GJ\/screen_shot_2020-03-15_at_8.41.02_pm.png?t=xoxe-980144714919-1031585465028-1034106672247-1815eabca44f30d1d2d966083f8c8bbb",
                "url_private_download": "https:\/\/files.slack.com\/files-pri\/TUU48M0T1-FV30H66GJ\/download\/screen_shot_2020-03-15_at_8.41.02_pm.png?t=xoxe-980144714919-1031585465028-1034106672247-1815eabca44f30d1d2d966083f8c8bbb",
                "thumb_64": "https:\/\/files.slack.com\/files-tmb\/TUU48M0T1-FV30H66GJ-081f34025a\/screen_shot_2020-03-15_at_8.41.02_pm_64.png?t=xoxe-980144714919-1031585465028-1034106672247-1815eabca44f30d1d2d966083f8c8bbb",
                "thumb_80": "https:\/\/files.slack.com\/files-tmb\/TUU48M0T1-FV30H66GJ-081f34025a\/screen_shot_2020-03-15_at_8.41.02_pm_80.png?t=xoxe-980144714919-1031585465028-1034106672247-1815eabca44f30d1d2d966083f8c8bbb",
                "thumb_360": "https:\/\/files.slack.com\/files-tmb\/TUU48M0T1-FV30H66GJ-081f34025a\/screen_shot_2020-03-15_at_8.41.02_pm_360.png?t=xoxe-980144714919-1031585465028-1034106672247-1815eabca44f30d1d2d966083f8c8bbb",
                "thumb_360_w": 215,
                "thumb_360_h": 111,
                "thumb_160": "https:\/\/files.slack.com\/files-tmb\/TUU48M0T1-FV30H66GJ-081f34025a\/screen_shot_2020-03-15_at_8.41.02_pm_160.png?t=xoxe-980144714919-1031585465028-1034106672247-1815eabca44f30d1d2d966083f8c8bbb",
                "image_exif_rotation": 1,
                "original_w": 215,
                "original_h": 111,
                "thumb_tiny": "AwAYADChS4G3rzQFJpDwcYNWaGxY5Fiu0ZPOB+NS75uP3YP\/AAKs+31BIbYJ5bFhn6VJ\/akRAzG4PtioM2XA83GYx\/31UtU7e9ink2hWU4zlu9W8DP40AYAfGeOtNywbcpwaKKs0sXILSeaISCYDd2\/SnjTrgDAnH5Va0\/8A480\/H+dWagzZnR2LJKHlcvx\/CKtlIySSrg9eM1L2FJTA\/9k=",
                "permalink": "https:\/\/open-covid19.slack.com\/files\/UUS2G6N6M\/FV30H66GJ\/screen_shot_2020-03-15_at_8.41.02_pm.png",
                "permalink_public": "https:\/\/slack-files.com\/TUU48M0T1-FV30H66GJ-09464430ad",
                "is_starred": false,
                "has_rich_preview": false
            }
        ],
        "upload": true,
        "blocks": [
            {
                "type": "rich_text",
                "block_id": "nEF",
                "elements": [
                    {
                        "type": "rich_text_section",
                        "elements": [
                            {
                                "type": "text",
                                "text": "Hi! I thought it may be helpful to share to those who don't already know that you can star a channel to keep it in a separate section above the rest of the channels. I would recommend starring just the projects\/challenge you are actively working on so that those are separated from the many channels where you just want to observe. Hope that's helpful!"
                            }
                        ]
                    }
                ]
            }
        ],
        "user": "UUS2G6N6M",
        "display_as_bot": false,
        "ts": "1584330254.168800",
        "client_msg_id": "34f2dfec-d121-4555-9c48-c33db1a8d949",
        "thread_ts": "1584330254.168800",
        "reply_count": 4,
        "reply_users_count": 4,
        "latest_reply": "1584357222.174900",
        "reply_users": [
            "UUS2G6N6M",
            "UV2SC7ZE3",
            "UUPFF4TC3",
            "UV5CCJ9RC"
        ],
        "replies": [
            {
                "user": "UUS2G6N6M",
                "ts": "1584330272.169200"
            },
            {
                "user": "UV2SC7ZE3",
                "ts": "1584330402.169500"
            },
            {
                "user": "UUPFF4TC3",
                "ts": "1584333908.170300"
            },
            {
                "user": "UV5CCJ9RC",
                "ts": "1584357222.174900"
            }
        ],
        "subscribed": false,
        "reactions": [
            {
                "name": "+1",
                "users": [
                    "UV13874FN",
                    "UV2SC7ZE3",
                    "UV0QTJCMT",
                    "UUPFF4TC3",
                    "U0100QFHM52",
                    "UV02WET96",
                    "UVC7J1K7Y"
                ],
                "count": 7
            },
            {
                "name": "star",
                "users": [
                    "U010120CH2Q",
                    "UV02WET96"
                ],
                "count": 2
            }
        ]
    },
    {
        "client_msg_id": "25e3afd5-b212-4cdd-860e-9f208e1fb572",
        "type": "message",
        "text": "You can also right-click a channel -&gt; star",
        "user": "UUS2G6N6M",
        "ts": "1584330272.169200",
        "team": "TUU48M0T1",
        "user_team": "TUU48M0T1",
        "source_team": "TUU48M0T1",
        "user_profile": {
            "avatar_hash": "c10d653714db",
            "image_72": "https:\/\/avatars.slack-edge.com\/2020-03-14\/989283742883_c10d653714db5ea07cc9_72.png",
            "first_name": "Claire",
            "real_name": "Claire Yang",
            "display_name": "Claire Yang",
            "team": "TUU48M0T1",
            "name": "claire.xl.yang",
            "is_restricted": false,
            "is_ultra_restricted": false
        },
        "blocks": [
            {
                "type": "rich_text",
                "block_id": "Qimd\/",
                "elements": [
                    {
                        "type": "rich_text_section",
                        "elements": [
                            {
                                "type": "text",
                                "text": "You can also right-click a channel -> star"
                            }
                        ]
                    }
                ]
            }
        ],
        "thread_ts": "1584330254.168800",
        "parent_user_id": "UUS2G6N6M"
    },
    {
        "client_msg_id": "94eb691c-603f-4628-aea6-c5f249cf02b9",
        "type": "message",
        "text": "This is really helpful! Thanks for sharing!",
        "user": "UV2SC7ZE3",
        "ts": "1584330402.169500",
        "team": "TUU48M0T1",
        "user_team": "TUU48M0T1",
        "source_team": "TUU48M0T1",
        "user_profile": {
            "avatar_hash": "d28dd0d076e8",
            "image_72": "https:\/\/avatars.slack-edge.com\/2020-03-14\/987873094258_d28dd0d076e8fa9a8409_72.png",
            "first_name": "David",
            "real_name": "David Lu",
            "display_name": "David Lu",
            "team": "TUU48M0T1",
            "name": "ludavidyi",
            "is_restricted": false,
            "is_ultra_restricted": false
        },
        "blocks": [
            {
                "type": "rich_text",
                "block_id": "PD0",
                "elements": [
                    {
                        "type": "rich_text_section",
                        "elements": [
                            {
                                "type": "text",
                                "text": "This is really helpful! Thanks for sharing!"
                            }
                        ]
                    }
                ]
            }
        ],
        "thread_ts": "1584330254.168800",
        "parent_user_id": "UUS2G6N6M",
        "reactions": [
            {
                "name": "+1",
                "users": [
                    "UUS2G6N6M",
                    "UV0QTJCMT"
                ],
                "count": 2
            }
        ]
    },
    {
        "client_msg_id": "568f1e2c-3068-478e-b452-d9dedabeabaf",
        "type": "message",
        "text": "The hero we never knew we needed :triumph:",
        "user": "UUPFF4TC3",
        "ts": "1584333908.170300",
        "team": "TUU48M0T1",
        "user_team": "TUU48M0T1",
        "source_team": "TUU48M0T1",
        "user_profile": {
            "avatar_hash": "g563e1ed9e36",
            "image_72": "https:\/\/secure.gravatar.com\/avatar\/563e1ed9e362af0ce5867baad4d7c568.jpg?s=72&d=https%3A%2F%2Fa.slack-edge.com%2Fdf10d%2Fimg%2Favatars%2Fava_0007-72.png",
            "first_name": "Sophie",
            "real_name": "Sophie Liu",
            "display_name": "Sophie Liu",
            "team": "TUU48M0T1",
            "name": "sophie006liu",
            "is_restricted": false,
            "is_ultra_restricted": false
        },
        "blocks": [
            {
                "type": "rich_text",
                "block_id": "aE7I",
                "elements": [
                    {
                        "type": "rich_text_section",
                        "elements": [
                            {
                                "type": "text",
                                "text": "The hero we never knew we needed "
                            },
                            {
                                "type": "emoji",
                                "name": "triumph"
                            }
                        ]
                    }
                ]
            }
        ],
        "thread_ts": "1584330254.168800",
        "parent_user_id": "UUS2G6N6M",
        "reactions": [
            {
                "name": "heart_eyes",
                "users": [
                    "UUS2G6N6M"
                ],
                "count": 1
            },
            {
                "name": "face_with_hand_over_mouth",
                "users": [
                    "UUS2G6N6M"
                ],
                "count": 1
            },
            {
                "name": "heart",
                "users": [
                    "UUS2G6N6M"
                ],
                "count": 1
            },
            {
                "name": "v",
                "users": [
                    "UUS2G6N6M"
                ],
                "count": 1
            }
        ]
    }
]