[
    {
        "client_msg_id": "729a902f-706c-40bd-9357-55022e96df42",
        "type": "message",
        "text": "I wonder if they might also want or share advice about which kit(s) seem the best now...  (might also be interesting to know who are their advisors now?  guess Seattle has no lack of biomed experts!) :slightly_smiling_face:",
        "user": "UV1A22N3W",
        "ts": "1583913113.022400",
        "team": "TUU48M0T1",
        "user_team": "TUU48M0T1",
        "source_team": "TUU48M0T1",
        "user_profile": {
            "avatar_hash": "71f827776ad6",
            "image_72": "https:\/\/avatars.slack-edge.com\/2020-03-09\/988125642964_71f827776ad610af05a2_72.jpg",
            "first_name": "",
            "real_name": "RachelA",
            "display_name": "RachelA",
            "team": "TUU48M0T1",
            "name": "raronoff",
            "is_restricted": false,
            "is_ultra_restricted": false
        },
        "edited": {
            "user": "UV1A22N3W",
            "ts": "1583913211.000000"
        },
        "blocks": [
            {
                "type": "rich_text",
                "block_id": "fFu",
                "elements": [
                    {
                        "type": "rich_text_section",
                        "elements": [
                            {
                                "type": "text",
                                "text": "I wonder if they might also want or share advice about which kit(s) seem the best now...  (might also be interesting to know who are their advisors now?  guess Seattle has no lack of biomed experts!) "
                            },
                            {
                                "type": "emoji",
                                "name": "slightly_smiling_face"
                            }
                        ]
                    }
                ]
            }
        ],
        "thread_ts": "1583827330.018400",
        "parent_user_id": "UV1A22N3W"
    },
    {
        "client_msg_id": "f9ba9570-6e34-4e40-a08f-75cc4f587b5d",
        "type": "message",
        "text": "Rob Carlson’s going to write a series of blog posts on SARS-CoV-2\/COVID19. Always worth reading what he has to say on biosecurity and infectious disease. Here’s the first post <http:\/\/www.synthesis.cc\/synthesis\/2020\/3\/uncertainty-in-the-time-of-covid-19>. Next one looks like it’s going to be on diagnostics.",
        "user": "UUNGFHSV8",
        "ts": "1583976248.029000",
        "team": "TUU48M0T1",
        "user_team": "TUU48M0T1",
        "source_team": "TUU48M0T1",
        "user_profile": {
            "avatar_hash": "1c55ee32397a",
            "image_72": "https:\/\/avatars.slack-edge.com\/2020-03-07\/987349161984_1c55ee32397a85a87ec4_72.png",
            "first_name": "Isaac",
            "real_name": "Isaac Larkin",
            "display_name": "Isaac Larkin",
            "team": "TUU48M0T1",
            "name": "eyesmo",
            "is_restricted": false,
            "is_ultra_restricted": false
        },
        "attachments": [
            {
                "service_name": "synthesis",
                "title": "Uncertainty in the Time of COVID-19, Part 1 — synthesis",
                "title_link": "http:\/\/www.synthesis.cc\/synthesis\/2020\/3\/uncertainty-in-the-time-of-covid-19",
                "text": "Part 1: Introduction Times being what they are, in which challenging events abound and good information is hard to come by, I am delving back into writing about infectious disease (ID). While I’ve not been posting here about the intersection of ID, preparedness, and biosecurity, I have continued t",
                "fallback": "synthesis: Uncertainty in the Time of COVID-19, Part 1 — synthesis",
                "thumb_url": "http:\/\/static1.squarespace.com\/static\/57645a78ebbd1a1d25dcb511\/t\/5e5dfb73d10fed5651bf7fd8\/1583218471006\/2019nCoVPhylogenyCirc_NoLegend-700x394.png?format=1500w",
                "from_url": "http:\/\/www.synthesis.cc\/synthesis\/2020\/3\/uncertainty-in-the-time-of-covid-19",
                "thumb_width": 700,
                "thumb_height": 394,
                "service_icon": "https:\/\/assets.squarespace.com\/universal\/default-favicon.ico",
                "id": 1,
                "original_url": "http:\/\/www.synthesis.cc\/synthesis\/2020\/3\/uncertainty-in-the-time-of-covid-19"
            }
        ],
        "blocks": [
            {
                "type": "rich_text",
                "block_id": "=EQe",
                "elements": [
                    {
                        "type": "rich_text_section",
                        "elements": [
                            {
                                "type": "text",
                                "text": "Rob Carlson’s going to write a series of blog posts on SARS-CoV-2\/COVID19. Always worth reading what he has to say on biosecurity and infectious disease. Here’s the first post "
                            },
                            {
                                "type": "link",
                                "url": "http:\/\/www.synthesis.cc\/synthesis\/2020\/3\/uncertainty-in-the-time-of-covid-19"
                            },
                            {
                                "type": "text",
                                "text": ". Next one looks like it’s going to be on diagnostics."
                            }
                        ]
                    }
                ]
            }
        ]
    },
    {
        "client_msg_id": "a68beec8-76e6-4f95-94f9-f90404b45537",
        "type": "message",
        "text": "Not a big fan of his since this article. He is not a fan of community science\n<https:\/\/www.nytimes.com\/2012\/03\/06\/health\/amateur-biologists-are-new-fear-in-making-a-mutant-flu-virus.html|https:\/\/www.nytimes.com\/2012\/03\/06\/health\/amateur-biologists-are-new-fear-in-making-a-mutant-flu-virus.html>",
        "user": "UUPQGNNTV",
        "ts": "1583976459.030300",
        "team": "TUU48M0T1",
        "user_team": "TUU48M0T1",
        "source_team": "TUU48M0T1",
        "user_profile": {
            "avatar_hash": "c28127caf7eb",
            "image_72": "https:\/\/avatars.slack-edge.com\/2020-03-07\/989562470694_c28127caf7ebfe67df97_72.jpg",
            "first_name": "",
            "real_name": "Ellen Jorgensen",
            "display_name": "",
            "team": "TUU48M0T1",
            "name": "ejorgensen",
            "is_restricted": false,
            "is_ultra_restricted": false
        },
        "attachments": [
            {
                "service_name": "The New York Times",
                "service_url": "https:\/\/www.nytimes.com",
                "title": "Amateurs Are New Fear in Creating Mutant Virus",
                "title_link": "https:\/\/www.nytimes.com\/2012\/03\/06\/health\/amateur-biologists-are-new-fear-in-making-a-mutant-flu-virus.html",
                "author_name": "By Carl Zimmer",
                "thumb_url": "https:\/\/static01.nyt.com\/images\/2014\/12\/09\/us\/Tlogo-news-black-on-white\/Tlogo-news-black-on-white-mediumThreeByTwo440.png",
                "thumb_width": 440,
                "thumb_height": 293,
                "text": "Scientists are sharply divided over how easy it might be to make a virulent form of the bird flu virus.",
                "fallback": "The New York Times Amateurs Are New Fear in Creating Mutant Virus",
                "from_url": "https:\/\/www.nytimes.com\/2012\/03\/06\/health\/amateur-biologists-are-new-fear-in-making-a-mutant-flu-virus.html",
                "service_icon": "https:\/\/a.slack-edge.com\/80588\/img\/unfurl_icons\/nytimes.png",
                "id": 1,
                "original_url": "https:\/\/www.nytimes.com\/2012\/03\/06\/health\/amateur-biologists-are-new-fear-in-making-a-mutant-flu-virus.html"
            }
        ],
        "blocks": [
            {
                "type": "rich_text",
                "block_id": "oWmR",
                "elements": [
                    {
                        "type": "rich_text_section",
                        "elements": [
                            {
                                "type": "text",
                                "text": "Not a big fan of his since this article. He is not a fan of community science\n"
                            },
                            {
                                "type": "link",
                                "url": "https:\/\/www.nytimes.com\/2012\/03\/06\/health\/amateur-biologists-are-new-fear-in-making-a-mutant-flu-virus.html",
                                "text": "https:\/\/www.nytimes.com\/2012\/03\/06\/health\/amateur-biologists-are-new-fear-in-making-a-mutant-flu-virus.html"
                            }
                        ]
                    }
                ]
            }
        ],
        "thread_ts": "1583976459.030300",
        "reply_count": 2,
        "reply_users_count": 1,
        "latest_reply": "1583977704.034600",
        "reply_users": [
            "UUNGFHSV8"
        ],
        "replies": [
            {
                "user": "UUNGFHSV8",
                "ts": "1583977682.034400"
            },
            {
                "user": "UUNGFHSV8",
                "ts": "1583977704.034600"
            }
        ],
        "subscribed": false
    },
    {
        "client_msg_id": "c3a78d42-600e-4577-8a5f-662194d6103a",
        "type": "message",
        "text": "When I mentioned to our FBI contacts that his article would have been more accurate had Zimmer asked their opinion, they said Zimmer had interviewed them but omitted it from the article when they told him they had no fears about our community creating viruses.",
        "user": "UUPQGNNTV",
        "ts": "1583976612.034100",
        "team": "TUU48M0T1",
        "user_team": "TUU48M0T1",
        "source_team": "TUU48M0T1",
        "user_profile": {
            "avatar_hash": "c28127caf7eb",
            "image_72": "https:\/\/avatars.slack-edge.com\/2020-03-07\/989562470694_c28127caf7ebfe67df97_72.jpg",
            "first_name": "",
            "real_name": "Ellen Jorgensen",
            "display_name": "",
            "team": "TUU48M0T1",
            "name": "ejorgensen",
            "is_restricted": false,
            "is_ultra_restricted": false
        },
        "blocks": [
            {
                "type": "rich_text",
                "block_id": "HNr",
                "elements": [
                    {
                        "type": "rich_text_section",
                        "elements": [
                            {
                                "type": "text",
                                "text": "When I mentioned to our FBI contacts that his article would have been more accurate had Zimmer asked their opinion, they said Zimmer had interviewed them but omitted it from the article when they told him they had no fears about our community creating viruses."
                            }
                        ]
                    }
                ]
            }
        ]
    },
    {
        "client_msg_id": "b9aceac2-afe0-4c36-9cd5-52226dfd59a3",
        "type": "message",
        "text": "Huh. I always thought Rob was good at speaking about the intersection of community bio and biosecurity.",
        "user": "UUNGFHSV8",
        "ts": "1583977682.034400",
        "team": "TUU48M0T1",
        "user_team": "TUU48M0T1",
        "source_team": "TUU48M0T1",
        "user_profile": {
            "avatar_hash": "1c55ee32397a",
            "image_72": "https:\/\/avatars.slack-edge.com\/2020-03-07\/987349161984_1c55ee32397a85a87ec4_72.png",
            "first_name": "Isaac",
            "real_name": "Isaac Larkin",
            "display_name": "Isaac Larkin",
            "team": "TUU48M0T1",
            "name": "eyesmo",
            "is_restricted": false,
            "is_ultra_restricted": false
        },
        "blocks": [
            {
                "type": "rich_text",
                "block_id": "5u311",
                "elements": [
                    {
                        "type": "rich_text_section",
                        "elements": [
                            {
                                "type": "text",
                                "text": "Huh. I always thought Rob was good at speaking about the intersection of community bio and biosecurity."
                            }
                        ]
                    }
                ]
            }
        ],
        "thread_ts": "1583976459.030300",
        "parent_user_id": "UUPQGNNTV"
    },
    {
        "client_msg_id": "118827d8-96d5-4c41-87bd-4b85364970f3",
        "type": "message",
        "text": "Wait, I don’t see Rob quoted anywhere in that article.",
        "user": "UUNGFHSV8",
        "ts": "1583977704.034600",
        "team": "TUU48M0T1",
        "user_team": "TUU48M0T1",
        "source_team": "TUU48M0T1",
        "user_profile": {
            "avatar_hash": "1c55ee32397a",
            "image_72": "https:\/\/avatars.slack-edge.com\/2020-03-07\/987349161984_1c55ee32397a85a87ec4_72.png",
            "first_name": "Isaac",
            "real_name": "Isaac Larkin",
            "display_name": "Isaac Larkin",
            "team": "TUU48M0T1",
            "name": "eyesmo",
            "is_restricted": false,
            "is_ultra_restricted": false
        },
        "blocks": [
            {
                "type": "rich_text",
                "block_id": "IxV",
                "elements": [
                    {
                        "type": "rich_text_section",
                        "elements": [
                            {
                                "type": "text",
                                "text": "Wait, I don’t see Rob quoted anywhere in that article."
                            }
                        ]
                    }
                ]
            }
        ],
        "thread_ts": "1583976459.030300",
        "parent_user_id": "UUPQGNNTV"
    },
    {
        "client_msg_id": "efd6dd65-163b-4580-8eac-426cf96b040e",
        "type": "message",
        "text": "Was Rob somehow involved in that article? I don’t see him quoted anywhere in it.",
        "user": "UUNGFHSV8",
        "ts": "1583977776.035300",
        "team": "TUU48M0T1",
        "user_team": "TUU48M0T1",
        "source_team": "TUU48M0T1",
        "user_profile": {
            "avatar_hash": "1c55ee32397a",
            "image_72": "https:\/\/avatars.slack-edge.com\/2020-03-07\/987349161984_1c55ee32397a85a87ec4_72.png",
            "first_name": "Isaac",
            "real_name": "Isaac Larkin",
            "display_name": "Isaac Larkin",
            "team": "TUU48M0T1",
            "name": "eyesmo",
            "is_restricted": false,
            "is_ultra_restricted": false
        },
        "blocks": [
            {
                "type": "rich_text",
                "block_id": "KIz",
                "elements": [
                    {
                        "type": "rich_text_section",
                        "elements": [
                            {
                                "type": "text",
                                "text": "Was Rob somehow involved in that article? I don’t see him quoted anywhere in it."
                            }
                        ]
                    }
                ]
            }
        ]
    },
    {
        "client_msg_id": "c5c93d9c-5277-43b4-ac50-d19be832549c",
        "type": "message",
        "text": "Oh crap sorry. I thought you wrote Carl Zimmer, not Rob Carlson- my bad. My only excuse is I've been on Slack and LinkedIn for 18 hours today :face_with_rolling_eyes:",
        "user": "UUPQGNNTV",
        "ts": "1583985797.037900",
        "team": "TUU48M0T1",
        "user_team": "TUU48M0T1",
        "source_team": "TUU48M0T1",
        "user_profile": {
            "avatar_hash": "c28127caf7eb",
            "image_72": "https:\/\/avatars.slack-edge.com\/2020-03-07\/989562470694_c28127caf7ebfe67df97_72.jpg",
            "first_name": "",
            "real_name": "Ellen Jorgensen",
            "display_name": "",
            "team": "TUU48M0T1",
            "name": "ejorgensen",
            "is_restricted": false,
            "is_ultra_restricted": false
        },
        "blocks": [
            {
                "type": "rich_text",
                "block_id": "zRc",
                "elements": [
                    {
                        "type": "rich_text_section",
                        "elements": [
                            {
                                "type": "text",
                                "text": "Oh crap sorry. I thought you wrote Carl Zimmer, not Rob Carlson- my bad. My only excuse is I've been on Slack and LinkedIn for 18 hours today "
                            },
                            {
                                "type": "emoji",
                                "name": "face_with_rolling_eyes"
                            }
                        ]
                    }
                ]
            }
        ]
    }
]