[
    {
        "client_msg_id": "762B1295-5231-4DFD-B536-94DE786C5469",
        "type": "message",
        "text": "This is great <@UV1V637PU>! Do you happen to know some of the organizers? We could go a partnership between them and JOGL so that they could either propose existing projects or bring the new projects to the OpenCovid19 program. ",
        "user": "UV02WET96",
        "ts": "1585211099.038900",
        "team": "TUU48M0T1",
        "user_team": "TUU48M0T1",
        "source_team": "TUU48M0T1",
        "user_profile": {
            "avatar_hash": "a99c74a194f8",
            "image_72": "https:\/\/avatars.slack-edge.com\/2020-03-07\/975708504851_a99c74a194f86715ca7d_72.png",
            "first_name": "Thomas",
            "real_name": "Thomas Landrain",
            "display_name": "Thomas Landrain - CoFounder\/CEO JOGL",
            "team": "TUU48M0T1",
            "name": "thomas",
            "is_restricted": false,
            "is_ultra_restricted": false
        },
        "blocks": [
            {
                "type": "rich_text",
                "block_id": "Lyr",
                "elements": [
                    {
                        "type": "rich_text_section",
                        "elements": [
                            {
                                "type": "text",
                                "text": "This is great "
                            },
                            {
                                "type": "user",
                                "user_id": "UV1V637PU"
                            },
                            {
                                "type": "text",
                                "text": "! Do you happen to know some of the organizers? We could go a partnership between them and JOGL so that they could either propose existing projects or bring the new projects to the OpenCovid19 program. "
                            }
                        ]
                    }
                ]
            }
        ],
        "thread_ts": "1585177618.033000",
        "parent_user_id": "UV1V637PU"
    },
    {
        "client_msg_id": "90a0f970-2061-4de7-89a3-8830bc220afd",
        "type": "message",
        "text": "<http:\/\/chng.it\/WHgQS58p8S>",
        "user": "UVA0E24KZ",
        "ts": "1585212254.039300",
        "team": "TUU48M0T1",
        "user_team": "TUU48M0T1",
        "source_team": "TUU48M0T1",
        "user_profile": {
            "avatar_hash": "g8d0c2cd1337",
            "image_72": "https:\/\/secure.gravatar.com\/avatar\/8d0c2cd1337827f7d3f3bafc23baca0b.jpg?s=72&d=https%3A%2F%2Fa.slack-edge.com%2Fdf10d%2Fimg%2Favatars%2Fava_0022-72.png",
            "first_name": "",
            "real_name": "Elliot Roth",
            "display_name": "Elliot Roth",
            "team": "TUU48M0T1",
            "name": "elliot",
            "is_restricted": false,
            "is_ultra_restricted": false
        },
        "attachments": [
            {
                "service_name": "Change.org",
                "title": "Sign the Petition",
                "title_link": "http:\/\/chng.it\/WHgQS58p8S",
                "text": "Demand FDA Approval for At-Home Coronavirus Testing",
                "fallback": "Change.org: Sign the Petition",
                "image_url": "https:\/\/assets.change.org\/photos\/9\/hm\/fs\/RkHMfSRjeLVBnUc-1600x900-noPad.jpg?1585212047",
                "image_width": 444,
                "image_height": 250,
                "from_url": "http:\/\/chng.it\/WHgQS58p8S",
                "image_bytes": 156903,
                "service_icon": "https:\/\/static.change.org\/favicons\/favicon-57x57.png",
                "id": 1,
                "original_url": "http:\/\/chng.it\/WHgQS58p8S"
            }
        ],
        "blocks": [
            {
                "type": "rich_text",
                "block_id": "ZI+",
                "elements": [
                    {
                        "type": "rich_text_section",
                        "elements": [
                            {
                                "type": "link",
                                "url": "http:\/\/chng.it\/WHgQS58p8S"
                            }
                        ]
                    }
                ]
            }
        ]
    },
    {
        "client_msg_id": "ddf13b0f-0f3c-4b25-b021-8b712796f12c",
        "type": "message",
        "text": "Crowdhelix is seeking researchers &amp; innovators worldwide to tackle the COVID-19 pandemic. <https:\/\/bit.ly\/39nJIZo>",
        "user": "UUWQU0D8T",
        "ts": "1585224750.039800",
        "team": "TUU48M0T1",
        "user_team": "TUU48M0T1",
        "source_team": "TUU48M0T1",
        "user_profile": {
            "avatar_hash": "ced1bbd4fafd",
            "image_72": "https:\/\/avatars.slack-edge.com\/2020-03-12\/997488626918_ced1bbd4fafddfa4869c_72.png",
            "first_name": "Marianna",
            "real_name": "Marianna Limas",
            "display_name": "Marianna Limas",
            "team": "TUU48M0T1",
            "name": "mnnlimas",
            "is_restricted": false,
            "is_ultra_restricted": false
        },
        "attachments": [
            {
                "service_name": "Science|Business",
                "title": "Crowdhelix launches open access match-making platform for COVID-19 researchers – for a faster solution",
                "title_link": "https:\/\/bit.ly\/39nJIZo",
                "text": "LONDON and BRUSSELS, 26 March 2020 – UK-based open innovation network Crowdhelix, in partnership with media company Science|Business, has launched a free online match-making service to help COVID-19 researchers find one another across the globe, check out funding opportunities, and get to work tackling the virus faster. The service, at <https:\/\/network.crowdhelix.com\/covid-19>, is a simple online tool for COVID-19 researchers – whatever their country or specialty – to connect. It is advised by Dr. Björn Kull, Head of Grants Office at Karolinska Institutet, the famed Stockholm medical university. It is also supported by leading Belgian university KU Leuven. With the Crowdhelix service, researchers can click through to a special COVID-19 section of its custom-built Open Innovation platform. There, they can profile themselves, their teams, and their organisations, and post opportunities to collaborate. An intelligent recommender system then matches these opportunities with the most suitable prospective collaborators, using natural language processing and machine-learning. At the same time, they can check up on funding opportunities announced around the world, and latest COVID-19 research news, compiled by Science|Business, a Brussels- and London-based media company specialised in international R&amp;D policy and investment. The COVID-19 service is one of several online “Helix” communities, linking academic, industrial and public researchers, in a wide range of scientific disciplines for the past seven years. The network currently connects researchers and innovators from over 450 organisations spanning 44 countries in disciplines from physics to medicine and beyond. The COVID-19 service is free, and is advised by the Karolinska and KU Leuven experts. Said Dr. Kull of Karolinska: “Karolinska Institutet is pleased to lead the COVID-19 Helix community hosted on the Crowdhelix platform. This collaborative initiative is timely and important in tackling the global challenge presented by COVID-19. The pandemic crosses national borders with ease, so it is important for organisations across various countries, sectors, and disciplines to collaborate and share their developing expertise in its diagnosis, prevention, and treatment. We hope colleagues from across the world will join the COVID-19 Helix and collaborate on research projects to help tackle this global challenge.” Said Frauke Christ, Innovation Manager, Division of Molecular Medicine, KU Leuven: “As the Health Helix Leader on the Crowdhelix platform, KU Leuven is pleased to support this important collaborative initiative. KU Leuven has a long history of antiviral research contributing to the fight against infectious diseases. The COVID-19 pandemic is a global challenge that calls for excellent researchers across the world to respond and collaborate. To defeat the outbreak, strong and efficient cooperation between government, industry, and the research community will be crucial. KU Leuven and its world-class researchers are already working with colleagues across the world, and we look forward to extending our reach to other world-class researchers and innovators.” Topics involved in the COVID-19 Helix include: Virology Epidemiology Social Sciences &amp; Humanities Behavioural Science Data Science Contact: For Crowdhelix: Michael Browne, Director <mailto:michael@crowdhelix.com|michael@crowdhelix.com> , +44 7811 210189 For Science|Business: Maryline Fiaschi, Managing Director <mailto:maryline.fiaschi@sciencebusiness.net|maryline.fiaschi@sciencebusiness.net>, +32 477 504078 About the Crowdhelix Network The Crowdhelix Network is an Open Innovation network for universities, research organisations, and businesses seeking funding from the European Union’s €77 billion 'Horizon 2020' programme, and its upcoming successor,  ‘Horizon Europe’. The network connects researchers and innovators from over 450 organisations spanning 44 countries. The Crowdhelix Network is open to applications from any organisation, of any size, anywhere in the world, that can demonstrate a strategic commitment to collaborative research and innovation. <https:\/\/network.crowdhelix.com\/> About Science|Business Science|Business is a media company based in Brussels and London, focused on R&amp;D policy and investment internationally. Its twice-weekly, free newsletter service, news website, and frequent roundtables and conferences bring researchers, policy-makers and industrial R&amp;D managers together to collaborate on advancing science and technology. It is supported by its network of 70 universities, companies and public-sector organisations, and was founded 15 years ago by senior European science and technology journalists. <https:\/\/www.sciencebusiness.net> ",
                "fallback": "Science|Business: Crowdhelix launches open access match-making platform for COVID-19 researchers – for a faster solution",
                "image_url": "https:\/\/sciencebusiness.net\/sites\/default\/files\/styles\/article\/public\/2020-03\/crowdhelix.png?itok=bTya_pOb",
                "from_url": "https:\/\/bit.ly\/39nJIZo",
                "image_width": 583,
                "image_height": 250,
                "image_bytes": 356634,
                "service_icon": "https:\/\/sciencebusiness.net\/themes\/sciencebusiness\/favicons\/apple-touch-icon.png",
                "id": 1,
                "original_url": "https:\/\/bit.ly\/39nJIZo"
            }
        ],
        "blocks": [
            {
                "type": "rich_text",
                "block_id": "AHq9X",
                "elements": [
                    {
                        "type": "rich_text_section",
                        "elements": [
                            {
                                "type": "text",
                                "text": "Crowdhelix is seeking researchers & innovators worldwide to tackle the COVID-19 pandemic. "
                            },
                            {
                                "type": "link",
                                "url": "https:\/\/bit.ly\/39nJIZo"
                            }
                        ]
                    }
                ]
            }
        ],
        "thread_ts": "1585224750.039800",
        "reply_count": 1,
        "reply_users_count": 1,
        "latest_reply": "1585229114.040800",
        "reply_users": [
            "UV10KBUQG"
        ],
        "replies": [
            {
                "user": "UV10KBUQG",
                "ts": "1585229114.040800"
            }
        ],
        "subscribed": false,
        "reactions": [
            {
                "name": "+1::skin-tone-4",
                "users": [
                    "U0103LPAWQ4"
                ],
                "count": 1
            }
        ]
    },
    {
        "client_msg_id": "cff55caf-80d8-41ee-bc84-c0bf21b76189",
        "type": "message",
        "text": "Global Funding Opportunities for Research Related to COVID-19 <https:\/\/docs.google.com\/spreadsheets\/d\/1tw9Pl5U4gjY736aISMKGMPK0PkHZIDz9uHk0kpeYb5s\/edit>",
        "user": "UUWQU0D8T",
        "ts": "1585225087.040400",
        "team": "TUU48M0T1",
        "user_team": "TUU48M0T1",
        "source_team": "TUU48M0T1",
        "user_profile": {
            "avatar_hash": "ced1bbd4fafd",
            "image_72": "https:\/\/avatars.slack-edge.com\/2020-03-12\/997488626918_ced1bbd4fafddfa4869c_72.png",
            "first_name": "Marianna",
            "real_name": "Marianna Limas",
            "display_name": "Marianna Limas",
            "team": "TUU48M0T1",
            "name": "mnnlimas",
            "is_restricted": false,
            "is_ultra_restricted": false
        },
        "blocks": [
            {
                "type": "rich_text",
                "block_id": "JJdi",
                "elements": [
                    {
                        "type": "rich_text_section",
                        "elements": [
                            {
                                "type": "text",
                                "text": "Global Funding Opportunities for Research Related to COVID-19 "
                            },
                            {
                                "type": "link",
                                "url": "https:\/\/docs.google.com\/spreadsheets\/d\/1tw9Pl5U4gjY736aISMKGMPK0PkHZIDz9uHk0kpeYb5s\/edit"
                            }
                        ]
                    }
                ]
            }
        ],
        "reactions": [
            {
                "name": "+1",
                "users": [
                    "UV02WET96"
                ],
                "count": 1
            }
        ]
    },
    {
        "type": "message",
        "text": "Coronavirus: Government orders 10,000 ventilators from Dyson\n<https:\/\/www.bbc.co.uk\/news\/business-52043767>",
        "user": "UV1A22N3W",
        "ts": "1585228957.040600",
        "team": "TUU48M0T1",
        "user_team": "TUU48M0T1",
        "source_team": "TUU48M0T1",
        "user_profile": {
            "avatar_hash": "71f827776ad6",
            "image_72": "https:\/\/avatars.slack-edge.com\/2020-03-09\/988125642964_71f827776ad610af05a2_72.jpg",
            "first_name": "",
            "real_name": "RachelA",
            "display_name": "RachelA",
            "team": "TUU48M0T1",
            "name": "raronoff",
            "is_restricted": false,
            "is_ultra_restricted": false
        },
        "attachments": [
            {
                "service_name": "BBC News",
                "title": "Government orders 10,000 ventilators from Dyson",
                "title_link": "https:\/\/www.bbc.co.uk\/news\/business-52043767",
                "text": "The engineering firm developed a new type of ventilator in response to calls on behalf of the NHS.",
                "fallback": "BBC News: Government orders 10,000 ventilators from Dyson",
                "image_url": "https:\/\/ichef.bbci.co.uk\/news\/1024\/branded_news\/16D5D\/production\/_111433539_2.52776553.jpg",
                "from_url": "https:\/\/www.bbc.co.uk\/news\/business-52043767",
                "image_width": 444,
                "image_height": 250,
                "image_bytes": 65367,
                "service_icon": "https:\/\/static.bbc.co.uk\/news\/1.311.03563\/apple-touch-icon.png",
                "id": 1,
                "original_url": "https:\/\/www.bbc.co.uk\/news\/business-52043767"
            }
        ]
    },
    {
        "client_msg_id": "e2207ce0-2b90-4d30-8b08-95a1ccd523a1",
        "type": "message",
        "text": "How iui s this different from JOGL?",
        "user": "UV10KBUQG",
        "ts": "1585229114.040800",
        "team": "TUU48M0T1",
        "user_team": "TUU48M0T1",
        "source_team": "TUU48M0T1",
        "user_profile": {
            "avatar_hash": "2deebbf6be3d",
            "image_72": "https:\/\/avatars.slack-edge.com\/2020-03-06\/976932190641_2deebbf6be3d17141d91_72.jpg",
            "first_name": "Sarah",
            "real_name": "Sarah Blossom Ware",
            "display_name": "Sarah Blossom Ware - Founder of BioBlaze Community Bio Lab and Geneticist",
            "team": "TUU48M0T1",
            "name": "ware.sarah",
            "is_restricted": false,
            "is_ultra_restricted": false
        },
        "blocks": [
            {
                "type": "rich_text",
                "block_id": "QXkz",
                "elements": [
                    {
                        "type": "rich_text_section",
                        "elements": [
                            {
                                "type": "text",
                                "text": "How iui s this different from JOGL?"
                            }
                        ]
                    }
                ]
            }
        ],
        "thread_ts": "1585224750.039800",
        "parent_user_id": "UUWQU0D8T"
    },
    {
        "client_msg_id": "0fb0c251-0219-45e4-adb9-e3a427c2c96f",
        "type": "message",
        "text": "So back in October I made a trailer for an editing contest. The trailer is about my dog trying to save humanity from a virus that made everyone go crazy, he failed and is leaving a video for his son to continue his work. Thought it was a little funny given the current situation :mask-parrot: Enjoy!! :)\n<https:\/\/youtu.be\/ZQ8wdHUgBvM>",
        "user": "UV7CJF9SN",
        "ts": "1585230190.041200",
        "team": "TUU48M0T1",
        "user_team": "TUU48M0T1",
        "source_team": "TUU48M0T1",
        "user_profile": {
            "avatar_hash": "d98498755dde",
            "image_72": "https:\/\/avatars.slack-edge.com\/2020-03-18\/1011059157527_d98498755dde6739a981_72.png",
            "first_name": "Zaza",
            "real_name": "Zaza Soriano",
            "display_name": "Zaza Soriano",
            "team": "TUU48M0T1",
            "name": "scuzy89",
            "is_restricted": false,
            "is_ultra_restricted": false
        },
        "attachments": [
            {
                "service_name": "YouTube",
                "service_url": "https:\/\/www.youtube.com\/",
                "title": "Shikoku Paws | Official Movie Trailer | Filmsupply Edit Fest",
                "title_link": "https:\/\/youtu.be\/ZQ8wdHUgBvM",
                "author_name": "Zaza Soriano",
                "author_link": "https:\/\/www.youtube.com\/user\/scuzy89",
                "thumb_url": "https:\/\/i.ytimg.com\/vi\/ZQ8wdHUgBvM\/hqdefault.jpg",
                "thumb_width": 480,
                "thumb_height": 360,
                "fallback": "YouTube Video: Shikoku Paws | Official Movie Trailer | Filmsupply Edit Fest",
                "video_html": "<iframe width=\"400\" height=\"225\" src=\"https:\/\/www.youtube.com\/embed\/ZQ8wdHUgBvM?feature=oembed&autoplay=1&iv_load_policy=3\" frameborder=\"0\" allow=\"accelerometer; autoplay; encrypted-media; gyroscope; picture-in-picture\" allowfullscreen><\/iframe>",
                "video_html_width": 400,
                "video_html_height": 225,
                "from_url": "https:\/\/youtu.be\/ZQ8wdHUgBvM",
                "service_icon": "https:\/\/a.slack-edge.com\/80588\/img\/unfurl_icons\/youtube.png",
                "id": 1,
                "original_url": "https:\/\/youtu.be\/ZQ8wdHUgBvM"
            }
        ],
        "blocks": [
            {
                "type": "rich_text",
                "block_id": "5xVPG",
                "elements": [
                    {
                        "type": "rich_text_section",
                        "elements": [
                            {
                                "type": "text",
                                "text": "So back in October I made a trailer for an editing contest. The trailer is about my dog trying to save humanity from a virus that made everyone go crazy, he failed and is leaving a video for his son to continue his work. Thought it was a little funny given the current situation "
                            },
                            {
                                "type": "emoji",
                                "name": "mask-parrot"
                            },
                            {
                                "type": "text",
                                "text": " Enjoy!! :)\n"
                            },
                            {
                                "type": "link",
                                "url": "https:\/\/youtu.be\/ZQ8wdHUgBvM"
                            }
                        ]
                    }
                ]
            }
        ],
        "reactions": [
            {
                "name": "joy",
                "users": [
                    "U010566NJHG",
                    "U0101204092"
                ],
                "count": 2
            },
            {
                "name": "sweat_smile",
                "users": [
                    "U010566NJHG",
                    "UV9V03C8Y"
                ],
                "count": 2
            },
            {
                "name": "grin",
                "users": [
                    "U010566NJHG"
                ],
                "count": 1
            }
        ]
    },
    {
        "client_msg_id": "8aa5bf07-5503-4446-96b6-aef63c284a14",
        "type": "message",
        "text": "Hi folks! Here is a list of MOOCs on covid19 if you wanna learn more about it! #continuouslearning\n• *<https:\/\/www.futurelearn.com\/courses\/covid19-novel-coronavirus|London School of Hygiene and Tropical Medicine>*<https:\/\/www.futurelearn.com\/courses\/covid19-novel-coronavirus|: Tackling the novel coronavirus> (EN-FR)\n*OMS \/ WHO*\n• <https:\/\/openwho.org\/courses\/introduction-to-ncov|Emerging respiratory viruses, including COVID-19: methods for detection, prevention, response and control (EN)>\n• <https:\/\/openwho.org\/courses\/introduction-au-ncov|Virus respiratoires émergents, y compris le COVID-19 : méthodes de détection, de prévention, de réponse et de contrôle> (FR)\n• <https:\/\/openwho.org\/courses\/COVID-19-IPC-EN|Infection Prevention and Control (IPC) for Novel Coronavirus (COVID-19)> (EN)\n• <https:\/\/openwho.org\/courses\/COVID-19-IPC-FR|Prévention et contrôle des infections (PCI) appliqués au nouveau coronavirus (COVID-19)> (FR)\n• *<https:\/\/www.coursera.org\/learn\/covid-19?|Imperial College of London>*<https:\/\/www.coursera.org\/learn\/covid-19?| \/ J-IDEA> (EN)",
        "user": "UV9V03C8Y",
        "ts": "1585234802.042300",
        "team": "TUU48M0T1",
        "user_team": "TUU48M0T1",
        "source_team": "TUU48M0T1",
        "user_profile": {
            "avatar_hash": "177697fb7b8f",
            "image_72": "https:\/\/avatars.slack-edge.com\/2020-03-12\/996126178096_177697fb7b8ffa57649c_72.jpg",
            "first_name": "Camille",
            "real_name": "Camille Masselot",
            "display_name": "Camille Masselot",
            "team": "TUU48M0T1",
            "name": "masselot.camille",
            "is_restricted": false,
            "is_ultra_restricted": false
        },
        "blocks": [
            {
                "type": "rich_text",
                "block_id": "TOj",
                "elements": [
                    {
                        "type": "rich_text_section",
                        "elements": [
                            {
                                "type": "text",
                                "text": "Hi folks! Here is a list of MOOCs on covid19 if you wanna learn more about it! #continuouslearning\n"
                            }
                        ]
                    },
                    {
                        "type": "rich_text_list",
                        "elements": [
                            {
                                "type": "rich_text_section",
                                "elements": [
                                    {
                                        "type": "link",
                                        "url": "https:\/\/www.futurelearn.com\/courses\/covid19-novel-coronavirus",
                                        "text": "London School of Hygiene and Tropical Medicine",
                                        "style": {
                                            "bold": true
                                        }
                                    },
                                    {
                                        "type": "link",
                                        "url": "https:\/\/www.futurelearn.com\/courses\/covid19-novel-coronavirus",
                                        "text": ": Tackling the novel coronavirus"
                                    },
                                    {
                                        "type": "text",
                                        "text": " (EN-FR)"
                                    }
                                ]
                            }
                        ],
                        "style": "bullet",
                        "indent": 0
                    },
                    {
                        "type": "rich_text_section",
                        "elements": [
                            {
                                "type": "text",
                                "text": "OMS \/ WHO",
                                "style": {
                                    "bold": true
                                }
                            },
                            {
                                "type": "text",
                                "text": "\n"
                            }
                        ]
                    },
                    {
                        "type": "rich_text_list",
                        "elements": [
                            {
                                "type": "rich_text_section",
                                "elements": [
                                    {
                                        "type": "link",
                                        "url": "https:\/\/openwho.org\/courses\/introduction-to-ncov",
                                        "text": "Emerging respiratory viruses, including COVID-19: methods for detection, prevention, response and control (EN)"
                                    }
                                ]
                            },
                            {
                                "type": "rich_text_section",
                                "elements": [
                                    {
                                        "type": "link",
                                        "url": "https:\/\/openwho.org\/courses\/introduction-au-ncov",
                                        "text": "Virus respiratoires émergents, y compris le COVID-19 : méthodes de détection, de prévention, de réponse et de contrôle"
                                    },
                                    {
                                        "type": "text",
                                        "text": " (FR)"
                                    }
                                ]
                            },
                            {
                                "type": "rich_text_section",
                                "elements": [
                                    {
                                        "type": "link",
                                        "url": "https:\/\/openwho.org\/courses\/COVID-19-IPC-EN",
                                        "text": "Infection Prevention and Control (IPC) for Novel Coronavirus (COVID-19)"
                                    },
                                    {
                                        "type": "text",
                                        "text": " (EN)"
                                    }
                                ]
                            },
                            {
                                "type": "rich_text_section",
                                "elements": [
                                    {
                                        "type": "link",
                                        "url": "https:\/\/openwho.org\/courses\/COVID-19-IPC-FR",
                                        "text": "Prévention et contrôle des infections (PCI) appliqués au nouveau coronavirus (COVID-19)"
                                    },
                                    {
                                        "type": "text",
                                        "text": " (FR)"
                                    }
                                ]
                            },
                            {
                                "type": "rich_text_section",
                                "elements": [
                                    {
                                        "type": "link",
                                        "url": "https:\/\/www.coursera.org\/learn\/covid-19?",
                                        "text": "Imperial College of London",
                                        "style": {
                                            "bold": true
                                        }
                                    },
                                    {
                                        "type": "link",
                                        "url": "https:\/\/www.coursera.org\/learn\/covid-19?",
                                        "text": " \/ J-IDEA"
                                    },
                                    {
                                        "type": "text",
                                        "text": " (EN)"
                                    }
                                ]
                            }
                        ],
                        "style": "bullet",
                        "indent": 0
                    }
                ]
            }
        ],
        "reactions": [
            {
                "name": "+1::skin-tone-4",
                "users": [
                    "U0103LPAWQ4"
                ],
                "count": 1
            }
        ]
    },
    {
        "client_msg_id": "C11972F5-28BD-42CB-91BC-9863F52E7D97",
        "type": "message",
        "text": "so just posting that here... but some... interesting mask designs...\n\n\n<https:\/\/www.instagram.com\/p\/B-KC3r-J8Yu\/?igshid=qtqak1o1pc66|https:\/\/www.instagram.com\/p\/B-KC3r-J8Yu\/?igshid=qtqak1o1pc66>",
        "user": "UV85V64SD",
        "ts": "1585235201.043000",
        "team": "TUU48M0T1",
        "user_team": "TUU48M0T1",
        "source_team": "TUU48M0T1",
        "user_profile": {
            "avatar_hash": "1e73a651bdfe",
            "image_72": "https:\/\/avatars.slack-edge.com\/2020-03-16\/1004297548853_1e73a651bdfef2c41501_72.jpg",
            "first_name": "Marc",
            "real_name": "Marc Santolini",
            "display_name": "Marc Santolini - CoFounder \/ CSO JOGL",
            "team": "TUU48M0T1",
            "name": "marc.santolini",
            "is_restricted": false,
            "is_ultra_restricted": false
        },
        "attachments": [
            {
                "service_name": "Instagram",
                "title": "𝔘𝔩𝔱𝔯𝔞𝔳𝔦𝔬𝔩𝔢𝔱 𝔄𝔢𝔰𝔱𝔥𝔢𝔱𝔦𝔠𝔰 on Instagram: “meta stay savez out ther  #meta_visions ... ... ... ... ... #art #memesdaily #memes #memepage #shitpost #artwork #aesthetic #arts…”",
                "title_link": "https:\/\/www.instagram.com\/p\/B-KC3r-J8Yu\/?igshid=qtqak1o1pc66",
                "text": "22.2k Likes, 186 Comments - 𝔘𝔩𝔱𝔯𝔞𝔳𝔦𝔬𝔩𝔢𝔱 𝔄𝔢𝔰𝔱𝔥𝔢𝔱𝔦𝔠𝔰 (@meta_visions) on Instagram: “meta stay savez out ther #meta_visions ... ... ... ... ... #art #memesdaily #memes #memepage…”",
                "fallback": "Instagram: 𝔘𝔩𝔱𝔯𝔞𝔳𝔦𝔬𝔩𝔢𝔱 𝔄𝔢𝔰𝔱𝔥𝔢𝔱𝔦𝔠𝔰 on Instagram: “meta stay savez out ther  #meta_visions ... ... ... ... ... #art #memesdaily #memes #memepage #shitpost #artwork #aesthetic #arts…”",
                "image_url": "https:\/\/scontent-iad3-1.cdninstagram.com\/v\/t51.2885-15\/e35\/90510503_1111775575843873_1654021494782452017_n.jpg?_nc_ht=scontent-iad3-1.cdninstagram.com&_nc_cat=101&_nc_ohc=I-d4MVh_pFAAX9r32BJ&oh=a64b885f0fd4d5c513c35e630b6a0136&oe=5EA7D022",
                "from_url": "https:\/\/www.instagram.com\/p\/B-KC3r-J8Yu\/?igshid=qtqak1o1pc66",
                "image_width": 250,
                "image_height": 250,
                "image_bytes": 166204,
                "service_icon": "https:\/\/www.instagram.com\/static\/images\/ico\/apple-touch-icon-76x76-precomposed.png\/666282be8229.png",
                "id": 1,
                "original_url": "https:\/\/www.instagram.com\/p\/B-KC3r-J8Yu\/?igshid=qtqak1o1pc66"
            }
        ],
        "blocks": [
            {
                "type": "rich_text",
                "block_id": "8Vqt",
                "elements": [
                    {
                        "type": "rich_text_section",
                        "elements": [
                            {
                                "type": "text",
                                "text": "so just posting that here... but some... interesting mask designs...\n"
                            },
                            {
                                "type": "text",
                                "text": "\n"
                            },
                            {
                                "type": "text",
                                "text": "\n"
                            },
                            {
                                "type": "link",
                                "url": "https:\/\/www.instagram.com\/p\/B-KC3r-J8Yu\/?igshid=qtqak1o1pc66",
                                "text": "https:\/\/www.instagram.com\/p\/B-KC3r-J8Yu\/?igshid=qtqak1o1pc66"
                            }
                        ]
                    }
                ]
            }
        ]
    },
    {
        "client_msg_id": "c23aa93e-fe36-4207-86f7-38f885511857",
        "type": "message",
        "text": "Job offers at the NANOBIOSENSORS AND BIOANALYTICAL APPLICATIONS GROUP in the Barcelona metropolitan area. The challenge is about a fast SARS-Cov-2 detection test for clinical diagnostic and environmental control.",
        "user": "U010CT19KS9",
        "ts": "1585236350.045900",
        "team": "TUU48M0T1",
        "user_team": "TUU48M0T1",
        "source_team": "TUU48M0T1",
        "user_profile": {
            "avatar_hash": "a09c94a40bbc",
            "image_72": "https:\/\/avatars.slack-edge.com\/2020-03-20\/1003431784099_a09c94a40bbc85d17cc4_72.jpg",
            "first_name": "",
            "real_name": "Gilles Mirambeau",
            "display_name": "Gilles Mirambeau",
            "team": "TUU48M0T1",
            "name": "gilles.mirambeau",
            "is_restricted": false,
            "is_ultra_restricted": false
        },
        "blocks": [
            {
                "type": "rich_text",
                "block_id": "BP8",
                "elements": [
                    {
                        "type": "rich_text_section",
                        "elements": [
                            {
                                "type": "text",
                                "text": "Job offers at the NANOBIOSENSORS AND BIOANALYTICAL APPLICATIONS GROUP in the Barcelona metropolitan area. The challenge is about a fast SARS-Cov-2 detection test for clinical diagnostic and environmental control."
                            }
                        ]
                    }
                ]
            }
        ]
    },
    {
        "client_msg_id": "88d76489-f714-4618-904b-75927262356f",
        "type": "message",
        "text": "<https:\/\/jobs.icn2.cat\/job-openings\/217\/postdoctoral-researcher-nanobiosensors-and-bioanalytical-applications-group>",
        "user": "U010CT19KS9",
        "ts": "1585236352.046100",
        "team": "TUU48M0T1",
        "user_team": "TUU48M0T1",
        "source_team": "TUU48M0T1",
        "user_profile": {
            "avatar_hash": "a09c94a40bbc",
            "image_72": "https:\/\/avatars.slack-edge.com\/2020-03-20\/1003431784099_a09c94a40bbc85d17cc4_72.jpg",
            "first_name": "",
            "real_name": "Gilles Mirambeau",
            "display_name": "Gilles Mirambeau",
            "team": "TUU48M0T1",
            "name": "gilles.mirambeau",
            "is_restricted": false,
            "is_ultra_restricted": false
        },
        "blocks": [
            {
                "type": "rich_text",
                "block_id": "AMncp",
                "elements": [
                    {
                        "type": "rich_text_section",
                        "elements": [
                            {
                                "type": "link",
                                "url": "https:\/\/jobs.icn2.cat\/job-openings\/217\/postdoctoral-researcher-nanobiosensors-and-bioanalytical-applications-group"
                            }
                        ]
                    }
                ]
            }
        ]
    },
    {
        "client_msg_id": "ccd4f932-32ec-4848-9e7a-b9b87cf4e971",
        "type": "message",
        "text": "<https:\/\/jobs.icn2.cat\/job-openings\/218\/research-technician-nanobiosensors-and-bioanalytical-applications-group>",
        "user": "U010CT19KS9",
        "ts": "1585236376.046300",
        "team": "TUU48M0T1",
        "user_team": "TUU48M0T1",
        "source_team": "TUU48M0T1",
        "user_profile": {
            "avatar_hash": "a09c94a40bbc",
            "image_72": "https:\/\/avatars.slack-edge.com\/2020-03-20\/1003431784099_a09c94a40bbc85d17cc4_72.jpg",
            "first_name": "",
            "real_name": "Gilles Mirambeau",
            "display_name": "Gilles Mirambeau",
            "team": "TUU48M0T1",
            "name": "gilles.mirambeau",
            "is_restricted": false,
            "is_ultra_restricted": false
        },
        "blocks": [
            {
                "type": "rich_text",
                "block_id": "x=B",
                "elements": [
                    {
                        "type": "rich_text_section",
                        "elements": [
                            {
                                "type": "link",
                                "url": "https:\/\/jobs.icn2.cat\/job-openings\/218\/research-technician-nanobiosensors-and-bioanalytical-applications-group"
                            }
                        ]
                    }
                ]
            }
        ]
    },
    {
        "client_msg_id": "90242b2f-ec2a-4d6f-967d-251febd12484",
        "type": "message",
        "text": "<https:\/\/icn2.cat\/en\/news\/4466-the-icn2-leads-a-european-project-to-diagnose-the-covid-19-disease-in-30-minutes>",
        "user": "U010CT19KS9",
        "ts": "1585236465.046500",
        "team": "TUU48M0T1",
        "user_team": "TUU48M0T1",
        "source_team": "TUU48M0T1",
        "user_profile": {
            "avatar_hash": "a09c94a40bbc",
            "image_72": "https:\/\/avatars.slack-edge.com\/2020-03-20\/1003431784099_a09c94a40bbc85d17cc4_72.jpg",
            "first_name": "",
            "real_name": "Gilles Mirambeau",
            "display_name": "Gilles Mirambeau",
            "team": "TUU48M0T1",
            "name": "gilles.mirambeau",
            "is_restricted": false,
            "is_ultra_restricted": false
        },
        "attachments": [
            {
                "title": "The ICN2 leads a European project to diagnose the COVID-19 disease in 30 minutes - ICN2",
                "title_link": "https:\/\/icn2.cat\/en\/news\/4466-the-icn2-leads-a-european-project-to-diagnose-the-covid-19-disease-in-30-minutes",
                "text": "ICN2 is a Nanoscience and Nanotechnology Research Institute. Its research lines focus on the properties that arise from the behaviour of the nanoscale",
                "fallback": "The ICN2 leads a European project to diagnose the COVID-19 disease in 30 minutes - ICN2",
                "from_url": "https:\/\/icn2.cat\/en\/news\/4466-the-icn2-leads-a-european-project-to-diagnose-the-covid-19-disease-in-30-minutes",
                "service_name": "icn2.cat",
                "id": 1,
                "original_url": "https:\/\/icn2.cat\/en\/news\/4466-the-icn2-leads-a-european-project-to-diagnose-the-covid-19-disease-in-30-minutes"
            }
        ],
        "blocks": [
            {
                "type": "rich_text",
                "block_id": "GyO",
                "elements": [
                    {
                        "type": "rich_text_section",
                        "elements": [
                            {
                                "type": "link",
                                "url": "https:\/\/icn2.cat\/en\/news\/4466-the-icn2-leads-a-european-project-to-diagnose-the-covid-19-disease-in-30-minutes"
                            }
                        ]
                    }
                ]
            }
        ]
    },
    {
        "client_msg_id": "e0c50496-428e-401e-a6f3-b8d742629c78",
        "type": "message",
        "text": "<@UV02WET96> I just connected you to them via email",
        "user": "UV1V637PU",
        "ts": "1585241126.046900",
        "team": "TUU48M0T1",
        "user_team": "TUU48M0T1",
        "source_team": "TUU48M0T1",
        "user_profile": {
            "avatar_hash": "ee709c1ddf53",
            "image_72": "https:\/\/avatars.slack-edge.com\/2020-03-16\/990321352259_ee709c1ddf5354d38023_72.png",
            "first_name": "Jenny",
            "real_name": "Jenny Molloy",
            "display_name": "Jenny",
            "team": "TUU48M0T1",
            "name": "jcm80",
            "is_restricted": false,
            "is_ultra_restricted": false
        },
        "edited": {
            "user": "UV1V637PU",
            "ts": "1585241142.000000"
        },
        "blocks": [
            {
                "type": "rich_text",
                "block_id": "atbwn",
                "elements": [
                    {
                        "type": "rich_text_section",
                        "elements": [
                            {
                                "type": "user",
                                "user_id": "UV02WET96"
                            },
                            {
                                "type": "text",
                                "text": " I just connected you to them via email"
                            }
                        ]
                    }
                ]
            }
        ],
        "thread_ts": "1585177618.033000",
        "parent_user_id": "UV1V637PU"
    },
    {
        "client_msg_id": "c7027755-43aa-42fd-aec5-22c37d1df233",
        "type": "message",
        "text": "thanks so much Jenny!",
        "user": "UV02WET96",
        "ts": "1585241988.047200",
        "team": "TUU48M0T1",
        "user_team": "TUU48M0T1",
        "source_team": "TUU48M0T1",
        "user_profile": {
            "avatar_hash": "a99c74a194f8",
            "image_72": "https:\/\/avatars.slack-edge.com\/2020-03-07\/975708504851_a99c74a194f86715ca7d_72.png",
            "first_name": "Thomas",
            "real_name": "Thomas Landrain",
            "display_name": "Thomas Landrain - CoFounder\/CEO JOGL",
            "team": "TUU48M0T1",
            "name": "thomas",
            "is_restricted": false,
            "is_ultra_restricted": false
        },
        "blocks": [
            {
                "type": "rich_text",
                "block_id": "mZ31B",
                "elements": [
                    {
                        "type": "rich_text_section",
                        "elements": [
                            {
                                "type": "text",
                                "text": "thanks so much Jenny!"
                            }
                        ]
                    }
                ]
            }
        ],
        "thread_ts": "1585177618.033000",
        "parent_user_id": "UV1V637PU"
    },
    {
        "client_msg_id": "08fdcac9-447f-4f5c-b9a0-a206c00ca3be",
        "type": "message",
        "text": "<https:\/\/www.facebook.com\/zuck\/posts\/10111707674548151?utm_source=social-linkedin&amp;utm_medium=fb4d&amp;utm_campaign=organic&amp;utm_content=post-url&amp;utm_offering=business-tools&amp;utm_product=global-hackathon-covid-Mark%27s-announcement_03242020&amp;utm_event=2020HackCovidOrganicSocialMarkAnnouncement&amp;eventSource=OrganicSocialFB4D&amp;sf231945245=1>",
        "user": "U0103LPAWQ4",
        "ts": "1585244993.047600",
        "team": "TUU48M0T1",
        "user_team": "TUU48M0T1",
        "source_team": "TUU48M0T1",
        "user_profile": {
            "avatar_hash": "7b345029e813",
            "image_72": "https:\/\/avatars.slack-edge.com\/2020-03-17\/1004213082549_7b345029e8137cbdc6b0_72.jpg",
            "first_name": "Bre",
            "real_name": "Bre",
            "display_name": "Bre",
            "team": "TUU48M0T1",
            "name": "info",
            "is_restricted": false,
            "is_ultra_restricted": false
        },
        "attachments": [
            {
                "title": "Mark Zuckerberg",
                "title_link": "https:\/\/www.facebook.com\/zuck\/posts\/10111707674548151?utm_source=social-linkedin&utm_medium=fb4d&utm_campaign=organic&utm_content=post-url&utm_offering=business-tools&utm_product=global-hackathon-covid-Mark%27s-announcement_03242020&utm_event=2020HackCovidOrganicSocialMarkAnnouncement&eventSource=OrganicSocialFB4D&sf231945245=1",
                "text": "A lot of engineers at Facebook and at companies and universities around the world are asking how they can get more involved in the fight against COVID-19. So in addition to all of our other efforts...",
                "fallback": "Mark Zuckerberg",
                "from_url": "https:\/\/www.facebook.com\/zuck\/posts\/10111707674548151?utm_source=social-linkedin&utm_medium=fb4d&utm_campaign=organic&utm_content=post-url&utm_offering=business-tools&utm_product=global-hackathon-covid-Mark%27s-announcement_03242020&utm_event=2020HackCovidOrganicSocialMarkAnnouncement&eventSource=OrganicSocialFB4D&sf231945245=1",
                "thumb_url": "https:\/\/scontent-iad3-1.xx.fbcdn.net\/v\/t1.0-1\/s200x200\/79515135_10111007623880301_5111576226921709568_o.jpg?_nc_cat=1&_nc_sid=bbed71&_nc_oc=AQnwOqDHGhjf6UuQgoQG3orj-Ny9kh8Btm-uzCs7NxjZJbfywnAtMwLcLvZBkeiPsCI&_nc_ht=scontent-iad3-1.xx&_nc_tp=7&oh=034398bd7cbd912a3dc22bd753159136&oe=5EA41EB7",
                "thumb_width": 200,
                "thumb_height": 198,
                "service_icon": "https:\/\/static.xx.fbcdn.net\/rsrc.php\/yz\/r\/KFyVIAWzntM.ico",
                "service_name": "facebook.com",
                "id": 1,
                "original_url": "https:\/\/www.facebook.com\/zuck\/posts\/10111707674548151?utm_source=social-linkedin&amp;utm_medium=fb4d&amp;utm_campaign=organic&amp;utm_content=post-url&amp;utm_offering=business-tools&amp;utm_product=global-hackathon-covid-Mark%27s-announcement_03242020&amp;utm_event=2020HackCovidOrganicSocialMarkAnnouncement&amp;eventSource=OrganicSocialFB4D&amp;sf231945245=1"
            }
        ],
        "blocks": [
            {
                "type": "rich_text",
                "block_id": "8O98",
                "elements": [
                    {
                        "type": "rich_text_section",
                        "elements": [
                            {
                                "type": "link",
                                "url": "https:\/\/www.facebook.com\/zuck\/posts\/10111707674548151?utm_source=social-linkedin&utm_medium=fb4d&utm_campaign=organic&utm_content=post-url&utm_offering=business-tools&utm_product=global-hackathon-covid-Mark%27s-announcement_03242020&utm_event=2020HackCovidOrganicSocialMarkAnnouncement&eventSource=OrganicSocialFB4D&sf231945245=1"
                            }
                        ]
                    }
                ]
            }
        ]
    },
    {
        "client_msg_id": "b390958d-183c-4f34-967c-713c362ed8e7",
        "type": "message",
        "text": "Does anyone know anything about viral replication rates inside the host and replication fidelity?",
        "user": "UV78JAX0S",
        "ts": "1585247701.048600",
        "team": "TUU48M0T1",
        "user_team": "TUU48M0T1",
        "source_team": "TUU48M0T1",
        "user_profile": {
            "avatar_hash": "ab643489965e",
            "image_72": "https:\/\/avatars.slack-edge.com\/2020-03-17\/996174739571_ab643489965e0031c49d_72.png",
            "first_name": "Khalid",
            "real_name": "Khalid K. Alam",
            "display_name": "Khalid K. Alam",
            "team": "TUU48M0T1",
            "name": "khalid",
            "is_restricted": false,
            "is_ultra_restricted": false
        },
        "blocks": [
            {
                "type": "rich_text",
                "block_id": "WEoj",
                "elements": [
                    {
                        "type": "rich_text_section",
                        "elements": [
                            {
                                "type": "text",
                                "text": "Does anyone know anything about viral replication rates inside the host and replication fidelity?"
                            }
                        ]
                    }
                ]
            }
        ],
        "thread_ts": "1585247701.048600",
        "reply_count": 2,
        "reply_users_count": 2,
        "latest_reply": "1585317291.055700",
        "reply_users": [
            "UV1A22N3W",
            "UV78JAX0S"
        ],
        "replies": [
            {
                "user": "UV1A22N3W",
                "ts": "1585314509.054500"
            },
            {
                "user": "UV78JAX0S",
                "ts": "1585317291.055700"
            }
        ],
        "subscribed": false
    },
    {
        "client_msg_id": "ac45711c-3e3d-4014-a492-0b9f5391b61f",
        "type": "message",
        "text": "<@UV3JDFX17>, all c19 orfs are being synthesized by Ginkgo B to be distributed by FreeGenes. When they become available the can be used as +ve controls. When I was screening targeting events in mouse embryonic stem cells, many moons ago, I inserted an extra bit of DNA in the positive control so I could tell if I had false positives from the control DNA. Just an idea if you are working on a PCR\/gel based approach. You might also want to think about armored DNA\/RNA: <https:\/\/www.researchgate.net\/publication\/334724418_Using_Armored_RNA_R_DNA_as_Reliable_Molecular_Controls_in_Infectious_Disease_Testing_and_Beyond>",
        "user": "U010QHBTBPY",
        "ts": "1585253716.049000",
        "team": "TUU48M0T1",
        "user_team": "TUU48M0T1",
        "source_team": "TUU48M0T1",
        "user_profile": {
            "avatar_hash": "g4e30c4af69a",
            "image_72": "https:\/\/secure.gravatar.com\/avatar\/4e30c4af69a6429e53cd9cce9da9f65c.jpg?s=72&d=https%3A%2F%2Fa.slack-edge.com%2Fdf10d%2Fimg%2Favatars%2Fava_0015-72.png",
            "first_name": "",
            "real_name": "osn_scott",
            "display_name": "osn_scott",
            "team": "TUU48M0T1",
            "name": "scott527",
            "is_restricted": false,
            "is_ultra_restricted": false
        },
        "blocks": [
            {
                "type": "rich_text",
                "block_id": "sPF",
                "elements": [
                    {
                        "type": "rich_text_section",
                        "elements": [
                            {
                                "type": "user",
                                "user_id": "UV3JDFX17"
                            },
                            {
                                "type": "text",
                                "text": ", all c19 orfs are being synthesized by Ginkgo B to be distributed by FreeGenes. When they become available the can be used as +ve controls. When I was screening targeting events in mouse embryonic stem cells, many moons ago, I inserted an extra bit of DNA in the positive control so I could tell if I had false positives from the control DNA. Just an idea if you are working on a PCR\/gel based approach. You might also want to think about armored DNA\/RNA: "
                            },
                            {
                                "type": "link",
                                "url": "https:\/\/www.researchgate.net\/publication\/334724418_Using_Armored_RNA_R_DNA_as_Reliable_Molecular_Controls_in_Infectious_Disease_Testing_and_Beyond"
                            }
                        ]
                    }
                ]
            }
        ],
        "thread_ts": "1585168164.030500",
        "parent_user_id": "UV3JDFX17"
    },
    {
        "type": "message",
        "text": "Following up with what I posted yesterday. The original person (Petr Ludwig) who got the word out in Czech Republic just made an English version of the video (6 min) <https:\/\/twitter.com\/jeremyphoward\/status\/1243275853720584192>",
        "user": "U0100AN3E9J",
        "ts": "1585271136.050800",
        "team": "TUU48M0T1",
        "user_team": "TUU48M0T1",
        "source_team": "TUU48M0T1",
        "user_profile": {
            "avatar_hash": "ga85b00f9b08",
            "image_72": "https:\/\/secure.gravatar.com\/avatar\/a85b00f9b0879618ac76e6aff39cfb7b.jpg?s=72&d=https%3A%2F%2Fa.slack-edge.com%2Fdf10d%2Fimg%2Favatars%2Fava_0008-72.png",
            "first_name": "Justin",
            "real_name": "Justin",
            "display_name": "",
            "team": "TUU48M0T1",
            "name": "alohadesignwork",
            "is_restricted": false,
            "is_ultra_restricted": false
        },
        "attachments": [
            {
                "fallback": "[March 25th, 2020 4:15 PM] alohadesignwork: In Czech Republic, they went from 0 to 100% compliance of mask wearing in 10 days, with most masks being homemade. 35 min video that goes behind the scene, <https:\/\/www.youtube.com\/watch?time_continue=6&amp;v=BoDwXwZXsDI&amp;feature=emb_title|https:\/\/www.youtube.com\/watch?time_continue=6&amp;v=BoDwXwZXsDI&amp;feature=emb_title> and a Google Doc that shows how they gathered the resources <https:\/\/docs.google.com\/document\/d\/1EWpWmyjzM4sNBF-7jp_1Y9a-pqiRg0wakGXy7kj11RA\/preview|https:\/\/docs.google.com\/document\/d\/1EWpWmyjzM4sNBF-7jp_1Y9a-pqiRg0wakGXy7kj11RA\/preview>",
                "ts": "1585188909.035300",
                "author_id": "U0100AN3E9J",
                "author_subname": "Justin",
                "channel_id": "CURQC583E",
                "channel_name": "random",
                "is_msg_unfurl": true,
                "text": "In Czech Republic, they went from 0 to 100% compliance of mask wearing in 10 days, with most masks being homemade. 35 min video that goes behind the scene, <https:\/\/www.youtube.com\/watch?time_continue=6&amp;v=BoDwXwZXsDI&amp;feature=emb_title|https:\/\/www.youtube.com\/watch?time_continue=6&amp;v=BoDwXwZXsDI&amp;feature=emb_title> and a Google Doc that shows how they gathered the resources <https:\/\/docs.google.com\/document\/d\/1EWpWmyjzM4sNBF-7jp_1Y9a-pqiRg0wakGXy7kj11RA\/preview|https:\/\/docs.google.com\/document\/d\/1EWpWmyjzM4sNBF-7jp_1Y9a-pqiRg0wakGXy7kj11RA\/preview>",
                "author_name": "Justin",
                "author_link": "https:\/\/open-covid19.slack.com\/team\/U0100AN3E9J",
                "author_icon": "https:\/\/secure.gravatar.com\/avatar\/a85b00f9b0879618ac76e6aff39cfb7b.jpg?s=48&d=https%3A%2F%2Fa.slack-edge.com%2Fdf10d%2Fimg%2Favatars%2Fava_0008-48.png",
                "mrkdwn_in": [
                    "text"
                ],
                "color": "D0D0D0",
                "from_url": "https:\/\/open-covid19.slack.com\/archives\/CURQC583E\/p1585188909035300",
                "is_share": true,
                "footer": "Posted in #random"
            }
        ]
    }
]