[
    {
        "type": "message",
        "subtype": "channel_join",
        "ts": "1584824432.015500",
        "user": "U0103SR759U",
        "text": "<@U0103SR759U> has joined the channel"
    },
    {
        "client_msg_id": "2a9f2106-73a3-426b-8b9c-6c16b63dadc5",
        "type": "message",
        "text": "Smart question. I would think both but mainly virions. Remember it's the virions that get in the droplets.\nAlso I read some papers that some people tested negative for nasal swabs and positive for stool swabs.",
        "user": "U0103SR759U",
        "ts": "1584824723.016000",
        "team": "TUU48M0T1",
        "user_team": "TUU48M0T1",
        "source_team": "TUU48M0T1",
        "user_profile": {
            "avatar_hash": "g2694d379600",
            "image_72": "https:\/\/secure.gravatar.com\/avatar\/2694d3796008843d36d4b6ceff7f8660.jpg?s=72&d=https%3A%2F%2Fa.slack-edge.com%2Fdf10d%2Fimg%2Favatars%2Fava_0010-72.png",
            "first_name": "Adrian",
            "real_name": "Adrian Molecule",
            "display_name": "Adrian Molecule",
            "team": "TUU48M0T1",
            "name": "tada",
            "is_restricted": false,
            "is_ultra_restricted": false
        },
        "blocks": [
            {
                "type": "rich_text",
                "block_id": "Wg8c",
                "elements": [
                    {
                        "type": "rich_text_section",
                        "elements": [
                            {
                                "type": "text",
                                "text": "Smart question. I would think both but mainly virions. Remember it's the virions that get in the droplets.\nAlso I read some papers that some people tested negative for nasal swabs and positive for stool swabs."
                            }
                        ]
                    }
                ]
            }
        ],
        "thread_ts": "1584729834.010600",
        "parent_user_id": "UVBQDE7R8"
    },
    {
        "client_msg_id": "5ce56e1e-743b-480b-a8cb-bcb3a4855d3b",
        "type": "message",
        "text": "Can anyone test these ideas?\nI can ask permission from my boss to go into our lab, but we're a yeast lab that just does amplicon-sequencing of gDNA. Someone may have bought RT ages ago ?",
        "user": "UVBQDE7R8",
        "ts": "1584824838.016500",
        "team": "TUU48M0T1",
        "user_team": "TUU48M0T1",
        "source_team": "TUU48M0T1",
        "user_profile": {
            "avatar_hash": "gb77d2e5c821",
            "image_72": "https:\/\/secure.gravatar.com\/avatar\/b77d2e5c8214c9643410000e998ef9f4.jpg?s=72&d=https%3A%2F%2Fa.slack-edge.com%2Fdf10d%2Fimg%2Favatars%2Fava_0018-72.png",
            "first_name": "",
            "real_name": "Darach",
            "display_name": "Darach",
            "team": "TUU48M0T1",
            "name": "dchmiller",
            "is_restricted": false,
            "is_ultra_restricted": false
        },
        "blocks": [
            {
                "type": "rich_text",
                "block_id": "6gu",
                "elements": [
                    {
                        "type": "rich_text_section",
                        "elements": [
                            {
                                "type": "text",
                                "text": "Can anyone test these ideas?\nI can ask permission from my boss to go into our lab, but we're a yeast lab that just does amplicon-sequencing of gDNA. Someone may have bought RT ages ago ?"
                            }
                        ]
                    }
                ]
            }
        ],
        "thread_ts": "1584824838.016500",
        "reply_count": 5,
        "reply_users_count": 2,
        "latest_reply": "1584831629.019000",
        "reply_users": [
            "UVBQDE7R8",
            "UVALZTQ58"
        ],
        "replies": [
            {
                "user": "UVBQDE7R8",
                "ts": "1584825120.016600"
            },
            {
                "user": "UVBQDE7R8",
                "ts": "1584826790.018400"
            },
            {
                "user": "UVALZTQ58",
                "ts": "1584829553.018600"
            },
            {
                "user": "UVBQDE7R8",
                "ts": "1584831541.018800"
            },
            {
                "user": "UVBQDE7R8",
                "ts": "1584831629.019000"
            }
        ],
        "subscribed": false
    },
    {
        "client_msg_id": "f8da2d8d-3697-4e2b-a776-66a3bdaa2add",
        "type": "message",
        "text": "I'm thinking (1) extract a lot of total RNA from a yeast culture using PCI and etOH, (2) set up assay to determine integrity of rRNA bands on an agarose gel (yeah you can see them), (3) test how efficient the filter-paper clean up is of total RNA via qubit, (4) spike total RNA into lysis buffer and cook for different times to see how stable rRNA is in the buffer, (5) test if that cleaned up RNA inhibits Taq more than you'd expect from bulk RNA, (6) see if I can fiddle with it to make it automatable.",
        "user": "UVBQDE7R8",
        "ts": "1584825120.016600",
        "team": "TUU48M0T1",
        "user_team": "TUU48M0T1",
        "source_team": "TUU48M0T1",
        "user_profile": {
            "avatar_hash": "gb77d2e5c821",
            "image_72": "https:\/\/secure.gravatar.com\/avatar\/b77d2e5c8214c9643410000e998ef9f4.jpg?s=72&d=https%3A%2F%2Fa.slack-edge.com%2Fdf10d%2Fimg%2Favatars%2Fava_0018-72.png",
            "first_name": "",
            "real_name": "Darach",
            "display_name": "Darach",
            "team": "TUU48M0T1",
            "name": "dchmiller",
            "is_restricted": false,
            "is_ultra_restricted": false
        },
        "blocks": [
            {
                "type": "rich_text",
                "block_id": "KIA9=",
                "elements": [
                    {
                        "type": "rich_text_section",
                        "elements": [
                            {
                                "type": "text",
                                "text": "I'm thinking (1) extract a lot of total RNA from a yeast culture using PCI and etOH, (2) set up assay to determine integrity of rRNA bands on an agarose gel (yeah you can see them), (3) test how efficient the filter-paper clean up is of total RNA via qubit, (4) spike total RNA into lysis buffer and cook for different times to see how stable rRNA is in the buffer, (5) test if that cleaned up RNA inhibits Taq more than you'd expect from bulk RNA, (6) see if I can fiddle with it to make it automatable."
                            }
                        ]
                    }
                ]
            }
        ],
        "thread_ts": "1584824838.016500",
        "parent_user_id": "UVBQDE7R8"
    },
    {
        "client_msg_id": "60628a50-64ba-427c-8877-bd273f36f9f0",
        "type": "message",
        "text": "I think free genes might have some RT plasmids and a protocol to use.",
        "user": "U0103SR759U",
        "ts": "1584825451.018300",
        "team": "TUU48M0T1",
        "user_team": "TUU48M0T1",
        "source_team": "TUU48M0T1",
        "user_profile": {
            "avatar_hash": "g2694d379600",
            "image_72": "https:\/\/secure.gravatar.com\/avatar\/2694d3796008843d36d4b6ceff7f8660.jpg?s=72&d=https%3A%2F%2Fa.slack-edge.com%2Fdf10d%2Fimg%2Favatars%2Fava_0010-72.png",
            "first_name": "Adrian",
            "real_name": "Adrian Molecule",
            "display_name": "Adrian Molecule",
            "team": "TUU48M0T1",
            "name": "tada",
            "is_restricted": false,
            "is_ultra_restricted": false
        },
        "blocks": [
            {
                "type": "rich_text",
                "block_id": "XU4b\/",
                "elements": [
                    {
                        "type": "rich_text_section",
                        "elements": [
                            {
                                "type": "text",
                                "text": "I think free genes might have some RT plasmids and a protocol to use."
                            }
                        ]
                    }
                ]
            }
        ],
        "reactions": [
            {
                "name": "100",
                "users": [
                    "UUNGFHSV8"
                ],
                "count": 1
            }
        ]
    },
    {
        "client_msg_id": "51807481-d0c5-47f2-a1f1-1d4e370b2dc2",
        "type": "message",
        "text": "Buffer - 10mM Tris pH ~8 (pH buffer), 10mM EDTA (for metals so you can heat lysis), 0.5% SDS (to break everything up, it's what we use for yeast, above CMC of 0.25%) , 150mM sodium chloride ( tested in the Zou~2017 paper to boost binding )",
        "user": "UVBQDE7R8",
        "ts": "1584826790.018400",
        "team": "TUU48M0T1",
        "user_team": "TUU48M0T1",
        "source_team": "TUU48M0T1",
        "user_profile": {
            "avatar_hash": "gb77d2e5c821",
            "image_72": "https:\/\/secure.gravatar.com\/avatar\/b77d2e5c8214c9643410000e998ef9f4.jpg?s=72&d=https%3A%2F%2Fa.slack-edge.com%2Fdf10d%2Fimg%2Favatars%2Fava_0018-72.png",
            "first_name": "",
            "real_name": "Darach",
            "display_name": "Darach",
            "team": "TUU48M0T1",
            "name": "dchmiller",
            "is_restricted": false,
            "is_ultra_restricted": false
        },
        "blocks": [
            {
                "type": "rich_text",
                "block_id": "wXG4n",
                "elements": [
                    {
                        "type": "rich_text_section",
                        "elements": [
                            {
                                "type": "text",
                                "text": "Buffer - 10mM Tris pH ~8 (pH buffer), 10mM EDTA (for metals so you can heat lysis), 0.5% SDS (to break everything up, it's what we use for yeast, above CMC of 0.25%) , 150mM sodium chloride ( tested in the Zou~2017 paper to boost binding )"
                            }
                        ]
                    }
                ]
            }
        ],
        "thread_ts": "1584824838.016500",
        "parent_user_id": "UVBQDE7R8"
    },
    {
        "client_msg_id": "127c8870-f698-423d-9acb-5539db0a6e63",
        "type": "message",
        "text": "No lab access (escaped the UK and went back to Italy..)\nAre you planning to try dipstick? Checking the paper, it looks like they used 800 mM guanidine hydrochloride, 50 mM Tris [pH 8], 0.5% Triton X100, 1% Tween-20 for RNA extraction on cellulose discs (Fig.3D).",
        "user": "UVALZTQ58",
        "ts": "1584829553.018600",
        "team": "TUU48M0T1",
        "user_team": "TUU48M0T1",
        "source_team": "TUU48M0T1",
        "user_profile": {
            "avatar_hash": "68ae03dc29bc",
            "image_72": "https:\/\/avatars.slack-edge.com\/2020-03-19\/1000158389970_68ae03dc29bc6cbe2e2c_72.png",
            "first_name": "",
            "real_name": "Larissa de Clauser",
            "display_name": "Larissa de Clauser",
            "team": "TUU48M0T1",
            "name": "larissa.declauser",
            "is_restricted": false,
            "is_ultra_restricted": false
        },
        "blocks": [
            {
                "type": "rich_text",
                "block_id": "gTw",
                "elements": [
                    {
                        "type": "rich_text_section",
                        "elements": [
                            {
                                "type": "text",
                                "text": "No lab access (escaped the UK and went back to Italy..)\nAre you planning to try dipstick? Checking the paper, it looks like they used 800 mM guanidine hydrochloride, 50 mM Tris [pH 8], 0.5% Triton X100, 1% Tween-20 for RNA extraction on cellulose discs (Fig.3D)."
                            }
                        ]
                    }
                ]
            }
        ],
        "thread_ts": "1584824838.016500",
        "parent_user_id": "UVBQDE7R8"
    },
    {
        "client_msg_id": "1fbf012d-bbc3-45d7-9220-6778f1148d26",
        "type": "message",
        "text": "Yep they used that one for the RNA. My impression is that guanidine is for disrupting RNAses, no? I've done a lot of RNA extracts in yeast using buffers similar to above (salt, SDS, EDTA, plus acid phenol) and had great rRNA integrity.\n...\nReally, it's that we don't have guanidine in the lab !",
        "user": "UVBQDE7R8",
        "ts": "1584831541.018800",
        "team": "TUU48M0T1",
        "user_team": "TUU48M0T1",
        "source_team": "TUU48M0T1",
        "user_profile": {
            "avatar_hash": "gb77d2e5c821",
            "image_72": "https:\/\/secure.gravatar.com\/avatar\/b77d2e5c8214c9643410000e998ef9f4.jpg?s=72&d=https%3A%2F%2Fa.slack-edge.com%2Fdf10d%2Fimg%2Favatars%2Fava_0018-72.png",
            "first_name": "",
            "real_name": "Darach",
            "display_name": "Darach",
            "team": "TUU48M0T1",
            "name": "dchmiller",
            "is_restricted": false,
            "is_ultra_restricted": false
        },
        "blocks": [
            {
                "type": "rich_text",
                "block_id": "hGMJI",
                "elements": [
                    {
                        "type": "rich_text_section",
                        "elements": [
                            {
                                "type": "text",
                                "text": "Yep they used that one for the RNA. My impression is that guanidine is for disrupting RNAses, no? I've done a lot of RNA extracts in yeast using buffers similar to above (salt, SDS, EDTA, plus acid phenol) and had great rRNA integrity.\n...\nReally, it's that we don't have guanidine in the lab !"
                            }
                        ]
                    }
                ]
            }
        ],
        "thread_ts": "1584824838.016500",
        "parent_user_id": "UVBQDE7R8"
    },
    {
        "client_msg_id": "eebeac64-f7c6-4a58-b366-b763f6bf2ec0",
        "type": "message",
        "text": "Think that'd still work without guanidine?",
        "user": "UVBQDE7R8",
        "ts": "1584831629.019000",
        "team": "TUU48M0T1",
        "user_team": "TUU48M0T1",
        "source_team": "TUU48M0T1",
        "user_profile": {
            "avatar_hash": "gb77d2e5c821",
            "image_72": "https:\/\/secure.gravatar.com\/avatar\/b77d2e5c8214c9643410000e998ef9f4.jpg?s=72&d=https%3A%2F%2Fa.slack-edge.com%2Fdf10d%2Fimg%2Favatars%2Fava_0018-72.png",
            "first_name": "",
            "real_name": "Darach",
            "display_name": "Darach",
            "team": "TUU48M0T1",
            "name": "dchmiller",
            "is_restricted": false,
            "is_ultra_restricted": false
        },
        "blocks": [
            {
                "type": "rich_text",
                "block_id": "EG2A",
                "elements": [
                    {
                        "type": "rich_text_section",
                        "elements": [
                            {
                                "type": "text",
                                "text": "Think that'd still work without guanidine?"
                            }
                        ]
                    }
                ]
            }
        ],
        "thread_ts": "1584824838.016500",
        "parent_user_id": "UVBQDE7R8"
    },
    {
        "client_msg_id": "44279482-961e-45a0-8640-b478d8094d6d",
        "type": "message",
        "text": "<https:\/\/www.biorxiv.org\/content\/10.1101\/2020.03.20.001008v1>",
        "user": "UVBQDE7R8",
        "ts": "1584839550.020000",
        "team": "TUU48M0T1",
        "user_team": "TUU48M0T1",
        "source_team": "TUU48M0T1",
        "user_profile": {
            "avatar_hash": "gb77d2e5c821",
            "image_72": "https:\/\/secure.gravatar.com\/avatar\/b77d2e5c8214c9643410000e998ef9f4.jpg?s=72&d=https%3A%2F%2Fa.slack-edge.com%2Fdf10d%2Fimg%2Favatars%2Fava_0018-72.png",
            "first_name": "",
            "real_name": "Darach",
            "display_name": "Darach",
            "team": "TUU48M0T1",
            "name": "dchmiller",
            "is_restricted": false,
            "is_ultra_restricted": false
        },
        "attachments": [
            {
                "service_name": "bioRxiv",
                "title": "RT-qPCR DETECTION OF SARS-CoV-2 RNA FROM PATIENT NASOPHARYNGEAL SWAB USING QIAGEN RNEASY KITS OR DIRECTLY VIA OMISSION OF AN RNA EXTRACTION STEP",
                "title_link": "https:\/\/www.biorxiv.org\/content\/10.1101\/2020.03.20.001008v1",
                "text": "The ongoing SARS-CoV-2 pandemic has caused an unprecedented need for rapid diagnostic screening [1]. The primary assay employed is a reverse transcription quantitative polymerase chain reaction (RT-qPCR) assay that requires the use of an RNA extraction kit [2,3]. In the United States, the Centers for Disease Control and Prevention (CDC) protocol requires the use of the Qiagen QIAamp DSP Viral RNA Mini kit. The current shortage of this RNA extraction kit during this pandemic has resulted in a severe bottleneck in testing capacity. To address this problem, we tested two alternative strategies: the use of alternative RNA extraction kits or a direct RT-qPCR assay that omits an RNA extraction step altogether. We found that the Qiagen RNeasy Mini kit and the Qiagen RNeasy Micro kit could be substituted for the QIAamp Viral RNA Mini kit. Importantly, we report here that the RT-qPCR assay can be performed directly on patient sample material from a nasal swab, without the need for an RNA extraction step of any kind. Collectively, our findings provide viable options to circumvent supply chain issues in COVID-19 testing. Further, the ability to omit the RNA extraction step from RT-qPCR screening protocols would drastically ease supply chokepoints of COVID-19 screening and should be applicable throughout the world. We would note that our findings are preliminary and based on a single pooled nasopharyngeal swab sample from two previously confirmed positive COVID-19 patients. But due to the urgent need for high volume COVID-19 screening, we wanted to make these findings available immediately while we conduct replicate studies using additional patient samples.",
                "fallback": "bioRxiv: RT-qPCR DETECTION OF SARS-CoV-2 RNA FROM PATIENT NASOPHARYNGEAL SWAB USING QIAGEN RNEASY KITS OR DIRECTLY VIA OMISSION OF AN RNA EXTRACTION STEP",
                "thumb_url": "https:\/\/www.biorxiv.org\/sites\/default\/files\/images\/biorxiv_logo_homepage7-5-small.png",
                "ts": 1584774000,
                "from_url": "https:\/\/www.biorxiv.org\/content\/10.1101\/2020.03.20.001008v1",
                "thumb_width": 252,
                "thumb_height": 252,
                "service_icon": "https:\/\/www.biorxiv.org\/sites\/default\/files\/images\/favicon.ico",
                "id": 1,
                "original_url": "https:\/\/www.biorxiv.org\/content\/10.1101\/2020.03.20.001008v1"
            }
        ],
        "blocks": [
            {
                "type": "rich_text",
                "block_id": "ggk",
                "elements": [
                    {
                        "type": "rich_text_section",
                        "elements": [
                            {
                                "type": "link",
                                "url": "https:\/\/www.biorxiv.org\/content\/10.1101\/2020.03.20.001008v1"
                            }
                        ]
                    }
                ]
            }
        ],
        "thread_ts": "1584839550.020000",
        "reply_count": 2,
        "reply_users_count": 2,
        "latest_reply": "1585119512.000300",
        "reply_users": [
            "UV5CCJ9RC",
            "U010QHBTBPY"
        ],
        "replies": [
            {
                "user": "UV5CCJ9RC",
                "ts": "1584841004.022800"
            },
            {
                "user": "U010QHBTBPY",
                "ts": "1585119512.000300"
            }
        ],
        "subscribed": false
    },
    {
        "client_msg_id": "C355990A-1A6F-4688-8BEE-057158F7E440",
        "type": "message",
        "text": "Great! I wonder if that viral transport media deactivates the virus. It’d be great from a biosafety perspective to have a media that inactivates the virus after the sample is taken. ",
        "user": "UV5CCJ9RC",
        "ts": "1584841004.022800",
        "team": "TUU48M0T1",
        "user_team": "TUU48M0T1",
        "source_team": "TUU48M0T1",
        "user_profile": {
            "avatar_hash": "2c79fe05f7e7",
            "image_72": "https:\/\/avatars.slack-edge.com\/2020-03-10\/992653932501_2c79fe05f7e75be19699_72.png",
            "first_name": "Chris",
            "real_name": "Chris Monaco",
            "display_name": "",
            "team": "TUU48M0T1",
            "name": "cmonaco.hr",
            "is_restricted": false,
            "is_ultra_restricted": false
        },
        "blocks": [
            {
                "type": "rich_text",
                "block_id": "pk4LF",
                "elements": [
                    {
                        "type": "rich_text_section",
                        "elements": [
                            {
                                "type": "text",
                                "text": "Great! I wonder if that viral transport media deactivates the virus. It’d be great from a biosafety perspective to have a media that inactivates the virus after the sample is taken. "
                            }
                        ]
                    }
                ]
            }
        ],
        "thread_ts": "1584839550.020000",
        "parent_user_id": "UVBQDE7R8",
        "reactions": [
            {
                "name": "+1",
                "users": [
                    "UVBQDE7R8",
                    "U01099UVAUA"
                ],
                "count": 2
            }
        ]
    }
]