[
    {
        "client_msg_id": "221ebca0-9353-42e8-85df-665a837d96ad",
        "type": "message",
        "text": "<@U0105KZPEJF> Did she implement it? did it work out? Would love to hear if so. Which hospital?",
        "user": "U0103AWRSMV",
        "ts": "1585034505.263400",
        "team": "TUU48M0T1",
        "user_team": "TUU48M0T1",
        "source_team": "TUU48M0T1",
        "user_profile": {
            "avatar_hash": "c1fced1c89da",
            "image_72": "https:\/\/avatars.slack-edge.com\/2020-03-22\/1019622212103_c1fced1c89dadf000fa4_72.jpg",
            "first_name": "",
            "real_name": "Dan Fourie",
            "display_name": "Dan Fourie",
            "team": "TUU48M0T1",
            "name": "danielhfourie",
            "is_restricted": false,
            "is_ultra_restricted": false
        },
        "blocks": [
            {
                "type": "rich_text",
                "block_id": "jjST=",
                "elements": [
                    {
                        "type": "rich_text_section",
                        "elements": [
                            {
                                "type": "user",
                                "user_id": "U0105KZPEJF"
                            },
                            {
                                "type": "text",
                                "text": " Did she implement it? did it work out? Would love to hear if so. Which hospital?"
                            }
                        ]
                    }
                ]
            }
        ],
        "thread_ts": "1584911317.251600",
        "parent_user_id": "U0103AWRSMV"
    },
    {
        "client_msg_id": "8ea0d405-a8c8-4484-9cd6-d02725072228",
        "type": "message",
        "text": "Highlighting the need\n<https:\/\/www.medrxiv.org\/content\/10.1101\/2020.03.16.20037291v1|https:\/\/www.medrxiv.org\/content\/10.1101\/2020.03.16.20037291v1>",
        "user": "UUPQGNNTV",
        "ts": "1585055223.264000",
        "team": "TUU48M0T1",
        "user_team": "TUU48M0T1",
        "source_team": "TUU48M0T1",
        "user_profile": {
            "avatar_hash": "c28127caf7eb",
            "image_72": "https:\/\/avatars.slack-edge.com\/2020-03-07\/989562470694_c28127caf7ebfe67df97_72.jpg",
            "first_name": "",
            "real_name": "Ellen Jorgensen",
            "display_name": "",
            "team": "TUU48M0T1",
            "name": "ejorgensen",
            "is_restricted": false,
            "is_ultra_restricted": false
        },
        "attachments": [
            {
                "service_name": "medRxiv",
                "title": "Short-range airborne route dominates exposure of respiratory infection during close contact",
                "title_link": "https:\/\/www.medrxiv.org\/content\/10.1101\/2020.03.16.20037291v1",
                "text": "A susceptible person experiences the highest exposure risk of respiratory infection when he or she is in close proximity with an infected person. The large droplet route has been commonly believed to be dominant for most respiratory infections since the early 20th century, and the associated droplet precaution is widely known and practiced in hospitals and in the community. The mechanism of exposure to droplets expired at close contact, however, remains surprisingly unexplored. In this study, the exposure to exhaled droplets during close contact (&lt; 2 m) via both the short-range airborne and large droplet sub-routes is studied using a simple mathematical model of expired flows and droplet dispersion\/deposition\/inhalation, which enables the calculation of exposure due to both deposition and inhalation. The short-range airborne route is found to dominate at most distances studied during both talking and coughing. The large droplet route only dominates when the droplets are larger than 100 μm and when the subjects are within 0.2 m while talking or 0.5 m while coughing. The smaller the exhaled droplets, the more important the short-range airborne route. The large droplet route contributes less than 10% of exposure when the droplets are smaller than 50 μm and when the subjects are more than 0.3 m apart, even while coughing. ### Competing Interest Statement The authors have declared no competing interest. ### Funding Statement This work was supported by a General Research Fund (grant number 17202719) and Collaborative Research Fund (grant number C7025-16G), both provided by the Research Grants Council of Hong Kong. ### Author Declarations All relevant ethical guidelines have been followed; any necessary IRB and\/or ethics committee approvals have been obtained and details of the IRB\/oversight body are included in the manuscript. Yes All necessary patient\/participant consent has been obtained and the appropriate institutional forms have been archived. Yes I understand that all clinical trials and any other prospective interventional studies must be registered with an ICMJE-approved registry, such as <http:\/\/ClinicalTrials.gov|ClinicalTrials.gov>. I confirm that any such study reported in the manuscript has been registered and the trial registration ID is provided (note: if posting a prospective study registered retrospectively, please provide a statement in the trial ID field explaining why the study was not registered in advance). Yes I have followed all appropriate research reporting guidelines and uploaded the relevant EQUATOR Network research reporting checklist(s) and other pertinent material as supplementary files, if applicable. Yes Only mathematical models are presented and the original modelling data may be obtained by contacting the authors.",
                "fallback": "medRxiv: Short-range airborne route dominates exposure of respiratory infection during close contact",
                "ts": 1584687600,
                "from_url": "https:\/\/www.medrxiv.org\/content\/10.1101\/2020.03.16.20037291v1",
                "service_icon": "https:\/\/www.medrxiv.org\/sites\/default\/files\/images\/favicon.ico",
                "id": 1,
                "original_url": "https:\/\/www.medrxiv.org\/content\/10.1101\/2020.03.16.20037291v1"
            }
        ],
        "blocks": [
            {
                "type": "rich_text",
                "block_id": "EWQ",
                "elements": [
                    {
                        "type": "rich_text_section",
                        "elements": [
                            {
                                "type": "text",
                                "text": "Highlighting the need\n"
                            },
                            {
                                "type": "link",
                                "url": "https:\/\/www.medrxiv.org\/content\/10.1101\/2020.03.16.20037291v1",
                                "text": "https:\/\/www.medrxiv.org\/content\/10.1101\/2020.03.16.20037291v1"
                            }
                        ]
                    }
                ]
            }
        ]
    },
    {
        "client_msg_id": "b1653ad5-6d2f-4f80-8f97-49b9ad5de582",
        "type": "message",
        "text": "<https:\/\/www.isinnova.it\/easy-covid19-eng\/>  <https:\/\/dgiluz-wordpress-com.cdn.ampproject.org\/c\/s\/dgiluz.wordpress.com\/2020\/03\/23\/its-working\/amp>",
        "user": "U0103BSMXT2",
        "ts": "1585071296.264700",
        "team": "TUU48M0T1",
        "user_team": "TUU48M0T1",
        "source_team": "TUU48M0T1",
        "user_profile": {
            "avatar_hash": "g5e00654aa20",
            "image_72": "https:\/\/secure.gravatar.com\/avatar\/5e00654aa2064ae08b074bcbc49bfe77.jpg?s=72&d=https%3A%2F%2Fa.slack-edge.com%2Fdf10d%2Fimg%2Favatars%2Fava_0018-72.png",
            "first_name": "",
            "real_name": "Yann Uzel",
            "display_name": "Yann Uzel",
            "team": "TUU48M0T1",
            "name": "yann.uzel",
            "is_restricted": false,
            "is_ultra_restricted": false
        },
        "attachments": [
            {
                "service_name": "Isinnova",
                "title": "Easy – Covid19 ENG | Isinnova",
                "title_link": "https:\/\/www.isinnova.it\/easy-covid19-eng\/",
                "text": "EASY COVID 19 Versione italiana Emergency mask for hospital ventilators In recent days we have been contacted by a former head physician of",
                "fallback": "Isinnova: Easy – Covid19 ENG | Isinnova",
                "thumb_url": "https:\/\/www.isinnova.it\/wp-content\/uploads\/2018\/11\/Logo-Isinnova-Modifiche-5-1-e1541584415349.png",
                "from_url": "https:\/\/www.isinnova.it\/easy-covid19-eng\/",
                "thumb_width": 100,
                "thumb_height": 46,
                "service_icon": "https:\/\/www.isinnova.it\/wp-content\/uploads\/2017\/03\/favicip.png",
                "id": 1,
                "original_url": "https:\/\/www.isinnova.it\/easy-covid19-eng\/"
            },
            {
                "service_name": "dgil.uz",
                "title": "It’s working!",
                "title_link": "https:\/\/dgiluz-wordpress-com.cdn.ampproject.org\/c\/s\/dgiluz.wordpress.com\/2020\/03\/23\/its-working\/amp",
                "text": "500 patients in northern Italian hospitals are receiving right now ventilators, produced by hacked scuba gear that was shipped by Decathlon! This is incredibly cool. Big hugs to Isinnova and their …",
                "fallback": "dgil.uz: It’s working!",
                "image_url": "https:\/\/dgiluz.files.wordpress.com\/2020\/03\/respiratori.jpg",
                "image_width": 333,
                "image_height": 250,
                "from_url": "https:\/\/dgiluz-wordpress-com.cdn.ampproject.org\/c\/s\/dgiluz.wordpress.com\/2020\/03\/23\/its-working\/amp",
                "image_bytes": 68596,
                "service_icon": "https:\/\/dgiluz-wordpress-com.cdn.ampproject.org\/favicon.ico",
                "id": 2,
                "original_url": "https:\/\/dgiluz-wordpress-com.cdn.ampproject.org\/c\/s\/dgiluz.wordpress.com\/2020\/03\/23\/its-working\/amp"
            }
        ],
        "blocks": [
            {
                "type": "rich_text",
                "block_id": "GPmm",
                "elements": [
                    {
                        "type": "rich_text_section",
                        "elements": [
                            {
                                "type": "link",
                                "url": "https:\/\/www.isinnova.it\/easy-covid19-eng\/"
                            },
                            {
                                "type": "text",
                                "text": "  "
                            },
                            {
                                "type": "link",
                                "url": "https:\/\/dgiluz-wordpress-com.cdn.ampproject.org\/c\/s\/dgiluz.wordpress.com\/2020\/03\/23\/its-working\/amp"
                            }
                        ]
                    }
                ]
            }
        ],
        "thread_ts": "1585071296.264700",
        "reply_count": 3,
        "reply_users_count": 2,
        "latest_reply": "1585080037.266700",
        "reply_users": [
            "U010HTBUHS9",
            "U0103BSMXT2"
        ],
        "replies": [
            {
                "user": "U010HTBUHS9",
                "ts": "1585079869.266300"
            },
            {
                "user": "U0103BSMXT2",
                "ts": "1585080008.266500"
            },
            {
                "user": "U010HTBUHS9",
                "ts": "1585080037.266700"
            }
        ],
        "subscribed": false,
        "reactions": [
            {
                "name": "blush",
                "users": [
                    "U0109B6RAJ0",
                    "U0103128G4D"
                ],
                "count": 2
            }
        ]
    },
    {
        "client_msg_id": "C2B0BEAA-157F-47A4-AD3B-BBC086322D0C",
        "type": "message",
        "text": "@channel here’s the zoom link for our call at 7pm CET: <https:\/\/zoom.us\/j\/7804345815|https:\/\/zoom.us\/j\/7804345815>",
        "user": "UV0QTJCMT",
        "ts": "1585072810.265800",
        "team": "TUU48M0T1",
        "user_team": "TUU48M0T1",
        "source_team": "TUU48M0T1",
        "user_profile": {
            "avatar_hash": "11e3deb6d1a9",
            "image_72": "https:\/\/avatars.slack-edge.com\/2020-03-06\/986844736421_11e3deb6d1a949327ddd_72.png",
            "first_name": "Katherine",
            "real_name": "Katherine Holo",
            "display_name": "Kat Holo",
            "team": "TUU48M0T1",
            "name": "katherineh245",
            "is_restricted": false,
            "is_ultra_restricted": false
        },
        "edited": {
            "user": "UV0QTJCMT",
            "ts": "1585072874.000000"
        },
        "blocks": [
            {
                "type": "rich_text",
                "block_id": "g=n",
                "elements": [
                    {
                        "type": "rich_text_section",
                        "elements": [
                            {
                                "type": "text",
                                "text": "@channel"
                            },
                            {
                                "type": "text",
                                "text": " here’s the zoom link for our call at 7pm CET: "
                            },
                            {
                                "type": "link",
                                "url": "https:\/\/zoom.us\/j\/7804345815",
                                "text": "https:\/\/zoom.us\/j\/7804345815"
                            }
                        ]
                    }
                ]
            }
        ]
    },
    {
        "client_msg_id": "d9c89a15-3bea-4ab2-83ac-ddf573a9250f",
        "type": "message",
        "text": "<@U0103BSMXT2> Is the limitation of the system the intubation kits (the part replaced by the snorkeling gear) or is it the ventilator pumps?  I was under the impression that the ventilators themselves were what was in short supply not the disposable intubation which presumably this replaces, but if its the disposable components then the problem is different.",
        "user": "U010HTBUHS9",
        "ts": "1585079869.266300",
        "team": "TUU48M0T1",
        "user_team": "TUU48M0T1",
        "source_team": "TUU48M0T1",
        "user_profile": {
            "avatar_hash": "e7bdbebff0d9",
            "image_72": "https:\/\/avatars.slack-edge.com\/2020-03-22\/1017951251813_e7bdbebff0d9ad1e8f12_72.jpg",
            "first_name": "",
            "real_name": "Adam Arabian",
            "display_name": "Adam Arabian",
            "team": "TUU48M0T1",
            "name": "adam.arabian",
            "is_restricted": false,
            "is_ultra_restricted": false
        },
        "blocks": [
            {
                "type": "rich_text",
                "block_id": "l9k",
                "elements": [
                    {
                        "type": "rich_text_section",
                        "elements": [
                            {
                                "type": "user",
                                "user_id": "U0103BSMXT2"
                            },
                            {
                                "type": "text",
                                "text": " Is the limitation of the system the intubation kits (the part replaced by the snorkeling gear) or is it the ventilator pumps?  I was under the impression that the ventilators themselves were what was in short supply not the disposable intubation which presumably this replaces, but if its the disposable components then the problem is different."
                            }
                        ]
                    }
                ]
            }
        ],
        "thread_ts": "1585071296.264700",
        "parent_user_id": "U0103BSMXT2"
    },
    {
        "client_msg_id": "2b8665a2-cf26-4d0d-97fc-09b546e1c067",
        "type": "message",
        "text": "I don't really know, I didn't really looked into it",
        "user": "U0103BSMXT2",
        "ts": "1585080008.266500",
        "team": "TUU48M0T1",
        "user_team": "TUU48M0T1",
        "source_team": "TUU48M0T1",
        "user_profile": {
            "avatar_hash": "g5e00654aa20",
            "image_72": "https:\/\/secure.gravatar.com\/avatar\/5e00654aa2064ae08b074bcbc49bfe77.jpg?s=72&d=https%3A%2F%2Fa.slack-edge.com%2Fdf10d%2Fimg%2Favatars%2Fava_0018-72.png",
            "first_name": "",
            "real_name": "Yann Uzel",
            "display_name": "Yann Uzel",
            "team": "TUU48M0T1",
            "name": "yann.uzel",
            "is_restricted": false,
            "is_ultra_restricted": false
        },
        "blocks": [
            {
                "type": "rich_text",
                "block_id": "c\/D6",
                "elements": [
                    {
                        "type": "rich_text_section",
                        "elements": [
                            {
                                "type": "text",
                                "text": "I don't really know, I didn't really looked into it"
                            }
                        ]
                    }
                ]
            }
        ],
        "thread_ts": "1585071296.264700",
        "parent_user_id": "U0103BSMXT2"
    },
    {
        "client_msg_id": "385a0c84-d794-44e9-85a2-fd264ae03155",
        "type": "message",
        "text": "OK.  Thx - definitely impacts the design space.  Not sure how to find out the answer!",
        "user": "U010HTBUHS9",
        "ts": "1585080037.266700",
        "team": "TUU48M0T1",
        "user_team": "TUU48M0T1",
        "source_team": "TUU48M0T1",
        "user_profile": {
            "avatar_hash": "e7bdbebff0d9",
            "image_72": "https:\/\/avatars.slack-edge.com\/2020-03-22\/1017951251813_e7bdbebff0d9ad1e8f12_72.jpg",
            "first_name": "",
            "real_name": "Adam Arabian",
            "display_name": "Adam Arabian",
            "team": "TUU48M0T1",
            "name": "adam.arabian",
            "is_restricted": false,
            "is_ultra_restricted": false
        },
        "blocks": [
            {
                "type": "rich_text",
                "block_id": "WLw7p",
                "elements": [
                    {
                        "type": "rich_text_section",
                        "elements": [
                            {
                                "type": "text",
                                "text": "OK.  Thx - definitely impacts the design space.  Not sure how to find out the answer!"
                            }
                        ]
                    }
                ]
            }
        ],
        "thread_ts": "1585071296.264700",
        "parent_user_id": "U0103BSMXT2"
    },
    {
        "client_msg_id": "ebb9e709-d5df-42d7-b817-27603ee2634b",
        "type": "message",
        "text": "<https:\/\/www.gofundme.com\/f\/covid19-manufacturing-fund>",
        "user": "UUNGFHSV8",
        "ts": "1585082801.267000",
        "team": "TUU48M0T1",
        "user_team": "TUU48M0T1",
        "source_team": "TUU48M0T1",
        "user_profile": {
            "avatar_hash": "1c55ee32397a",
            "image_72": "https:\/\/avatars.slack-edge.com\/2020-03-07\/987349161984_1c55ee32397a85a87ec4_72.png",
            "first_name": "Isaac",
            "real_name": "Isaac Larkin",
            "display_name": "Isaac Larkin",
            "team": "TUU48M0T1",
            "name": "eyesmo",
            "is_restricted": false,
            "is_ultra_restricted": false
        },
        "attachments": [
            {
                "service_name": "gofundme.com",
                "title": "Covid-19 Manufacturing Fund organized by 3D Hubs",
                "title_link": "https:\/\/www.gofundme.com\/f\/covid19-manufacturing-fund",
                "text": "The 3D Hubs team has launched the COVID-19 Manufacturing Fund,  to help manufacture critical parts… 3D Hubs needs your support for Covid-19 Manufacturing Fund",
                "fallback": "gofundme.com: Covid-19 Manufacturing Fund organized by 3D Hubs",
                "image_url": "https:\/\/d2g8igdw686xgo.cloudfront.net\/46394246_1585051962211797_r.jpeg",
                "from_url": "https:\/\/www.gofundme.com\/f\/covid19-manufacturing-fund",
                "image_width": 375,
                "image_height": 250,
                "image_bytes": 183070,
                "service_icon": "https:\/\/www.gofundme.com\/favicon.ico",
                "id": 1,
                "original_url": "https:\/\/www.gofundme.com\/f\/covid19-manufacturing-fund"
            }
        ],
        "blocks": [
            {
                "type": "rich_text",
                "block_id": "1kwQ",
                "elements": [
                    {
                        "type": "rich_text_section",
                        "elements": [
                            {
                                "type": "link",
                                "url": "https:\/\/www.gofundme.com\/f\/covid19-manufacturing-fund"
                            }
                        ]
                    }
                ]
            }
        ]
    },
    {
        "type": "message",
        "text": "Blender files for Cu3D mask moulds.  We're exploring the best way to add gaskets to these to improve sealing around the edges.  One of the biggest complaints I'm seeing is the lack of seal around the edges.  If anyone else has suggested solutions or knows of the best gasket material please note.",
        "files": [
            {
                "id": "F010RSLUT4P",
                "created": 1585094426,
                "timestamp": 1585094426,
                "name": "MouldNoFillHoleOriginalCapAllVNoFillHole.blend",
                "title": "MouldNoFillHoleOriginalCapAllVNoFillHole.blend",
                "mimetype": "application\/octet-stream",
                "filetype": "binary",
                "pretty_type": "Binary",
                "user": "UVADMLUB0",
                "editable": false,
                "size": 3517420,
                "mode": "hosted",
                "is_external": false,
                "external_type": "",
                "is_public": true,
                "public_url_shared": false,
                "display_as_bot": false,
                "username": "",
                "url_private": "https:\/\/files.slack.com\/files-pri\/TUU48M0T1-F010RSLUT4P\/mouldnofillholeoriginalcapallvnofillhole.blend?t=xoxe-980144714919-1031585465028-1034106672247-1815eabca44f30d1d2d966083f8c8bbb",
                "url_private_download": "https:\/\/files.slack.com\/files-pri\/TUU48M0T1-F010RSLUT4P\/download\/mouldnofillholeoriginalcapallvnofillhole.blend?t=xoxe-980144714919-1031585465028-1034106672247-1815eabca44f30d1d2d966083f8c8bbb",
                "permalink": "https:\/\/open-covid19.slack.com\/files\/UVADMLUB0\/F010RSLUT4P\/mouldnofillholeoriginalcapallvnofillhole.blend",
                "permalink_public": "https:\/\/slack-files.com\/TUU48M0T1-F010RSLUT4P-251db0a36d",
                "is_starred": false,
                "has_rich_preview": false
            },
            {
                "id": "F010Q448E00",
                "created": 1585094425,
                "timestamp": 1585094425,
                "name": "MouldNoFillHoleOriginalv2.blend",
                "title": "MouldNoFillHoleOriginalv2.blend",
                "mimetype": "application\/octet-stream",
                "filetype": "binary",
                "pretty_type": "Binary",
                "user": "UVADMLUB0",
                "editable": false,
                "size": 5263356,
                "mode": "hosted",
                "is_external": false,
                "external_type": "",
                "is_public": true,
                "public_url_shared": false,
                "display_as_bot": false,
                "username": "",
                "url_private": "https:\/\/files.slack.com\/files-pri\/TUU48M0T1-F010Q448E00\/mouldnofillholeoriginalv2.blend?t=xoxe-980144714919-1031585465028-1034106672247-1815eabca44f30d1d2d966083f8c8bbb",
                "url_private_download": "https:\/\/files.slack.com\/files-pri\/TUU48M0T1-F010Q448E00\/download\/mouldnofillholeoriginalv2.blend?t=xoxe-980144714919-1031585465028-1034106672247-1815eabca44f30d1d2d966083f8c8bbb",
                "permalink": "https:\/\/open-covid19.slack.com\/files\/UVADMLUB0\/F010Q448E00\/mouldnofillholeoriginalv2.blend",
                "permalink_public": "https:\/\/slack-files.com\/TUU48M0T1-F010Q448E00-e0aa82f32c",
                "is_starred": false,
                "has_rich_preview": false
            }
        ],
        "upload": true,
        "blocks": [
            {
                "type": "rich_text",
                "block_id": "atUf",
                "elements": [
                    {
                        "type": "rich_text_section",
                        "elements": [
                            {
                                "type": "text",
                                "text": "Blender files for Cu3D mask moulds.  We're exploring the best way to add gaskets to these to improve sealing around the edges.  One of the biggest complaints I'm seeing is the lack of seal around the edges.  If anyone else has suggested solutions or knows of the best gasket material please note."
                            }
                        ]
                    }
                ]
            }
        ],
        "user": "UVADMLUB0",
        "ts": "1585094452.269500",
        "edited": {
            "user": "UVADMLUB0",
            "ts": "1585094482.000000"
        },
        "client_msg_id": "7e008698-4b08-4cad-814d-357d7be568c5"
    }
]