[
    {
        "type": "message",
        "subtype": "channel_join",
        "ts": "1584425522.000200",
        "user": "U0106VDVAQ6",
        "text": "<@U0106VDVAQ6> has joined the channel"
    },
    {
        "type": "message",
        "subtype": "channel_purpose",
        "ts": "1584425523.000300",
        "user": "U0106VDVAQ6",
        "text": "<@U0106VDVAQ6> set the channel purpose: We are designing a reusable open source printable shell for masks to use by care takers and in hospitals",
        "purpose": "We are designing a reusable open source printable shell for masks to use by care takers and in hospitals"
    },
    {
        "type": "message",
        "subtype": "channel_join",
        "ts": "1584428378.000200",
        "user": "UV20M5HGQ",
        "text": "<@UV20M5HGQ> has joined the channel"
    }
]