[
    {
        "client_msg_id": "47a1c08e-0e20-4d10-a1b1-61fc9b0732f9",
        "type": "message",
        "text": "however, even if the Zn story seems encouraging, it seems like zinc overdoses are non-trivial... <https:\/\/www.healthline.com\/nutrition\/zinc-overdose-symptoms>",
        "user": "UV1A22N3W",
        "ts": "1584266924.035600",
        "team": "TUU48M0T1",
        "user_team": "TUU48M0T1",
        "source_team": "TUU48M0T1",
        "user_profile": {
            "avatar_hash": "71f827776ad6",
            "image_72": "https:\/\/avatars.slack-edge.com\/2020-03-09\/988125642964_71f827776ad610af05a2_72.jpg",
            "first_name": "",
            "real_name": "RachelA",
            "display_name": "RachelA",
            "team": "TUU48M0T1",
            "name": "raronoff",
            "is_restricted": false,
            "is_ultra_restricted": false
        },
        "attachments": [
            {
                "service_name": "Healthline",
                "title": "7 Signs and Symptoms of Zinc Overdose",
                "title_link": "https:\/\/www.healthline.com\/nutrition\/zinc-overdose-symptoms",
                "text": "Zinc is absolutely essential for good health, but consuming too much can have several side effects. Here are 7 signs and symptoms of zinc overdose.",
                "fallback": "Healthline: 7 Signs and Symptoms of Zinc Overdose",
                "image_url": "https:\/\/www.healthline.com\/hlcmsresource\/images\/AN_images\/zinc-overdose-symptoms-1200x628-facebook.jpg",
                "from_url": "https:\/\/www.healthline.com\/nutrition\/zinc-overdose-symptoms",
                "image_width": 478,
                "image_height": 250,
                "image_bytes": 26662,
                "id": 1,
                "original_url": "https:\/\/www.healthline.com\/nutrition\/zinc-overdose-symptoms"
            }
        ],
        "blocks": [
            {
                "type": "rich_text",
                "block_id": "cBKJ",
                "elements": [
                    {
                        "type": "rich_text_section",
                        "elements": [
                            {
                                "type": "text",
                                "text": "however, even if the Zn story seems encouraging, it seems like zinc overdoses are non-trivial... "
                            },
                            {
                                "type": "link",
                                "url": "https:\/\/www.healthline.com\/nutrition\/zinc-overdose-symptoms"
                            }
                        ]
                    }
                ]
            }
        ],
        "thread_ts": "1584266924.035600",
        "reply_count": 7,
        "reply_users_count": 2,
        "latest_reply": "1584293517.047400",
        "reply_users": [
            "UVCT4AT54",
            "UV1A22N3W"
        ],
        "replies": [
            {
                "user": "UVCT4AT54",
                "ts": "1584285799.036200"
            },
            {
                "user": "UVCT4AT54",
                "ts": "1584287043.036800"
            },
            {
                "user": "UVCT4AT54",
                "ts": "1584287060.037000"
            },
            {
                "user": "UVCT4AT54",
                "ts": "1584287119.037800"
            },
            {
                "user": "UV1A22N3W",
                "ts": "1584293385.045600"
            },
            {
                "user": "UV1A22N3W",
                "ts": "1584293497.047100"
            },
            {
                "user": "UV1A22N3W",
                "ts": "1584293517.047400"
            }
        ],
        "subscribed": false
    },
    {
        "type": "message",
        "subtype": "channel_join",
        "ts": "1584281256.035900",
        "user": "UUWUKTATD",
        "text": "<@UUWUKTATD> has joined the channel"
    },
    {
        "type": "message",
        "subtype": "channel_join",
        "ts": "1584282186.036100",
        "user": "UV0RRGB6H",
        "text": "<@UV0RRGB6H> has joined the channel"
    },
    {
        "type": "message",
        "text": "That is good I think. Also with Zn ionophores maybe we can also have a look at too low Zn conc in the Blood or inadequate intake. These doses in Healthline seem high.",
        "files": [
            {
                "id": "F0101748W2U",
                "created": 1584285795,
                "timestamp": 1584285795,
                "name": "Screenshot 2020-03-15 at 17.22.11.png",
                "title": "Screenshot 2020-03-15 at 17.22.11.png",
                "mimetype": "image\/png",
                "filetype": "png",
                "pretty_type": "PNG",
                "user": "UVCT4AT54",
                "editable": false,
                "size": 245502,
                "mode": "hosted",
                "is_external": false,
                "external_type": "",
                "is_public": true,
                "public_url_shared": false,
                "display_as_bot": false,
                "username": "",
                "url_private": "https:\/\/files.slack.com\/files-pri\/TUU48M0T1-F0101748W2U\/screenshot_2020-03-15_at_17.22.11.png?t=xoxe-980144714919-1031585465028-1034106672247-1815eabca44f30d1d2d966083f8c8bbb",
                "url_private_download": "https:\/\/files.slack.com\/files-pri\/TUU48M0T1-F0101748W2U\/download\/screenshot_2020-03-15_at_17.22.11.png?t=xoxe-980144714919-1031585465028-1034106672247-1815eabca44f30d1d2d966083f8c8bbb",
                "thumb_64": "https:\/\/files.slack.com\/files-tmb\/TUU48M0T1-F0101748W2U-dc3d25ef78\/screenshot_2020-03-15_at_17.22.11_64.png?t=xoxe-980144714919-1031585465028-1034106672247-1815eabca44f30d1d2d966083f8c8bbb",
                "thumb_80": "https:\/\/files.slack.com\/files-tmb\/TUU48M0T1-F0101748W2U-dc3d25ef78\/screenshot_2020-03-15_at_17.22.11_80.png?t=xoxe-980144714919-1031585465028-1034106672247-1815eabca44f30d1d2d966083f8c8bbb",
                "thumb_360": "https:\/\/files.slack.com\/files-tmb\/TUU48M0T1-F0101748W2U-dc3d25ef78\/screenshot_2020-03-15_at_17.22.11_360.png?t=xoxe-980144714919-1031585465028-1034106672247-1815eabca44f30d1d2d966083f8c8bbb",
                "thumb_360_w": 360,
                "thumb_360_h": 202,
                "thumb_480": "https:\/\/files.slack.com\/files-tmb\/TUU48M0T1-F0101748W2U-dc3d25ef78\/screenshot_2020-03-15_at_17.22.11_480.png?t=xoxe-980144714919-1031585465028-1034106672247-1815eabca44f30d1d2d966083f8c8bbb",
                "thumb_480_w": 480,
                "thumb_480_h": 269,
                "thumb_160": "https:\/\/files.slack.com\/files-tmb\/TUU48M0T1-F0101748W2U-dc3d25ef78\/screenshot_2020-03-15_at_17.22.11_160.png?t=xoxe-980144714919-1031585465028-1034106672247-1815eabca44f30d1d2d966083f8c8bbb",
                "thumb_720": "https:\/\/files.slack.com\/files-tmb\/TUU48M0T1-F0101748W2U-dc3d25ef78\/screenshot_2020-03-15_at_17.22.11_720.png?t=xoxe-980144714919-1031585465028-1034106672247-1815eabca44f30d1d2d966083f8c8bbb",
                "thumb_720_w": 720,
                "thumb_720_h": 404,
                "thumb_800": "https:\/\/files.slack.com\/files-tmb\/TUU48M0T1-F0101748W2U-dc3d25ef78\/screenshot_2020-03-15_at_17.22.11_800.png?t=xoxe-980144714919-1031585465028-1034106672247-1815eabca44f30d1d2d966083f8c8bbb",
                "thumb_800_w": 800,
                "thumb_800_h": 449,
                "thumb_960": "https:\/\/files.slack.com\/files-tmb\/TUU48M0T1-F0101748W2U-dc3d25ef78\/screenshot_2020-03-15_at_17.22.11_960.png?t=xoxe-980144714919-1031585465028-1034106672247-1815eabca44f30d1d2d966083f8c8bbb",
                "thumb_960_w": 960,
                "thumb_960_h": 539,
                "thumb_1024": "https:\/\/files.slack.com\/files-tmb\/TUU48M0T1-F0101748W2U-dc3d25ef78\/screenshot_2020-03-15_at_17.22.11_1024.png?t=xoxe-980144714919-1031585465028-1034106672247-1815eabca44f30d1d2d966083f8c8bbb",
                "thumb_1024_w": 1024,
                "thumb_1024_h": 575,
                "image_exif_rotation": 1,
                "original_w": 1196,
                "original_h": 671,
                "thumb_tiny": "AwAaADC48Ucalmxj6U1RA54C\/wDfNTNycHpSbR6CjUQ3yosZ2r\/3zS+RGRnav5U7A\/urSgfl6UDI\/JjI+4P++aPIQDGP0p4IpcjHWgBGODSbh6H86H+9TaAH7x6UobJqOnL96gBcH0oxin0HpQB\/\/9k=",
                "permalink": "https:\/\/open-covid19.slack.com\/files\/UVCT4AT54\/F0101748W2U\/screenshot_2020-03-15_at_17.22.11.png",
                "permalink_public": "https:\/\/slack-files.com\/TUU48M0T1-F0101748W2U-4ceed10ec3",
                "is_starred": false,
                "has_rich_preview": false
            },
            {
                "id": "F0100P4T2RJ",
                "created": 1584285795,
                "timestamp": 1584285795,
                "name": "Screenshot 2020-03-15 at 17.21.58.png",
                "title": "Screenshot 2020-03-15 at 17.21.58.png",
                "mimetype": "image\/png",
                "filetype": "png",
                "pretty_type": "PNG",
                "user": "UVCT4AT54",
                "editable": false,
                "size": 60093,
                "mode": "hosted",
                "is_external": false,
                "external_type": "",
                "is_public": true,
                "public_url_shared": false,
                "display_as_bot": false,
                "username": "",
                "url_private": "https:\/\/files.slack.com\/files-pri\/TUU48M0T1-F0100P4T2RJ\/screenshot_2020-03-15_at_17.21.58.png?t=xoxe-980144714919-1031585465028-1034106672247-1815eabca44f30d1d2d966083f8c8bbb",
                "url_private_download": "https:\/\/files.slack.com\/files-pri\/TUU48M0T1-F0100P4T2RJ\/download\/screenshot_2020-03-15_at_17.21.58.png?t=xoxe-980144714919-1031585465028-1034106672247-1815eabca44f30d1d2d966083f8c8bbb",
                "thumb_64": "https:\/\/files.slack.com\/files-tmb\/TUU48M0T1-F0100P4T2RJ-af80d3ee66\/screenshot_2020-03-15_at_17.21.58_64.png?t=xoxe-980144714919-1031585465028-1034106672247-1815eabca44f30d1d2d966083f8c8bbb",
                "thumb_80": "https:\/\/files.slack.com\/files-tmb\/TUU48M0T1-F0100P4T2RJ-af80d3ee66\/screenshot_2020-03-15_at_17.21.58_80.png?t=xoxe-980144714919-1031585465028-1034106672247-1815eabca44f30d1d2d966083f8c8bbb",
                "thumb_360": "https:\/\/files.slack.com\/files-tmb\/TUU48M0T1-F0100P4T2RJ-af80d3ee66\/screenshot_2020-03-15_at_17.21.58_360.png?t=xoxe-980144714919-1031585465028-1034106672247-1815eabca44f30d1d2d966083f8c8bbb",
                "thumb_360_w": 360,
                "thumb_360_h": 109,
                "thumb_480": "https:\/\/files.slack.com\/files-tmb\/TUU48M0T1-F0100P4T2RJ-af80d3ee66\/screenshot_2020-03-15_at_17.21.58_480.png?t=xoxe-980144714919-1031585465028-1034106672247-1815eabca44f30d1d2d966083f8c8bbb",
                "thumb_480_w": 480,
                "thumb_480_h": 145,
                "thumb_160": "https:\/\/files.slack.com\/files-tmb\/TUU48M0T1-F0100P4T2RJ-af80d3ee66\/screenshot_2020-03-15_at_17.21.58_160.png?t=xoxe-980144714919-1031585465028-1034106672247-1815eabca44f30d1d2d966083f8c8bbb",
                "image_exif_rotation": 1,
                "original_w": 712,
                "original_h": 215,
                "thumb_tiny": "AwAOADDQZjkik3GlKEknijYfagA3n2pN59qXYfak2H2oAXefagMSe1Gw+1Kq4POKAP\/Z",
                "permalink": "https:\/\/open-covid19.slack.com\/files\/UVCT4AT54\/F0100P4T2RJ\/screenshot_2020-03-15_at_17.21.58.png",
                "permalink_public": "https:\/\/slack-files.com\/TUU48M0T1-F0100P4T2RJ-1fd642904c",
                "is_starred": false,
                "has_rich_preview": false
            }
        ],
        "upload": true,
        "blocks": [
            {
                "type": "rich_text",
                "block_id": "trpLo",
                "elements": [
                    {
                        "type": "rich_text_section",
                        "elements": [
                            {
                                "type": "text",
                                "text": "That is good I think. Also with Zn ionophores maybe we can also have a look at too low Zn conc in the Blood or inadequate intake. These doses in Healthline seem high."
                            }
                        ]
                    }
                ]
            }
        ],
        "user": "UVCT4AT54",
        "ts": "1584285799.036200",
        "client_msg_id": "492b620e-915c-4680-afca-47da586cf607",
        "thread_ts": "1584266924.035600",
        "parent_user_id": "UV1A22N3W"
    },
    {
        "client_msg_id": "1cdea01b-12d0-47bf-a698-579314df60b0",
        "type": "message",
        "text": "True I don't know if this is the mechanism of Cloroquine. This was just a guess, of course. They could measure the intracellular concentration of Zn in patients receiving Cloroquine that get better versus non-Cloroquine treated patients but yeah. Hard stuff. Althought, I could speculate that the high mortality of elder people is assciated with Zn deficiency? This could be too simple!",
        "user": "UVCT4AT54",
        "ts": "1584287043.036800",
        "team": "TUU48M0T1",
        "user_team": "TUU48M0T1",
        "source_team": "TUU48M0T1",
        "user_profile": {
            "avatar_hash": "deae325ec149",
            "image_72": "https:\/\/avatars.slack-edge.com\/2020-03-13\/999319371812_deae325ec1496af7deb8_72.jpg",
            "first_name": "",
            "real_name": "Adrian Pascu",
            "display_name": "Adrian Pascu",
            "team": "TUU48M0T1",
            "name": "ionut.cepleanu",
            "is_restricted": false,
            "is_ultra_restricted": false
        },
        "blocks": [
            {
                "type": "rich_text",
                "block_id": "O+V",
                "elements": [
                    {
                        "type": "rich_text_section",
                        "elements": [
                            {
                                "type": "text",
                                "text": "True I don't know if this is the mechanism of Cloroquine. This was just a guess, of course. They could measure the intracellular concentration of Zn in patients receiving Cloroquine that get better versus non-Cloroquine treated patients but yeah. Hard stuff. Althought, I could speculate that the high mortality of elder people is assciated with Zn deficiency? This could be too simple!"
                            }
                        ]
                    }
                ]
            }
        ],
        "thread_ts": "1584266924.035600",
        "parent_user_id": "UV1A22N3W"
    },
    {
        "type": "message",
        "text": "",
        "files": [
            {
                "id": "F010181U2DB",
                "created": 1584287057,
                "timestamp": 1584287057,
                "name": "Screenshot 2020-03-15 at 17.41.52.png",
                "title": "Screenshot 2020-03-15 at 17.41.52.png",
                "mimetype": "image\/png",
                "filetype": "png",
                "pretty_type": "PNG",
                "user": "UVCT4AT54",
                "editable": false,
                "size": 198159,
                "mode": "hosted",
                "is_external": false,
                "external_type": "",
                "is_public": true,
                "public_url_shared": false,
                "display_as_bot": false,
                "username": "",
                "url_private": "https:\/\/files.slack.com\/files-pri\/TUU48M0T1-F010181U2DB\/screenshot_2020-03-15_at_17.41.52.png?t=xoxe-980144714919-1031585465028-1034106672247-1815eabca44f30d1d2d966083f8c8bbb",
                "url_private_download": "https:\/\/files.slack.com\/files-pri\/TUU48M0T1-F010181U2DB\/download\/screenshot_2020-03-15_at_17.41.52.png?t=xoxe-980144714919-1031585465028-1034106672247-1815eabca44f30d1d2d966083f8c8bbb",
                "thumb_64": "https:\/\/files.slack.com\/files-tmb\/TUU48M0T1-F010181U2DB-36a1f162bc\/screenshot_2020-03-15_at_17.41.52_64.png?t=xoxe-980144714919-1031585465028-1034106672247-1815eabca44f30d1d2d966083f8c8bbb",
                "thumb_80": "https:\/\/files.slack.com\/files-tmb\/TUU48M0T1-F010181U2DB-36a1f162bc\/screenshot_2020-03-15_at_17.41.52_80.png?t=xoxe-980144714919-1031585465028-1034106672247-1815eabca44f30d1d2d966083f8c8bbb",
                "thumb_360": "https:\/\/files.slack.com\/files-tmb\/TUU48M0T1-F010181U2DB-36a1f162bc\/screenshot_2020-03-15_at_17.41.52_360.png?t=xoxe-980144714919-1031585465028-1034106672247-1815eabca44f30d1d2d966083f8c8bbb",
                "thumb_360_w": 360,
                "thumb_360_h": 313,
                "thumb_480": "https:\/\/files.slack.com\/files-tmb\/TUU48M0T1-F010181U2DB-36a1f162bc\/screenshot_2020-03-15_at_17.41.52_480.png?t=xoxe-980144714919-1031585465028-1034106672247-1815eabca44f30d1d2d966083f8c8bbb",
                "thumb_480_w": 480,
                "thumb_480_h": 417,
                "thumb_160": "https:\/\/files.slack.com\/files-tmb\/TUU48M0T1-F010181U2DB-36a1f162bc\/screenshot_2020-03-15_at_17.41.52_160.png?t=xoxe-980144714919-1031585465028-1034106672247-1815eabca44f30d1d2d966083f8c8bbb",
                "thumb_720": "https:\/\/files.slack.com\/files-tmb\/TUU48M0T1-F010181U2DB-36a1f162bc\/screenshot_2020-03-15_at_17.41.52_720.png?t=xoxe-980144714919-1031585465028-1034106672247-1815eabca44f30d1d2d966083f8c8bbb",
                "thumb_720_w": 720,
                "thumb_720_h": 626,
                "image_exif_rotation": 1,
                "original_w": 729,
                "original_h": 634,
                "thumb_tiny": "AwApADDQZsE0m40N940lAC7j\/k0BzTaKAHbz7UqklqZTl+8KAEY\/MaQY9\/yoYHccYo+b2oGLx6n8qOPU\/lTefajn2oAdx6n8qUEZ6n8qZz7Uqgk9qAHNjceKTj0\/Wkb7\/wCNJ2oEO49P1oyPQ\/nTDR6UASZH939aVSM4AxUR6VLH900Af\/\/Z",
                "permalink": "https:\/\/open-covid19.slack.com\/files\/UVCT4AT54\/F010181U2DB\/screenshot_2020-03-15_at_17.41.52.png",
                "permalink_public": "https:\/\/slack-files.com\/TUU48M0T1-F010181U2DB-0e1fda478d",
                "is_starred": false,
                "has_rich_preview": false
            },
            {
                "id": "FV2DRQP4J",
                "created": 1584287057,
                "timestamp": 1584287057,
                "name": "Screenshot 2020-03-15 at 17.37.41.png",
                "title": "Screenshot 2020-03-15 at 17.37.41.png",
                "mimetype": "image\/png",
                "filetype": "png",
                "pretty_type": "PNG",
                "user": "UVCT4AT54",
                "editable": false,
                "size": 187997,
                "mode": "hosted",
                "is_external": false,
                "external_type": "",
                "is_public": true,
                "public_url_shared": false,
                "display_as_bot": false,
                "username": "",
                "url_private": "https:\/\/files.slack.com\/files-pri\/TUU48M0T1-FV2DRQP4J\/screenshot_2020-03-15_at_17.37.41.png?t=xoxe-980144714919-1031585465028-1034106672247-1815eabca44f30d1d2d966083f8c8bbb",
                "url_private_download": "https:\/\/files.slack.com\/files-pri\/TUU48M0T1-FV2DRQP4J\/download\/screenshot_2020-03-15_at_17.37.41.png?t=xoxe-980144714919-1031585465028-1034106672247-1815eabca44f30d1d2d966083f8c8bbb",
                "thumb_64": "https:\/\/files.slack.com\/files-tmb\/TUU48M0T1-FV2DRQP4J-acac564854\/screenshot_2020-03-15_at_17.37.41_64.png?t=xoxe-980144714919-1031585465028-1034106672247-1815eabca44f30d1d2d966083f8c8bbb",
                "thumb_80": "https:\/\/files.slack.com\/files-tmb\/TUU48M0T1-FV2DRQP4J-acac564854\/screenshot_2020-03-15_at_17.37.41_80.png?t=xoxe-980144714919-1031585465028-1034106672247-1815eabca44f30d1d2d966083f8c8bbb",
                "thumb_360": "https:\/\/files.slack.com\/files-tmb\/TUU48M0T1-FV2DRQP4J-acac564854\/screenshot_2020-03-15_at_17.37.41_360.png?t=xoxe-980144714919-1031585465028-1034106672247-1815eabca44f30d1d2d966083f8c8bbb",
                "thumb_360_w": 360,
                "thumb_360_h": 269,
                "thumb_480": "https:\/\/files.slack.com\/files-tmb\/TUU48M0T1-FV2DRQP4J-acac564854\/screenshot_2020-03-15_at_17.37.41_480.png?t=xoxe-980144714919-1031585465028-1034106672247-1815eabca44f30d1d2d966083f8c8bbb",
                "thumb_480_w": 480,
                "thumb_480_h": 359,
                "thumb_160": "https:\/\/files.slack.com\/files-tmb\/TUU48M0T1-FV2DRQP4J-acac564854\/screenshot_2020-03-15_at_17.37.41_160.png?t=xoxe-980144714919-1031585465028-1034106672247-1815eabca44f30d1d2d966083f8c8bbb",
                "thumb_720": "https:\/\/files.slack.com\/files-tmb\/TUU48M0T1-FV2DRQP4J-acac564854\/screenshot_2020-03-15_at_17.37.41_720.png?t=xoxe-980144714919-1031585465028-1034106672247-1815eabca44f30d1d2d966083f8c8bbb",
                "thumb_720_w": 720,
                "thumb_720_h": 539,
                "thumb_800": "https:\/\/files.slack.com\/files-tmb\/TUU48M0T1-FV2DRQP4J-acac564854\/screenshot_2020-03-15_at_17.37.41_800.png?t=xoxe-980144714919-1031585465028-1034106672247-1815eabca44f30d1d2d966083f8c8bbb",
                "thumb_800_w": 800,
                "thumb_800_h": 599,
                "image_exif_rotation": 1,
                "original_w": 890,
                "original_h": 666,
                "thumb_tiny": "AwAjADC+M4HTp3pw3Edqj3YPXHHrSbz\/AHv1oAlG72\/Oj5vQfnUe\/wD2v1pPM\/2qAJfm9B+dLyeoGPrUPmf7RpUk+bk0BYQgEjjtSYGOgp+3OPpRsNADaKf5fvR5fvQAynIPmHFL5fvShMHOaAFUfKKdSJ90UtABRRRQAUUUUAf\/2Q==",
                "permalink": "https:\/\/open-covid19.slack.com\/files\/UVCT4AT54\/FV2DRQP4J\/screenshot_2020-03-15_at_17.37.41.png",
                "permalink_public": "https:\/\/slack-files.com\/TUU48M0T1-FV2DRQP4J-e1170d7887",
                "is_starred": false,
                "has_rich_preview": false
            }
        ],
        "upload": true,
        "user": "UVCT4AT54",
        "ts": "1584287060.037000",
        "client_msg_id": "8ec15282-8c73-4ce4-b029-84470fa97e8b",
        "thread_ts": "1584266924.035600",
        "parent_user_id": "UV1A22N3W"
    },
    {
        "client_msg_id": "a64b9659-ae70-4170-92df-9fd5ebc64ed4",
        "type": "message",
        "text": "This could also explain higher mortality in men than in women? I will read further. Hell..lower levels of Zn could also explain italy's higher mortality rate as described here as they have a higher intake of grains versus germans that eat a lot of meats ? Measuring Zn levels could disprove this easily.",
        "user": "UVCT4AT54",
        "ts": "1584287119.037800",
        "team": "TUU48M0T1",
        "user_team": "TUU48M0T1",
        "source_team": "TUU48M0T1",
        "user_profile": {
            "avatar_hash": "deae325ec149",
            "image_72": "https:\/\/avatars.slack-edge.com\/2020-03-13\/999319371812_deae325ec1496af7deb8_72.jpg",
            "first_name": "",
            "real_name": "Adrian Pascu",
            "display_name": "Adrian Pascu",
            "team": "TUU48M0T1",
            "name": "ionut.cepleanu",
            "is_restricted": false,
            "is_ultra_restricted": false
        },
        "edited": {
            "user": "UVCT4AT54",
            "ts": "1584287310.000000"
        },
        "blocks": [
            {
                "type": "rich_text",
                "block_id": "AGmJZ",
                "elements": [
                    {
                        "type": "rich_text_section",
                        "elements": [
                            {
                                "type": "text",
                                "text": "This could also explain higher mortality in men than in women? I will read further. Hell..lower levels of Zn could also explain italy's higher mortality rate as described here as they have a higher intake of grains versus germans that eat a lot of meats ? Measuring Zn levels could disprove this easily."
                            }
                        ]
                    }
                ]
            }
        ],
        "thread_ts": "1584266924.035600",
        "parent_user_id": "UV1A22N3W"
    },
    {
        "type": "message",
        "text": "Ok..another speculation. Please contradict. Zn levels could explain the higher mortality rate in older people versus young, higher mortality rates in italians versus German people. The diet could be an issue here since I think the Mediterranean diet is rich in grains and somehow lacks in meats (as does is persons with preexisting conditions such as diabetes or cardiovascular disease (they manage their chol. levels by eating less meats).",
        "files": [
            {
                "id": "F0103DUA5K8",
                "created": 1584287540,
                "timestamp": 1584287540,
                "name": "Screenshot 2020-03-15 at 17.41.52.png",
                "title": "Screenshot 2020-03-15 at 17.41.52.png",
                "mimetype": "image\/png",
                "filetype": "png",
                "pretty_type": "PNG",
                "user": "UVCT4AT54",
                "editable": false,
                "size": 198159,
                "mode": "hosted",
                "is_external": false,
                "external_type": "",
                "is_public": true,
                "public_url_shared": false,
                "display_as_bot": false,
                "username": "",
                "url_private": "https:\/\/files.slack.com\/files-pri\/TUU48M0T1-F0103DUA5K8\/screenshot_2020-03-15_at_17.41.52.png?t=xoxe-980144714919-1031585465028-1034106672247-1815eabca44f30d1d2d966083f8c8bbb",
                "url_private_download": "https:\/\/files.slack.com\/files-pri\/TUU48M0T1-F0103DUA5K8\/download\/screenshot_2020-03-15_at_17.41.52.png?t=xoxe-980144714919-1031585465028-1034106672247-1815eabca44f30d1d2d966083f8c8bbb",
                "thumb_64": "https:\/\/files.slack.com\/files-tmb\/TUU48M0T1-F0103DUA5K8-d0f4f4cac6\/screenshot_2020-03-15_at_17.41.52_64.png?t=xoxe-980144714919-1031585465028-1034106672247-1815eabca44f30d1d2d966083f8c8bbb",
                "thumb_80": "https:\/\/files.slack.com\/files-tmb\/TUU48M0T1-F0103DUA5K8-d0f4f4cac6\/screenshot_2020-03-15_at_17.41.52_80.png?t=xoxe-980144714919-1031585465028-1034106672247-1815eabca44f30d1d2d966083f8c8bbb",
                "thumb_360": "https:\/\/files.slack.com\/files-tmb\/TUU48M0T1-F0103DUA5K8-d0f4f4cac6\/screenshot_2020-03-15_at_17.41.52_360.png?t=xoxe-980144714919-1031585465028-1034106672247-1815eabca44f30d1d2d966083f8c8bbb",
                "thumb_360_w": 360,
                "thumb_360_h": 313,
                "thumb_480": "https:\/\/files.slack.com\/files-tmb\/TUU48M0T1-F0103DUA5K8-d0f4f4cac6\/screenshot_2020-03-15_at_17.41.52_480.png?t=xoxe-980144714919-1031585465028-1034106672247-1815eabca44f30d1d2d966083f8c8bbb",
                "thumb_480_w": 480,
                "thumb_480_h": 417,
                "thumb_160": "https:\/\/files.slack.com\/files-tmb\/TUU48M0T1-F0103DUA5K8-d0f4f4cac6\/screenshot_2020-03-15_at_17.41.52_160.png?t=xoxe-980144714919-1031585465028-1034106672247-1815eabca44f30d1d2d966083f8c8bbb",
                "thumb_720": "https:\/\/files.slack.com\/files-tmb\/TUU48M0T1-F0103DUA5K8-d0f4f4cac6\/screenshot_2020-03-15_at_17.41.52_720.png?t=xoxe-980144714919-1031585465028-1034106672247-1815eabca44f30d1d2d966083f8c8bbb",
                "thumb_720_w": 720,
                "thumb_720_h": 626,
                "image_exif_rotation": 1,
                "original_w": 729,
                "original_h": 634,
                "thumb_tiny": "AwApADDQZsE0m40N940lAC7j\/k0BzTaKAHbz7UqklqZTl+8KAEY\/MaQY9\/yoYHccYo+b2oGLx6n8qOPU\/lTefajn2oAdx6n8qUEZ6n8qZz7Uqgk9qAHNjceKTj0\/Wkb7\/wCNJ2oEO49P1oyPQ\/nTDR6UASZH939aVSM4AxUR6VLH900Af\/\/Z",
                "permalink": "https:\/\/open-covid19.slack.com\/files\/UVCT4AT54\/F0103DUA5K8\/screenshot_2020-03-15_at_17.41.52.png",
                "permalink_public": "https:\/\/slack-files.com\/TUU48M0T1-F0103DUA5K8-ff709330c5",
                "is_starred": false,
                "has_rich_preview": false
            },
            {
                "id": "FV2DWMAV8",
                "created": 1584287540,
                "timestamp": 1584287540,
                "name": "Screenshot 2020-03-15 at 17.37.41.png",
                "title": "Screenshot 2020-03-15 at 17.37.41.png",
                "mimetype": "image\/png",
                "filetype": "png",
                "pretty_type": "PNG",
                "user": "UVCT4AT54",
                "editable": false,
                "size": 187997,
                "mode": "hosted",
                "is_external": false,
                "external_type": "",
                "is_public": true,
                "public_url_shared": false,
                "display_as_bot": false,
                "username": "",
                "url_private": "https:\/\/files.slack.com\/files-pri\/TUU48M0T1-FV2DWMAV8\/screenshot_2020-03-15_at_17.37.41.png?t=xoxe-980144714919-1031585465028-1034106672247-1815eabca44f30d1d2d966083f8c8bbb",
                "url_private_download": "https:\/\/files.slack.com\/files-pri\/TUU48M0T1-FV2DWMAV8\/download\/screenshot_2020-03-15_at_17.37.41.png?t=xoxe-980144714919-1031585465028-1034106672247-1815eabca44f30d1d2d966083f8c8bbb",
                "thumb_64": "https:\/\/files.slack.com\/files-tmb\/TUU48M0T1-FV2DWMAV8-07ddc679fd\/screenshot_2020-03-15_at_17.37.41_64.png?t=xoxe-980144714919-1031585465028-1034106672247-1815eabca44f30d1d2d966083f8c8bbb",
                "thumb_80": "https:\/\/files.slack.com\/files-tmb\/TUU48M0T1-FV2DWMAV8-07ddc679fd\/screenshot_2020-03-15_at_17.37.41_80.png?t=xoxe-980144714919-1031585465028-1034106672247-1815eabca44f30d1d2d966083f8c8bbb",
                "thumb_360": "https:\/\/files.slack.com\/files-tmb\/TUU48M0T1-FV2DWMAV8-07ddc679fd\/screenshot_2020-03-15_at_17.37.41_360.png?t=xoxe-980144714919-1031585465028-1034106672247-1815eabca44f30d1d2d966083f8c8bbb",
                "thumb_360_w": 360,
                "thumb_360_h": 269,
                "thumb_480": "https:\/\/files.slack.com\/files-tmb\/TUU48M0T1-FV2DWMAV8-07ddc679fd\/screenshot_2020-03-15_at_17.37.41_480.png?t=xoxe-980144714919-1031585465028-1034106672247-1815eabca44f30d1d2d966083f8c8bbb",
                "thumb_480_w": 480,
                "thumb_480_h": 359,
                "thumb_160": "https:\/\/files.slack.com\/files-tmb\/TUU48M0T1-FV2DWMAV8-07ddc679fd\/screenshot_2020-03-15_at_17.37.41_160.png?t=xoxe-980144714919-1031585465028-1034106672247-1815eabca44f30d1d2d966083f8c8bbb",
                "thumb_720": "https:\/\/files.slack.com\/files-tmb\/TUU48M0T1-FV2DWMAV8-07ddc679fd\/screenshot_2020-03-15_at_17.37.41_720.png?t=xoxe-980144714919-1031585465028-1034106672247-1815eabca44f30d1d2d966083f8c8bbb",
                "thumb_720_w": 720,
                "thumb_720_h": 539,
                "thumb_800": "https:\/\/files.slack.com\/files-tmb\/TUU48M0T1-FV2DWMAV8-07ddc679fd\/screenshot_2020-03-15_at_17.37.41_800.png?t=xoxe-980144714919-1031585465028-1034106672247-1815eabca44f30d1d2d966083f8c8bbb",
                "thumb_800_w": 800,
                "thumb_800_h": 599,
                "image_exif_rotation": 1,
                "original_w": 890,
                "original_h": 666,
                "thumb_tiny": "AwAjADC+M4HTp3pw3Edqj3YPXHHrSbz\/AHv1oAlG72\/Oj5vQfnUe\/wD2v1pPM\/2qAJfm9B+dLyeoGPrUPmf7RpUk+bk0BYQgEjjtSYGOgp+3OPpRsNADaKf5fvR5fvQAynIPmHFL5fvShMHOaAFUfKKdSJ90UtABRRRQAUUUUAf\/2Q==",
                "permalink": "https:\/\/open-covid19.slack.com\/files\/UVCT4AT54\/FV2DWMAV8\/screenshot_2020-03-15_at_17.37.41.png",
                "permalink_public": "https:\/\/slack-files.com\/TUU48M0T1-FV2DWMAV8-6a7969aaf0",
                "is_starred": false,
                "has_rich_preview": false
            }
        ],
        "upload": true,
        "blocks": [
            {
                "type": "rich_text",
                "block_id": "LKb",
                "elements": [
                    {
                        "type": "rich_text_section",
                        "elements": [
                            {
                                "type": "text",
                                "text": "Ok..another speculation. Please contradict. Zn levels could explain the higher mortality rate in older people versus young, higher mortality rates in italians versus German people. The diet could be an issue here since I think the Mediterranean diet is rich in grains and somehow lacks in meats (as does is persons with preexisting conditions such as diabetes or cardiovascular disease (they manage their chol. levels by eating less meats)."
                            }
                        ]
                    }
                ]
            }
        ],
        "user": "UVCT4AT54",
        "ts": "1584287545.041200",
        "client_msg_id": "7b5e9c36-41bf-4c4a-af2a-de15127c48da",
        "thread_ts": "1584287545.041200",
        "reply_count": 2,
        "reply_users_count": 1,
        "latest_reply": "1584533844.062200",
        "reply_users": [
            "UV6870881"
        ],
        "replies": [
            {
                "user": "UV6870881",
                "ts": "1584533772.062000"
            },
            {
                "user": "UV6870881",
                "ts": "1584533844.062200"
            }
        ],
        "subscribed": false
    },
    {
        "type": "message",
        "text": "",
        "files": [
            {
                "id": "FV55N89JM",
                "created": 1584288324,
                "timestamp": 1584288324,
                "name": "Screenshot 2020-03-15 at 18.04.44.png",
                "title": "Screenshot 2020-03-15 at 18.04.44.png",
                "mimetype": "image\/png",
                "filetype": "png",
                "pretty_type": "PNG",
                "user": "UVCT4AT54",
                "editable": false,
                "size": 99947,
                "mode": "hosted",
                "is_external": false,
                "external_type": "",
                "is_public": true,
                "public_url_shared": false,
                "display_as_bot": false,
                "username": "",
                "url_private": "https:\/\/files.slack.com\/files-pri\/TUU48M0T1-FV55N89JM\/screenshot_2020-03-15_at_18.04.44.png?t=xoxe-980144714919-1031585465028-1034106672247-1815eabca44f30d1d2d966083f8c8bbb",
                "url_private_download": "https:\/\/files.slack.com\/files-pri\/TUU48M0T1-FV55N89JM\/download\/screenshot_2020-03-15_at_18.04.44.png?t=xoxe-980144714919-1031585465028-1034106672247-1815eabca44f30d1d2d966083f8c8bbb",
                "thumb_64": "https:\/\/files.slack.com\/files-tmb\/TUU48M0T1-FV55N89JM-ff329ea43b\/screenshot_2020-03-15_at_18.04.44_64.png?t=xoxe-980144714919-1031585465028-1034106672247-1815eabca44f30d1d2d966083f8c8bbb",
                "thumb_80": "https:\/\/files.slack.com\/files-tmb\/TUU48M0T1-FV55N89JM-ff329ea43b\/screenshot_2020-03-15_at_18.04.44_80.png?t=xoxe-980144714919-1031585465028-1034106672247-1815eabca44f30d1d2d966083f8c8bbb",
                "thumb_360": "https:\/\/files.slack.com\/files-tmb\/TUU48M0T1-FV55N89JM-ff329ea43b\/screenshot_2020-03-15_at_18.04.44_360.png?t=xoxe-980144714919-1031585465028-1034106672247-1815eabca44f30d1d2d966083f8c8bbb",
                "thumb_360_w": 360,
                "thumb_360_h": 259,
                "thumb_480": "https:\/\/files.slack.com\/files-tmb\/TUU48M0T1-FV55N89JM-ff329ea43b\/screenshot_2020-03-15_at_18.04.44_480.png?t=xoxe-980144714919-1031585465028-1034106672247-1815eabca44f30d1d2d966083f8c8bbb",
                "thumb_480_w": 480,
                "thumb_480_h": 345,
                "thumb_160": "https:\/\/files.slack.com\/files-tmb\/TUU48M0T1-FV55N89JM-ff329ea43b\/screenshot_2020-03-15_at_18.04.44_160.png?t=xoxe-980144714919-1031585465028-1034106672247-1815eabca44f30d1d2d966083f8c8bbb",
                "thumb_720": "https:\/\/files.slack.com\/files-tmb\/TUU48M0T1-FV55N89JM-ff329ea43b\/screenshot_2020-03-15_at_18.04.44_720.png?t=xoxe-980144714919-1031585465028-1034106672247-1815eabca44f30d1d2d966083f8c8bbb",
                "thumb_720_w": 720,
                "thumb_720_h": 517,
                "image_exif_rotation": 1,
                "original_w": 789,
                "original_h": 567,
                "thumb_tiny": "AwAiADDTqP8ACpCcVHx6igAxRj2o49RS\/L6\/pQAmPanr0pvy+v6U4YHHP5UADdPxplSVHtI9fzNABS\/jTvm9qOfagBuP9qnZBIxRk+opQfegAooooAKKKKADA9BRgUUUAf\/Z",
                "permalink": "https:\/\/open-covid19.slack.com\/files\/UVCT4AT54\/FV55N89JM\/screenshot_2020-03-15_at_18.04.44.png",
                "permalink_public": "https:\/\/slack-files.com\/TUU48M0T1-FV55N89JM-578163ac55",
                "is_starred": false,
                "has_rich_preview": false
            },
            {
                "id": "FV2E5DFEE",
                "created": 1584288324,
                "timestamp": 1584288324,
                "name": "Screenshot 2020-03-15 at 17.59.15.png",
                "title": "Screenshot 2020-03-15 at 17.59.15.png",
                "mimetype": "image\/png",
                "filetype": "png",
                "pretty_type": "PNG",
                "user": "UVCT4AT54",
                "editable": false,
                "size": 138507,
                "mode": "hosted",
                "is_external": false,
                "external_type": "",
                "is_public": true,
                "public_url_shared": false,
                "display_as_bot": false,
                "username": "",
                "url_private": "https:\/\/files.slack.com\/files-pri\/TUU48M0T1-FV2E5DFEE\/screenshot_2020-03-15_at_17.59.15.png?t=xoxe-980144714919-1031585465028-1034106672247-1815eabca44f30d1d2d966083f8c8bbb",
                "url_private_download": "https:\/\/files.slack.com\/files-pri\/TUU48M0T1-FV2E5DFEE\/download\/screenshot_2020-03-15_at_17.59.15.png?t=xoxe-980144714919-1031585465028-1034106672247-1815eabca44f30d1d2d966083f8c8bbb",
                "thumb_64": "https:\/\/files.slack.com\/files-tmb\/TUU48M0T1-FV2E5DFEE-e8674a4a24\/screenshot_2020-03-15_at_17.59.15_64.png?t=xoxe-980144714919-1031585465028-1034106672247-1815eabca44f30d1d2d966083f8c8bbb",
                "thumb_80": "https:\/\/files.slack.com\/files-tmb\/TUU48M0T1-FV2E5DFEE-e8674a4a24\/screenshot_2020-03-15_at_17.59.15_80.png?t=xoxe-980144714919-1031585465028-1034106672247-1815eabca44f30d1d2d966083f8c8bbb",
                "thumb_360": "https:\/\/files.slack.com\/files-tmb\/TUU48M0T1-FV2E5DFEE-e8674a4a24\/screenshot_2020-03-15_at_17.59.15_360.png?t=xoxe-980144714919-1031585465028-1034106672247-1815eabca44f30d1d2d966083f8c8bbb",
                "thumb_360_w": 360,
                "thumb_360_h": 326,
                "thumb_480": "https:\/\/files.slack.com\/files-tmb\/TUU48M0T1-FV2E5DFEE-e8674a4a24\/screenshot_2020-03-15_at_17.59.15_480.png?t=xoxe-980144714919-1031585465028-1034106672247-1815eabca44f30d1d2d966083f8c8bbb",
                "thumb_480_w": 480,
                "thumb_480_h": 434,
                "thumb_160": "https:\/\/files.slack.com\/files-tmb\/TUU48M0T1-FV2E5DFEE-e8674a4a24\/screenshot_2020-03-15_at_17.59.15_160.png?t=xoxe-980144714919-1031585465028-1034106672247-1815eabca44f30d1d2d966083f8c8bbb",
                "image_exif_rotation": 1,
                "original_w": 683,
                "original_h": 618,
                "thumb_tiny": "AwArADC+5OeGxj3pPm\/v\/qKc33jSZ9\/8\/nQABmHcH6ml3n\/Z\/Okz\/n\/Joz7\/AK\/\/AF6AF3n2\/OlDNx0xTc+\/+fzpRnA+tAwb7xpOcd\/8\/hSuoJzim7R6UALz70fh+n\/1qTavpRtHpQIX8\/ypfTr1703aPSnqBjp096BiP1pP89f\/AK9K1Jz6mgQZ9\/1\/+vRn3\/z+dJ+JpefU0AH+f8805COn9ab+JpV60Af\/2Q==",
                "permalink": "https:\/\/open-covid19.slack.com\/files\/UVCT4AT54\/FV2E5DFEE\/screenshot_2020-03-15_at_17.59.15.png",
                "permalink_public": "https:\/\/slack-files.com\/TUU48M0T1-FV2E5DFEE-79b87d5716",
                "is_starred": false,
                "has_rich_preview": false
            }
        ],
        "upload": true,
        "user": "UVCT4AT54",
        "ts": "1584288328.041700",
        "client_msg_id": "d17f016c-824e-45c3-92cc-104f5aca0198"
    },
    {
        "client_msg_id": "fcc422b1-c093-482e-bc81-c3f8d4835e78",
        "type": "message",
        "text": "Hope I'm not cherry picking here.",
        "user": "UVCT4AT54",
        "ts": "1584288386.042400",
        "team": "TUU48M0T1",
        "user_team": "TUU48M0T1",
        "source_team": "TUU48M0T1",
        "user_profile": {
            "avatar_hash": "deae325ec149",
            "image_72": "https:\/\/avatars.slack-edge.com\/2020-03-13\/999319371812_deae325ec1496af7deb8_72.jpg",
            "first_name": "",
            "real_name": "Adrian Pascu",
            "display_name": "Adrian Pascu",
            "team": "TUU48M0T1",
            "name": "ionut.cepleanu",
            "is_restricted": false,
            "is_ultra_restricted": false
        },
        "blocks": [
            {
                "type": "rich_text",
                "block_id": "12k",
                "elements": [
                    {
                        "type": "rich_text_section",
                        "elements": [
                            {
                                "type": "text",
                                "text": "Hope I'm not cherry picking here."
                            }
                        ]
                    }
                ]
            }
        ]
    },
    {
        "type": "message",
        "subtype": "channel_join",
        "ts": "1584289039.042600",
        "user": "UV90DGB4N",
        "text": "<@UV90DGB4N> has joined the channel"
    },
    {
        "type": "message",
        "subtype": "channel_join",
        "ts": "1584289176.042800",
        "user": "UV6DV6E5V",
        "text": "<@UV6DV6E5V> has joined the channel"
    },
    {
        "type": "message",
        "subtype": "channel_join",
        "ts": "1584289293.043000",
        "user": "UV2SC7ZE3",
        "text": "<@UV2SC7ZE3> has joined the channel"
    },
    {
        "type": "message",
        "subtype": "channel_join",
        "ts": "1584289327.043200",
        "user": "UV4PZ80P3",
        "text": "<@UV4PZ80P3> has joined the channel"
    },
    {
        "type": "message",
        "subtype": "channel_join",
        "ts": "1584292418.043400",
        "user": "UV7QBRCFN",
        "text": "<@UV7QBRCFN> has joined the channel"
    },
    {
        "client_msg_id": "6D52DF52-BEFF-411D-BF04-AC8FF27D6858",
        "type": "message",
        "text": "heard it is endocytosis &amp; viral uptake most affected by chloroquine... some other antivirals may also be needed before vaccines become available ",
        "user": "UV1A22N3W",
        "ts": "1584293385.045600",
        "team": "TUU48M0T1",
        "user_team": "TUU48M0T1",
        "source_team": "TUU48M0T1",
        "user_profile": {
            "avatar_hash": "71f827776ad6",
            "image_72": "https:\/\/avatars.slack-edge.com\/2020-03-09\/988125642964_71f827776ad610af05a2_72.jpg",
            "first_name": "",
            "real_name": "RachelA",
            "display_name": "RachelA",
            "team": "TUU48M0T1",
            "name": "raronoff",
            "is_restricted": false,
            "is_ultra_restricted": false
        },
        "blocks": [
            {
                "type": "rich_text",
                "block_id": "89nV5",
                "elements": [
                    {
                        "type": "rich_text_section",
                        "elements": [
                            {
                                "type": "text",
                                "text": "heard it is endocytosis & viral uptake most affected by chloroquine... some other antivirals may also be needed before vaccines become available "
                            }
                        ]
                    }
                ]
            }
        ],
        "thread_ts": "1584266924.035600",
        "parent_user_id": "UV1A22N3W"
    },
    {
        "client_msg_id": "03F6F71F-983E-4534-AF38-27A6E445285F",
        "type": "message",
        "text": "be cautious about just Zn explaining it all (sure Mg++ too may be impt). ",
        "user": "UV1A22N3W",
        "ts": "1584293497.047100",
        "team": "TUU48M0T1",
        "user_team": "TUU48M0T1",
        "source_team": "TUU48M0T1",
        "user_profile": {
            "avatar_hash": "71f827776ad6",
            "image_72": "https:\/\/avatars.slack-edge.com\/2020-03-09\/988125642964_71f827776ad610af05a2_72.jpg",
            "first_name": "",
            "real_name": "RachelA",
            "display_name": "RachelA",
            "team": "TUU48M0T1",
            "name": "raronoff",
            "is_restricted": false,
            "is_ultra_restricted": false
        },
        "blocks": [
            {
                "type": "rich_text",
                "block_id": "n7H7f",
                "elements": [
                    {
                        "type": "rich_text_section",
                        "elements": [
                            {
                                "type": "text",
                                "text": "be cautious about just Zn explaining it all (sure Mg++ too may be impt). "
                            }
                        ]
                    }
                ]
            }
        ],
        "thread_ts": "1584266924.035600",
        "parent_user_id": "UV1A22N3W"
    },
    {
        "client_msg_id": "A568B93E-17C3-4C46-9760-BE38FB8342A7",
        "type": "message",
        "text": ":sweat_smile:",
        "user": "UV1A22N3W",
        "ts": "1584293517.047400",
        "team": "TUU48M0T1",
        "user_team": "TUU48M0T1",
        "source_team": "TUU48M0T1",
        "user_profile": {
            "avatar_hash": "71f827776ad6",
            "image_72": "https:\/\/avatars.slack-edge.com\/2020-03-09\/988125642964_71f827776ad610af05a2_72.jpg",
            "first_name": "",
            "real_name": "RachelA",
            "display_name": "RachelA",
            "team": "TUU48M0T1",
            "name": "raronoff",
            "is_restricted": false,
            "is_ultra_restricted": false
        },
        "blocks": [
            {
                "type": "rich_text",
                "block_id": "idFU",
                "elements": [
                    {
                        "type": "rich_text_section",
                        "elements": [
                            {
                                "type": "emoji",
                                "name": "sweat_smile"
                            }
                        ]
                    }
                ]
            }
        ],
        "thread_ts": "1584266924.035600",
        "parent_user_id": "UV1A22N3W"
    },
    {
        "client_msg_id": "e413adf3-cf87-4f04-a96e-46b8ff70d4c9",
        "type": "message",
        "text": "Its hard to say no to anything. It could be a factor over the long term due to immune decline, but not a direct correlation of Zn levels vs disease. Although it could be true long term, that kind of message would be dangerous I think? Maybe worth more reading",
        "user": "UV0RRGB6H",
        "ts": "1584294030.050200",
        "team": "TUU48M0T1",
        "user_team": "TUU48M0T1",
        "source_team": "TUU48M0T1",
        "user_profile": {
            "avatar_hash": "48d4ab64c90c",
            "image_72": "https:\/\/avatars.slack-edge.com\/2020-03-26\/1029789176912_48d4ab64c90c03f3af4a_72.jpg",
            "first_name": "",
            "real_name": "Chris LB Graham",
            "display_name": "",
            "team": "TUU48M0T1",
            "name": "chris.graham",
            "is_restricted": false,
            "is_ultra_restricted": false
        },
        "blocks": [
            {
                "type": "rich_text",
                "block_id": "aNb",
                "elements": [
                    {
                        "type": "rich_text_section",
                        "elements": [
                            {
                                "type": "text",
                                "text": "Its hard to say no to anything. It could be a factor over the long term due to immune decline, but not a direct correlation of Zn levels vs disease. Although it could be true long term, that kind of message would be dangerous I think? Maybe worth more reading"
                            }
                        ]
                    }
                ]
            }
        ]
    },
    {
        "type": "message",
        "text": "I did post some more studies regarding my speculation. Zn + Zn ionophores. That would explain somehow the benefits of Quinolone (could be a mechanism of action). Alternative one probably. No way to say without trials. Zn Ionophore (like quercitin or ECGC being widely available and with 0 side effects). The studies are posted here above.",
        "files": [
            {
                "id": "F0100S932UC",
                "created": 1584295792,
                "timestamp": 1584295792,
                "name": "Screenshot 2020-03-15 at 20.09.37.png",
                "title": "Screenshot 2020-03-15 at 20.09.37.png",
                "mimetype": "image\/png",
                "filetype": "png",
                "pretty_type": "PNG",
                "user": "UVCT4AT54",
                "editable": false,
                "size": 48161,
                "mode": "hosted",
                "is_external": false,
                "external_type": "",
                "is_public": true,
                "public_url_shared": false,
                "display_as_bot": false,
                "username": "",
                "url_private": "https:\/\/files.slack.com\/files-pri\/TUU48M0T1-F0100S932UC\/screenshot_2020-03-15_at_20.09.37.png?t=xoxe-980144714919-1031585465028-1034106672247-1815eabca44f30d1d2d966083f8c8bbb",
                "url_private_download": "https:\/\/files.slack.com\/files-pri\/TUU48M0T1-F0100S932UC\/download\/screenshot_2020-03-15_at_20.09.37.png?t=xoxe-980144714919-1031585465028-1034106672247-1815eabca44f30d1d2d966083f8c8bbb",
                "thumb_64": "https:\/\/files.slack.com\/files-tmb\/TUU48M0T1-F0100S932UC-f58feecb18\/screenshot_2020-03-15_at_20.09.37_64.png?t=xoxe-980144714919-1031585465028-1034106672247-1815eabca44f30d1d2d966083f8c8bbb",
                "thumb_80": "https:\/\/files.slack.com\/files-tmb\/TUU48M0T1-F0100S932UC-f58feecb18\/screenshot_2020-03-15_at_20.09.37_80.png?t=xoxe-980144714919-1031585465028-1034106672247-1815eabca44f30d1d2d966083f8c8bbb",
                "thumb_360": "https:\/\/files.slack.com\/files-tmb\/TUU48M0T1-F0100S932UC-f58feecb18\/screenshot_2020-03-15_at_20.09.37_360.png?t=xoxe-980144714919-1031585465028-1034106672247-1815eabca44f30d1d2d966083f8c8bbb",
                "thumb_360_w": 360,
                "thumb_360_h": 83,
                "thumb_480": "https:\/\/files.slack.com\/files-tmb\/TUU48M0T1-F0100S932UC-f58feecb18\/screenshot_2020-03-15_at_20.09.37_480.png?t=xoxe-980144714919-1031585465028-1034106672247-1815eabca44f30d1d2d966083f8c8bbb",
                "thumb_480_w": 480,
                "thumb_480_h": 111,
                "thumb_160": "https:\/\/files.slack.com\/files-tmb\/TUU48M0T1-F0100S932UC-f58feecb18\/screenshot_2020-03-15_at_20.09.37_160.png?t=xoxe-980144714919-1031585465028-1034106672247-1815eabca44f30d1d2d966083f8c8bbb",
                "image_exif_rotation": 1,
                "original_w": 694,
                "original_h": 160,
                "thumb_tiny": "AwALADC9tK\/xE5OaXcR3ok6rTsUAN3H1pct\/kUuKWgBuW9P0oGc9KdRQB\/\/Z",
                "permalink": "https:\/\/open-covid19.slack.com\/files\/UVCT4AT54\/F0100S932UC\/screenshot_2020-03-15_at_20.09.37.png",
                "permalink_public": "https:\/\/slack-files.com\/TUU48M0T1-F0100S932UC-6b0ccda58c",
                "is_starred": false,
                "has_rich_preview": false
            }
        ],
        "upload": true,
        "blocks": [
            {
                "type": "rich_text",
                "block_id": "OpB",
                "elements": [
                    {
                        "type": "rich_text_section",
                        "elements": [
                            {
                                "type": "text",
                                "text": "I did post some more studies regarding my speculation. Zn + Zn ionophores. That would explain somehow the benefits of Quinolone (could be a mechanism of action). Alternative one probably. No way to say without trials. Zn Ionophore (like quercitin or ECGC being widely available and with 0 side effects). The studies are posted here above."
                            }
                        ]
                    }
                ]
            }
        ],
        "user": "UVCT4AT54",
        "display_as_bot": false,
        "ts": "1584295796.052700",
        "client_msg_id": "ff1e854c-b4d0-4d73-b77f-19146becd198",
        "reactions": [
            {
                "name": "pray",
                "users": [
                    "UV0RRGB6H"
                ],
                "count": 1
            }
        ]
    },
    {
        "type": "message",
        "subtype": "channel_join",
        "ts": "1584301154.053100",
        "user": "UV0QTJCMT",
        "text": "<@UV0QTJCMT> has joined the channel"
    },
    {
        "type": "message",
        "subtype": "channel_name",
        "ts": "1584301204.053200",
        "user": "UV0QTJCMT",
        "text": "<@UV0QTJCMT> has renamed the channel from \"treatments\" to \"chlg-treatment-team\"",
        "old_name": "treatments",
        "name": "chlg-treatment-team"
    },
    {
        "type": "message",
        "subtype": "channel_topic",
        "ts": "1584301247.053300",
        "user": "UV0QTJCMT",
        "text": "<@UV0QTJCMT> set the channel topic: Channel for all members interested in the Treatment Challenge. New project ideas and challenge team updates will be shared here.",
        "topic": "Channel for all members interested in the Treatment Challenge. New project ideas and challenge team updates will be shared here."
    },
    {
        "type": "message",
        "subtype": "channel_join",
        "ts": "1584301444.053500",
        "user": "UV120B2P7",
        "text": "<@UV120B2P7> has joined the channel"
    }
]