<?xml version="1.0" encoding="UTF-8"?>
<graphml xmlns="http://graphml.graphdrawing.org/xmlns"
         xmlns:xsi="http://www.w3.org/2001/XMLSchema-instance"
         xsi:schemaLocation="http://graphml.graphdrawing.org/xmlns
         http://graphml.graphdrawing.org/xmlns/1.0/graphml.xsd">
<!-- Created by igraph -->
  <key id="e_weight" for="edge" attr.name="weight" attr.type="double"/>
  <graph id="G" edgedefault="directed">
    <node id="n0">
    </node>
    <node id="n1">
    </node>
    <node id="n2">
    </node>
    <node id="n3">
    </node>
    <node id="n4">
    </node>
    <node id="n5">
    </node>
    <node id="n6">
    </node>
    <node id="n7">
    </node>
    <node id="n8">
    </node>
    <node id="n9">
    </node>
    <node id="n10">
    </node>
    <node id="n11">
    </node>
    <node id="n12">
    </node>
    <node id="n13">
    </node>
    <node id="n14">
    </node>
    <node id="n15">
    </node>
    <node id="n16">
    </node>
    <node id="n17">
    </node>
    <node id="n18">
    </node>
    <node id="n19">
    </node>
    <node id="n20">
    </node>
    <node id="n21">
    </node>
    <node id="n22">
    </node>
    <node id="n23">
    </node>
    <node id="n24">
    </node>
    <node id="n25">
    </node>
    <node id="n26">
    </node>
    <node id="n27">
    </node>
    <node id="n28">
    </node>
    <node id="n29">
    </node>
    <node id="n30">
    </node>
    <node id="n31">
    </node>
    <node id="n32">
    </node>
    <node id="n33">
    </node>
    <node id="n34">
    </node>
    <node id="n35">
    </node>
    <node id="n36">
    </node>
    <node id="n37">
    </node>
    <node id="n38">
    </node>
    <node id="n39">
    </node>
    <node id="n40">
    </node>
    <node id="n41">
    </node>
    <node id="n42">
    </node>
    <node id="n43">
    </node>
    <node id="n44">
    </node>
    <node id="n45">
    </node>
    <node id="n46">
    </node>
    <node id="n47">
    </node>
    <node id="n48">
    </node>
    <node id="n49">
    </node>
    <node id="n50">
    </node>
    <node id="n51">
    </node>
    <node id="n52">
    </node>
    <node id="n53">
    </node>
    <node id="n54">
    </node>
    <node id="n55">
    </node>
    <node id="n56">
    </node>
    <node id="n57">
    </node>
    <node id="n58">
    </node>
    <node id="n59">
    </node>
    <node id="n60">
    </node>
    <node id="n61">
    </node>
    <node id="n62">
    </node>
    <node id="n63">
    </node>
    <node id="n64">
    </node>
    <node id="n65">
    </node>
    <node id="n66">
    </node>
    <node id="n67">
    </node>
    <node id="n68">
    </node>
    <node id="n69">
    </node>
    <node id="n70">
    </node>
    <node id="n71">
    </node>
    <node id="n72">
    </node>
    <node id="n73">
    </node>
    <node id="n74">
    </node>
    <node id="n75">
    </node>
    <node id="n76">
    </node>
    <node id="n77">
    </node>
    <node id="n78">
    </node>
    <node id="n79">
    </node>
    <node id="n80">
    </node>
    <node id="n81">
    </node>
    <node id="n82">
    </node>
    <node id="n83">
    </node>
    <node id="n84">
    </node>
    <node id="n85">
    </node>
    <node id="n86">
    </node>
    <node id="n87">
    </node>
    <node id="n88">
    </node>
    <node id="n89">
    </node>
    <node id="n90">
    </node>
    <node id="n91">
    </node>
    <node id="n92">
    </node>
    <node id="n93">
    </node>
    <node id="n94">
    </node>
    <node id="n95">
    </node>
    <node id="n96">
    </node>
    <node id="n97">
    </node>
    <node id="n98">
    </node>
    <node id="n99">
    </node>
    <node id="n100">
    </node>
    <node id="n101">
    </node>
    <node id="n102">
    </node>
    <node id="n103">
    </node>
    <node id="n104">
    </node>
    <node id="n105">
    </node>
    <node id="n106">
    </node>
    <node id="n107">
    </node>
    <node id="n108">
    </node>
    <node id="n109">
    </node>
    <node id="n110">
    </node>
    <node id="n111">
    </node>
    <node id="n112">
    </node>
    <node id="n113">
    </node>
    <node id="n114">
    </node>
    <node id="n115">
    </node>
    <node id="n116">
    </node>
    <node id="n117">
    </node>
    <node id="n118">
    </node>
    <node id="n119">
    </node>
    <node id="n120">
    </node>
    <node id="n121">
    </node>
    <node id="n122">
    </node>
    <node id="n123">
    </node>
    <node id="n124">
    </node>
    <node id="n125">
    </node>
    <node id="n126">
    </node>
    <node id="n127">
    </node>
    <node id="n128">
    </node>
    <node id="n129">
    </node>
    <node id="n130">
    </node>
    <node id="n131">
    </node>
    <node id="n132">
    </node>
    <node id="n133">
    </node>
    <node id="n134">
    </node>
    <node id="n135">
    </node>
    <node id="n136">
    </node>
    <node id="n137">
    </node>
    <node id="n138">
    </node>
    <node id="n139">
    </node>
    <node id="n140">
    </node>
    <node id="n141">
    </node>
    <node id="n142">
    </node>
    <node id="n143">
    </node>
    <node id="n144">
    </node>
    <node id="n145">
    </node>
    <node id="n146">
    </node>
    <node id="n147">
    </node>
    <node id="n148">
    </node>
    <node id="n149">
    </node>
    <node id="n150">
    </node>
    <node id="n151">
    </node>
    <node id="n152">
    </node>
    <node id="n153">
    </node>
    <node id="n154">
    </node>
    <node id="n155">
    </node>
    <node id="n156">
    </node>
    <node id="n157">
    </node>
    <node id="n158">
    </node>
    <node id="n159">
    </node>
    <node id="n160">
    </node>
    <node id="n161">
    </node>
    <node id="n162">
    </node>
    <node id="n163">
    </node>
    <node id="n164">
    </node>
    <node id="n165">
    </node>
    <node id="n166">
    </node>
    <node id="n167">
    </node>
    <node id="n168">
    </node>
    <node id="n169">
    </node>
    <node id="n170">
    </node>
    <node id="n171">
    </node>
    <node id="n172">
    </node>
    <node id="n173">
    </node>
    <node id="n174">
    </node>
    <node id="n175">
    </node>
    <node id="n176">
    </node>
    <node id="n177">
    </node>
    <node id="n178">
    </node>
    <node id="n179">
    </node>
    <node id="n180">
    </node>
    <node id="n181">
    </node>
    <node id="n182">
    </node>
    <node id="n183">
    </node>
    <node id="n184">
    </node>
    <node id="n185">
    </node>
    <node id="n186">
    </node>
    <node id="n187">
    </node>
    <node id="n188">
    </node>
    <node id="n189">
    </node>
    <node id="n190">
    </node>
    <node id="n191">
    </node>
    <node id="n192">
    </node>
    <node id="n193">
    </node>
    <node id="n194">
    </node>
    <node id="n195">
    </node>
    <node id="n196">
    </node>
    <node id="n197">
    </node>
    <node id="n198">
    </node>
    <node id="n199">
    </node>
    <node id="n200">
    </node>
    <node id="n201">
    </node>
    <node id="n202">
    </node>
    <node id="n203">
    </node>
    <node id="n204">
    </node>
    <node id="n205">
    </node>
    <node id="n206">
    </node>
    <node id="n207">
    </node>
    <node id="n208">
    </node>
    <node id="n209">
    </node>
    <node id="n210">
    </node>
    <node id="n211">
    </node>
    <node id="n212">
    </node>
    <node id="n213">
    </node>
    <node id="n214">
    </node>
    <node id="n215">
    </node>
    <node id="n216">
    </node>
    <node id="n217">
    </node>
    <node id="n218">
    </node>
    <node id="n219">
    </node>
    <node id="n220">
    </node>
    <node id="n221">
    </node>
    <node id="n222">
    </node>
    <node id="n223">
    </node>
    <node id="n224">
    </node>
    <node id="n225">
    </node>
    <node id="n226">
    </node>
    <node id="n227">
    </node>
    <node id="n228">
    </node>
    <node id="n229">
    </node>
    <node id="n230">
    </node>
    <node id="n231">
    </node>
    <node id="n232">
    </node>
    <node id="n233">
    </node>
    <node id="n234">
    </node>
    <edge source="n0" target="n0">
      <data key="e_weight">1</data>
    </edge>
    <edge source="n1" target="n1">
      <data key="e_weight">1</data>
    </edge>
    <edge source="n2" target="n2">
      <data key="e_weight">1</data>
    </edge>
    <edge source="n2" target="n4">
      <data key="e_weight">1</data>
    </edge>
    <edge source="n2" target="n45">
      <data key="e_weight">1</data>
    </edge>
    <edge source="n3" target="n3">
      <data key="e_weight">1</data>
    </edge>
    <edge source="n3" target="n143">
      <data key="e_weight">1</data>
    </edge>
    <edge source="n4" target="n2">
      <data key="e_weight">1</data>
    </edge>
    <edge source="n4" target="n4">
      <data key="e_weight">1</data>
    </edge>
    <edge source="n4" target="n45">
      <data key="e_weight">1</data>
    </edge>
    <edge source="n5" target="n5">
      <data key="e_weight">1</data>
    </edge>
    <edge source="n5" target="n87">
      <data key="e_weight">1</data>
    </edge>
    <edge source="n5" target="n144">
      <data key="e_weight">1</data>
    </edge>
    <edge source="n6" target="n6">
      <data key="e_weight">1</data>
    </edge>
    <edge source="n7" target="n7">
      <data key="e_weight">1</data>
    </edge>
    <edge source="n8" target="n8">
      <data key="e_weight">1</data>
    </edge>
    <edge source="n8" target="n140">
      <data key="e_weight">1</data>
    </edge>
    <edge source="n9" target="n9">
      <data key="e_weight">1</data>
    </edge>
    <edge source="n9" target="n43">
      <data key="e_weight">1</data>
    </edge>
    <edge source="n9" target="n48">
      <data key="e_weight">1</data>
    </edge>
    <edge source="n9" target="n51">
      <data key="e_weight">1</data>
    </edge>
    <edge source="n9" target="n52">
      <data key="e_weight">1</data>
    </edge>
    <edge source="n9" target="n59">
      <data key="e_weight">1</data>
    </edge>
    <edge source="n9" target="n76">
      <data key="e_weight">1</data>
    </edge>
    <edge source="n9" target="n79">
      <data key="e_weight">1</data>
    </edge>
    <edge source="n9" target="n80">
      <data key="e_weight">1</data>
    </edge>
    <edge source="n9" target="n84">
      <data key="e_weight">1</data>
    </edge>
    <edge source="n9" target="n131">
      <data key="e_weight">1</data>
    </edge>
    <edge source="n9" target="n136">
      <data key="e_weight">1</data>
    </edge>
    <edge source="n9" target="n165">
      <data key="e_weight">1</data>
    </edge>
    <edge source="n9" target="n179">
      <data key="e_weight">1</data>
    </edge>
    <edge source="n9" target="n203">
      <data key="e_weight">1</data>
    </edge>
    <edge source="n10" target="n10">
      <data key="e_weight">1</data>
    </edge>
    <edge source="n11" target="n11">
      <data key="e_weight">1</data>
    </edge>
    <edge source="n11" target="n12">
      <data key="e_weight">1</data>
    </edge>
    <edge source="n11" target="n13">
      <data key="e_weight">1</data>
    </edge>
    <edge source="n12" target="n11">
      <data key="e_weight">1</data>
    </edge>
    <edge source="n12" target="n12">
      <data key="e_weight">1</data>
    </edge>
    <edge source="n12" target="n13">
      <data key="e_weight">1</data>
    </edge>
    <edge source="n13" target="n11">
      <data key="e_weight">1</data>
    </edge>
    <edge source="n13" target="n12">
      <data key="e_weight">1</data>
    </edge>
    <edge source="n13" target="n13">
      <data key="e_weight">1</data>
    </edge>
    <edge source="n14" target="n14">
      <data key="e_weight">1</data>
    </edge>
    <edge source="n15" target="n15">
      <data key="e_weight">1</data>
    </edge>
    <edge source="n16" target="n16">
      <data key="e_weight">1</data>
    </edge>
    <edge source="n17" target="n17">
      <data key="e_weight">1</data>
    </edge>
    <edge source="n17" target="n64">
      <data key="e_weight">1</data>
    </edge>
    <edge source="n17" target="n65">
      <data key="e_weight">1</data>
    </edge>
    <edge source="n18" target="n18">
      <data key="e_weight">1</data>
    </edge>
    <edge source="n18" target="n169">
      <data key="e_weight">1</data>
    </edge>
    <edge source="n19" target="n19">
      <data key="e_weight">1</data>
    </edge>
    <edge source="n19" target="n20">
      <data key="e_weight">1</data>
    </edge>
    <edge source="n20" target="n19">
      <data key="e_weight">1</data>
    </edge>
    <edge source="n20" target="n20">
      <data key="e_weight">1</data>
    </edge>
    <edge source="n21" target="n21">
      <data key="e_weight">1</data>
    </edge>
    <edge source="n21" target="n231">
      <data key="e_weight">1</data>
    </edge>
    <edge source="n22" target="n22">
      <data key="e_weight">1</data>
    </edge>
    <edge source="n22" target="n23">
      <data key="e_weight">1</data>
    </edge>
    <edge source="n22" target="n24">
      <data key="e_weight">1</data>
    </edge>
    <edge source="n23" target="n22">
      <data key="e_weight">1</data>
    </edge>
    <edge source="n23" target="n23">
      <data key="e_weight">1</data>
    </edge>
    <edge source="n23" target="n24">
      <data key="e_weight">1</data>
    </edge>
    <edge source="n24" target="n22">
      <data key="e_weight">1</data>
    </edge>
    <edge source="n24" target="n23">
      <data key="e_weight">1</data>
    </edge>
    <edge source="n24" target="n24">
      <data key="e_weight">1</data>
    </edge>
    <edge source="n25" target="n25">
      <data key="e_weight">1</data>
    </edge>
    <edge source="n25" target="n26">
      <data key="e_weight">1</data>
    </edge>
    <edge source="n25" target="n27">
      <data key="e_weight">1</data>
    </edge>
    <edge source="n26" target="n25">
      <data key="e_weight">1</data>
    </edge>
    <edge source="n26" target="n26">
      <data key="e_weight">1</data>
    </edge>
    <edge source="n26" target="n27">
      <data key="e_weight">1</data>
    </edge>
    <edge source="n27" target="n25">
      <data key="e_weight">1</data>
    </edge>
    <edge source="n27" target="n26">
      <data key="e_weight">1</data>
    </edge>
    <edge source="n27" target="n27">
      <data key="e_weight">1</data>
    </edge>
    <edge source="n28" target="n28">
      <data key="e_weight">1</data>
    </edge>
    <edge source="n28" target="n29">
      <data key="e_weight">1</data>
    </edge>
    <edge source="n28" target="n30">
      <data key="e_weight">1</data>
    </edge>
    <edge source="n28" target="n31">
      <data key="e_weight">1</data>
    </edge>
    <edge source="n28" target="n32">
      <data key="e_weight">1</data>
    </edge>
    <edge source="n29" target="n28">
      <data key="e_weight">1</data>
    </edge>
    <edge source="n29" target="n29">
      <data key="e_weight">1</data>
    </edge>
    <edge source="n29" target="n30">
      <data key="e_weight">1</data>
    </edge>
    <edge source="n29" target="n31">
      <data key="e_weight">1</data>
    </edge>
    <edge source="n29" target="n32">
      <data key="e_weight">1</data>
    </edge>
    <edge source="n30" target="n28">
      <data key="e_weight">1</data>
    </edge>
    <edge source="n30" target="n29">
      <data key="e_weight">1</data>
    </edge>
    <edge source="n30" target="n30">
      <data key="e_weight">1</data>
    </edge>
    <edge source="n30" target="n31">
      <data key="e_weight">1</data>
    </edge>
    <edge source="n30" target="n32">
      <data key="e_weight">1</data>
    </edge>
    <edge source="n31" target="n28">
      <data key="e_weight">1</data>
    </edge>
    <edge source="n31" target="n29">
      <data key="e_weight">1</data>
    </edge>
    <edge source="n31" target="n30">
      <data key="e_weight">1</data>
    </edge>
    <edge source="n31" target="n31">
      <data key="e_weight">1</data>
    </edge>
    <edge source="n31" target="n32">
      <data key="e_weight">1</data>
    </edge>
    <edge source="n32" target="n28">
      <data key="e_weight">1</data>
    </edge>
    <edge source="n32" target="n29">
      <data key="e_weight">1</data>
    </edge>
    <edge source="n32" target="n30">
      <data key="e_weight">1</data>
    </edge>
    <edge source="n32" target="n31">
      <data key="e_weight">1</data>
    </edge>
    <edge source="n32" target="n32">
      <data key="e_weight">1</data>
    </edge>
    <edge source="n33" target="n33">
      <data key="e_weight">1</data>
    </edge>
    <edge source="n33" target="n126">
      <data key="e_weight">1</data>
    </edge>
    <edge source="n34" target="n34">
      <data key="e_weight">1</data>
    </edge>
    <edge source="n34" target="n40">
      <data key="e_weight">1</data>
    </edge>
    <edge source="n34" target="n113">
      <data key="e_weight">1</data>
    </edge>
    <edge source="n35" target="n35">
      <data key="e_weight">1</data>
    </edge>
    <edge source="n36" target="n36">
      <data key="e_weight">1</data>
    </edge>
    <edge source="n36" target="n37">
      <data key="e_weight">1</data>
    </edge>
    <edge source="n36" target="n38">
      <data key="e_weight">1</data>
    </edge>
    <edge source="n36" target="n39">
      <data key="e_weight">1</data>
    </edge>
    <edge source="n37" target="n36">
      <data key="e_weight">1</data>
    </edge>
    <edge source="n37" target="n37">
      <data key="e_weight">1</data>
    </edge>
    <edge source="n37" target="n38">
      <data key="e_weight">1</data>
    </edge>
    <edge source="n37" target="n39">
      <data key="e_weight">1</data>
    </edge>
    <edge source="n38" target="n36">
      <data key="e_weight">1</data>
    </edge>
    <edge source="n38" target="n37">
      <data key="e_weight">1</data>
    </edge>
    <edge source="n38" target="n38">
      <data key="e_weight">1</data>
    </edge>
    <edge source="n38" target="n39">
      <data key="e_weight">1</data>
    </edge>
    <edge source="n39" target="n36">
      <data key="e_weight">1</data>
    </edge>
    <edge source="n39" target="n37">
      <data key="e_weight">1</data>
    </edge>
    <edge source="n39" target="n38">
      <data key="e_weight">1</data>
    </edge>
    <edge source="n39" target="n39">
      <data key="e_weight">1</data>
    </edge>
    <edge source="n40" target="n34">
      <data key="e_weight">1</data>
    </edge>
    <edge source="n40" target="n40">
      <data key="e_weight">1</data>
    </edge>
    <edge source="n40" target="n113">
      <data key="e_weight">1</data>
    </edge>
    <edge source="n41" target="n41">
      <data key="e_weight">1</data>
    </edge>
    <edge source="n41" target="n97">
      <data key="e_weight">1</data>
    </edge>
    <edge source="n42" target="n42">
      <data key="e_weight">1</data>
    </edge>
    <edge source="n43" target="n9">
      <data key="e_weight">1</data>
    </edge>
    <edge source="n43" target="n43">
      <data key="e_weight">1</data>
    </edge>
    <edge source="n43" target="n48">
      <data key="e_weight">1</data>
    </edge>
    <edge source="n43" target="n51">
      <data key="e_weight">1</data>
    </edge>
    <edge source="n43" target="n52">
      <data key="e_weight">1</data>
    </edge>
    <edge source="n43" target="n59">
      <data key="e_weight">1</data>
    </edge>
    <edge source="n43" target="n76">
      <data key="e_weight">1</data>
    </edge>
    <edge source="n43" target="n79">
      <data key="e_weight">1</data>
    </edge>
    <edge source="n43" target="n80">
      <data key="e_weight">1</data>
    </edge>
    <edge source="n43" target="n84">
      <data key="e_weight">1</data>
    </edge>
    <edge source="n43" target="n131">
      <data key="e_weight">1</data>
    </edge>
    <edge source="n43" target="n136">
      <data key="e_weight">1</data>
    </edge>
    <edge source="n43" target="n165">
      <data key="e_weight">1</data>
    </edge>
    <edge source="n43" target="n179">
      <data key="e_weight">1</data>
    </edge>
    <edge source="n43" target="n203">
      <data key="e_weight">1</data>
    </edge>
    <edge source="n44" target="n44">
      <data key="e_weight">1</data>
    </edge>
    <edge source="n45" target="n2">
      <data key="e_weight">1</data>
    </edge>
    <edge source="n45" target="n4">
      <data key="e_weight">1</data>
    </edge>
    <edge source="n45" target="n45">
      <data key="e_weight">1</data>
    </edge>
    <edge source="n46" target="n46">
      <data key="e_weight">1</data>
    </edge>
    <edge source="n46" target="n47">
      <data key="e_weight">1</data>
    </edge>
    <edge source="n46" target="n106">
      <data key="e_weight">1</data>
    </edge>
    <edge source="n46" target="n114">
      <data key="e_weight">1</data>
    </edge>
    <edge source="n46" target="n150">
      <data key="e_weight">1</data>
    </edge>
    <edge source="n46" target="n151">
      <data key="e_weight">1</data>
    </edge>
    <edge source="n47" target="n46">
      <data key="e_weight">1</data>
    </edge>
    <edge source="n47" target="n47">
      <data key="e_weight">1</data>
    </edge>
    <edge source="n47" target="n106">
      <data key="e_weight">1</data>
    </edge>
    <edge source="n47" target="n114">
      <data key="e_weight">1</data>
    </edge>
    <edge source="n47" target="n150">
      <data key="e_weight">1</data>
    </edge>
    <edge source="n47" target="n151">
      <data key="e_weight">1</data>
    </edge>
    <edge source="n48" target="n9">
      <data key="e_weight">1</data>
    </edge>
    <edge source="n48" target="n43">
      <data key="e_weight">1</data>
    </edge>
    <edge source="n48" target="n48">
      <data key="e_weight">1</data>
    </edge>
    <edge source="n48" target="n51">
      <data key="e_weight">1</data>
    </edge>
    <edge source="n48" target="n52">
      <data key="e_weight">1</data>
    </edge>
    <edge source="n48" target="n59">
      <data key="e_weight">1</data>
    </edge>
    <edge source="n48" target="n76">
      <data key="e_weight">1</data>
    </edge>
    <edge source="n48" target="n79">
      <data key="e_weight">1</data>
    </edge>
    <edge source="n48" target="n80">
      <data key="e_weight">1</data>
    </edge>
    <edge source="n48" target="n84">
      <data key="e_weight">1</data>
    </edge>
    <edge source="n48" target="n131">
      <data key="e_weight">1</data>
    </edge>
    <edge source="n48" target="n136">
      <data key="e_weight">1</data>
    </edge>
    <edge source="n48" target="n165">
      <data key="e_weight">1</data>
    </edge>
    <edge source="n48" target="n179">
      <data key="e_weight">1</data>
    </edge>
    <edge source="n48" target="n203">
      <data key="e_weight">1</data>
    </edge>
    <edge source="n49" target="n49">
      <data key="e_weight">1</data>
    </edge>
    <edge source="n49" target="n50">
      <data key="e_weight">1</data>
    </edge>
    <edge source="n50" target="n49">
      <data key="e_weight">1</data>
    </edge>
    <edge source="n50" target="n50">
      <data key="e_weight">1</data>
    </edge>
    <edge source="n51" target="n9">
      <data key="e_weight">1</data>
    </edge>
    <edge source="n51" target="n43">
      <data key="e_weight">1</data>
    </edge>
    <edge source="n51" target="n48">
      <data key="e_weight">1</data>
    </edge>
    <edge source="n51" target="n51">
      <data key="e_weight">1</data>
    </edge>
    <edge source="n51" target="n52">
      <data key="e_weight">1</data>
    </edge>
    <edge source="n51" target="n59">
      <data key="e_weight">1</data>
    </edge>
    <edge source="n51" target="n76">
      <data key="e_weight">1</data>
    </edge>
    <edge source="n51" target="n79">
      <data key="e_weight">1</data>
    </edge>
    <edge source="n51" target="n80">
      <data key="e_weight">1</data>
    </edge>
    <edge source="n51" target="n84">
      <data key="e_weight">1</data>
    </edge>
    <edge source="n51" target="n131">
      <data key="e_weight">1</data>
    </edge>
    <edge source="n51" target="n136">
      <data key="e_weight">1</data>
    </edge>
    <edge source="n51" target="n165">
      <data key="e_weight">1</data>
    </edge>
    <edge source="n51" target="n179">
      <data key="e_weight">1</data>
    </edge>
    <edge source="n51" target="n203">
      <data key="e_weight">1</data>
    </edge>
    <edge source="n52" target="n9">
      <data key="e_weight">1</data>
    </edge>
    <edge source="n52" target="n43">
      <data key="e_weight">1</data>
    </edge>
    <edge source="n52" target="n48">
      <data key="e_weight">1</data>
    </edge>
    <edge source="n52" target="n51">
      <data key="e_weight">1</data>
    </edge>
    <edge source="n52" target="n52">
      <data key="e_weight">1</data>
    </edge>
    <edge source="n52" target="n59">
      <data key="e_weight">1</data>
    </edge>
    <edge source="n52" target="n76">
      <data key="e_weight">1</data>
    </edge>
    <edge source="n52" target="n79">
      <data key="e_weight">1</data>
    </edge>
    <edge source="n52" target="n80">
      <data key="e_weight">1</data>
    </edge>
    <edge source="n52" target="n84">
      <data key="e_weight">1</data>
    </edge>
    <edge source="n52" target="n131">
      <data key="e_weight">1</data>
    </edge>
    <edge source="n52" target="n136">
      <data key="e_weight">1</data>
    </edge>
    <edge source="n52" target="n165">
      <data key="e_weight">1</data>
    </edge>
    <edge source="n52" target="n179">
      <data key="e_weight">1</data>
    </edge>
    <edge source="n52" target="n203">
      <data key="e_weight">1</data>
    </edge>
    <edge source="n53" target="n53">
      <data key="e_weight">1</data>
    </edge>
    <edge source="n53" target="n54">
      <data key="e_weight">1</data>
    </edge>
    <edge source="n54" target="n53">
      <data key="e_weight">1</data>
    </edge>
    <edge source="n54" target="n54">
      <data key="e_weight">1</data>
    </edge>
    <edge source="n55" target="n55">
      <data key="e_weight">1</data>
    </edge>
    <edge source="n55" target="n56">
      <data key="e_weight">1</data>
    </edge>
    <edge source="n56" target="n55">
      <data key="e_weight">1</data>
    </edge>
    <edge source="n56" target="n56">
      <data key="e_weight">1</data>
    </edge>
    <edge source="n57" target="n57">
      <data key="e_weight">1</data>
    </edge>
    <edge source="n58" target="n58">
      <data key="e_weight">1</data>
    </edge>
    <edge source="n59" target="n9">
      <data key="e_weight">1</data>
    </edge>
    <edge source="n59" target="n43">
      <data key="e_weight">1</data>
    </edge>
    <edge source="n59" target="n48">
      <data key="e_weight">1</data>
    </edge>
    <edge source="n59" target="n51">
      <data key="e_weight">1</data>
    </edge>
    <edge source="n59" target="n52">
      <data key="e_weight">1</data>
    </edge>
    <edge source="n59" target="n59">
      <data key="e_weight">1</data>
    </edge>
    <edge source="n59" target="n76">
      <data key="e_weight">1</data>
    </edge>
    <edge source="n59" target="n79">
      <data key="e_weight">1</data>
    </edge>
    <edge source="n59" target="n80">
      <data key="e_weight">1</data>
    </edge>
    <edge source="n59" target="n84">
      <data key="e_weight">1</data>
    </edge>
    <edge source="n59" target="n131">
      <data key="e_weight">1</data>
    </edge>
    <edge source="n59" target="n136">
      <data key="e_weight">1</data>
    </edge>
    <edge source="n59" target="n165">
      <data key="e_weight">1</data>
    </edge>
    <edge source="n59" target="n179">
      <data key="e_weight">1</data>
    </edge>
    <edge source="n59" target="n203">
      <data key="e_weight">1</data>
    </edge>
    <edge source="n60" target="n60">
      <data key="e_weight">1</data>
    </edge>
    <edge source="n60" target="n141">
      <data key="e_weight">1</data>
    </edge>
    <edge source="n60" target="n142">
      <data key="e_weight">1</data>
    </edge>
    <edge source="n61" target="n61">
      <data key="e_weight">1</data>
    </edge>
    <edge source="n62" target="n62">
      <data key="e_weight">1</data>
    </edge>
    <edge source="n63" target="n63">
      <data key="e_weight">1</data>
    </edge>
    <edge source="n64" target="n17">
      <data key="e_weight">1</data>
    </edge>
    <edge source="n64" target="n64">
      <data key="e_weight">1</data>
    </edge>
    <edge source="n64" target="n65">
      <data key="e_weight">1</data>
    </edge>
    <edge source="n65" target="n17">
      <data key="e_weight">1</data>
    </edge>
    <edge source="n65" target="n64">
      <data key="e_weight">1</data>
    </edge>
    <edge source="n65" target="n65">
      <data key="e_weight">1</data>
    </edge>
    <edge source="n66" target="n66">
      <data key="e_weight">1</data>
    </edge>
    <edge source="n66" target="n196">
      <data key="e_weight">1</data>
    </edge>
    <edge source="n66" target="n197">
      <data key="e_weight">1</data>
    </edge>
    <edge source="n67" target="n67">
      <data key="e_weight">1</data>
    </edge>
    <edge source="n68" target="n68">
      <data key="e_weight">1</data>
    </edge>
    <edge source="n68" target="n134">
      <data key="e_weight">1</data>
    </edge>
    <edge source="n69" target="n69">
      <data key="e_weight">1</data>
    </edge>
    <edge source="n70" target="n70">
      <data key="e_weight">1</data>
    </edge>
    <edge source="n71" target="n71">
      <data key="e_weight">1</data>
    </edge>
    <edge source="n72" target="n72">
      <data key="e_weight">1</data>
    </edge>
    <edge source="n72" target="n73">
      <data key="e_weight">1</data>
    </edge>
    <edge source="n72" target="n75">
      <data key="e_weight">1</data>
    </edge>
    <edge source="n73" target="n72">
      <data key="e_weight">1</data>
    </edge>
    <edge source="n73" target="n73">
      <data key="e_weight">1</data>
    </edge>
    <edge source="n73" target="n75">
      <data key="e_weight">1</data>
    </edge>
    <edge source="n74" target="n74">
      <data key="e_weight">1</data>
    </edge>
    <edge source="n75" target="n72">
      <data key="e_weight">1</data>
    </edge>
    <edge source="n75" target="n73">
      <data key="e_weight">1</data>
    </edge>
    <edge source="n75" target="n75">
      <data key="e_weight">1</data>
    </edge>
    <edge source="n76" target="n9">
      <data key="e_weight">1</data>
    </edge>
    <edge source="n76" target="n43">
      <data key="e_weight">1</data>
    </edge>
    <edge source="n76" target="n48">
      <data key="e_weight">1</data>
    </edge>
    <edge source="n76" target="n51">
      <data key="e_weight">1</data>
    </edge>
    <edge source="n76" target="n52">
      <data key="e_weight">1</data>
    </edge>
    <edge source="n76" target="n59">
      <data key="e_weight">1</data>
    </edge>
    <edge source="n76" target="n76">
      <data key="e_weight">1</data>
    </edge>
    <edge source="n76" target="n79">
      <data key="e_weight">1</data>
    </edge>
    <edge source="n76" target="n80">
      <data key="e_weight">1</data>
    </edge>
    <edge source="n76" target="n84">
      <data key="e_weight">1</data>
    </edge>
    <edge source="n76" target="n131">
      <data key="e_weight">1</data>
    </edge>
    <edge source="n76" target="n136">
      <data key="e_weight">1</data>
    </edge>
    <edge source="n76" target="n165">
      <data key="e_weight">1</data>
    </edge>
    <edge source="n76" target="n179">
      <data key="e_weight">1</data>
    </edge>
    <edge source="n76" target="n203">
      <data key="e_weight">1</data>
    </edge>
    <edge source="n77" target="n77">
      <data key="e_weight">1</data>
    </edge>
    <edge source="n77" target="n167">
      <data key="e_weight">1</data>
    </edge>
    <edge source="n77" target="n168">
      <data key="e_weight">1</data>
    </edge>
    <edge source="n78" target="n78">
      <data key="e_weight">1</data>
    </edge>
    <edge source="n79" target="n9">
      <data key="e_weight">1</data>
    </edge>
    <edge source="n79" target="n43">
      <data key="e_weight">1</data>
    </edge>
    <edge source="n79" target="n48">
      <data key="e_weight">1</data>
    </edge>
    <edge source="n79" target="n51">
      <data key="e_weight">1</data>
    </edge>
    <edge source="n79" target="n52">
      <data key="e_weight">1</data>
    </edge>
    <edge source="n79" target="n59">
      <data key="e_weight">1</data>
    </edge>
    <edge source="n79" target="n76">
      <data key="e_weight">1</data>
    </edge>
    <edge source="n79" target="n79">
      <data key="e_weight">1</data>
    </edge>
    <edge source="n79" target="n80">
      <data key="e_weight">1</data>
    </edge>
    <edge source="n79" target="n84">
      <data key="e_weight">1</data>
    </edge>
    <edge source="n79" target="n131">
      <data key="e_weight">1</data>
    </edge>
    <edge source="n79" target="n136">
      <data key="e_weight">1</data>
    </edge>
    <edge source="n79" target="n165">
      <data key="e_weight">1</data>
    </edge>
    <edge source="n79" target="n179">
      <data key="e_weight">1</data>
    </edge>
    <edge source="n79" target="n203">
      <data key="e_weight">1</data>
    </edge>
    <edge source="n80" target="n9">
      <data key="e_weight">1</data>
    </edge>
    <edge source="n80" target="n43">
      <data key="e_weight">1</data>
    </edge>
    <edge source="n80" target="n48">
      <data key="e_weight">1</data>
    </edge>
    <edge source="n80" target="n51">
      <data key="e_weight">1</data>
    </edge>
    <edge source="n80" target="n52">
      <data key="e_weight">1</data>
    </edge>
    <edge source="n80" target="n59">
      <data key="e_weight">1</data>
    </edge>
    <edge source="n80" target="n76">
      <data key="e_weight">1</data>
    </edge>
    <edge source="n80" target="n79">
      <data key="e_weight">1</data>
    </edge>
    <edge source="n80" target="n80">
      <data key="e_weight">1</data>
    </edge>
    <edge source="n80" target="n84">
      <data key="e_weight">1</data>
    </edge>
    <edge source="n80" target="n131">
      <data key="e_weight">1</data>
    </edge>
    <edge source="n80" target="n136">
      <data key="e_weight">1</data>
    </edge>
    <edge source="n80" target="n165">
      <data key="e_weight">1</data>
    </edge>
    <edge source="n80" target="n179">
      <data key="e_weight">1</data>
    </edge>
    <edge source="n80" target="n203">
      <data key="e_weight">1</data>
    </edge>
    <edge source="n81" target="n81">
      <data key="e_weight">1</data>
    </edge>
    <edge source="n82" target="n82">
      <data key="e_weight">1</data>
    </edge>
    <edge source="n83" target="n83">
      <data key="e_weight">1</data>
    </edge>
    <edge source="n84" target="n9">
      <data key="e_weight">1</data>
    </edge>
    <edge source="n84" target="n43">
      <data key="e_weight">1</data>
    </edge>
    <edge source="n84" target="n48">
      <data key="e_weight">1</data>
    </edge>
    <edge source="n84" target="n51">
      <data key="e_weight">1</data>
    </edge>
    <edge source="n84" target="n52">
      <data key="e_weight">1</data>
    </edge>
    <edge source="n84" target="n59">
      <data key="e_weight">1</data>
    </edge>
    <edge source="n84" target="n76">
      <data key="e_weight">1</data>
    </edge>
    <edge source="n84" target="n79">
      <data key="e_weight">1</data>
    </edge>
    <edge source="n84" target="n80">
      <data key="e_weight">1</data>
    </edge>
    <edge source="n84" target="n84">
      <data key="e_weight">1</data>
    </edge>
    <edge source="n84" target="n131">
      <data key="e_weight">1</data>
    </edge>
    <edge source="n84" target="n136">
      <data key="e_weight">1</data>
    </edge>
    <edge source="n84" target="n165">
      <data key="e_weight">1</data>
    </edge>
    <edge source="n84" target="n179">
      <data key="e_weight">1</data>
    </edge>
    <edge source="n84" target="n203">
      <data key="e_weight">1</data>
    </edge>
    <edge source="n85" target="n85">
      <data key="e_weight">1</data>
    </edge>
    <edge source="n85" target="n206">
      <data key="e_weight">1</data>
    </edge>
    <edge source="n85" target="n230">
      <data key="e_weight">1</data>
    </edge>
    <edge source="n86" target="n86">
      <data key="e_weight">1</data>
    </edge>
    <edge source="n87" target="n5">
      <data key="e_weight">1</data>
    </edge>
    <edge source="n87" target="n87">
      <data key="e_weight">1</data>
    </edge>
    <edge source="n87" target="n144">
      <data key="e_weight">1</data>
    </edge>
    <edge source="n88" target="n88">
      <data key="e_weight">1</data>
    </edge>
    <edge source="n88" target="n101">
      <data key="e_weight">1</data>
    </edge>
    <edge source="n88" target="n182">
      <data key="e_weight">1</data>
    </edge>
    <edge source="n88" target="n232">
      <data key="e_weight">1</data>
    </edge>
    <edge source="n88" target="n233">
      <data key="e_weight">1</data>
    </edge>
    <edge source="n89" target="n89">
      <data key="e_weight">1</data>
    </edge>
    <edge source="n89" target="n90">
      <data key="e_weight">1</data>
    </edge>
    <edge source="n89" target="n93">
      <data key="e_weight">1</data>
    </edge>
    <edge source="n89" target="n94">
      <data key="e_weight">1</data>
    </edge>
    <edge source="n90" target="n89">
      <data key="e_weight">1</data>
    </edge>
    <edge source="n90" target="n90">
      <data key="e_weight">1</data>
    </edge>
    <edge source="n90" target="n93">
      <data key="e_weight">1</data>
    </edge>
    <edge source="n90" target="n94">
      <data key="e_weight">1</data>
    </edge>
    <edge source="n91" target="n91">
      <data key="e_weight">1</data>
    </edge>
    <edge source="n91" target="n92">
      <data key="e_weight">1</data>
    </edge>
    <edge source="n92" target="n91">
      <data key="e_weight">1</data>
    </edge>
    <edge source="n92" target="n92">
      <data key="e_weight">1</data>
    </edge>
    <edge source="n93" target="n89">
      <data key="e_weight">1</data>
    </edge>
    <edge source="n93" target="n90">
      <data key="e_weight">1</data>
    </edge>
    <edge source="n93" target="n93">
      <data key="e_weight">1</data>
    </edge>
    <edge source="n93" target="n94">
      <data key="e_weight">1</data>
    </edge>
    <edge source="n94" target="n89">
      <data key="e_weight">1</data>
    </edge>
    <edge source="n94" target="n90">
      <data key="e_weight">1</data>
    </edge>
    <edge source="n94" target="n93">
      <data key="e_weight">1</data>
    </edge>
    <edge source="n94" target="n94">
      <data key="e_weight">1</data>
    </edge>
    <edge source="n95" target="n95">
      <data key="e_weight">1</data>
    </edge>
    <edge source="n95" target="n96">
      <data key="e_weight">1</data>
    </edge>
    <edge source="n96" target="n95">
      <data key="e_weight">1</data>
    </edge>
    <edge source="n96" target="n96">
      <data key="e_weight">1</data>
    </edge>
    <edge source="n97" target="n41">
      <data key="e_weight">1</data>
    </edge>
    <edge source="n97" target="n97">
      <data key="e_weight">1</data>
    </edge>
    <edge source="n98" target="n98">
      <data key="e_weight">1</data>
    </edge>
    <edge source="n98" target="n99">
      <data key="e_weight">1</data>
    </edge>
    <edge source="n99" target="n98">
      <data key="e_weight">1</data>
    </edge>
    <edge source="n99" target="n99">
      <data key="e_weight">1</data>
    </edge>
    <edge source="n100" target="n100">
      <data key="e_weight">1</data>
    </edge>
    <edge source="n101" target="n88">
      <data key="e_weight">1</data>
    </edge>
    <edge source="n101" target="n101">
      <data key="e_weight">1</data>
    </edge>
    <edge source="n101" target="n182">
      <data key="e_weight">1</data>
    </edge>
    <edge source="n101" target="n232">
      <data key="e_weight">1</data>
    </edge>
    <edge source="n101" target="n233">
      <data key="e_weight">1</data>
    </edge>
    <edge source="n102" target="n102">
      <data key="e_weight">1</data>
    </edge>
    <edge source="n102" target="n162">
      <data key="e_weight">1</data>
    </edge>
    <edge source="n103" target="n103">
      <data key="e_weight">1</data>
    </edge>
    <edge source="n104" target="n104">
      <data key="e_weight">1</data>
    </edge>
    <edge source="n105" target="n105">
      <data key="e_weight">1</data>
    </edge>
    <edge source="n106" target="n46">
      <data key="e_weight">1</data>
    </edge>
    <edge source="n106" target="n47">
      <data key="e_weight">1</data>
    </edge>
    <edge source="n106" target="n106">
      <data key="e_weight">1</data>
    </edge>
    <edge source="n106" target="n114">
      <data key="e_weight">1</data>
    </edge>
    <edge source="n106" target="n150">
      <data key="e_weight">1</data>
    </edge>
    <edge source="n106" target="n151">
      <data key="e_weight">1</data>
    </edge>
    <edge source="n107" target="n107">
      <data key="e_weight">1</data>
    </edge>
    <edge source="n108" target="n108">
      <data key="e_weight">1</data>
    </edge>
    <edge source="n108" target="n216">
      <data key="e_weight">1</data>
    </edge>
    <edge source="n109" target="n109">
      <data key="e_weight">1</data>
    </edge>
    <edge source="n110" target="n110">
      <data key="e_weight">1</data>
    </edge>
    <edge source="n110" target="n111">
      <data key="e_weight">1</data>
    </edge>
    <edge source="n111" target="n110">
      <data key="e_weight">1</data>
    </edge>
    <edge source="n111" target="n111">
      <data key="e_weight">1</data>
    </edge>
    <edge source="n112" target="n112">
      <data key="e_weight">1</data>
    </edge>
    <edge source="n113" target="n34">
      <data key="e_weight">1</data>
    </edge>
    <edge source="n113" target="n40">
      <data key="e_weight">1</data>
    </edge>
    <edge source="n113" target="n113">
      <data key="e_weight">1</data>
    </edge>
    <edge source="n114" target="n46">
      <data key="e_weight">1</data>
    </edge>
    <edge source="n114" target="n47">
      <data key="e_weight">1</data>
    </edge>
    <edge source="n114" target="n106">
      <data key="e_weight">1</data>
    </edge>
    <edge source="n114" target="n114">
      <data key="e_weight">1</data>
    </edge>
    <edge source="n114" target="n150">
      <data key="e_weight">1</data>
    </edge>
    <edge source="n114" target="n151">
      <data key="e_weight">1</data>
    </edge>
    <edge source="n115" target="n115">
      <data key="e_weight">1</data>
    </edge>
    <edge source="n116" target="n116">
      <data key="e_weight">1</data>
    </edge>
    <edge source="n117" target="n117">
      <data key="e_weight">1</data>
    </edge>
    <edge source="n117" target="n118">
      <data key="e_weight">1</data>
    </edge>
    <edge source="n117" target="n119">
      <data key="e_weight">1</data>
    </edge>
    <edge source="n118" target="n117">
      <data key="e_weight">1</data>
    </edge>
    <edge source="n118" target="n118">
      <data key="e_weight">1</data>
    </edge>
    <edge source="n118" target="n119">
      <data key="e_weight">1</data>
    </edge>
    <edge source="n119" target="n117">
      <data key="e_weight">1</data>
    </edge>
    <edge source="n119" target="n118">
      <data key="e_weight">1</data>
    </edge>
    <edge source="n119" target="n119">
      <data key="e_weight">1</data>
    </edge>
    <edge source="n120" target="n120">
      <data key="e_weight">1</data>
    </edge>
    <edge source="n121" target="n121">
      <data key="e_weight">1</data>
    </edge>
    <edge source="n122" target="n122">
      <data key="e_weight">1</data>
    </edge>
    <edge source="n123" target="n123">
      <data key="e_weight">1</data>
    </edge>
    <edge source="n124" target="n124">
      <data key="e_weight">1</data>
    </edge>
    <edge source="n125" target="n125">
      <data key="e_weight">1</data>
    </edge>
    <edge source="n126" target="n33">
      <data key="e_weight">1</data>
    </edge>
    <edge source="n126" target="n126">
      <data key="e_weight">1</data>
    </edge>
    <edge source="n127" target="n127">
      <data key="e_weight">1</data>
    </edge>
    <edge source="n127" target="n160">
      <data key="e_weight">1</data>
    </edge>
    <edge source="n128" target="n128">
      <data key="e_weight">1</data>
    </edge>
    <edge source="n128" target="n195">
      <data key="e_weight">1</data>
    </edge>
    <edge source="n129" target="n129">
      <data key="e_weight">1</data>
    </edge>
    <edge source="n129" target="n130">
      <data key="e_weight">1</data>
    </edge>
    <edge source="n130" target="n129">
      <data key="e_weight">1</data>
    </edge>
    <edge source="n130" target="n130">
      <data key="e_weight">1</data>
    </edge>
    <edge source="n131" target="n9">
      <data key="e_weight">1</data>
    </edge>
    <edge source="n131" target="n43">
      <data key="e_weight">1</data>
    </edge>
    <edge source="n131" target="n48">
      <data key="e_weight">1</data>
    </edge>
    <edge source="n131" target="n51">
      <data key="e_weight">1</data>
    </edge>
    <edge source="n131" target="n52">
      <data key="e_weight">1</data>
    </edge>
    <edge source="n131" target="n59">
      <data key="e_weight">1</data>
    </edge>
    <edge source="n131" target="n76">
      <data key="e_weight">1</data>
    </edge>
    <edge source="n131" target="n79">
      <data key="e_weight">1</data>
    </edge>
    <edge source="n131" target="n80">
      <data key="e_weight">1</data>
    </edge>
    <edge source="n131" target="n84">
      <data key="e_weight">1</data>
    </edge>
    <edge source="n131" target="n131">
      <data key="e_weight">1</data>
    </edge>
    <edge source="n131" target="n136">
      <data key="e_weight">1</data>
    </edge>
    <edge source="n131" target="n165">
      <data key="e_weight">1</data>
    </edge>
    <edge source="n131" target="n179">
      <data key="e_weight">1</data>
    </edge>
    <edge source="n131" target="n203">
      <data key="e_weight">1</data>
    </edge>
    <edge source="n132" target="n132">
      <data key="e_weight">1</data>
    </edge>
    <edge source="n133" target="n133">
      <data key="e_weight">1</data>
    </edge>
    <edge source="n134" target="n68">
      <data key="e_weight">1</data>
    </edge>
    <edge source="n134" target="n134">
      <data key="e_weight">1</data>
    </edge>
    <edge source="n135" target="n135">
      <data key="e_weight">1</data>
    </edge>
    <edge source="n136" target="n9">
      <data key="e_weight">1</data>
    </edge>
    <edge source="n136" target="n43">
      <data key="e_weight">1</data>
    </edge>
    <edge source="n136" target="n48">
      <data key="e_weight">1</data>
    </edge>
    <edge source="n136" target="n51">
      <data key="e_weight">1</data>
    </edge>
    <edge source="n136" target="n52">
      <data key="e_weight">1</data>
    </edge>
    <edge source="n136" target="n59">
      <data key="e_weight">1</data>
    </edge>
    <edge source="n136" target="n76">
      <data key="e_weight">1</data>
    </edge>
    <edge source="n136" target="n79">
      <data key="e_weight">1</data>
    </edge>
    <edge source="n136" target="n80">
      <data key="e_weight">1</data>
    </edge>
    <edge source="n136" target="n84">
      <data key="e_weight">1</data>
    </edge>
    <edge source="n136" target="n131">
      <data key="e_weight">1</data>
    </edge>
    <edge source="n136" target="n136">
      <data key="e_weight">1</data>
    </edge>
    <edge source="n136" target="n165">
      <data key="e_weight">1</data>
    </edge>
    <edge source="n136" target="n179">
      <data key="e_weight">1</data>
    </edge>
    <edge source="n136" target="n203">
      <data key="e_weight">1</data>
    </edge>
    <edge source="n137" target="n137">
      <data key="e_weight">1</data>
    </edge>
    <edge source="n138" target="n138">
      <data key="e_weight">1</data>
    </edge>
    <edge source="n139" target="n139">
      <data key="e_weight">1</data>
    </edge>
    <edge source="n140" target="n8">
      <data key="e_weight">1</data>
    </edge>
    <edge source="n140" target="n140">
      <data key="e_weight">1</data>
    </edge>
    <edge source="n141" target="n60">
      <data key="e_weight">1</data>
    </edge>
    <edge source="n141" target="n141">
      <data key="e_weight">1</data>
    </edge>
    <edge source="n141" target="n142">
      <data key="e_weight">1</data>
    </edge>
    <edge source="n142" target="n60">
      <data key="e_weight">1</data>
    </edge>
    <edge source="n142" target="n141">
      <data key="e_weight">1</data>
    </edge>
    <edge source="n142" target="n142">
      <data key="e_weight">1</data>
    </edge>
    <edge source="n143" target="n3">
      <data key="e_weight">1</data>
    </edge>
    <edge source="n143" target="n143">
      <data key="e_weight">1</data>
    </edge>
    <edge source="n144" target="n5">
      <data key="e_weight">1</data>
    </edge>
    <edge source="n144" target="n87">
      <data key="e_weight">1</data>
    </edge>
    <edge source="n144" target="n144">
      <data key="e_weight">1</data>
    </edge>
    <edge source="n145" target="n145">
      <data key="e_weight">1</data>
    </edge>
    <edge source="n146" target="n146">
      <data key="e_weight">1</data>
    </edge>
    <edge source="n146" target="n161">
      <data key="e_weight">1</data>
    </edge>
    <edge source="n146" target="n163">
      <data key="e_weight">1</data>
    </edge>
    <edge source="n146" target="n164">
      <data key="e_weight">1</data>
    </edge>
    <edge source="n147" target="n147">
      <data key="e_weight">1</data>
    </edge>
    <edge source="n148" target="n148">
      <data key="e_weight">1</data>
    </edge>
    <edge source="n148" target="n149">
      <data key="e_weight">1</data>
    </edge>
    <edge source="n149" target="n148">
      <data key="e_weight">1</data>
    </edge>
    <edge source="n149" target="n149">
      <data key="e_weight">1</data>
    </edge>
    <edge source="n150" target="n46">
      <data key="e_weight">1</data>
    </edge>
    <edge source="n150" target="n47">
      <data key="e_weight">1</data>
    </edge>
    <edge source="n150" target="n106">
      <data key="e_weight">1</data>
    </edge>
    <edge source="n150" target="n114">
      <data key="e_weight">1</data>
    </edge>
    <edge source="n150" target="n150">
      <data key="e_weight">1</data>
    </edge>
    <edge source="n150" target="n151">
      <data key="e_weight">1</data>
    </edge>
    <edge source="n151" target="n46">
      <data key="e_weight">1</data>
    </edge>
    <edge source="n151" target="n47">
      <data key="e_weight">1</data>
    </edge>
    <edge source="n151" target="n106">
      <data key="e_weight">1</data>
    </edge>
    <edge source="n151" target="n114">
      <data key="e_weight">1</data>
    </edge>
    <edge source="n151" target="n150">
      <data key="e_weight">1</data>
    </edge>
    <edge source="n151" target="n151">
      <data key="e_weight">1</data>
    </edge>
    <edge source="n152" target="n152">
      <data key="e_weight">1</data>
    </edge>
    <edge source="n152" target="n205">
      <data key="e_weight">1</data>
    </edge>
    <edge source="n153" target="n153">
      <data key="e_weight">1</data>
    </edge>
    <edge source="n153" target="n154">
      <data key="e_weight">1</data>
    </edge>
    <edge source="n154" target="n153">
      <data key="e_weight">1</data>
    </edge>
    <edge source="n154" target="n154">
      <data key="e_weight">1</data>
    </edge>
    <edge source="n155" target="n155">
      <data key="e_weight">1</data>
    </edge>
    <edge source="n155" target="n156">
      <data key="e_weight">1</data>
    </edge>
    <edge source="n155" target="n157">
      <data key="e_weight">1</data>
    </edge>
    <edge source="n156" target="n155">
      <data key="e_weight">1</data>
    </edge>
    <edge source="n156" target="n156">
      <data key="e_weight">1</data>
    </edge>
    <edge source="n156" target="n157">
      <data key="e_weight">1</data>
    </edge>
    <edge source="n157" target="n155">
      <data key="e_weight">1</data>
    </edge>
    <edge source="n157" target="n156">
      <data key="e_weight">1</data>
    </edge>
    <edge source="n157" target="n157">
      <data key="e_weight">1</data>
    </edge>
    <edge source="n158" target="n158">
      <data key="e_weight">1</data>
    </edge>
    <edge source="n159" target="n159">
      <data key="e_weight">1</data>
    </edge>
    <edge source="n160" target="n127">
      <data key="e_weight">1</data>
    </edge>
    <edge source="n160" target="n160">
      <data key="e_weight">1</data>
    </edge>
    <edge source="n161" target="n146">
      <data key="e_weight">1</data>
    </edge>
    <edge source="n161" target="n161">
      <data key="e_weight">1</data>
    </edge>
    <edge source="n161" target="n163">
      <data key="e_weight">1</data>
    </edge>
    <edge source="n161" target="n164">
      <data key="e_weight">1</data>
    </edge>
    <edge source="n162" target="n102">
      <data key="e_weight">1</data>
    </edge>
    <edge source="n162" target="n162">
      <data key="e_weight">1</data>
    </edge>
    <edge source="n163" target="n146">
      <data key="e_weight">1</data>
    </edge>
    <edge source="n163" target="n161">
      <data key="e_weight">1</data>
    </edge>
    <edge source="n163" target="n163">
      <data key="e_weight">1</data>
    </edge>
    <edge source="n163" target="n164">
      <data key="e_weight">1</data>
    </edge>
    <edge source="n164" target="n146">
      <data key="e_weight">1</data>
    </edge>
    <edge source="n164" target="n161">
      <data key="e_weight">1</data>
    </edge>
    <edge source="n164" target="n163">
      <data key="e_weight">1</data>
    </edge>
    <edge source="n164" target="n164">
      <data key="e_weight">1</data>
    </edge>
    <edge source="n165" target="n9">
      <data key="e_weight">1</data>
    </edge>
    <edge source="n165" target="n43">
      <data key="e_weight">1</data>
    </edge>
    <edge source="n165" target="n48">
      <data key="e_weight">1</data>
    </edge>
    <edge source="n165" target="n51">
      <data key="e_weight">1</data>
    </edge>
    <edge source="n165" target="n52">
      <data key="e_weight">1</data>
    </edge>
    <edge source="n165" target="n59">
      <data key="e_weight">1</data>
    </edge>
    <edge source="n165" target="n76">
      <data key="e_weight">1</data>
    </edge>
    <edge source="n165" target="n79">
      <data key="e_weight">1</data>
    </edge>
    <edge source="n165" target="n80">
      <data key="e_weight">1</data>
    </edge>
    <edge source="n165" target="n84">
      <data key="e_weight">1</data>
    </edge>
    <edge source="n165" target="n131">
      <data key="e_weight">1</data>
    </edge>
    <edge source="n165" target="n136">
      <data key="e_weight">1</data>
    </edge>
    <edge source="n165" target="n165">
      <data key="e_weight">1</data>
    </edge>
    <edge source="n165" target="n179">
      <data key="e_weight">1</data>
    </edge>
    <edge source="n165" target="n203">
      <data key="e_weight">1</data>
    </edge>
    <edge source="n166" target="n166">
      <data key="e_weight">1</data>
    </edge>
    <edge source="n167" target="n77">
      <data key="e_weight">1</data>
    </edge>
    <edge source="n167" target="n167">
      <data key="e_weight">1</data>
    </edge>
    <edge source="n167" target="n168">
      <data key="e_weight">1</data>
    </edge>
    <edge source="n168" target="n77">
      <data key="e_weight">1</data>
    </edge>
    <edge source="n168" target="n167">
      <data key="e_weight">1</data>
    </edge>
    <edge source="n168" target="n168">
      <data key="e_weight">1</data>
    </edge>
    <edge source="n169" target="n18">
      <data key="e_weight">1</data>
    </edge>
    <edge source="n169" target="n169">
      <data key="e_weight">1</data>
    </edge>
    <edge source="n170" target="n170">
      <data key="e_weight">1</data>
    </edge>
    <edge source="n171" target="n171">
      <data key="e_weight">1</data>
    </edge>
    <edge source="n172" target="n172">
      <data key="e_weight">1</data>
    </edge>
    <edge source="n173" target="n173">
      <data key="e_weight">1</data>
    </edge>
    <edge source="n174" target="n174">
      <data key="e_weight">1</data>
    </edge>
    <edge source="n175" target="n175">
      <data key="e_weight">1</data>
    </edge>
    <edge source="n176" target="n176">
      <data key="e_weight">1</data>
    </edge>
    <edge source="n177" target="n177">
      <data key="e_weight">1</data>
    </edge>
    <edge source="n178" target="n178">
      <data key="e_weight">1</data>
    </edge>
    <edge source="n179" target="n9">
      <data key="e_weight">1</data>
    </edge>
    <edge source="n179" target="n43">
      <data key="e_weight">1</data>
    </edge>
    <edge source="n179" target="n48">
      <data key="e_weight">1</data>
    </edge>
    <edge source="n179" target="n51">
      <data key="e_weight">1</data>
    </edge>
    <edge source="n179" target="n52">
      <data key="e_weight">1</data>
    </edge>
    <edge source="n179" target="n59">
      <data key="e_weight">1</data>
    </edge>
    <edge source="n179" target="n76">
      <data key="e_weight">1</data>
    </edge>
    <edge source="n179" target="n79">
      <data key="e_weight">1</data>
    </edge>
    <edge source="n179" target="n80">
      <data key="e_weight">1</data>
    </edge>
    <edge source="n179" target="n84">
      <data key="e_weight">1</data>
    </edge>
    <edge source="n179" target="n131">
      <data key="e_weight">1</data>
    </edge>
    <edge source="n179" target="n136">
      <data key="e_weight">1</data>
    </edge>
    <edge source="n179" target="n165">
      <data key="e_weight">1</data>
    </edge>
    <edge source="n179" target="n179">
      <data key="e_weight">1</data>
    </edge>
    <edge source="n179" target="n203">
      <data key="e_weight">1</data>
    </edge>
    <edge source="n180" target="n180">
      <data key="e_weight">1</data>
    </edge>
    <edge source="n180" target="n181">
      <data key="e_weight">1</data>
    </edge>
    <edge source="n181" target="n180">
      <data key="e_weight">1</data>
    </edge>
    <edge source="n181" target="n181">
      <data key="e_weight">1</data>
    </edge>
    <edge source="n182" target="n88">
      <data key="e_weight">1</data>
    </edge>
    <edge source="n182" target="n101">
      <data key="e_weight">1</data>
    </edge>
    <edge source="n182" target="n182">
      <data key="e_weight">1</data>
    </edge>
    <edge source="n182" target="n232">
      <data key="e_weight">1</data>
    </edge>
    <edge source="n182" target="n233">
      <data key="e_weight">1</data>
    </edge>
    <edge source="n183" target="n183">
      <data key="e_weight">1</data>
    </edge>
    <edge source="n183" target="n184">
      <data key="e_weight">1</data>
    </edge>
    <edge source="n183" target="n185">
      <data key="e_weight">1</data>
    </edge>
    <edge source="n183" target="n186">
      <data key="e_weight">1</data>
    </edge>
    <edge source="n183" target="n187">
      <data key="e_weight">1</data>
    </edge>
    <edge source="n184" target="n183">
      <data key="e_weight">1</data>
    </edge>
    <edge source="n184" target="n184">
      <data key="e_weight">1</data>
    </edge>
    <edge source="n184" target="n185">
      <data key="e_weight">1</data>
    </edge>
    <edge source="n184" target="n186">
      <data key="e_weight">1</data>
    </edge>
    <edge source="n184" target="n187">
      <data key="e_weight">1</data>
    </edge>
    <edge source="n185" target="n183">
      <data key="e_weight">1</data>
    </edge>
    <edge source="n185" target="n184">
      <data key="e_weight">1</data>
    </edge>
    <edge source="n185" target="n185">
      <data key="e_weight">1</data>
    </edge>
    <edge source="n185" target="n186">
      <data key="e_weight">1</data>
    </edge>
    <edge source="n185" target="n187">
      <data key="e_weight">1</data>
    </edge>
    <edge source="n186" target="n183">
      <data key="e_weight">1</data>
    </edge>
    <edge source="n186" target="n184">
      <data key="e_weight">1</data>
    </edge>
    <edge source="n186" target="n185">
      <data key="e_weight">1</data>
    </edge>
    <edge source="n186" target="n186">
      <data key="e_weight">1</data>
    </edge>
    <edge source="n186" target="n187">
      <data key="e_weight">1</data>
    </edge>
    <edge source="n187" target="n183">
      <data key="e_weight">1</data>
    </edge>
    <edge source="n187" target="n184">
      <data key="e_weight">1</data>
    </edge>
    <edge source="n187" target="n185">
      <data key="e_weight">1</data>
    </edge>
    <edge source="n187" target="n186">
      <data key="e_weight">1</data>
    </edge>
    <edge source="n187" target="n187">
      <data key="e_weight">1</data>
    </edge>
    <edge source="n188" target="n188">
      <data key="e_weight">1</data>
    </edge>
    <edge source="n189" target="n189">
      <data key="e_weight">1</data>
    </edge>
    <edge source="n189" target="n190">
      <data key="e_weight">1</data>
    </edge>
    <edge source="n189" target="n191">
      <data key="e_weight">1</data>
    </edge>
    <edge source="n189" target="n192">
      <data key="e_weight">1</data>
    </edge>
    <edge source="n189" target="n193">
      <data key="e_weight">1</data>
    </edge>
    <edge source="n189" target="n194">
      <data key="e_weight">1</data>
    </edge>
    <edge source="n190" target="n189">
      <data key="e_weight">1</data>
    </edge>
    <edge source="n190" target="n190">
      <data key="e_weight">1</data>
    </edge>
    <edge source="n190" target="n191">
      <data key="e_weight">1</data>
    </edge>
    <edge source="n190" target="n192">
      <data key="e_weight">1</data>
    </edge>
    <edge source="n190" target="n193">
      <data key="e_weight">1</data>
    </edge>
    <edge source="n190" target="n194">
      <data key="e_weight">1</data>
    </edge>
    <edge source="n191" target="n189">
      <data key="e_weight">1</data>
    </edge>
    <edge source="n191" target="n190">
      <data key="e_weight">1</data>
    </edge>
    <edge source="n191" target="n191">
      <data key="e_weight">1</data>
    </edge>
    <edge source="n191" target="n192">
      <data key="e_weight">1</data>
    </edge>
    <edge source="n191" target="n193">
      <data key="e_weight">1</data>
    </edge>
    <edge source="n191" target="n194">
      <data key="e_weight">1</data>
    </edge>
    <edge source="n192" target="n189">
      <data key="e_weight">1</data>
    </edge>
    <edge source="n192" target="n190">
      <data key="e_weight">1</data>
    </edge>
    <edge source="n192" target="n191">
      <data key="e_weight">1</data>
    </edge>
    <edge source="n192" target="n192">
      <data key="e_weight">1</data>
    </edge>
    <edge source="n192" target="n193">
      <data key="e_weight">1</data>
    </edge>
    <edge source="n192" target="n194">
      <data key="e_weight">1</data>
    </edge>
    <edge source="n193" target="n189">
      <data key="e_weight">1</data>
    </edge>
    <edge source="n193" target="n190">
      <data key="e_weight">1</data>
    </edge>
    <edge source="n193" target="n191">
      <data key="e_weight">1</data>
    </edge>
    <edge source="n193" target="n192">
      <data key="e_weight">1</data>
    </edge>
    <edge source="n193" target="n193">
      <data key="e_weight">1</data>
    </edge>
    <edge source="n193" target="n194">
      <data key="e_weight">1</data>
    </edge>
    <edge source="n194" target="n189">
      <data key="e_weight">1</data>
    </edge>
    <edge source="n194" target="n190">
      <data key="e_weight">1</data>
    </edge>
    <edge source="n194" target="n191">
      <data key="e_weight">1</data>
    </edge>
    <edge source="n194" target="n192">
      <data key="e_weight">1</data>
    </edge>
    <edge source="n194" target="n193">
      <data key="e_weight">1</data>
    </edge>
    <edge source="n194" target="n194">
      <data key="e_weight">1</data>
    </edge>
    <edge source="n195" target="n128">
      <data key="e_weight">1</data>
    </edge>
    <edge source="n195" target="n195">
      <data key="e_weight">1</data>
    </edge>
    <edge source="n196" target="n66">
      <data key="e_weight">1</data>
    </edge>
    <edge source="n196" target="n196">
      <data key="e_weight">1</data>
    </edge>
    <edge source="n196" target="n197">
      <data key="e_weight">1</data>
    </edge>
    <edge source="n197" target="n66">
      <data key="e_weight">1</data>
    </edge>
    <edge source="n197" target="n196">
      <data key="e_weight">1</data>
    </edge>
    <edge source="n197" target="n197">
      <data key="e_weight">1</data>
    </edge>
    <edge source="n198" target="n198">
      <data key="e_weight">1</data>
    </edge>
    <edge source="n199" target="n199">
      <data key="e_weight">1</data>
    </edge>
    <edge source="n199" target="n200">
      <data key="e_weight">1</data>
    </edge>
    <edge source="n199" target="n201">
      <data key="e_weight">1</data>
    </edge>
    <edge source="n199" target="n202">
      <data key="e_weight">1</data>
    </edge>
    <edge source="n200" target="n199">
      <data key="e_weight">1</data>
    </edge>
    <edge source="n200" target="n200">
      <data key="e_weight">1</data>
    </edge>
    <edge source="n200" target="n201">
      <data key="e_weight">1</data>
    </edge>
    <edge source="n200" target="n202">
      <data key="e_weight">1</data>
    </edge>
    <edge source="n201" target="n199">
      <data key="e_weight">1</data>
    </edge>
    <edge source="n201" target="n200">
      <data key="e_weight">1</data>
    </edge>
    <edge source="n201" target="n201">
      <data key="e_weight">1</data>
    </edge>
    <edge source="n201" target="n202">
      <data key="e_weight">1</data>
    </edge>
    <edge source="n202" target="n199">
      <data key="e_weight">1</data>
    </edge>
    <edge source="n202" target="n200">
      <data key="e_weight">1</data>
    </edge>
    <edge source="n202" target="n201">
      <data key="e_weight">1</data>
    </edge>
    <edge source="n202" target="n202">
      <data key="e_weight">1</data>
    </edge>
    <edge source="n203" target="n9">
      <data key="e_weight">1</data>
    </edge>
    <edge source="n203" target="n43">
      <data key="e_weight">1</data>
    </edge>
    <edge source="n203" target="n48">
      <data key="e_weight">1</data>
    </edge>
    <edge source="n203" target="n51">
      <data key="e_weight">1</data>
    </edge>
    <edge source="n203" target="n52">
      <data key="e_weight">1</data>
    </edge>
    <edge source="n203" target="n59">
      <data key="e_weight">1</data>
    </edge>
    <edge source="n203" target="n76">
      <data key="e_weight">1</data>
    </edge>
    <edge source="n203" target="n79">
      <data key="e_weight">1</data>
    </edge>
    <edge source="n203" target="n80">
      <data key="e_weight">1</data>
    </edge>
    <edge source="n203" target="n84">
      <data key="e_weight">1</data>
    </edge>
    <edge source="n203" target="n131">
      <data key="e_weight">1</data>
    </edge>
    <edge source="n203" target="n136">
      <data key="e_weight">1</data>
    </edge>
    <edge source="n203" target="n165">
      <data key="e_weight">1</data>
    </edge>
    <edge source="n203" target="n179">
      <data key="e_weight">1</data>
    </edge>
    <edge source="n203" target="n203">
      <data key="e_weight">1</data>
    </edge>
    <edge source="n204" target="n204">
      <data key="e_weight">1</data>
    </edge>
    <edge source="n205" target="n152">
      <data key="e_weight">1</data>
    </edge>
    <edge source="n205" target="n205">
      <data key="e_weight">1</data>
    </edge>
    <edge source="n206" target="n85">
      <data key="e_weight">1</data>
    </edge>
    <edge source="n206" target="n206">
      <data key="e_weight">1</data>
    </edge>
    <edge source="n206" target="n230">
      <data key="e_weight">1</data>
    </edge>
    <edge source="n207" target="n207">
      <data key="e_weight">1</data>
    </edge>
    <edge source="n208" target="n208">
      <data key="e_weight">1</data>
    </edge>
    <edge source="n209" target="n209">
      <data key="e_weight">1</data>
    </edge>
    <edge source="n210" target="n210">
      <data key="e_weight">1</data>
    </edge>
    <edge source="n211" target="n211">
      <data key="e_weight">1</data>
    </edge>
    <edge source="n212" target="n212">
      <data key="e_weight">1</data>
    </edge>
    <edge source="n213" target="n213">
      <data key="e_weight">1</data>
    </edge>
    <edge source="n214" target="n214">
      <data key="e_weight">1</data>
    </edge>
    <edge source="n214" target="n215">
      <data key="e_weight">1</data>
    </edge>
    <edge source="n215" target="n214">
      <data key="e_weight">1</data>
    </edge>
    <edge source="n215" target="n215">
      <data key="e_weight">1</data>
    </edge>
    <edge source="n216" target="n108">
      <data key="e_weight">1</data>
    </edge>
    <edge source="n216" target="n216">
      <data key="e_weight">1</data>
    </edge>
    <edge source="n218" target="n218">
      <data key="e_weight">1</data>
    </edge>
    <edge source="n218" target="n234">
      <data key="e_weight">1</data>
    </edge>
    <edge source="n219" target="n219">
      <data key="e_weight">1</data>
    </edge>
    <edge source="n219" target="n220">
      <data key="e_weight">1</data>
    </edge>
    <edge source="n219" target="n221">
      <data key="e_weight">1</data>
    </edge>
    <edge source="n219" target="n222">
      <data key="e_weight">1</data>
    </edge>
    <edge source="n219" target="n223">
      <data key="e_weight">1</data>
    </edge>
    <edge source="n220" target="n219">
      <data key="e_weight">1</data>
    </edge>
    <edge source="n220" target="n220">
      <data key="e_weight">1</data>
    </edge>
    <edge source="n220" target="n221">
      <data key="e_weight">1</data>
    </edge>
    <edge source="n220" target="n222">
      <data key="e_weight">1</data>
    </edge>
    <edge source="n220" target="n223">
      <data key="e_weight">1</data>
    </edge>
    <edge source="n221" target="n219">
      <data key="e_weight">1</data>
    </edge>
    <edge source="n221" target="n220">
      <data key="e_weight">1</data>
    </edge>
    <edge source="n221" target="n221">
      <data key="e_weight">1</data>
    </edge>
    <edge source="n221" target="n222">
      <data key="e_weight">1</data>
    </edge>
    <edge source="n221" target="n223">
      <data key="e_weight">1</data>
    </edge>
    <edge source="n222" target="n219">
      <data key="e_weight">1</data>
    </edge>
    <edge source="n222" target="n220">
      <data key="e_weight">1</data>
    </edge>
    <edge source="n222" target="n221">
      <data key="e_weight">1</data>
    </edge>
    <edge source="n222" target="n222">
      <data key="e_weight">1</data>
    </edge>
    <edge source="n222" target="n223">
      <data key="e_weight">1</data>
    </edge>
    <edge source="n223" target="n219">
      <data key="e_weight">1</data>
    </edge>
    <edge source="n223" target="n220">
      <data key="e_weight">1</data>
    </edge>
    <edge source="n223" target="n221">
      <data key="e_weight">1</data>
    </edge>
    <edge source="n223" target="n222">
      <data key="e_weight">1</data>
    </edge>
    <edge source="n223" target="n223">
      <data key="e_weight">1</data>
    </edge>
    <edge source="n224" target="n224">
      <data key="e_weight">1</data>
    </edge>
    <edge source="n225" target="n225">
      <data key="e_weight">1</data>
    </edge>
    <edge source="n226" target="n226">
      <data key="e_weight">1</data>
    </edge>
    <edge source="n226" target="n227">
      <data key="e_weight">1</data>
    </edge>
    <edge source="n226" target="n228">
      <data key="e_weight">1</data>
    </edge>
    <edge source="n227" target="n226">
      <data key="e_weight">1</data>
    </edge>
    <edge source="n227" target="n227">
      <data key="e_weight">1</data>
    </edge>
    <edge source="n227" target="n228">
      <data key="e_weight">1</data>
    </edge>
    <edge source="n228" target="n226">
      <data key="e_weight">1</data>
    </edge>
    <edge source="n228" target="n227">
      <data key="e_weight">1</data>
    </edge>
    <edge source="n228" target="n228">
      <data key="e_weight">1</data>
    </edge>
    <edge source="n229" target="n229">
      <data key="e_weight">1</data>
    </edge>
    <edge source="n230" target="n85">
      <data key="e_weight">1</data>
    </edge>
    <edge source="n230" target="n206">
      <data key="e_weight">1</data>
    </edge>
    <edge source="n230" target="n230">
      <data key="e_weight">1</data>
    </edge>
    <edge source="n231" target="n21">
      <data key="e_weight">1</data>
    </edge>
    <edge source="n231" target="n231">
      <data key="e_weight">1</data>
    </edge>
    <edge source="n232" target="n88">
      <data key="e_weight">1</data>
    </edge>
    <edge source="n232" target="n101">
      <data key="e_weight">1</data>
    </edge>
    <edge source="n232" target="n182">
      <data key="e_weight">1</data>
    </edge>
    <edge source="n232" target="n232">
      <data key="e_weight">1</data>
    </edge>
    <edge source="n232" target="n233">
      <data key="e_weight">1</data>
    </edge>
    <edge source="n233" target="n88">
      <data key="e_weight">1</data>
    </edge>
    <edge source="n233" target="n101">
      <data key="e_weight">1</data>
    </edge>
    <edge source="n233" target="n182">
      <data key="e_weight">1</data>
    </edge>
    <edge source="n233" target="n232">
      <data key="e_weight">1</data>
    </edge>
    <edge source="n233" target="n233">
      <data key="e_weight">1</data>
    </edge>
    <edge source="n234" target="n218">
      <data key="e_weight">1</data>
    </edge>
    <edge source="n234" target="n234">
      <data key="e_weight">1</data>
    </edge>
  </graph>
</graphml>
