[
    {
        "type": "message",
        "subtype": "channel_join",
        "ts": "1584737342.000400",
        "user": "UV3URUKK5",
        "text": "<@UV3URUKK5> has joined the channel"
    },
    {
        "client_msg_id": "fb805750-e272-4177-b4d3-8cf4a284895c",
        "type": "message",
        "text": "Hi <!channel>! <@UV78JAX0S> it's impressive! My experience with aptamers was during the two last iGEM teams of Madrid I coordinated in 2018 where we tried to lower the costs of SELEX and in 2019 (<https:\/\/2019.igem.org\/Team:MADRID_UCM\/Description>) where we tried to robotize the SELEX with an openTrons and engineer two sensors around aptamers for developing countries (one qualitative, a lateral flow, and one quantitative, a potentiostat).\n\nI have three questions for you guys! :\n1. Do someone knows about any aptamer for nCov out there? \n2. Do someone have the resources for performing any kind of SELEX? I have a couple of libraries by my hand here in Madrid but my lab is at 10000km in China and completely closed. Also i am stucked in a quarantine in Madrid so 0 possibilities of being useful for at least 20 days.\n3. Which detection method do you think could be useful in this case? I am moving now into quantum dots paper strips with aptamers and Quartz Crystal Microbalance with the open-QCM.",
        "user": "UV3URUKK5",
        "ts": "1584737871.007500",
        "team": "TUU48M0T1",
        "user_team": "TUU48M0T1",
        "source_team": "TUU48M0T1",
        "user_profile": {
            "avatar_hash": "64c99c2ed974",
            "image_72": "https:\/\/avatars.slack-edge.com\/2020-03-15\/1000999702004_64c99c2ed97497e08ca9_72.jpg",
            "first_name": "",
            "real_name": "Francisco Javier Quero",
            "display_name": "Francisco Javier Quero",
            "team": "TUU48M0T1",
            "name": "franxi2953",
            "is_restricted": false,
            "is_ultra_restricted": false
        },
        "edited": {
            "user": "UV3URUKK5",
            "ts": "1584737922.000000"
        },
        "blocks": [
            {
                "type": "rich_text",
                "block_id": "aB64",
                "elements": [
                    {
                        "type": "rich_text_section",
                        "elements": [
                            {
                                "type": "text",
                                "text": "Hi "
                            },
                            {
                                "type": "broadcast",
                                "range": "channel"
                            },
                            {
                                "type": "text",
                                "text": "! "
                            },
                            {
                                "type": "user",
                                "user_id": "UV78JAX0S"
                            },
                            {
                                "type": "text",
                                "text": " it's impressive! My experience with aptamers was during the two last iGEM teams of Madrid I coordinated in 2018 where we tried to lower the costs of SELEX and in 2019 ("
                            },
                            {
                                "type": "link",
                                "url": "https:\/\/2019.igem.org\/Team:MADRID_UCM\/Description"
                            },
                            {
                                "type": "text",
                                "text": ") where we tried to robotize the SELEX with an openTrons and engineer two sensors around aptamers for developing countries (one qualitative, a lateral flow, and one quantitative, a potentiostat).\n\nI have three questions for you guys! :\n"
                            }
                        ]
                    },
                    {
                        "type": "rich_text_list",
                        "elements": [
                            {
                                "type": "rich_text_section",
                                "elements": [
                                    {
                                        "type": "text",
                                        "text": "Do someone knows about any aptamer for nCov out there? "
                                    }
                                ]
                            },
                            {
                                "type": "rich_text_section",
                                "elements": [
                                    {
                                        "type": "text",
                                        "text": "Do someone have the resources for performing any kind of SELEX? I have a couple of libraries by my hand here in Madrid but my lab is at 10000km in China and completely closed. Also i am stucked in a quarantine in Madrid so 0 possibilities of being useful for at least 20 days."
                                    }
                                ]
                            },
                            {
                                "type": "rich_text_section",
                                "elements": [
                                    {
                                        "type": "text",
                                        "text": "Which detection method do you think could be useful in this case? I am moving now into quantum dots paper strips with aptamers and Quartz Crystal Microbalance with the open-QCM."
                                    }
                                ]
                            }
                        ],
                        "style": "ordered",
                        "indent": 0
                    }
                ]
            }
        ],
        "thread_ts": "1584737871.007500",
        "reply_count": 3,
        "reply_users_count": 1,
        "latest_reply": "1584754067.008400",
        "reply_users": [
            "UV78JAX0S"
        ],
        "replies": [
            {
                "user": "UV78JAX0S",
                "ts": "1584753956.008000"
            },
            {
                "user": "UV78JAX0S",
                "ts": "1584753998.008200"
            },
            {
                "user": "UV78JAX0S",
                "ts": "1584754067.008400"
            }
        ],
        "subscribed": false
    },
    {
        "client_msg_id": "dacb3803-7047-44c8-bf09-eae34b929bb2",
        "type": "message",
        "text": "hi <@UV3URUKK5> sorry I'm just seeing this now!",
        "user": "UV78JAX0S",
        "ts": "1584753956.008000",
        "team": "TUU48M0T1",
        "user_team": "TUU48M0T1",
        "source_team": "TUU48M0T1",
        "user_profile": {
            "avatar_hash": "ab643489965e",
            "image_72": "https:\/\/avatars.slack-edge.com\/2020-03-17\/996174739571_ab643489965e0031c49d_72.png",
            "first_name": "Khalid",
            "real_name": "Khalid K. Alam",
            "display_name": "Khalid K. Alam",
            "team": "TUU48M0T1",
            "name": "khalid",
            "is_restricted": false,
            "is_ultra_restricted": false
        },
        "blocks": [
            {
                "type": "rich_text",
                "block_id": "lCxp",
                "elements": [
                    {
                        "type": "rich_text_section",
                        "elements": [
                            {
                                "type": "text",
                                "text": "hi "
                            },
                            {
                                "type": "user",
                                "user_id": "UV3URUKK5"
                            },
                            {
                                "type": "text",
                                "text": " sorry I'm just seeing this now!"
                            }
                        ]
                    }
                ]
            }
        ],
        "thread_ts": "1584737871.007500",
        "parent_user_id": "UV3URUKK5"
    },
    {
        "client_msg_id": "c7cd6db3-ffc6-47d1-8114-9b479abf4032",
        "type": "message",
        "text": "yes - I am working on gaining access at Northwestern University (where I postdoc'd and remain a visiting research scientist) and Argonne National Laboratory (where I am a resident associate)",
        "user": "UV78JAX0S",
        "ts": "1584753998.008200",
        "team": "TUU48M0T1",
        "user_team": "TUU48M0T1",
        "source_team": "TUU48M0T1",
        "user_profile": {
            "avatar_hash": "ab643489965e",
            "image_72": "https:\/\/avatars.slack-edge.com\/2020-03-17\/996174739571_ab643489965e0031c49d_72.png",
            "first_name": "Khalid",
            "real_name": "Khalid K. Alam",
            "display_name": "Khalid K. Alam",
            "team": "TUU48M0T1",
            "name": "khalid",
            "is_restricted": false,
            "is_ultra_restricted": false
        },
        "blocks": [
            {
                "type": "rich_text",
                "block_id": "DknRV",
                "elements": [
                    {
                        "type": "rich_text_section",
                        "elements": [
                            {
                                "type": "text",
                                "text": "yes - I am working on gaining access at Northwestern University (where I postdoc'd and remain a visiting research scientist) and Argonne National Laboratory (where I am a resident associate)"
                            }
                        ]
                    }
                ]
            }
        ],
        "thread_ts": "1584737871.007500",
        "parent_user_id": "UV3URUKK5"
    },
    {
        "client_msg_id": "4f713ab3-ade9-4fd9-b358-9ea967ed9255",
        "type": "message",
        "text": "it will probably take a few weeks before the approvals are in place for me to access any laboratory space. I also have access to aptamer libraries. Would love to learn more about your SELEX experience.",
        "user": "UV78JAX0S",
        "ts": "1584754067.008400",
        "team": "TUU48M0T1",
        "user_team": "TUU48M0T1",
        "source_team": "TUU48M0T1",
        "user_profile": {
            "avatar_hash": "ab643489965e",
            "image_72": "https:\/\/avatars.slack-edge.com\/2020-03-17\/996174739571_ab643489965e0031c49d_72.png",
            "first_name": "Khalid",
            "real_name": "Khalid K. Alam",
            "display_name": "Khalid K. Alam",
            "team": "TUU48M0T1",
            "name": "khalid",
            "is_restricted": false,
            "is_ultra_restricted": false
        },
        "blocks": [
            {
                "type": "rich_text",
                "block_id": "xdK",
                "elements": [
                    {
                        "type": "rich_text_section",
                        "elements": [
                            {
                                "type": "text",
                                "text": "it will probably take a few weeks before the approvals are in place for me to access any laboratory space. I also have access to aptamer libraries. Would love to learn more about your SELEX experience."
                            }
                        ]
                    }
                ]
            }
        ],
        "thread_ts": "1584737871.007500",
        "parent_user_id": "UV3URUKK5",
        "reactions": [
            {
                "name": "+1",
                "users": [
                    "UV6870881"
                ],
                "count": 1
            }
        ]
    },
    {
        "client_msg_id": "34e7bfe2-6fff-4696-935d-772c518d17ce",
        "type": "message",
        "text": "<!channel> would anyone be interested in a video conference to discuss how aptamers might be useful for COVID diagnostics, detection, therapeutics?",
        "user": "UV78JAX0S",
        "ts": "1584754129.009600",
        "team": "TUU48M0T1",
        "user_team": "TUU48M0T1",
        "source_team": "TUU48M0T1",
        "user_profile": {
            "avatar_hash": "ab643489965e",
            "image_72": "https:\/\/avatars.slack-edge.com\/2020-03-17\/996174739571_ab643489965e0031c49d_72.png",
            "first_name": "Khalid",
            "real_name": "Khalid K. Alam",
            "display_name": "Khalid K. Alam",
            "team": "TUU48M0T1",
            "name": "khalid",
            "is_restricted": false,
            "is_ultra_restricted": false
        },
        "blocks": [
            {
                "type": "rich_text",
                "block_id": "sNWU",
                "elements": [
                    {
                        "type": "rich_text_section",
                        "elements": [
                            {
                                "type": "broadcast",
                                "range": "channel"
                            },
                            {
                                "type": "text",
                                "text": " would anyone be interested in a video conference to discuss how aptamers might be useful for COVID diagnostics, detection, therapeutics?"
                            }
                        ]
                    }
                ]
            }
        ],
        "thread_ts": "1584754129.009600",
        "reply_count": 9,
        "reply_users_count": 4,
        "latest_reply": "1584918810.001700",
        "reply_users": [
            "UUPFF4TC3",
            "UV3URUKK5",
            "UV78JAX0S",
            "UV20M5HGQ"
        ],
        "replies": [
            {
                "user": "UUPFF4TC3",
                "ts": "1584754674.009700"
            },
            {
                "user": "UV3URUKK5",
                "ts": "1584756457.010000"
            },
            {
                "user": "UV78JAX0S",
                "ts": "1584804912.000100"
            },
            {
                "user": "UV20M5HGQ",
                "ts": "1584912765.000600"
            },
            {
                "user": "UV3URUKK5",
                "ts": "1584913701.000800"
            },
            {
                "user": "UV20M5HGQ",
                "ts": "1584913830.001100"
            },
            {
                "user": "UV78JAX0S",
                "ts": "1584917899.001300"
            },
            {
                "user": "UV20M5HGQ",
                "ts": "1584917959.001500"
            },
            {
                "user": "UV3URUKK5",
                "ts": "1584918810.001700"
            }
        ],
        "subscribed": false,
        "reactions": [
            {
                "name": "+1",
                "users": [
                    "UUPF597H9",
                    "UUPFF4TC3"
                ],
                "count": 2
            }
        ]
    },
    {
        "client_msg_id": "95a47419-89e2-40da-9b1d-0aa17ef2d418",
        "type": "message",
        "text": "I would be very interested! I'd probably be doing more learning\/following rather than mentoring though.",
        "user": "UUPFF4TC3",
        "ts": "1584754674.009700",
        "team": "TUU48M0T1",
        "user_team": "TUU48M0T1",
        "source_team": "TUU48M0T1",
        "user_profile": {
            "avatar_hash": "g563e1ed9e36",
            "image_72": "https:\/\/secure.gravatar.com\/avatar\/563e1ed9e362af0ce5867baad4d7c568.jpg?s=72&d=https%3A%2F%2Fa.slack-edge.com%2Fdf10d%2Fimg%2Favatars%2Fava_0007-72.png",
            "first_name": "Sophie",
            "real_name": "Sophie Liu",
            "display_name": "Sophie Liu",
            "team": "TUU48M0T1",
            "name": "sophie006liu",
            "is_restricted": false,
            "is_ultra_restricted": false
        },
        "blocks": [
            {
                "type": "rich_text",
                "block_id": "31N",
                "elements": [
                    {
                        "type": "rich_text_section",
                        "elements": [
                            {
                                "type": "text",
                                "text": "I would be very interested! I'd probably be doing more learning\/following rather than mentoring though."
                            }
                        ]
                    }
                ]
            }
        ],
        "thread_ts": "1584754129.009600",
        "parent_user_id": "UV78JAX0S"
    },
    {
        "client_msg_id": "007e3e54-5890-470b-8110-3601b32c64b6",
        "type": "message",
        "text": "for sure!",
        "user": "UV3URUKK5",
        "ts": "1584756457.010000",
        "team": "TUU48M0T1",
        "user_team": "TUU48M0T1",
        "source_team": "TUU48M0T1",
        "user_profile": {
            "avatar_hash": "64c99c2ed974",
            "image_72": "https:\/\/avatars.slack-edge.com\/2020-03-15\/1000999702004_64c99c2ed97497e08ca9_72.jpg",
            "first_name": "",
            "real_name": "Francisco Javier Quero",
            "display_name": "Francisco Javier Quero",
            "team": "TUU48M0T1",
            "name": "franxi2953",
            "is_restricted": false,
            "is_ultra_restricted": false
        },
        "blocks": [
            {
                "type": "rich_text",
                "block_id": "K4O",
                "elements": [
                    {
                        "type": "rich_text_section",
                        "elements": [
                            {
                                "type": "text",
                                "text": "for sure!"
                            }
                        ]
                    }
                ]
            }
        ],
        "thread_ts": "1584754129.009600",
        "parent_user_id": "UV78JAX0S"
    }
]