<?xml version="1.0" encoding="UTF-8"?>
<graphml xmlns="http://graphml.graphdrawing.org/xmlns"
         xmlns:xsi="http://www.w3.org/2001/XMLSchema-instance"
         xsi:schemaLocation="http://graphml.graphdrawing.org/xmlns
         http://graphml.graphdrawing.org/xmlns/1.0/graphml.xsd">
<!-- Created by igraph -->
  <key id="v_name" for="node" attr.name="name" attr.type="string"/>
  <key id="v_type" for="node" attr.name="type" attr.type="boolean"/>
  <graph id="G" edgedefault="directed">
    <node id="n0">
      <data key="v_name">Boardgame</data>
      <data key="v_type">false</data>
    </node>
    <node id="n1">
      <data key="v_name">HERApp</data>
      <data key="v_type">false</data>
    </node>
    <node id="n2">
      <data key="v_name">TwitterVac</data>
      <data key="v_type">false</data>
    </node>
    <node id="n3">
      <data key="v_name">VaEsGa</data>
      <data key="v_type">false</data>
    </node>
    <node id="n4">
      <data key="v_name">VaccineDataDump</data>
      <data key="v_type">false</data>
    </node>
    <node id="n5">
      <data key="v_name">vaxtrends</data>
      <data key="v_type">false</data>
    </node>
    <node id="n6">
      <data key="v_name">greg001</data>
      <data key="v_type">false</data>
    </node>
    <node id="n7">
      <data key="v_name">Hulkbooster</data>
      <data key="v_type">false</data>
    </node>
    <node id="n8">
      <data key="v_name">HarmonizeVaccination</data>
      <data key="v_type">false</data>
    </node>
    <node id="n9">
      <data key="v_name">metaimmune</data>
      <data key="v_type">false</data>
    </node>
    <node id="n10">
      <data key="v_name">biloba</data>
      <data key="v_type">false</data>
    </node>
    <node id="n11">
      <data key="v_name">WakuSenshi</data>
      <data key="v_type">false</data>
    </node>
    <node id="n12">
      <data key="v_name">Crawler</data>
      <data key="v_type">false</data>
    </node>
    <node id="n13">
      <data key="v_name">PassItOn</data>
      <data key="v_type">false</data>
    </node>
    <node id="n14">
      <data key="v_name">GoViral</data>
      <data key="v_type">false</data>
    </node>
    <node id="n15">
      <data key="v_name">mva</data>
      <data key="v_type">false</data>
    </node>
    <node id="n16">
      <data key="v_name">VaccRiskAssess</data>
      <data key="v_type">false</data>
    </node>
    <node id="n17">
      <data key="v_name">VaxTopics</data>
      <data key="v_type">false</data>
    </node>
    <node id="n18">
      <data key="v_name">VaxAdministrationOnSocialMedia</data>
      <data key="v_type">false</data>
    </node>
    <node id="n19">
      <data key="v_name">VaxHesitancyOnSocialMedia</data>
      <data key="v_type">false</data>
    </node>
    <node id="n20">
      <data key="v_name">committopromotevaccination</data>
      <data key="v_type">false</data>
    </node>
    <node id="n21">
      <data key="v_name">tb</data>
      <data key="v_type">false</data>
    </node>
    <node id="n22">
      <data key="v_name">game</data>
      <data key="v_type">true</data>
    </node>
    <node id="n23">
      <data key="v_name">science</data>
      <data key="v_type">true</data>
    </node>
    <node id="n24">
      <data key="v_name">statistics</data>
      <data key="v_type">true</data>
    </node>
    <node id="n25">
      <data key="v_name">business analytics</data>
      <data key="v_type">true</data>
    </node>
    <node id="n26">
      <data key="v_name">startup development</data>
      <data key="v_type">true</data>
    </node>
    <node id="n27">
      <data key="v_name">mhealth</data>
      <data key="v_type">true</data>
    </node>
    <node id="n28">
      <data key="v_name">mobile applications</data>
      <data key="v_type">true</data>
    </node>
    <node id="n29">
      <data key="v_name">business</data>
      <data key="v_type">true</data>
    </node>
    <node id="n30">
      <data key="v_name">scaled agile framework</data>
      <data key="v_type">true</data>
    </node>
    <node id="n31">
      <data key="v_name">technology/business linkage planning</data>
      <data key="v_type">true</data>
    </node>
    <node id="n32">
      <data key="v_name">data science</data>
      <data key="v_type">true</data>
    </node>
    <node id="n33">
      <data key="v_name">data visualisation</data>
      <data key="v_type">true</data>
    </node>
    <node id="n34">
      <data key="v_name">data analysis</data>
      <data key="v_type">true</data>
    </node>
    <node id="n35">
      <data key="v_name">game design</data>
      <data key="v_type">true</data>
    </node>
    <node id="n36">
      <data key="v_name">health</data>
      <data key="v_type">true</data>
    </node>
    <node id="n37">
      <data key="v_name">pedagogy</data>
      <data key="v_type">true</data>
    </node>
    <node id="n38">
      <data key="v_name">vaccinations</data>
      <data key="v_type">true</data>
    </node>
    <node id="n39">
      <data key="v_name">epidemiology</data>
      <data key="v_type">true</data>
    </node>
    <node id="n40">
      <data key="v_name">game prototyping</data>
      <data key="v_type">true</data>
    </node>
    <node id="n41">
      <data key="v_name">data analytics</data>
      <data key="v_type">true</data>
    </node>
    <node id="n42">
      <data key="v_name">data correlation</data>
      <data key="v_type">true</data>
    </node>
    <node id="n43">
      <data key="v_name">data aggregation</data>
      <data key="v_type">true</data>
    </node>
    <node id="n44">
      <data key="v_name">social media</data>
      <data key="v_type">true</data>
    </node>
    <node id="n45">
      <data key="v_name">big data</data>
      <data key="v_type">true</data>
    </node>
    <node id="n46">
      <data key="v_name">twitter api</data>
      <data key="v_type">true</data>
    </node>
    <node id="n47">
      <data key="v_name">programming</data>
      <data key="v_type">true</data>
    </node>
    <node id="n48">
      <data key="v_name">life sciences</data>
      <data key="v_type">true</data>
    </node>
    <node id="n49">
      <data key="v_name">web development</data>
      <data key="v_type">true</data>
    </node>
    <node id="n50">
      <data key="v_name">python</data>
      <data key="v_type">true</data>
    </node>
    <node id="n51">
      <data key="v_name">data visualization</data>
      <data key="v_type">true</data>
    </node>
    <node id="n52">
      <data key="v_name">database</data>
      <data key="v_type">true</data>
    </node>
    <node id="n53">
      <data key="v_name">web scraping</data>
      <data key="v_type">true</data>
    </node>
    <node id="n54">
      <data key="v_name">algorithm analysis</data>
      <data key="v_type">true</data>
    </node>
    <node id="n55">
      <data key="v_name">algorithm development</data>
      <data key="v_type">true</data>
    </node>
    <node id="n56">
      <data key="v_name">policy maker</data>
      <data key="v_type">true</data>
    </node>
    <node id="n57">
      <data key="v_name">doctors</data>
      <data key="v_type">true</data>
    </node>
    <node id="n58">
      <data key="v_name">game development</data>
      <data key="v_type">true</data>
    </node>
    <node id="n59">
      <data key="v_name">education</data>
      <data key="v_type">true</data>
    </node>
    <node id="n60">
      <data key="v_name">public health</data>
      <data key="v_type">true</data>
    </node>
    <node id="n61">
      <data key="v_name">open science</data>
      <data key="v_type">true</data>
    </node>
    <node id="n62">
      <data key="v_name">open education</data>
      <data key="v_type">true</data>
    </node>
    <node id="n63">
      <data key="v_name">openaccess</data>
      <data key="v_type">true</data>
    </node>
    <node id="n64">
      <data key="v_name">healthcare strategy</data>
      <data key="v_type">true</data>
    </node>
    <node id="n65">
      <data key="v_name">awareness raising</data>
      <data key="v_type">true</data>
    </node>
    <node id="n66">
      <data key="v_name">verification tools</data>
      <data key="v_type">true</data>
    </node>
    <node id="n67">
      <data key="v_name">databases</data>
      <data key="v_type">true</data>
    </node>
    <node id="n68">
      <data key="v_name">data sciences</data>
      <data key="v_type">true</data>
    </node>
    <node id="n69">
      <data key="v_name">biotech and pharma</data>
      <data key="v_type">true</data>
    </node>
    <node id="n70">
      <data key="v_name">coding</data>
      <data key="v_type">true</data>
    </node>
    <node id="n71">
      <data key="v_name">illustration</data>
      <data key="v_type">true</data>
    </node>
    <node id="n72">
      <data key="v_name">psychology</data>
      <data key="v_type">true</data>
    </node>
    <node id="n73">
      <data key="v_name">public health policy</data>
      <data key="v_type">true</data>
    </node>
    <node id="n74">
      <data key="v_name">developper</data>
      <data key="v_type">true</data>
    </node>
    <node id="n75">
      <data key="v_name">graphic design</data>
      <data key="v_type">true</data>
    </node>
    <node id="n76">
      <data key="v_name">cognitive scientist</data>
      <data key="v_type">true</data>
    </node>
    <node id="n77">
      <data key="v_name">medical worker</data>
      <data key="v_type">true</data>
    </node>
    <node id="n78">
      <data key="v_name">testimony from healthcare provider</data>
      <data key="v_type">true</data>
    </node>
    <node id="n79">
      <data key="v_name">health communication</data>
      <data key="v_type">true</data>
    </node>
    <node id="n80">
      <data key="v_name">software development</data>
      <data key="v_type">true</data>
    </node>
    <node id="n81">
      <data key="v_name">marketing</data>
      <data key="v_type">true</data>
    </node>
    <node id="n82">
      <data key="v_name">online community management</data>
      <data key="v_type">true</data>
    </node>
    <node id="n83">
      <data key="v_name">virality</data>
      <data key="v_type">true</data>
    </node>
    <node id="n84">
      <data key="v_name">epidemiologist</data>
      <data key="v_type">true</data>
    </node>
    <node id="n85">
      <data key="v_name">economics</data>
      <data key="v_type">true</data>
    </node>
    <node id="n86">
      <data key="v_name">social sciences</data>
      <data key="v_type">true</data>
    </node>
    <node id="n87">
      <data key="v_name">govt. liaison</data>
      <data key="v_type">true</data>
    </node>
    <node id="n88">
      <data key="v_name">web design</data>
      <data key="v_type">true</data>
    </node>
    <node id="n89">
      <data key="v_name">vaccination</data>
      <data key="v_type">true</data>
    </node>
    <node id="n90">
      <data key="v_name">r</data>
      <data key="v_type">true</data>
    </node>
    <node id="n91">
      <data key="v_name">code</data>
      <data key="v_type">true</data>
    </node>
    <node id="n92">
      <data key="v_name">machine learning</data>
      <data key="v_type">true</data>
    </node>
    <node id="n93">
      <data key="v_name">questionnaire design</data>
      <data key="v_type">true</data>
    </node>
    <node id="n94">
      <data key="v_name">human sciences</data>
      <data key="v_type">true</data>
    </node>
    <node id="n95">
      <data key="v_name">biology</data>
      <data key="v_type">true</data>
    </node>
    <edge source="n0" target="n22">
    </edge>
    <edge source="n0" target="n23">
    </edge>
    <edge source="n1" target="n24">
    </edge>
    <edge source="n1" target="n25">
    </edge>
    <edge source="n1" target="n26">
    </edge>
    <edge source="n1" target="n27">
    </edge>
    <edge source="n1" target="n28">
    </edge>
    <edge source="n1" target="n29">
    </edge>
    <edge source="n1" target="n30">
    </edge>
    <edge source="n1" target="n31">
    </edge>
    <edge source="n2" target="n32">
    </edge>
    <edge source="n2" target="n33">
    </edge>
    <edge source="n2" target="n34">
    </edge>
    <edge source="n3" target="n35">
    </edge>
    <edge source="n3" target="n36">
    </edge>
    <edge source="n3" target="n37">
    </edge>
    <edge source="n3" target="n38">
    </edge>
    <edge source="n3" target="n39">
    </edge>
    <edge source="n3" target="n40">
    </edge>
    <edge source="n4" target="n41">
    </edge>
    <edge source="n4" target="n42">
    </edge>
    <edge source="n4" target="n43">
    </edge>
    <edge source="n5" target="n34">
    </edge>
    <edge source="n5" target="n44">
    </edge>
    <edge source="n5" target="n45">
    </edge>
    <edge source="n5" target="n46">
    </edge>
    <edge source="n6" target="n47">
    </edge>
    <edge source="n6" target="n45">
    </edge>
    <edge source="n7" target="n32">
    </edge>
    <edge source="n7" target="n33">
    </edge>
    <edge source="n7" target="n34">
    </edge>
    <edge source="n7" target="n48">
    </edge>
    <edge source="n8" target="n49">
    </edge>
    <edge source="n8" target="n50">
    </edge>
    <edge source="n8" target="n51">
    </edge>
    <edge source="n9" target="n34">
    </edge>
    <edge source="n9" target="n52">
    </edge>
    <edge source="n9" target="n45">
    </edge>
    <edge source="n9" target="n53">
    </edge>
    <edge source="n9" target="n54">
    </edge>
    <edge source="n9" target="n55">
    </edge>
    <edge source="n10" target="n34">
    </edge>
    <edge source="n10" target="n49">
    </edge>
    <edge source="n10" target="n56">
    </edge>
    <edge source="n10" target="n57">
    </edge>
    <edge source="n11" target="n58">
    </edge>
    <edge source="n11" target="n35">
    </edge>
    <edge source="n11" target="n59">
    </edge>
    <edge source="n11" target="n60">
    </edge>
    <edge source="n11" target="n61">
    </edge>
    <edge source="n11" target="n62">
    </edge>
    <edge source="n11" target="n63">
    </edge>
    <edge source="n11" target="n64">
    </edge>
    <edge source="n11" target="n65">
    </edge>
    <edge source="n11" target="n66">
    </edge>
    <edge source="n11" target="n67">
    </edge>
    <edge source="n12" target="n68">
    </edge>
    <edge source="n12" target="n69">
    </edge>
    <edge source="n13" target="n35">
    </edge>
    <edge source="n13" target="n60">
    </edge>
    <edge source="n13" target="n70">
    </edge>
    <edge source="n13" target="n71">
    </edge>
    <edge source="n13" target="n72">
    </edge>
    <edge source="n13" target="n59">
    </edge>
    <edge source="n13" target="n73">
    </edge>
    <edge source="n13" target="n74">
    </edge>
    <edge source="n13" target="n75">
    </edge>
    <edge source="n13" target="n76">
    </edge>
    <edge source="n13" target="n56">
    </edge>
    <edge source="n13" target="n77">
    </edge>
    <edge source="n13" target="n78">
    </edge>
    <edge source="n13" target="n61">
    </edge>
    <edge source="n13" target="n79">
    </edge>
    <edge source="n14" target="n51">
    </edge>
    <edge source="n14" target="n80">
    </edge>
    <edge source="n14" target="n81">
    </edge>
    <edge source="n14" target="n82">
    </edge>
    <edge source="n14" target="n83">
    </edge>
    <edge source="n14" target="n84">
    </edge>
    <edge source="n15" target="n34">
    </edge>
    <edge source="n15" target="n49">
    </edge>
    <edge source="n15" target="n32">
    </edge>
    <edge source="n15" target="n85">
    </edge>
    <edge source="n15" target="n86">
    </edge>
    <edge source="n15" target="n87">
    </edge>
    <edge source="n15" target="n88">
    </edge>
    <edge source="n16" target="n50">
    </edge>
    <edge source="n16" target="n89">
    </edge>
    <edge source="n17" target="n33">
    </edge>
    <edge source="n17" target="n34">
    </edge>
    <edge source="n17" target="n90">
    </edge>
    <edge source="n17" target="n50">
    </edge>
    <edge source="n17" target="n39">
    </edge>
    <edge source="n17" target="n32">
    </edge>
    <edge source="n17" target="n91">
    </edge>
    <edge source="n18" target="n39">
    </edge>
    <edge source="n18" target="n32">
    </edge>
    <edge source="n19" target="n39">
    </edge>
    <edge source="n19" target="n32">
    </edge>
    <edge source="n20" target="n92">
    </edge>
    <edge source="n20" target="n86">
    </edge>
    <edge source="n20" target="n93">
    </edge>
    <edge source="n20" target="n94">
    </edge>
    <edge source="n21" target="n95">
    </edge>
  </graph>
</graphml>
