[
    {
        "client_msg_id": "94063a1c-fdaa-4eaf-a726-4e1d86f47e14",
        "type": "message",
        "text": "Hey <@UVBEDFNPJ> <@UV1A22N3W> thanks for sharing. Yes we are trying to scale an automated system based on the OT blog here: <https:\/\/blog.opentrons.com\/testing-for-covid-19-with-opentrons\/>. We work in Shipping containers and the goal is to make a modular unit that we can publish designs for and anyone can build\/ship. The assay will be RT-PCR using the IDT primers. We would like to use the bomb.bio magnetic bead system since many other RNA extraction systems are now sold out.\n\nI respect all the LAMP passion but in my experience you sacrifice time+labour for less machinery and that is usually the kind of tradeoff only justifiable in academia. I would love if I am wrong and if someone has a robust straightforward process let me know and we will try to replicate.",
        "user": "UV7AZH728",
        "ts": "1584371356.126500",
        "team": "TUU48M0T1",
        "user_team": "TUU48M0T1",
        "source_team": "TUU48M0T1",
        "user_profile": {
            "avatar_hash": "g3a93d1b5438",
            "image_72": "https:\/\/secure.gravatar.com\/avatar\/3a93d1b54386d7d5f4abceccfd7414e5.jpg?s=72&d=https%3A%2F%2Fa.slack-edge.com%2Fdf10d%2Fimg%2Favatars%2Fava_0013-72.png",
            "first_name": "",
            "real_name": "Tom Meany",
            "display_name": "Tom Meany",
            "team": "TUU48M0T1",
            "name": "covid19",
            "is_restricted": false,
            "is_ultra_restricted": false
        },
        "attachments": [
            {
                "service_name": "Blog | Opentrons Labworks",
                "title": "How Opentrons Can Help Labs Screen Millions For COVID-19",
                "title_link": "https:\/\/blog.opentrons.com\/testing-for-covid-19-with-opentrons\/",
                "text": "Opentrons COVID-19 Testing System can help labs running public health surveillance projects immediately scale up and screen 2,400 tests per day.",
                "fallback": "Blog | Opentrons Labworks: How Opentrons Can Help Labs Screen Millions For COVID-19",
                "image_url": "https:\/\/blog.opentrons.com\/content\/images\/2020\/03\/Screenshot-2020-03-08-15.09.12-copy.png",
                "image_width": 648,
                "image_height": 250,
                "fields": [
                    {
                        "title": "Written by",
                        "value": "Will Canine",
                        "short": true
                    },
                    {
                        "title": "Filed under",
                        "value": "automation, covid19, qpcr",
                        "short": true
                    }
                ],
                "ts": 1583767598,
                "from_url": "https:\/\/blog.opentrons.com\/testing-for-covid-19-with-opentrons\/",
                "image_bytes": 169939,
                "service_icon": "https:\/\/s3.amazonaws.com\/opentrons-images\/website\/OTfavicon.ico",
                "id": 1,
                "original_url": "https:\/\/blog.opentrons.com\/testing-for-covid-19-with-opentrons\/"
            }
        ],
        "blocks": [
            {
                "type": "rich_text",
                "block_id": "I8dL",
                "elements": [
                    {
                        "type": "rich_text_section",
                        "elements": [
                            {
                                "type": "text",
                                "text": "Hey "
                            },
                            {
                                "type": "user",
                                "user_id": "UVBEDFNPJ"
                            },
                            {
                                "type": "text",
                                "text": " "
                            },
                            {
                                "type": "user",
                                "user_id": "UV1A22N3W"
                            },
                            {
                                "type": "text",
                                "text": " thanks for sharing. Yes we are trying to scale an automated system based on the OT blog here: "
                            },
                            {
                                "type": "link",
                                "url": "https:\/\/blog.opentrons.com\/testing-for-covid-19-with-opentrons\/"
                            },
                            {
                                "type": "text",
                                "text": ". We work in Shipping containers and the goal is to make a modular unit that we can publish designs for and anyone can build\/ship. The assay will be RT-PCR using the IDT primers. We would like to use the bomb.bio magnetic bead system since many other RNA extraction systems are now sold out.\n\nI respect all the LAMP passion but in my experience you sacrifice time+labour for less machinery and that is usually the kind of tradeoff only justifiable in academia. I would love if I am wrong and if someone has a robust straightforward process let me know and we will try to replicate."
                            }
                        ]
                    }
                ]
            }
        ],
        "thread_ts": "1584371356.126500",
        "reply_count": 4,
        "reply_users_count": 2,
        "latest_reply": "1584718274.230700",
        "reply_users": [
            "UV1A22N3W",
            "UV7AZH728"
        ],
        "replies": [
            {
                "user": "UV1A22N3W",
                "ts": "1584374091.127200"
            },
            {
                "user": "UV1A22N3W",
                "ts": "1584374179.127400"
            },
            {
                "user": "UV1A22N3W",
                "ts": "1584374290.127900"
            },
            {
                "user": "UV7AZH728",
                "ts": "1584718274.230700"
            }
        ],
        "subscribed": false,
        "reactions": [
            {
                "name": "+1",
                "users": [
                    "U0103128G4D",
                    "UV2SC7ZE3"
                ],
                "count": 2
            }
        ]
    },
    {
        "client_msg_id": "bc539786-d347-4d8b-ae08-18d561af6c41",
        "type": "message",
        "text": "<https:\/\/www.who.int\/emergencies\/diseases\/novel-coronavirus-2019\/advice-for-public\/myth-busters>",
        "user": "UVD8Q035K",
        "ts": "1584373249.127100",
        "team": "TUU48M0T1",
        "user_team": "TUU48M0T1",
        "source_team": "TUU48M0T1",
        "user_profile": {
            "avatar_hash": "8b2d0f7c083b",
            "image_72": "https:\/\/avatars.slack-edge.com\/2020-03-13\/1001496871254_8b2d0f7c083b78fb0457_72.jpg",
            "first_name": "",
            "real_name": "Jonathan W. Vos",
            "display_name": "Jonathan W. Vos",
            "team": "TUU48M0T1",
            "name": "jonathan",
            "is_restricted": false,
            "is_ultra_restricted": false
        },
        "blocks": [
            {
                "type": "rich_text",
                "block_id": "ykKyT",
                "elements": [
                    {
                        "type": "rich_text_section",
                        "elements": [
                            {
                                "type": "link",
                                "url": "https:\/\/www.who.int\/emergencies\/diseases\/novel-coronavirus-2019\/advice-for-public\/myth-busters"
                            }
                        ]
                    }
                ]
            }
        ]
    },
    {
        "client_msg_id": "925e98ca-bdc3-4a4a-b53f-c0f05db3a7cf",
        "type": "message",
        "text": "I am opposed to doing LAMP design as there are good sets for two genes already, and think in the diy context something that avoids amplification is what we should (also) aim for...  have you heard about aptamers and electrochem detection?  my worry is sensitivity, target molecule (and in what context) - but I think <@UV7N8HX28> says at least one is already out to try...",
        "user": "UV1A22N3W",
        "ts": "1584374091.127200",
        "team": "TUU48M0T1",
        "user_team": "TUU48M0T1",
        "source_team": "TUU48M0T1",
        "user_profile": {
            "avatar_hash": "71f827776ad6",
            "image_72": "https:\/\/avatars.slack-edge.com\/2020-03-09\/988125642964_71f827776ad610af05a2_72.jpg",
            "first_name": "",
            "real_name": "RachelA",
            "display_name": "RachelA",
            "team": "TUU48M0T1",
            "name": "raronoff",
            "is_restricted": false,
            "is_ultra_restricted": false
        },
        "blocks": [
            {
                "type": "rich_text",
                "block_id": "noihO",
                "elements": [
                    {
                        "type": "rich_text_section",
                        "elements": [
                            {
                                "type": "text",
                                "text": "I am opposed to doing LAMP design as there are good sets for two genes already, and think in the diy context something that avoids amplification is what we should (also) aim for...  have you heard about aptamers and electrochem detection?  my worry is sensitivity, target molecule (and in what context) - but I think "
                            },
                            {
                                "type": "user",
                                "user_id": "UV7N8HX28"
                            },
                            {
                                "type": "text",
                                "text": " says at least one is already out to try..."
                            }
                        ]
                    }
                ]
            }
        ],
        "thread_ts": "1584371356.126500",
        "parent_user_id": "UV7AZH728"
    },
    {
        "client_msg_id": "7d84f146-8969-48b4-93d6-d17f2cb87500",
        "type": "message",
        "text": "<@UV3URUKK5> is also interested in this, and it fits up Hackuarium's aims to mix bio and tech (though I personally have no expertise in the method...) :slightly_smiling_face:",
        "user": "UV1A22N3W",
        "ts": "1584374179.127400",
        "team": "TUU48M0T1",
        "user_team": "TUU48M0T1",
        "source_team": "TUU48M0T1",
        "user_profile": {
            "avatar_hash": "71f827776ad6",
            "image_72": "https:\/\/avatars.slack-edge.com\/2020-03-09\/988125642964_71f827776ad610af05a2_72.jpg",
            "first_name": "",
            "real_name": "RachelA",
            "display_name": "RachelA",
            "team": "TUU48M0T1",
            "name": "raronoff",
            "is_restricted": false,
            "is_ultra_restricted": false
        },
        "blocks": [
            {
                "type": "rich_text",
                "block_id": "BP5E",
                "elements": [
                    {
                        "type": "rich_text_section",
                        "elements": [
                            {
                                "type": "user",
                                "user_id": "UV3URUKK5"
                            },
                            {
                                "type": "text",
                                "text": " is also interested in this, and it fits up Hackuarium's aims to mix bio and tech (though I personally have no expertise in the method...) "
                            },
                            {
                                "type": "emoji",
                                "name": "slightly_smiling_face"
                            }
                        ]
                    }
                ]
            }
        ],
        "thread_ts": "1584371356.126500",
        "parent_user_id": "UV7AZH728"
    },
    {
        "type": "message",
        "subtype": "channel_join",
        "ts": "1584374185.127700",
        "user": "UV3URUKK5",
        "text": "<@UV3URUKK5> has joined the channel",
        "inviter": "UV1A22N3W"
    },
    {
        "client_msg_id": "f8796f0e-099f-4f83-a39e-876bccdc858f",
        "type": "message",
        "text": "and lamp can be straightforward, actually, esp if you use quencher systems, for +\/- very simply, like for the 'GMO Detective' tests.",
        "user": "UV1A22N3W",
        "ts": "1584374290.127900",
        "team": "TUU48M0T1",
        "user_team": "TUU48M0T1",
        "source_team": "TUU48M0T1",
        "user_profile": {
            "avatar_hash": "71f827776ad6",
            "image_72": "https:\/\/avatars.slack-edge.com\/2020-03-09\/988125642964_71f827776ad610af05a2_72.jpg",
            "first_name": "",
            "real_name": "RachelA",
            "display_name": "RachelA",
            "team": "TUU48M0T1",
            "name": "raronoff",
            "is_restricted": false,
            "is_ultra_restricted": false
        },
        "blocks": [
            {
                "type": "rich_text",
                "block_id": "UYxcI",
                "elements": [
                    {
                        "type": "rich_text_section",
                        "elements": [
                            {
                                "type": "text",
                                "text": "and lamp can be straightforward, actually, esp if you use quencher systems, for +\/- very simply, like for the 'GMO Detective' tests."
                            }
                        ]
                    }
                ]
            }
        ],
        "thread_ts": "1584371356.126500",
        "parent_user_id": "UV7AZH728"
    },
    {
        "client_msg_id": "7d5e38fd-4577-46cc-b6c3-8dd0292e486f",
        "type": "message",
        "text": "Hi all, I'm wondering if anyone here has successfully implemented and reproduced the Mammoth protocol yet? I have access to limited funding to get some community testing off the ground and before I order the reagents for this protocol it would be nice to have some assurance of reproducibility :slightly_smiling_face: Alternatively, I am also curious whether anyone has any insights into simpler methods or \"tricks\" to bypass the RNA extraction bottleneck?",
        "user": "U0100LKUPSR",
        "ts": "1584375801.130200",
        "team": "TUU48M0T1",
        "user_team": "TUU48M0T1",
        "source_team": "TUU48M0T1",
        "user_profile": {
            "avatar_hash": "ca5f4a765adc",
            "image_72": "https:\/\/avatars.slack-edge.com\/2020-03-14\/1002916890614_ca5f4a765adc40eda476_72.png",
            "first_name": "Sonali",
            "real_name": "Sonali",
            "display_name": "Sonali",
            "team": "TUU48M0T1",
            "name": "uncoolghoul",
            "is_restricted": false,
            "is_ultra_restricted": false
        },
        "blocks": [
            {
                "type": "rich_text",
                "block_id": "diJuL",
                "elements": [
                    {
                        "type": "rich_text_section",
                        "elements": [
                            {
                                "type": "text",
                                "text": "Hi all, I'm wondering if anyone here has successfully implemented and reproduced the Mammoth protocol yet? I have access to limited funding to get some community testing off the ground and before I order the reagents for this protocol it would be nice to have some assurance of reproducibility "
                            },
                            {
                                "type": "emoji",
                                "name": "slightly_smiling_face"
                            },
                            {
                                "type": "text",
                                "text": " Alternatively, I am also curious whether anyone has any insights into simpler methods or \"tricks\" to bypass the RNA extraction bottleneck?"
                            }
                        ]
                    }
                ]
            }
        ],
        "thread_ts": "1584375801.130200",
        "reply_count": 1,
        "reply_users_count": 1,
        "latest_reply": "1584382522.131700",
        "reply_users": [
            "UVA1JS2PR"
        ],
        "replies": [
            {
                "user": "UVA1JS2PR",
                "ts": "1584382522.131700"
            }
        ],
        "subscribed": false
    },
    {
        "client_msg_id": "446fcadf-7787-44e6-ba9e-a4b7905c7ea0",
        "type": "message",
        "text": "Being honest, I think the Mammoth is a bit of a PR activity. Absolutely achievable in a lab level demo but deployment is another matter. Please let me know if I am wrong? Would really love to be wrong.",
        "user": "UV7AZH728",
        "ts": "1584379058.131400",
        "team": "TUU48M0T1",
        "user_team": "TUU48M0T1",
        "source_team": "TUU48M0T1",
        "user_profile": {
            "avatar_hash": "g3a93d1b5438",
            "image_72": "https:\/\/secure.gravatar.com\/avatar\/3a93d1b54386d7d5f4abceccfd7414e5.jpg?s=72&d=https%3A%2F%2Fa.slack-edge.com%2Fdf10d%2Fimg%2Favatars%2Fava_0013-72.png",
            "first_name": "",
            "real_name": "Tom Meany",
            "display_name": "Tom Meany",
            "team": "TUU48M0T1",
            "name": "covid19",
            "is_restricted": false,
            "is_ultra_restricted": false
        },
        "blocks": [
            {
                "type": "rich_text",
                "block_id": "Szzz",
                "elements": [
                    {
                        "type": "rich_text_section",
                        "elements": [
                            {
                                "type": "text",
                                "text": "Being honest, I think the Mammoth is a bit of a PR activity. Absolutely achievable in a lab level demo but deployment is another matter. Please let me know if I am wrong? Would really love to be wrong."
                            }
                        ]
                    }
                ]
            }
        ],
        "thread_ts": "1584379058.131400",
        "reply_count": 43,
        "reply_users_count": 9,
        "latest_reply": "1584603861.207400",
        "reply_users": [
            "UV2SC7ZE3",
            "UV5CCJ9RC",
            "UUS2G6N6M",
            "UUNGFHSV8",
            "UV1A22N3W",
            "UV7AZH728",
            "UV7LUJG1Y",
            "UV3URUKK5",
            "UVALZTQ58"
        ],
        "replies": [
            {
                "user": "UV2SC7ZE3",
                "ts": "1584381121.131500"
            },
            {
                "user": "UV5CCJ9RC",
                "ts": "1584391839.135500"
            },
            {
                "user": "UUS2G6N6M",
                "ts": "1584395395.137000"
            },
            {
                "user": "UUNGFHSV8",
                "ts": "1584396474.137200"
            },
            {
                "user": "UUNGFHSV8",
                "ts": "1584396601.137400"
            },
            {
                "user": "UV1A22N3W",
                "ts": "1584438442.150700"
            },
            {
                "user": "UV7AZH728",
                "ts": "1584449258.150900"
            },
            {
                "user": "UV1A22N3W",
                "ts": "1584460066.167500"
            },
            {
                "user": "UUNGFHSV8",
                "ts": "1584460271.167700"
            },
            {
                "user": "UV1A22N3W",
                "ts": "1584461896.168000"
            },
            {
                "user": "UUNGFHSV8",
                "ts": "1584462210.171100"
            },
            {
                "user": "UV7LUJG1Y",
                "ts": "1584467291.175600"
            },
            {
                "user": "UV7LUJG1Y",
                "ts": "1584467349.175800"
            },
            {
                "user": "UV7LUJG1Y",
                "ts": "1584467358.176000"
            },
            {
                "user": "UUNGFHSV8",
                "ts": "1584468523.176200"
            },
            {
                "user": "UV7LUJG1Y",
                "ts": "1584469008.176600"
            },
            {
                "user": "UV7LUJG1Y",
                "ts": "1584469549.176800"
            },
            {
                "user": "UV7LUJG1Y",
                "ts": "1584469744.177300"
            },
            {
                "user": "UV7LUJG1Y",
                "ts": "1584469788.177500"
            },
            {
                "user": "UV7LUJG1Y",
                "ts": "1584470241.177900"
            },
            {
                "user": "UV3URUKK5",
                "ts": "1584470527.178100"
            },
            {
                "user": "UUNGFHSV8",
                "ts": "1584471435.179200"
            },
            {
                "user": "UV3URUKK5",
                "ts": "1584471705.179500"
            },
            {
                "user": "UV7LUJG1Y",
                "ts": "1584471827.179900"
            },
            {
                "user": "UV7LUJG1Y",
                "ts": "1584471863.180100"
            },
            {
                "user": "UV1A22N3W",
                "ts": "1584473600.180700"
            },
            {
                "user": "UV7LUJG1Y",
                "ts": "1584474606.181100"
            },
            {
                "user": "UUNGFHSV8",
                "ts": "1584475316.181500"
            },
            {
                "user": "UV3URUKK5",
                "ts": "1584476026.182000"
            },
            {
                "user": "UV7LUJG1Y",
                "ts": "1584476325.182400"
            },
            {
                "user": "UV7LUJG1Y",
                "ts": "1584476379.182700"
            },
            {
                "user": "UV7LUJG1Y",
                "ts": "1584476437.182900"
            },
            {
                "user": "UV7LUJG1Y",
                "ts": "1584476472.183100"
            },
            {
                "user": "UV5CCJ9RC",
                "ts": "1584479834.186400"
            },
            {
                "user": "UV3URUKK5",
                "ts": "1584481070.191800"
            },
            {
                "user": "UV7LUJG1Y",
                "ts": "1584555770.196900"
            },
            {
                "user": "UV3URUKK5",
                "ts": "1584561562.197500"
            },
            {
                "user": "UVALZTQ58",
                "ts": "1584566972.201800"
            },
            {
                "user": "UV1A22N3W",
                "ts": "1584602512.206300"
            },
            {
                "user": "UV1A22N3W",
                "ts": "1584602991.206600"
            },
            {
                "user": "UV1A22N3W",
                "ts": "1584603181.206800"
            },
            {
                "user": "UV1A22N3W",
                "ts": "1584603344.207000"
            },
            {
                "user": "UV1A22N3W",
                "ts": "1584603861.207400"
            }
        ],
        "subscribed": false
    },
    {
        "client_msg_id": "2af6a448-26e7-444c-8c43-811c365e8a2e",
        "type": "message",
        "text": "Now that you mention it...I'm a bit concerned.",
        "user": "UV2SC7ZE3",
        "ts": "1584381121.131500",
        "team": "TUU48M0T1",
        "user_team": "TUU48M0T1",
        "source_team": "TUU48M0T1",
        "user_profile": {
            "avatar_hash": "d28dd0d076e8",
            "image_72": "https:\/\/avatars.slack-edge.com\/2020-03-14\/987873094258_d28dd0d076e8fa9a8409_72.png",
            "first_name": "David",
            "real_name": "David Lu",
            "display_name": "David Lu",
            "team": "TUU48M0T1",
            "name": "ludavidyi",
            "is_restricted": false,
            "is_ultra_restricted": false
        },
        "blocks": [
            {
                "type": "rich_text",
                "block_id": "+iNr",
                "elements": [
                    {
                        "type": "rich_text_section",
                        "elements": [
                            {
                                "type": "text",
                                "text": "Now that you mention it...I'm a bit concerned."
                            }
                        ]
                    }
                ]
            }
        ],
        "thread_ts": "1584379058.131400",
        "parent_user_id": "UV7AZH728",
        "reactions": [
            {
                "name": "+1",
                "users": [
                    "U0101DKUALV"
                ],
                "count": 1
            }
        ]
    },
    {
        "type": "message",
        "text": "Hi <@U0100LKUPSR>, we have created a coronavirus method development group on <http:\/\/protocols.io|protocols.io>, please feel free to add this to the discussions space there as someone of the members might be able to help:  <https:\/\/www.protocols.io\/groups\/coronavirus-method-development-community\/discussions>",
        "files": [
            {
                "id": "FV66B9U2X",
                "created": 1584382516,
                "timestamp": 1584382516,
                "name": "Screenshot 2020-03-16 at 11.13.24.png",
                "title": "Screenshot 2020-03-16 at 11.13.24.png",
                "mimetype": "image\/png",
                "filetype": "png",
                "pretty_type": "PNG",
                "user": "UVA1JS2PR",
                "editable": false,
                "size": 624393,
                "mode": "hosted",
                "is_external": false,
                "external_type": "",
                "is_public": true,
                "public_url_shared": false,
                "display_as_bot": false,
                "username": "",
                "url_private": "https:\/\/files.slack.com\/files-pri\/TUU48M0T1-FV66B9U2X\/screenshot_2020-03-16_at_11.13.24.png?t=xoxe-980144714919-1031585465028-1034106672247-1815eabca44f30d1d2d966083f8c8bbb",
                "url_private_download": "https:\/\/files.slack.com\/files-pri\/TUU48M0T1-FV66B9U2X\/download\/screenshot_2020-03-16_at_11.13.24.png?t=xoxe-980144714919-1031585465028-1034106672247-1815eabca44f30d1d2d966083f8c8bbb",
                "thumb_64": "https:\/\/files.slack.com\/files-tmb\/TUU48M0T1-FV66B9U2X-ddcf9b4534\/screenshot_2020-03-16_at_11.13.24_64.png?t=xoxe-980144714919-1031585465028-1034106672247-1815eabca44f30d1d2d966083f8c8bbb",
                "thumb_80": "https:\/\/files.slack.com\/files-tmb\/TUU48M0T1-FV66B9U2X-ddcf9b4534\/screenshot_2020-03-16_at_11.13.24_80.png?t=xoxe-980144714919-1031585465028-1034106672247-1815eabca44f30d1d2d966083f8c8bbb",
                "thumb_360": "https:\/\/files.slack.com\/files-tmb\/TUU48M0T1-FV66B9U2X-ddcf9b4534\/screenshot_2020-03-16_at_11.13.24_360.png?t=xoxe-980144714919-1031585465028-1034106672247-1815eabca44f30d1d2d966083f8c8bbb",
                "thumb_360_w": 360,
                "thumb_360_h": 193,
                "thumb_480": "https:\/\/files.slack.com\/files-tmb\/TUU48M0T1-FV66B9U2X-ddcf9b4534\/screenshot_2020-03-16_at_11.13.24_480.png?t=xoxe-980144714919-1031585465028-1034106672247-1815eabca44f30d1d2d966083f8c8bbb",
                "thumb_480_w": 480,
                "thumb_480_h": 257,
                "thumb_160": "https:\/\/files.slack.com\/files-tmb\/TUU48M0T1-FV66B9U2X-ddcf9b4534\/screenshot_2020-03-16_at_11.13.24_160.png?t=xoxe-980144714919-1031585465028-1034106672247-1815eabca44f30d1d2d966083f8c8bbb",
                "thumb_720": "https:\/\/files.slack.com\/files-tmb\/TUU48M0T1-FV66B9U2X-ddcf9b4534\/screenshot_2020-03-16_at_11.13.24_720.png?t=xoxe-980144714919-1031585465028-1034106672247-1815eabca44f30d1d2d966083f8c8bbb",
                "thumb_720_w": 720,
                "thumb_720_h": 386,
                "thumb_800": "https:\/\/files.slack.com\/files-tmb\/TUU48M0T1-FV66B9U2X-ddcf9b4534\/screenshot_2020-03-16_at_11.13.24_800.png?t=xoxe-980144714919-1031585465028-1034106672247-1815eabca44f30d1d2d966083f8c8bbb",
                "thumb_800_w": 800,
                "thumb_800_h": 429,
                "thumb_960": "https:\/\/files.slack.com\/files-tmb\/TUU48M0T1-FV66B9U2X-ddcf9b4534\/screenshot_2020-03-16_at_11.13.24_960.png?t=xoxe-980144714919-1031585465028-1034106672247-1815eabca44f30d1d2d966083f8c8bbb",
                "thumb_960_w": 960,
                "thumb_960_h": 514,
                "thumb_1024": "https:\/\/files.slack.com\/files-tmb\/TUU48M0T1-FV66B9U2X-ddcf9b4534\/screenshot_2020-03-16_at_11.13.24_1024.png?t=xoxe-980144714919-1031585465028-1034106672247-1815eabca44f30d1d2d966083f8c8bbb",
                "thumb_1024_w": 1024,
                "thumb_1024_h": 548,
                "image_exif_rotation": 1,
                "original_w": 2554,
                "original_h": 1368,
                "thumb_tiny": "AwAZADBiOiRpuhRiRnJ+tWoIopYwxiQGmwW0c0CM+c8jjjvVqKNYk2pnHXmlqU7WGfZov+eUdJ9mh\/55R1MWxycAUgcHoQaZIwWsGP8AVJn6UfZoT\/yzUfQVLu9qM+1AFey\/49lx6mp6r2X\/AB6r+P8AOpqAHij8KYOtPoAWkNFIaAP\/2Q==",
                "permalink": "https:\/\/open-covid19.slack.com\/files\/UVA1JS2PR\/FV66B9U2X\/screenshot_2020-03-16_at_11.13.24.png",
                "permalink_public": "https:\/\/slack-files.com\/TUU48M0T1-FV66B9U2X-13d97bf6fe",
                "is_starred": false,
                "has_rich_preview": false
            }
        ],
        "upload": true,
        "blocks": [
            {
                "type": "rich_text",
                "block_id": "KZB",
                "elements": [
                    {
                        "type": "rich_text_section",
                        "elements": [
                            {
                                "type": "text",
                                "text": "Hi "
                            },
                            {
                                "type": "user",
                                "user_id": "U0100LKUPSR"
                            },
                            {
                                "type": "text",
                                "text": ", we have created a coronavirus method development group on "
                            },
                            {
                                "type": "link",
                                "url": "http:\/\/protocols.io",
                                "text": "protocols.io"
                            },
                            {
                                "type": "text",
                                "text": ", please feel free to add this to the discussions space there as someone of the members might be able to help:  "
                            },
                            {
                                "type": "link",
                                "url": "https:\/\/www.protocols.io\/groups\/coronavirus-method-development-community\/discussions"
                            }
                        ]
                    }
                ]
            }
        ],
        "user": "UVA1JS2PR",
        "display_as_bot": false,
        "ts": "1584382522.131700",
        "client_msg_id": "d75f40dd-fe91-46af-bbd2-34933c6e29fc",
        "thread_ts": "1584375801.130200",
        "parent_user_id": "U0100LKUPSR"
    },
    {
        "client_msg_id": "f7914dd3-b496-4490-8a87-a34da8ce529e",
        "type": "message",
        "text": "<@UV20M5HGQ> were you able to give your idea of using mixed primers a try?",
        "user": "UV5CCJ9RC",
        "ts": "1584386439.133100",
        "team": "TUU48M0T1",
        "user_team": "TUU48M0T1",
        "source_team": "TUU48M0T1",
        "user_profile": {
            "avatar_hash": "2c79fe05f7e7",
            "image_72": "https:\/\/avatars.slack-edge.com\/2020-03-10\/992653932501_2c79fe05f7e75be19699_72.png",
            "first_name": "Chris",
            "real_name": "Chris Monaco",
            "display_name": "",
            "team": "TUU48M0T1",
            "name": "cmonaco.hr",
            "is_restricted": false,
            "is_ultra_restricted": false
        },
        "blocks": [
            {
                "type": "rich_text",
                "block_id": "U2H",
                "elements": [
                    {
                        "type": "rich_text_section",
                        "elements": [
                            {
                                "type": "user",
                                "user_id": "UV20M5HGQ"
                            },
                            {
                                "type": "text",
                                "text": " were you able to give your idea of using mixed primers a try?"
                            }
                        ]
                    }
                ]
            }
        ],
        "thread_ts": "1584031031.072800",
        "parent_user_id": "UV7QBRCFN"
    },
    {
        "client_msg_id": "415aea91-740e-477f-927c-8e2e53237894",
        "type": "message",
        "text": "We've been awaiting a positive control to do the pcr test. We're expecting a plasmid to arrive this week and will keep you posted on here as soon as it's done.",
        "user": "UV20M5HGQ",
        "ts": "1584386600.133300",
        "team": "TUU48M0T1",
        "user_team": "TUU48M0T1",
        "source_team": "TUU48M0T1",
        "user_profile": {
            "avatar_hash": "de7ea7b7e14e",
            "image_72": "https:\/\/avatars.slack-edge.com\/2020-03-11\/981865374050_de7ea7b7e14e7b4316b9_72.jpg",
            "first_name": "",
            "real_name": "Vesta Korniakova",
            "display_name": "Vesta Korniakova",
            "team": "TUU48M0T1",
            "name": "riboswitchvesta",
            "is_restricted": false,
            "is_ultra_restricted": false
        },
        "blocks": [
            {
                "type": "rich_text",
                "block_id": "lR\/Hp",
                "elements": [
                    {
                        "type": "rich_text_section",
                        "elements": [
                            {
                                "type": "text",
                                "text": "We've been awaiting a positive control to do the pcr test. We're expecting a plasmid to arrive this week and will keep you posted on here as soon as it's done."
                            }
                        ]
                    }
                ]
            }
        ],
        "thread_ts": "1584031031.072800",
        "parent_user_id": "UV7QBRCFN"
    },
    {
        "client_msg_id": "82220f78-1d45-48ec-943a-fa0c39c8472b",
        "type": "message",
        "text": "I think it might depend on scale. It's definitely not a \"high-throughput\" method, at least in its present incarnation, but seems to be a pretty lowbarrier to entry in terms of equipment needs. I think it's very suitable for small DIY operations.",
        "user": "UV5CCJ9RC",
        "ts": "1584391839.135500",
        "team": "TUU48M0T1",
        "user_team": "TUU48M0T1",
        "source_team": "TUU48M0T1",
        "user_profile": {
            "avatar_hash": "2c79fe05f7e7",
            "image_72": "https:\/\/avatars.slack-edge.com\/2020-03-10\/992653932501_2c79fe05f7e75be19699_72.png",
            "first_name": "Chris",
            "real_name": "Chris Monaco",
            "display_name": "",
            "team": "TUU48M0T1",
            "name": "cmonaco.hr",
            "is_restricted": false,
            "is_ultra_restricted": false
        },
        "edited": {
            "user": "UV5CCJ9RC",
            "ts": "1584394529.000000"
        },
        "blocks": [
            {
                "type": "rich_text",
                "block_id": "593",
                "elements": [
                    {
                        "type": "rich_text_section",
                        "elements": [
                            {
                                "type": "text",
                                "text": "I think it might depend on scale. It's definitely not a \"high-throughput\" method, at least in its present incarnation, but seems to be a pretty lowbarrier to entry in terms of equipment needs. I think it's very suitable for small DIY operations."
                            }
                        ]
                    }
                ]
            }
        ],
        "thread_ts": "1584379058.131400",
        "parent_user_id": "UV7AZH728"
    },
    {
        "client_msg_id": "77373867-0326-409c-af8a-99624a45b5cd",
        "type": "message",
        "text": "Important to note, though, that we don’t yet know how long this immunity will last. As I understand it, the immune response to other coronaviruses varies from the long-term (SARS) to less than a year (the two cold-like coronaviruses)",
        "user": "UUNGFHSV8",
        "ts": "1584392712.136400",
        "team": "TUU48M0T1",
        "user_team": "TUU48M0T1",
        "source_team": "TUU48M0T1",
        "user_profile": {
            "avatar_hash": "1c55ee32397a",
            "image_72": "https:\/\/avatars.slack-edge.com\/2020-03-07\/987349161984_1c55ee32397a85a87ec4_72.png",
            "first_name": "Isaac",
            "real_name": "Isaac Larkin",
            "display_name": "Isaac Larkin",
            "team": "TUU48M0T1",
            "name": "eyesmo",
            "is_restricted": false,
            "is_ultra_restricted": false
        },
        "blocks": [
            {
                "type": "rich_text",
                "block_id": "aq4",
                "elements": [
                    {
                        "type": "rich_text_section",
                        "elements": [
                            {
                                "type": "text",
                                "text": "Important to note, though, that we don’t yet know how long this immunity will last. As I understand it, the immune response to other coronaviruses varies from the long-term (SARS) to less than a year (the two cold-like coronaviruses)"
                            }
                        ]
                    }
                ]
            }
        ],
        "thread_ts": "1584280792.112000",
        "parent_user_id": "UV5CCJ9RC",
        "reactions": [
            {
                "name": "+1",
                "users": [
                    "U01045W0UMV"
                ],
                "count": 1
            }
        ]
    },
    {
        "client_msg_id": "97E5BCE9-35A5-4BFD-B1EE-22D585FCBB96",
        "type": "message",
        "text": "<@UV7AZH728> what do you mean by PR activity?",
        "user": "UUS2G6N6M",
        "ts": "1584395395.137000",
        "team": "TUU48M0T1",
        "user_team": "TUU48M0T1",
        "source_team": "TUU48M0T1",
        "user_profile": {
            "avatar_hash": "c10d653714db",
            "image_72": "https:\/\/avatars.slack-edge.com\/2020-03-14\/989283742883_c10d653714db5ea07cc9_72.png",
            "first_name": "Claire",
            "real_name": "Claire Yang",
            "display_name": "Claire Yang",
            "team": "TUU48M0T1",
            "name": "claire.xl.yang",
            "is_restricted": false,
            "is_ultra_restricted": false
        },
        "blocks": [
            {
                "type": "rich_text",
                "block_id": "yln9R",
                "elements": [
                    {
                        "type": "rich_text_section",
                        "elements": [
                            {
                                "type": "user",
                                "user_id": "UV7AZH728"
                            },
                            {
                                "type": "text",
                                "text": " what do you mean by PR activity?"
                            }
                        ]
                    }
                ]
            }
        ],
        "thread_ts": "1584379058.131400",
        "parent_user_id": "UV7AZH728"
    },
    {
        "client_msg_id": "cd69d431-65ba-434b-bc42-346a11bf7e3b",
        "type": "message",
        "text": "The lateral flow readout is lower throughput, but you can also modify the signal oligonucleotide to give it a fluorescent readout that can be measured in 96 (or even potentially 384) well plates. So the detection method should be scalable",
        "user": "UUNGFHSV8",
        "ts": "1584396474.137200",
        "team": "TUU48M0T1",
        "user_team": "TUU48M0T1",
        "source_team": "TUU48M0T1",
        "user_profile": {
            "avatar_hash": "1c55ee32397a",
            "image_72": "https:\/\/avatars.slack-edge.com\/2020-03-07\/987349161984_1c55ee32397a85a87ec4_72.png",
            "first_name": "Isaac",
            "real_name": "Isaac Larkin",
            "display_name": "Isaac Larkin",
            "team": "TUU48M0T1",
            "name": "eyesmo",
            "is_restricted": false,
            "is_ultra_restricted": false
        },
        "blocks": [
            {
                "type": "rich_text",
                "block_id": "fDm",
                "elements": [
                    {
                        "type": "rich_text_section",
                        "elements": [
                            {
                                "type": "text",
                                "text": "The lateral flow readout is lower throughput, but you can also modify the signal oligonucleotide to give it a fluorescent readout that can be measured in 96 (or even potentially 384) well plates. So the detection method should be scalable"
                            }
                        ]
                    }
                ]
            }
        ],
        "thread_ts": "1584379058.131400",
        "parent_user_id": "UV7AZH728"
    },
    {
        "client_msg_id": "7bf6271a-9134-48c0-9e32-0871372f921b",
        "type": "message",
        "text": "I think scalability depends on whether you can replace the enzymes and the kits with open protocols for enzyme production\/purification and buffer recipes. One valuable thing JOGL Covid-19 could work on is replicating their protocol with homebrew enzymes and buffers",
        "user": "UUNGFHSV8",
        "ts": "1584396601.137400",
        "team": "TUU48M0T1",
        "user_team": "TUU48M0T1",
        "source_team": "TUU48M0T1",
        "user_profile": {
            "avatar_hash": "1c55ee32397a",
            "image_72": "https:\/\/avatars.slack-edge.com\/2020-03-07\/987349161984_1c55ee32397a85a87ec4_72.png",
            "first_name": "Isaac",
            "real_name": "Isaac Larkin",
            "display_name": "Isaac Larkin",
            "team": "TUU48M0T1",
            "name": "eyesmo",
            "is_restricted": false,
            "is_ultra_restricted": false
        },
        "blocks": [
            {
                "type": "rich_text",
                "block_id": "3vWs",
                "elements": [
                    {
                        "type": "rich_text_section",
                        "elements": [
                            {
                                "type": "text",
                                "text": "I think scalability depends on whether you can replace the enzymes and the kits with open protocols for enzyme production\/purification and buffer recipes. One valuable thing JOGL Covid-19 could work on is replicating their protocol with homebrew enzymes and buffers"
                            }
                        ]
                    }
                ]
            }
        ],
        "thread_ts": "1584379058.131400",
        "parent_user_id": "UV7AZH728"
    },
    {
        "client_msg_id": "e785c906-650d-41bd-843c-31aef3a817bd",
        "type": "message",
        "text": "Any thoughts on today’s _Science_ paper? Li _et al_ report epidemiological modelling of the disease spread across China. They estimate that 86% of all infections were undocumented prior to the January travel ban. They report that undocumented infections have a transmission rate of 55% compared to documented infections. However, due to the sheer number of undocumented infections they contributed to 79% of documented infections.\n<https:\/\/science.sciencemag.org\/content\/early\/2020\/03\/13\/science.abb3221>",
        "user": "U01067SK4ES",
        "ts": "1584406203.141900",
        "team": "TUU48M0T1",
        "user_team": "TUU48M0T1",
        "source_team": "TUU48M0T1",
        "user_profile": {
            "avatar_hash": "242818a33c3f",
            "image_72": "https:\/\/avatars.slack-edge.com\/2020-03-16\/1005920303127_242818a33c3f40877e7d_72.jpg",
            "first_name": "",
            "real_name": "Emma Bell",
            "display_name": "Emma Bell",
            "team": "TUU48M0T1",
            "name": "emma.bell",
            "is_restricted": false,
            "is_ultra_restricted": false
        },
        "attachments": [
            {
                "service_name": "Science",
                "title": "Substantial undocumented infection facilitates the rapid dissemination of novel coronavirus (SARS-CoV2)",
                "title_link": "https:\/\/science.sciencemag.org\/content\/early\/2020\/03\/13\/science.abb3221",
                "text": "Estimation of the prevalence and contagiousness of undocumented novel coronavirus (SARS-CoV2) infections is critical for understanding the overall prevalence and pandemic potential of this disease. Here we use observations of reported infection within China, in conjunction with mobility data, a networked dynamic metapopulation model and Bayesian inference, to infer critical epidemiological characteristics associated with SARS-CoV2, including the fraction of undocumented infections and their contagiousness. We estimate 86% of all infections were undocumented (95% CI: [82%–90%]) prior to 23 January 2020 travel restrictions. Per person, the transmission rate of undocumented infections was 55% of documented infections ([46%–62%]), yet, due to their greater numbers, undocumented infections were the infection source for 79% of documented cases. These findings explain the rapid geographic spread of SARS-CoV2 and indicate containment of this virus will be particularly challenging.",
                "fallback": "Science: Substantial undocumented infection facilitates the rapid dissemination of novel coronavirus (SARS-CoV2)",
                "ts": 1584342000,
                "from_url": "https:\/\/science.sciencemag.org\/content\/early\/2020\/03\/13\/science.abb3221",
                "service_icon": "https:\/\/science.sciencemag.org\/sites\/default\/files\/images\/favicon.ico",
                "id": 1,
                "original_url": "https:\/\/science.sciencemag.org\/content\/early\/2020\/03\/13\/science.abb3221"
            }
        ],
        "blocks": [
            {
                "type": "rich_text",
                "block_id": "CMwe",
                "elements": [
                    {
                        "type": "rich_text_section",
                        "elements": [
                            {
                                "type": "text",
                                "text": "Any thoughts on today’s "
                            },
                            {
                                "type": "text",
                                "text": "Science ",
                                "style": {
                                    "italic": true
                                }
                            },
                            {
                                "type": "text",
                                "text": "paper? Li "
                            },
                            {
                                "type": "text",
                                "text": "et al ",
                                "style": {
                                    "italic": true
                                }
                            },
                            {
                                "type": "text",
                                "text": "report epidemiological modelling of the disease spread across China. They estimate that 86% of all infections were undocumented prior to the January travel ban. They report that undocumented infections have a transmission rate of 55% compared to documented infections. However, due to the sheer number of undocumented infections they contributed to 79% of documented infections.\n"
                            },
                            {
                                "type": "link",
                                "url": "https:\/\/science.sciencemag.org\/content\/early\/2020\/03\/13\/science.abb3221"
                            }
                        ]
                    }
                ]
            }
        ],
        "thread_ts": "1584406203.141900",
        "reply_count": 2,
        "reply_users_count": 2,
        "latest_reply": "1584565886.201400",
        "reply_users": [
            "UUNGFHSV8",
            "UVALZTQ58"
        ],
        "replies": [
            {
                "user": "UUNGFHSV8",
                "ts": "1584408393.142100"
            },
            {
                "user": "UVALZTQ58",
                "ts": "1584565886.201400"
            }
        ],
        "subscribed": false
    },
    {
        "client_msg_id": "48c32ea1-f16f-4b20-b395-88b9be0df8d0",
        "type": "message",
        "text": "All the more reason to test everyone possible",
        "user": "UUNGFHSV8",
        "ts": "1584408393.142100",
        "team": "TUU48M0T1",
        "user_team": "TUU48M0T1",
        "source_team": "TUU48M0T1",
        "user_profile": {
            "avatar_hash": "1c55ee32397a",
            "image_72": "https:\/\/avatars.slack-edge.com\/2020-03-07\/987349161984_1c55ee32397a85a87ec4_72.png",
            "first_name": "Isaac",
            "real_name": "Isaac Larkin",
            "display_name": "Isaac Larkin",
            "team": "TUU48M0T1",
            "name": "eyesmo",
            "is_restricted": false,
            "is_ultra_restricted": false
        },
        "blocks": [
            {
                "type": "rich_text",
                "block_id": "T6Q+",
                "elements": [
                    {
                        "type": "rich_text_section",
                        "elements": [
                            {
                                "type": "text",
                                "text": "All the more reason to test everyone possible"
                            }
                        ]
                    }
                ]
            }
        ],
        "thread_ts": "1584406203.141900",
        "parent_user_id": "U01067SK4ES"
    },
    {
        "client_msg_id": "9816f44e-ca12-49cd-8e6e-b149f798042d",
        "type": "message",
        "text": "Can someone send me a link to the seuqences for the Sars-CoV-2?",
        "user": "UUPFF4TC3",
        "ts": "1584422470.142800",
        "team": "TUU48M0T1",
        "user_team": "TUU48M0T1",
        "source_team": "TUU48M0T1",
        "user_profile": {
            "avatar_hash": "g563e1ed9e36",
            "image_72": "https:\/\/secure.gravatar.com\/avatar\/563e1ed9e362af0ce5867baad4d7c568.jpg?s=72&d=https%3A%2F%2Fa.slack-edge.com%2Fdf10d%2Fimg%2Favatars%2Fava_0007-72.png",
            "first_name": "Sophie",
            "real_name": "Sophie Liu",
            "display_name": "Sophie Liu",
            "team": "TUU48M0T1",
            "name": "sophie006liu",
            "is_restricted": false,
            "is_ultra_restricted": false
        },
        "blocks": [
            {
                "type": "rich_text",
                "block_id": "HVp",
                "elements": [
                    {
                        "type": "rich_text_section",
                        "elements": [
                            {
                                "type": "text",
                                "text": "Can someone send me a link to the seuqences for the Sars-CoV-2?"
                            }
                        ]
                    }
                ]
            }
        ],
        "thread_ts": "1584422470.142800",
        "reply_count": 13,
        "reply_users_count": 5,
        "latest_reply": "1584457151.165900",
        "reply_users": [
            "U0101DKUALV",
            "UUPFF4TC3",
            "U0103128G4D",
            "UV02WET96",
            "UV8T52QJ3"
        ],
        "replies": [
            {
                "user": "U0101DKUALV",
                "ts": "1584423133.143100"
            },
            {
                "user": "UUPFF4TC3",
                "ts": "1584423509.143300"
            },
            {
                "user": "UUPFF4TC3",
                "ts": "1584423534.143500"
            },
            {
                "user": "U0103128G4D",
                "ts": "1584425237.143700"
            },
            {
                "user": "U0101DKUALV",
                "ts": "1584425288.143900"
            },
            {
                "user": "U0103128G4D",
                "ts": "1584425332.144100"
            },
            {
                "user": "UUPFF4TC3",
                "ts": "1584427479.144700"
            },
            {
                "user": "UUPFF4TC3",
                "ts": "1584427487.144900"
            },
            {
                "user": "U0103128G4D",
                "ts": "1584428021.145100"
            },
            {
                "user": "U0103128G4D",
                "ts": "1584428034.145300"
            },
            {
                "user": "U0103128G4D",
                "ts": "1584428095.145600"
            },
            {
                "user": "UV02WET96",
                "ts": "1584435297.146300"
            },
            {
                "user": "UV8T52QJ3",
                "ts": "1584457151.165900"
            }
        ],
        "subscribed": false
    },
    {
        "client_msg_id": "1a7af2ae-2604-4ae4-997a-fd72aaabd861",
        "type": "message",
        "text": "There are several sequences. Any one in particular?",
        "user": "U0101DKUALV",
        "ts": "1584423133.143100",
        "team": "TUU48M0T1",
        "user_team": "TUU48M0T1",
        "source_team": "TUU48M0T1",
        "user_profile": {
            "avatar_hash": "gac6154e1c22",
            "image_72": "https:\/\/secure.gravatar.com\/avatar\/ac6154e1c224ad644230148686eca456.jpg?s=72&d=https%3A%2F%2Fa.slack-edge.com%2Fdf10d%2Fimg%2Favatars%2Fava_0024-72.png",
            "first_name": "",
            "real_name": "Pauline Chane",
            "display_name": "Pauline Chane",
            "team": "TUU48M0T1",
            "name": "pauline.chane",
            "is_restricted": false,
            "is_ultra_restricted": false
        },
        "blocks": [
            {
                "type": "rich_text",
                "block_id": "4zI",
                "elements": [
                    {
                        "type": "rich_text_section",
                        "elements": [
                            {
                                "type": "text",
                                "text": "There are several sequences. Any one in particular?"
                            }
                        ]
                    }
                ]
            }
        ],
        "thread_ts": "1584422470.142800",
        "parent_user_id": "UUPFF4TC3"
    },
    {
        "client_msg_id": "a45db9c9-143d-4ade-989b-06fcbc575c89",
        "type": "message",
        "text": "Ummm the ones for the N gene and E gene",
        "user": "UUPFF4TC3",
        "ts": "1584423509.143300",
        "team": "TUU48M0T1",
        "user_team": "TUU48M0T1",
        "source_team": "TUU48M0T1",
        "user_profile": {
            "avatar_hash": "g563e1ed9e36",
            "image_72": "https:\/\/secure.gravatar.com\/avatar\/563e1ed9e362af0ce5867baad4d7c568.jpg?s=72&d=https%3A%2F%2Fa.slack-edge.com%2Fdf10d%2Fimg%2Favatars%2Fava_0007-72.png",
            "first_name": "Sophie",
            "real_name": "Sophie Liu",
            "display_name": "Sophie Liu",
            "team": "TUU48M0T1",
            "name": "sophie006liu",
            "is_restricted": false,
            "is_ultra_restricted": false
        },
        "blocks": [
            {
                "type": "rich_text",
                "block_id": "CxCJh",
                "elements": [
                    {
                        "type": "rich_text_section",
                        "elements": [
                            {
                                "type": "text",
                                "text": "Ummm the ones for the N gene and E gene"
                            }
                        ]
                    }
                ]
            }
        ],
        "thread_ts": "1584422470.142800",
        "parent_user_id": "UUPFF4TC3"
    },
    {
        "client_msg_id": "ddddb680-4ad0-4792-9836-f13c1e71769b",
        "type": "message",
        "text": "I was looking at this one <https:\/\/www.ncbi.nlm.nih.gov\/genbank\/sars-cov-2-seqs\/> and none of them line up with the primers from the mammoth test..",
        "user": "UUPFF4TC3",
        "ts": "1584423534.143500",
        "team": "TUU48M0T1",
        "user_team": "TUU48M0T1",
        "source_team": "TUU48M0T1",
        "user_profile": {
            "avatar_hash": "g563e1ed9e36",
            "image_72": "https:\/\/secure.gravatar.com\/avatar\/563e1ed9e362af0ce5867baad4d7c568.jpg?s=72&d=https%3A%2F%2Fa.slack-edge.com%2Fdf10d%2Fimg%2Favatars%2Fava_0007-72.png",
            "first_name": "Sophie",
            "real_name": "Sophie Liu",
            "display_name": "Sophie Liu",
            "team": "TUU48M0T1",
            "name": "sophie006liu",
            "is_restricted": false,
            "is_ultra_restricted": false
        },
        "blocks": [
            {
                "type": "rich_text",
                "block_id": "rRv",
                "elements": [
                    {
                        "type": "rich_text_section",
                        "elements": [
                            {
                                "type": "text",
                                "text": "I was looking at this one "
                            },
                            {
                                "type": "link",
                                "url": "https:\/\/www.ncbi.nlm.nih.gov\/genbank\/sars-cov-2-seqs\/"
                            },
                            {
                                "type": "text",
                                "text": " and none of them line up with the primers from the mammoth test.."
                            }
                        ]
                    }
                ]
            }
        ],
        "thread_ts": "1584422470.142800",
        "parent_user_id": "UUPFF4TC3"
    },
    {
        "client_msg_id": "2b9bd6e4-0f84-4fb9-b1a2-161d00c79b1b",
        "type": "message",
        "text": "Oh could I also get emailed\/DMed this?",
        "user": "U0103128G4D",
        "ts": "1584425237.143700",
        "team": "TUU48M0T1",
        "user_team": "TUU48M0T1",
        "source_team": "TUU48M0T1",
        "user_profile": {
            "avatar_hash": "g76b7a7fcf75",
            "image_72": "https:\/\/secure.gravatar.com\/avatar\/76b7a7fcf754c895c0bf9763dfdebde4.jpg?s=72&d=https%3A%2F%2Fa.slack-edge.com%2Fdf10d%2Fimg%2Favatars%2Fava_0005-72.png",
            "first_name": "",
            "real_name": "Melody Wu",
            "display_name": "Melody Wu",
            "team": "TUU48M0T1",
            "name": "melody_w",
            "is_restricted": false,
            "is_ultra_restricted": false
        },
        "blocks": [
            {
                "type": "rich_text",
                "block_id": "Aalo",
                "elements": [
                    {
                        "type": "rich_text_section",
                        "elements": [
                            {
                                "type": "text",
                                "text": "Oh could I also get emailed\/DMed this?"
                            }
                        ]
                    }
                ]
            }
        ],
        "thread_ts": "1584422470.142800",
        "parent_user_id": "UUPFF4TC3"
    },
    {
        "client_msg_id": "49b3c4ea-8820-4299-a7d1-86e5cc1f6c1e",
        "type": "message",
        "text": "I would also be interested in this info too, if someone finds it!",
        "user": "U0101DKUALV",
        "ts": "1584425288.143900",
        "team": "TUU48M0T1",
        "user_team": "TUU48M0T1",
        "source_team": "TUU48M0T1",
        "user_profile": {
            "avatar_hash": "gac6154e1c22",
            "image_72": "https:\/\/secure.gravatar.com\/avatar\/ac6154e1c224ad644230148686eca456.jpg?s=72&d=https%3A%2F%2Fa.slack-edge.com%2Fdf10d%2Fimg%2Favatars%2Fava_0024-72.png",
            "first_name": "",
            "real_name": "Pauline Chane",
            "display_name": "Pauline Chane",
            "team": "TUU48M0T1",
            "name": "pauline.chane",
            "is_restricted": false,
            "is_ultra_restricted": false
        },
        "blocks": [
            {
                "type": "rich_text",
                "block_id": "S=Yqq",
                "elements": [
                    {
                        "type": "rich_text_section",
                        "elements": [
                            {
                                "type": "text",
                                "text": "I would also be interested in this info too, if someone finds it!"
                            }
                        ]
                    }
                ]
            }
        ],
        "thread_ts": "1584422470.142800",
        "parent_user_id": "UUPFF4TC3"
    },
    {
        "client_msg_id": "df3c1146-77ee-48b6-8d72-fc4e769e1942",
        "type": "message",
        "text": "<@UUPFF4TC3> — if you could send a pic of why the primers don’t line up, etc. I might be able to help-- are you using Benchling\/another DNA\/sequence analysis tool\/software?",
        "user": "U0103128G4D",
        "ts": "1584425332.144100",
        "team": "TUU48M0T1",
        "user_team": "TUU48M0T1",
        "source_team": "TUU48M0T1",
        "user_profile": {
            "avatar_hash": "g76b7a7fcf75",
            "image_72": "https:\/\/secure.gravatar.com\/avatar\/76b7a7fcf754c895c0bf9763dfdebde4.jpg?s=72&d=https%3A%2F%2Fa.slack-edge.com%2Fdf10d%2Fimg%2Favatars%2Fava_0005-72.png",
            "first_name": "",
            "real_name": "Melody Wu",
            "display_name": "Melody Wu",
            "team": "TUU48M0T1",
            "name": "melody_w",
            "is_restricted": false,
            "is_ultra_restricted": false
        },
        "blocks": [
            {
                "type": "rich_text",
                "block_id": "iNjS",
                "elements": [
                    {
                        "type": "rich_text_section",
                        "elements": [
                            {
                                "type": "user",
                                "user_id": "UUPFF4TC3"
                            },
                            {
                                "type": "text",
                                "text": " — if you could send a pic of why the primers don’t line up, etc. I might be able to help-- are you using Benchling\/another DNA\/sequence analysis tool\/software?"
                            }
                        ]
                    }
                ]
            }
        ],
        "thread_ts": "1584422470.142800",
        "parent_user_id": "UUPFF4TC3"
    },
    {
        "client_msg_id": "213849cf-9a53-48e5-8fba-dc799fcd2c9d",
        "type": "message",
        "text": "hahaha... i'm just using control + F on all the sequences w the primers",
        "user": "UUPFF4TC3",
        "ts": "1584427479.144700",
        "team": "TUU48M0T1",
        "user_team": "TUU48M0T1",
        "source_team": "TUU48M0T1",
        "user_profile": {
            "avatar_hash": "g563e1ed9e36",
            "image_72": "https:\/\/secure.gravatar.com\/avatar\/563e1ed9e362af0ce5867baad4d7c568.jpg?s=72&d=https%3A%2F%2Fa.slack-edge.com%2Fdf10d%2Fimg%2Favatars%2Fava_0007-72.png",
            "first_name": "Sophie",
            "real_name": "Sophie Liu",
            "display_name": "Sophie Liu",
            "team": "TUU48M0T1",
            "name": "sophie006liu",
            "is_restricted": false,
            "is_ultra_restricted": false
        },
        "blocks": [
            {
                "type": "rich_text",
                "block_id": "ILISr",
                "elements": [
                    {
                        "type": "rich_text_section",
                        "elements": [
                            {
                                "type": "text",
                                "text": "hahaha... i'm just using control + F on all the sequences w the primers"
                            }
                        ]
                    }
                ]
            }
        ],
        "thread_ts": "1584422470.142800",
        "parent_user_id": "UUPFF4TC3"
    },
    {
        "client_msg_id": "80bf321f-d552-444f-af64-22e78ca064fb",
        "type": "message",
        "text": "not the most efficient",
        "user": "UUPFF4TC3",
        "ts": "1584427487.144900",
        "team": "TUU48M0T1",
        "user_team": "TUU48M0T1",
        "source_team": "TUU48M0T1",
        "user_profile": {
            "avatar_hash": "g563e1ed9e36",
            "image_72": "https:\/\/secure.gravatar.com\/avatar\/563e1ed9e362af0ce5867baad4d7c568.jpg?s=72&d=https%3A%2F%2Fa.slack-edge.com%2Fdf10d%2Fimg%2Favatars%2Fava_0007-72.png",
            "first_name": "Sophie",
            "real_name": "Sophie Liu",
            "display_name": "Sophie Liu",
            "team": "TUU48M0T1",
            "name": "sophie006liu",
            "is_restricted": false,
            "is_ultra_restricted": false
        },
        "blocks": [
            {
                "type": "rich_text",
                "block_id": "j2LZ",
                "elements": [
                    {
                        "type": "rich_text_section",
                        "elements": [
                            {
                                "type": "text",
                                "text": "not the most efficient"
                            }
                        ]
                    }
                ]
            }
        ],
        "thread_ts": "1584422470.142800",
        "parent_user_id": "UUPFF4TC3"
    },
    {
        "client_msg_id": "592c0a7c-a780-4ff9-9de1-2d6232539974",
        "type": "message",
        "text": "Oh dang. sounds tough. In the Weiss Lab, Geneious is commonly used, sometimes Benchling (bc its free), and SnapGene just sucks. But basically you can copy the sequence you saw and put it in these softwares so it’s easier to find sequences, make annotations, and analyze everything!",
        "user": "U0103128G4D",
        "ts": "1584428021.145100",
        "team": "TUU48M0T1",
        "user_team": "TUU48M0T1",
        "source_team": "TUU48M0T1",
        "user_profile": {
            "avatar_hash": "g76b7a7fcf75",
            "image_72": "https:\/\/secure.gravatar.com\/avatar\/76b7a7fcf754c895c0bf9763dfdebde4.jpg?s=72&d=https%3A%2F%2Fa.slack-edge.com%2Fdf10d%2Fimg%2Favatars%2Fava_0005-72.png",
            "first_name": "",
            "real_name": "Melody Wu",
            "display_name": "Melody Wu",
            "team": "TUU48M0T1",
            "name": "melody_w",
            "is_restricted": false,
            "is_ultra_restricted": false
        },
        "blocks": [
            {
                "type": "rich_text",
                "block_id": "1Aby",
                "elements": [
                    {
                        "type": "rich_text_section",
                        "elements": [
                            {
                                "type": "text",
                                "text": "Oh dang. sounds tough. In the Weiss Lab, Geneious is commonly used, sometimes Benchling (bc its free), and SnapGene just sucks. But basically you can copy the sequence you saw and put it in these softwares so it’s easier to find sequences, make annotations, and analyze everything!"
                            }
                        ]
                    }
                ]
            }
        ],
        "thread_ts": "1584422470.142800",
        "parent_user_id": "UUPFF4TC3"
    },
    {
        "client_msg_id": "9ce0eb25-575b-49b0-8cea-f227516f20b9",
        "type": "message",
        "text": "So like control+F in NCBI?",
        "user": "U0103128G4D",
        "ts": "1584428034.145300",
        "team": "TUU48M0T1",
        "user_team": "TUU48M0T1",
        "source_team": "TUU48M0T1",
        "user_profile": {
            "avatar_hash": "g76b7a7fcf75",
            "image_72": "https:\/\/secure.gravatar.com\/avatar\/76b7a7fcf754c895c0bf9763dfdebde4.jpg?s=72&d=https%3A%2F%2Fa.slack-edge.com%2Fdf10d%2Fimg%2Favatars%2Fava_0005-72.png",
            "first_name": "",
            "real_name": "Melody Wu",
            "display_name": "Melody Wu",
            "team": "TUU48M0T1",
            "name": "melody_w",
            "is_restricted": false,
            "is_ultra_restricted": false
        },
        "edited": {
            "user": "U0103128G4D",
            "ts": "1584428042.000000"
        },
        "blocks": [
            {
                "type": "rich_text",
                "block_id": "LhJ",
                "elements": [
                    {
                        "type": "rich_text_section",
                        "elements": [
                            {
                                "type": "text",
                                "text": "So like control+F in NCBI?"
                            }
                        ]
                    }
                ]
            }
        ],
        "thread_ts": "1584422470.142800",
        "parent_user_id": "UUPFF4TC3"
    },
    {
        "client_msg_id": "634ac4d4-159a-4987-95fe-da21c28c051d",
        "type": "message",
        "text": "Yeah… idk, I think I’ve also heard of PrimerBlast 3 or something like that that sometimes is helpful with creating primers quickly, but honestly doing it yourself from scratch in the software helps you find potential bugs, etc. and get into the mindset too probably of the person making the primers",
        "user": "U0103128G4D",
        "ts": "1584428095.145600",
        "team": "TUU48M0T1",
        "user_team": "TUU48M0T1",
        "source_team": "TUU48M0T1",
        "user_profile": {
            "avatar_hash": "g76b7a7fcf75",
            "image_72": "https:\/\/secure.gravatar.com\/avatar\/76b7a7fcf754c895c0bf9763dfdebde4.jpg?s=72&d=https%3A%2F%2Fa.slack-edge.com%2Fdf10d%2Fimg%2Favatars%2Fava_0005-72.png",
            "first_name": "",
            "real_name": "Melody Wu",
            "display_name": "Melody Wu",
            "team": "TUU48M0T1",
            "name": "melody_w",
            "is_restricted": false,
            "is_ultra_restricted": false
        },
        "blocks": [
            {
                "type": "rich_text",
                "block_id": "rOoA",
                "elements": [
                    {
                        "type": "rich_text_section",
                        "elements": [
                            {
                                "type": "text",
                                "text": "Yeah… idk, I think I’ve also heard of PrimerBlast 3 or something like that that sometimes is helpful with creating primers quickly, but honestly doing it yourself from scratch in the software helps you find potential bugs, etc. and get into the mindset too probably of the person making the primers"
                            }
                        ]
                    }
                ]
            }
        ],
        "thread_ts": "1584422470.142800",
        "parent_user_id": "UUPFF4TC3"
    }
]