[
    {
        "client_msg_id": "ec38853e-de4d-40cb-9a5c-296b6b1a7e9b",
        "type": "message",
        "text": "Hi, just got here. I'll plan to be on the call",
        "user": "U010WBRRQN8",
        "ts": "1585307904.017900",
        "team": "TUU48M0T1",
        "user_team": "TUU48M0T1",
        "source_team": "TUU48M0T1",
        "user_profile": {
            "avatar_hash": "g9045af734f1",
            "image_72": "https:\/\/secure.gravatar.com\/avatar\/9045af734f1fc0816503de1334a9656f.jpg?s=72&d=https%3A%2F%2Fa.slack-edge.com%2Fdf10d%2Fimg%2Favatars%2Fava_0010-72.png",
            "first_name": "",
            "real_name": "Tim Dobbs",
            "display_name": "Tim Dobbs",
            "team": "TUU48M0T1",
            "name": "tim.dobbs",
            "is_restricted": false,
            "is_ultra_restricted": false
        },
        "blocks": [
            {
                "type": "rich_text",
                "block_id": "guTk",
                "elements": [
                    {
                        "type": "rich_text_section",
                        "elements": [
                            {
                                "type": "text",
                                "text": "Hi, just got here. I'll plan to be on the call"
                            }
                        ]
                    }
                ]
            }
        ],
        "thread_ts": "1585216195.002300",
        "parent_user_id": "UV02WET96"
    },
    {
        "client_msg_id": "6fcbc882-6ee1-44a6-8064-82603e38ad77",
        "type": "message",
        "text": "I just committed a first draft of a protocol for running Mammoth Bioscience's protocol on the OT2: <https:\/\/github.com\/tsdobbs\/mammoth-COVID19-assay-OT2>",
        "user": "U010WBRRQN8",
        "ts": "1585307955.018100",
        "team": "TUU48M0T1",
        "user_team": "TUU48M0T1",
        "source_team": "TUU48M0T1",
        "user_profile": {
            "avatar_hash": "g9045af734f1",
            "image_72": "https:\/\/secure.gravatar.com\/avatar\/9045af734f1fc0816503de1334a9656f.jpg?s=72&d=https%3A%2F%2Fa.slack-edge.com%2Fdf10d%2Fimg%2Favatars%2Fava_0010-72.png",
            "first_name": "",
            "real_name": "Tim Dobbs",
            "display_name": "Tim Dobbs",
            "team": "TUU48M0T1",
            "name": "tim.dobbs",
            "is_restricted": false,
            "is_ultra_restricted": false
        },
        "attachments": [
            {
                "fallback": "tsdobbs\/mammoth-COVID19-assay-OT2",
                "text": "An implementation of the Mammoth Biosciences DETECTR assay to detect COVID-19, executed on the Opentrons OT2",
                "title": "tsdobbs\/mammoth-COVID19-assay-OT2",
                "footer": "<https:\/\/github.com\/tsdobbs\/mammoth-COVID19-assay-OT2|tsdobbs\/mammoth-COVID19-assay-OT2>",
                "id": 1,
                "footer_icon": "https:\/\/github.githubassets.com\/favicon.ico",
                "ts": 1585307336,
                "color": "24292f",
                "fields": [
                    {
                        "title": "Language",
                        "value": "Python",
                        "short": true
                    },
                    {
                        "title": "Last updated",
                        "value": "8 minutes ago",
                        "short": true
                    }
                ],
                "mrkdwn_in": [
                    "text",
                    "fields"
                ],
                "bot_id": "BUW789DM0",
                "app_unfurl_url": "https:\/\/github.com\/tsdobbs\/mammoth-COVID19-assay-OT2",
                "is_app_unfurl": true
            }
        ],
        "blocks": [
            {
                "type": "rich_text",
                "block_id": "hI1t",
                "elements": [
                    {
                        "type": "rich_text_section",
                        "elements": [
                            {
                                "type": "text",
                                "text": "I just committed a first draft of a protocol for running Mammoth Bioscience's protocol on the OT2: "
                            },
                            {
                                "type": "link",
                                "url": "https:\/\/github.com\/tsdobbs\/mammoth-COVID19-assay-OT2"
                            }
                        ]
                    }
                ]
            }
        ],
        "thread_ts": "1585216195.002300",
        "parent_user_id": "UV02WET96"
    },
    {
        "client_msg_id": "81cf82fb-9277-4fba-b393-3f361765a748",
        "type": "message",
        "text": "Haven't tested at all",
        "user": "U010WBRRQN8",
        "ts": "1585307963.018400",
        "team": "TUU48M0T1",
        "user_team": "TUU48M0T1",
        "source_team": "TUU48M0T1",
        "user_profile": {
            "avatar_hash": "g9045af734f1",
            "image_72": "https:\/\/secure.gravatar.com\/avatar\/9045af734f1fc0816503de1334a9656f.jpg?s=72&d=https%3A%2F%2Fa.slack-edge.com%2Fdf10d%2Fimg%2Favatars%2Fava_0010-72.png",
            "first_name": "",
            "real_name": "Tim Dobbs",
            "display_name": "Tim Dobbs",
            "team": "TUU48M0T1",
            "name": "tim.dobbs",
            "is_restricted": false,
            "is_ultra_restricted": false
        },
        "blocks": [
            {
                "type": "rich_text",
                "block_id": "c=P",
                "elements": [
                    {
                        "type": "rich_text_section",
                        "elements": [
                            {
                                "type": "text",
                                "text": "Haven't tested at all"
                            }
                        ]
                    }
                ]
            }
        ],
        "thread_ts": "1585216195.002300",
        "parent_user_id": "UV02WET96"
    },
    {
        "client_msg_id": "cafcb6fb-1745-4861-adce-9cf373536348",
        "type": "message",
        "text": "<@UV02WET96> will you be posting a Zoom link in this group for the meeting in half an hour?",
        "user": "UV10KBUQG",
        "ts": "1585315820.018800",
        "team": "TUU48M0T1",
        "user_team": "TUU48M0T1",
        "source_team": "TUU48M0T1",
        "user_profile": {
            "avatar_hash": "2deebbf6be3d",
            "image_72": "https:\/\/avatars.slack-edge.com\/2020-03-06\/976932190641_2deebbf6be3d17141d91_72.jpg",
            "first_name": "Sarah",
            "real_name": "Sarah Blossom Ware",
            "display_name": "Sarah Blossom Ware - Founder of BioBlaze Community Bio Lab and Geneticist",
            "team": "TUU48M0T1",
            "name": "ware.sarah",
            "is_restricted": false,
            "is_ultra_restricted": false
        },
        "blocks": [
            {
                "type": "rich_text",
                "block_id": "=13w",
                "elements": [
                    {
                        "type": "rich_text_section",
                        "elements": [
                            {
                                "type": "user",
                                "user_id": "UV02WET96"
                            },
                            {
                                "type": "text",
                                "text": " will you be posting a Zoom link in this group for the meeting in half an hour?"
                            }
                        ]
                    }
                ]
            }
        ],
        "thread_ts": "1585216195.002300",
        "parent_user_id": "UV02WET96",
        "reactions": [
            {
                "name": "+1",
                "users": [
                    "UV02WET96"
                ],
                "count": 1
            }
        ]
    },
    {
        "client_msg_id": "FFD6B6BC-CBD0-4134-9814-E0DE71B87874",
        "type": "message",
        "text": "Hi everyone, looking forward to our call in 30min\nHere is the link: <https:\/\/zoom.us\/j\/7804345815|https:\/\/zoom.us\/j\/7804345815>\nTalk to you soon\n",
        "user": "UV02WET96",
        "ts": "1585316044.019900",
        "team": "TUU48M0T1",
        "user_team": "TUU48M0T1",
        "source_team": "TUU48M0T1",
        "user_profile": {
            "avatar_hash": "a99c74a194f8",
            "image_72": "https:\/\/avatars.slack-edge.com\/2020-03-07\/975708504851_a99c74a194f86715ca7d_72.png",
            "first_name": "Thomas",
            "real_name": "Thomas Landrain",
            "display_name": "Thomas Landrain - CoFounder\/CEO JOGL",
            "team": "TUU48M0T1",
            "name": "thomas",
            "is_restricted": false,
            "is_ultra_restricted": false
        },
        "blocks": [
            {
                "type": "rich_text",
                "block_id": "G\/lxU",
                "elements": [
                    {
                        "type": "rich_text_section",
                        "elements": [
                            {
                                "type": "text",
                                "text": "Hi everyone, looking forward to our call in 30min\nHere is the link: "
                            },
                            {
                                "type": "link",
                                "url": "https:\/\/zoom.us\/j\/7804345815",
                                "text": "https:\/\/zoom.us\/j\/7804345815"
                            },
                            {
                                "type": "text",
                                "text": "\nTalk to you soon\n"
                            }
                        ]
                    }
                ]
            }
        ],
        "thread_ts": "1585216195.002300",
        "parent_user_id": "UV02WET96",
        "reactions": [
            {
                "name": "heavy_check_mark",
                "users": [
                    "UV10KBUQG",
                    "UV3URUKK5"
                ],
                "count": 2
            }
        ]
    },
    {
        "client_msg_id": "9ddc5cd1-5e4e-4432-8e15-195f1c54aedb",
        "type": "message",
        "text": "i am doing a fast tea and comming",
        "user": "UV3URUKK5",
        "ts": "1585317527.020200",
        "team": "TUU48M0T1",
        "user_team": "TUU48M0T1",
        "source_team": "TUU48M0T1",
        "user_profile": {
            "avatar_hash": "64c99c2ed974",
            "image_72": "https:\/\/avatars.slack-edge.com\/2020-03-15\/1000999702004_64c99c2ed97497e08ca9_72.jpg",
            "first_name": "",
            "real_name": "Francisco Javier Quero",
            "display_name": "Francisco Javier Quero",
            "team": "TUU48M0T1",
            "name": "franxi2953",
            "is_restricted": false,
            "is_ultra_restricted": false
        },
        "blocks": [
            {
                "type": "rich_text",
                "block_id": "6SfX",
                "elements": [
                    {
                        "type": "rich_text_section",
                        "elements": [
                            {
                                "type": "text",
                                "text": "i am doing a fast tea and comming"
                            }
                        ]
                    }
                ]
            }
        ],
        "thread_ts": "1585216195.002300",
        "parent_user_id": "UV02WET96"
    },
    {
        "client_msg_id": "CBC94489-7C74-49E0-A4DA-7AC81F552296",
        "type": "message",
        "text": "<https:\/\/www.medrxiv.org\/content\/10.1101\/2020.03.13.20035618v1|https:\/\/www.medrxiv.org\/content\/10.1101\/2020.03.13.20035618v1>",
        "user": "UUNGFHSV8",
        "ts": "1585319060.020600",
        "team": "TUU48M0T1",
        "user_team": "TUU48M0T1",
        "source_team": "TUU48M0T1",
        "user_profile": {
            "avatar_hash": "1c55ee32397a",
            "image_72": "https:\/\/avatars.slack-edge.com\/2020-03-07\/987349161984_1c55ee32397a85a87ec4_72.png",
            "first_name": "Isaac",
            "real_name": "Isaac Larkin",
            "display_name": "Isaac Larkin",
            "team": "TUU48M0T1",
            "name": "eyesmo",
            "is_restricted": false,
            "is_ultra_restricted": false
        },
        "attachments": [
            {
                "service_name": "medRxiv",
                "title": "Comparative Performance of SARS-CoV-2 Detection Assays using Seven Different Primer\/Probe Sets and One Assay Kit",
                "title_link": "https:\/\/www.medrxiv.org\/content\/10.1101\/2020.03.13.20035618v1",
                "text": "More than 100,000 people worldwide are known to have been infected with SARS-CoV-2 beginning in December 2019. The virus has now spread to over 93 countries including the United States, with the largest cluster of US cases to date in the Seattle metropolitan area in Washington. Given the rapid increase in the number of local cases, the availability of accurate, high-throughput SARS-CoV-2 testing is vital to efforts to manage the current public health crisis. In the course of optimizing SARS-CoV-2 testing performed by the University of Washington Clinical Virology Lab (UW Virology Lab), we tested assays using seven different primer\/probe sets and one assay kit. We found that the most sensitive assays were those the used the E-gene primer\/probe set described by Corman et al. (Eurosurveillance 25(3), 2020, <https:\/\/doi.org\/10.2807\/1560-7917.ES.2020.25.3.2000045>) and the N2 set described by the CDC (Division of Viral Diseases, Centers for Disease Control and Prevention, 2020, <https:\/\/www.cdc.gov\/coronavirus\/2019-ncov\/downloads\/rt-pcr-panel-primer-probes.pdf>). All assays tested were found to be highly specific for SARS-CoV-2, with no cross-reactivity with other respiratory viruses observed in our analyses regardless of the primer\/probe set or kit used. These results will provide invaluable information to other clinical laboratories who are actively developing SARS-CoV-2 testing protocols at a time when increased testing capacity is urgently needed worldwide. ### Competing Interest Statement The authors have declared no competing interest. ### Funding Statement This work was support by the National Institute of Allergy and Infectious Diseases (NIAID) (grant number 5T32AI118690-04 T32 Training Grant to AMC at the Fred Hutchinson Cancer Research Center). ### Author Declarations All relevant ethical guidelines have been followed; any necessary IRB and\/or ethics committee approvals have been obtained and details of the IRB\/oversight body are included in the manuscript. Yes All necessary patient\/participant consent has been obtained and the appropriate institutional forms have been archived. Yes I understand that all clinical trials and any other prospective interventional studies must be registered with an ICMJE-approved registry, such as <http:\/\/ClinicalTrials.gov|ClinicalTrials.gov>. I confirm that any such study reported in the manuscript has been registered and the trial registration ID is provided (note: if posting a prospective study registered retrospectively, please provide a statement in the trial ID field explaining why the study was not registered in advance). Yes I have followed all appropriate research reporting guidelines and uploaded the relevant EQUATOR Network research reporting checklist(s) and other pertinent material as supplementary files, if applicable. Yes Data referred to in the manuscript has been included in the manuscript's tables.",
                "fallback": "medRxiv: Comparative Performance of SARS-CoV-2 Detection Assays using Seven Different Primer\/Probe Sets and One Assay Kit",
                "ts": 1584428400,
                "from_url": "https:\/\/www.medrxiv.org\/content\/10.1101\/2020.03.13.20035618v1",
                "service_icon": "https:\/\/www.medrxiv.org\/sites\/default\/files\/images\/favicon.ico",
                "id": 1,
                "original_url": "https:\/\/www.medrxiv.org\/content\/10.1101\/2020.03.13.20035618v1"
            }
        ],
        "blocks": [
            {
                "type": "rich_text",
                "block_id": "PTHtY",
                "elements": [
                    {
                        "type": "rich_text_section",
                        "elements": [
                            {
                                "type": "link",
                                "url": "https:\/\/www.medrxiv.org\/content\/10.1101\/2020.03.13.20035618v1",
                                "text": "https:\/\/www.medrxiv.org\/content\/10.1101\/2020.03.13.20035618v1"
                            }
                        ]
                    }
                ]
            }
        ]
    },
    {
        "client_msg_id": "8988acad-c6b5-4dbe-9c01-4b2989209a48",
        "type": "message",
        "text": "Where should I put our meeting notes?",
        "user": "UV10KBUQG",
        "ts": "1585323670.021000",
        "team": "TUU48M0T1",
        "user_team": "TUU48M0T1",
        "source_team": "TUU48M0T1",
        "user_profile": {
            "avatar_hash": "2deebbf6be3d",
            "image_72": "https:\/\/avatars.slack-edge.com\/2020-03-06\/976932190641_2deebbf6be3d17141d91_72.jpg",
            "first_name": "Sarah",
            "real_name": "Sarah Blossom Ware",
            "display_name": "Sarah Blossom Ware - Founder of BioBlaze Community Bio Lab and Geneticist",
            "team": "TUU48M0T1",
            "name": "ware.sarah",
            "is_restricted": false,
            "is_ultra_restricted": false
        },
        "blocks": [
            {
                "type": "rich_text",
                "block_id": "Jyq",
                "elements": [
                    {
                        "type": "rich_text_section",
                        "elements": [
                            {
                                "type": "text",
                                "text": "Where should I put our meeting notes?"
                            }
                        ]
                    }
                ]
            }
        ],
        "thread_ts": "1585216195.002300",
        "parent_user_id": "UV02WET96"
    },
    {
        "client_msg_id": "c072a0d7-2eac-4417-a589-06551c95f044",
        "type": "message",
        "text": "in the OpenCovid19 drive - Detect challenge",
        "user": "UV02WET96",
        "ts": "1585331667.021400",
        "team": "TUU48M0T1",
        "user_team": "TUU48M0T1",
        "source_team": "TUU48M0T1",
        "user_profile": {
            "avatar_hash": "a99c74a194f8",
            "image_72": "https:\/\/avatars.slack-edge.com\/2020-03-07\/975708504851_a99c74a194f86715ca7d_72.png",
            "first_name": "Thomas",
            "real_name": "Thomas Landrain",
            "display_name": "Thomas Landrain - CoFounder\/CEO JOGL",
            "team": "TUU48M0T1",
            "name": "thomas",
            "is_restricted": false,
            "is_ultra_restricted": false
        },
        "blocks": [
            {
                "type": "rich_text",
                "block_id": "htb",
                "elements": [
                    {
                        "type": "rich_text_section",
                        "elements": [
                            {
                                "type": "text",
                                "text": "in the OpenCovid19 drive - Detect challenge"
                            }
                        ]
                    }
                ]
            }
        ],
        "thread_ts": "1585216195.002300",
        "parent_user_id": "UV02WET96",
        "reactions": [
            {
                "name": "+1",
                "users": [
                    "UV10KBUQG"
                ],
                "count": 1
            }
        ]
    }
]