[
    {
        "client_msg_id": "718982BC-1415-4031-9DB1-2B32EB16AAC3",
        "type": "message",
        "text": "Empirical tests of multiplexes is always necessary, so when seeing a protocol like this, the primer efficiency has to be assumed... Still, it seems like a third quenched probe is used with Taqman RT-PCR in some other ones, to add specificity for detection (the nuclease is activated to ‘dequench’ the signal once product is made).  One other point: the timing for signal to come up is often a big deal, but this is not mentioned here. ",
        "user": "UV1A22N3W",
        "ts": "1583827171.008100",
        "team": "TUU48M0T1",
        "user_team": "TUU48M0T1",
        "source_team": "TUU48M0T1",
        "user_profile": {
            "avatar_hash": "71f827776ad6",
            "image_72": "https:\/\/avatars.slack-edge.com\/2020-03-09\/988125642964_71f827776ad610af05a2_72.jpg",
            "first_name": "",
            "real_name": "RachelA",
            "display_name": "RachelA",
            "team": "TUU48M0T1",
            "name": "raronoff",
            "is_restricted": false,
            "is_ultra_restricted": false
        },
        "blocks": [
            {
                "type": "rich_text",
                "block_id": "gsMyr",
                "elements": [
                    {
                        "type": "rich_text_section",
                        "elements": [
                            {
                                "type": "text",
                                "text": "Empirical tests of multiplexes is always necessary, so when seeing a protocol like this, the primer efficiency has to be assumed... Still, it seems like a third quenched probe is used with Taqman RT-PCR in some other ones, to add specificity for detection (the nuclease is activated to ‘dequench’ the signal once product is made).  One other point: the timing for signal to come up is often a big deal, but this is not mentioned here. "
                            }
                        ]
                    }
                ]
            }
        ]
    },
    {
        "type": "message",
        "subtype": "channel_join",
        "ts": "1583882915.000200",
        "user": "UV1D9NR1N",
        "text": "<@UV1D9NR1N> has joined the channel"
    }
]