[
    {
        "client_msg_id": "7be931fe-7e23-4659-a914-08bb95a95053",
        "type": "message",
        "text": "any opinions on the new nature report - includes contact residues and much more...  will put in lit review (if not already there)",
        "user": "UV1A22N3W",
        "ts": "1584535908.195300",
        "team": "TUU48M0T1",
        "user_team": "TUU48M0T1",
        "source_team": "TUU48M0T1",
        "user_profile": {
            "avatar_hash": "71f827776ad6",
            "image_72": "https:\/\/avatars.slack-edge.com\/2020-03-09\/988125642964_71f827776ad610af05a2_72.jpg",
            "first_name": "",
            "real_name": "RachelA",
            "display_name": "RachelA",
            "team": "TUU48M0T1",
            "name": "raronoff",
            "is_restricted": false,
            "is_ultra_restricted": false
        },
        "blocks": [
            {
                "type": "rich_text",
                "block_id": "VsM",
                "elements": [
                    {
                        "type": "rich_text_section",
                        "elements": [
                            {
                                "type": "text",
                                "text": "any opinions on the new nature report - includes contact residues and much more...  will put in lit review (if not already there)"
                            }
                        ]
                    }
                ]
            }
        ]
    },
    {
        "client_msg_id": "3b387846-c74a-4c60-84f9-08d27dfcf5d8",
        "type": "message",
        "text": "Yes it will be ready this evening ! I'll comunicate the access as soon as it's live !",
        "user": "U01060RCXJ8",
        "ts": "1584536453.195400",
        "team": "TUU48M0T1",
        "user_team": "TUU48M0T1",
        "source_team": "TUU48M0T1",
        "user_profile": {
            "avatar_hash": "115090137aad",
            "image_72": "https:\/\/avatars.slack-edge.com\/2020-03-17\/1008376451591_115090137aad4168ed28_72.jpg",
            "first_name": "melchior",
            "real_name": "melchior de toldi",
            "display_name": "melchior de toldi",
            "team": "TUU48M0T1",
            "name": "melchior",
            "is_restricted": false,
            "is_ultra_restricted": false
        },
        "blocks": [
            {
                "type": "rich_text",
                "block_id": "INMFv",
                "elements": [
                    {
                        "type": "rich_text_section",
                        "elements": [
                            {
                                "type": "text",
                                "text": "Yes it will be ready this evening ! I'll comunicate the access as soon as it's live !"
                            }
                        ]
                    }
                ]
            }
        ],
        "thread_ts": "1584466690.175300",
        "parent_user_id": "U01060RCXJ8"
    },
    {
        "client_msg_id": "412ff357-c0d2-4e56-b29a-273491d91d2e",
        "type": "message",
        "text": "<@UVBDBRJ8Z> was also interested by data analytics solutions to this crisis",
        "user": "UV6870881",
        "ts": "1584541024.195600",
        "team": "TUU48M0T1",
        "user_team": "TUU48M0T1",
        "source_team": "TUU48M0T1",
        "user_profile": {
            "avatar_hash": "gbbbbcc3accd",
            "image_72": "https:\/\/secure.gravatar.com\/avatar\/bbbbcc3accdddb02dfb1c03a4a65b994.jpg?s=72&d=https%3A%2F%2Fa.slack-edge.com%2Fdf10d%2Fimg%2Favatars%2Fava_0011-72.png",
            "first_name": "Quant",
            "real_name": "Quant",
            "display_name": "",
            "team": "TUU48M0T1",
            "name": "admin",
            "is_restricted": false,
            "is_ultra_restricted": false
        },
        "blocks": [
            {
                "type": "rich_text",
                "block_id": "Y0M",
                "elements": [
                    {
                        "type": "rich_text_section",
                        "elements": [
                            {
                                "type": "user",
                                "user_id": "UVBDBRJ8Z"
                            },
                            {
                                "type": "text",
                                "text": " was also interested by data analytics solutions to this crisis"
                            }
                        ]
                    }
                ]
            }
        ],
        "thread_ts": "1584466690.175300",
        "parent_user_id": "U01060RCXJ8"
    },
    {
        "client_msg_id": "dee1dc49-0ebe-46dc-b72a-8a33dc8452c4",
        "type": "message",
        "text": "We can disseminate any roles within our community.",
        "user": "UVBDBRJ8Z",
        "ts": "1584544404.195800",
        "team": "TUU48M0T1",
        "user_team": "TUU48M0T1",
        "source_team": "TUU48M0T1",
        "user_profile": {
            "avatar_hash": "7e0cba1ff84e",
            "image_72": "https:\/\/avatars.slack-edge.com\/2020-03-17\/1007551076309_7e0cba1ff84e78f65fc3_72.jpg",
            "first_name": "",
            "real_name": "Andy Scarpelli (ChiTownBio)",
            "display_name": "Andy Scarpelli (ChiTownBio)",
            "team": "TUU48M0T1",
            "name": "ahscarpelli",
            "is_restricted": false,
            "is_ultra_restricted": false
        },
        "blocks": [
            {
                "type": "rich_text",
                "block_id": "Yqge",
                "elements": [
                    {
                        "type": "rich_text_section",
                        "elements": [
                            {
                                "type": "text",
                                "text": "We can disseminate any roles within our community."
                            }
                        ]
                    }
                ]
            }
        ],
        "thread_ts": "1584466690.175300",
        "parent_user_id": "U01060RCXJ8"
    },
    {
        "client_msg_id": "7e0d5e6a-ac84-46fe-ace5-ff9ad3415919",
        "type": "message",
        "text": "I have no idea where\/what time zone you guys are in, I'm in Paris so all lockdown and free pretty much anytime, let me know when you guys would like to do it, not sure if people in this or other groups have already ordered primer sets, but might be useful to work with those...",
        "user": "UV7LUJG1Y",
        "ts": "1584555770.196900",
        "team": "TUU48M0T1",
        "user_team": "TUU48M0T1",
        "source_team": "TUU48M0T1",
        "user_profile": {
            "avatar_hash": "gffbc3d06e47",
            "image_72": "https:\/\/secure.gravatar.com\/avatar\/ffbc3d06e47cdf8bd64906bda2ef8c3d.jpg?s=72&d=https%3A%2F%2Fa.slack-edge.com%2Fdf10d%2Fimg%2Favatars%2Fava_0019-72.png",
            "first_name": "",
            "real_name": "Guy Aidelberg",
            "display_name": "Guy Aidelberg",
            "team": "TUU48M0T1",
            "name": "guyaidelberg",
            "is_restricted": false,
            "is_ultra_restricted": false
        },
        "blocks": [
            {
                "type": "rich_text",
                "block_id": "XMDS",
                "elements": [
                    {
                        "type": "rich_text_section",
                        "elements": [
                            {
                                "type": "text",
                                "text": "I have no idea where\/what time zone you guys are in, I'm in Paris so all lockdown and free pretty much anytime, let me know when you guys would like to do it, not sure if people in this or other groups have already ordered primer sets, but might be useful to work with those..."
                            }
                        ]
                    }
                ]
            }
        ],
        "thread_ts": "1584379058.131400",
        "parent_user_id": "UV7AZH728"
    },
    {
        "client_msg_id": "691e8c9c-e484-4f8c-9e34-c068a0815ea1",
        "type": "message",
        "text": "<@UVBDBRJ8Z> do u have access to doctors on the frontline or hospital managers?",
        "user": "UV6870881",
        "ts": "1584555886.197100",
        "team": "TUU48M0T1",
        "user_team": "TUU48M0T1",
        "source_team": "TUU48M0T1",
        "user_profile": {
            "avatar_hash": "gbbbbcc3accd",
            "image_72": "https:\/\/secure.gravatar.com\/avatar\/bbbbcc3accdddb02dfb1c03a4a65b994.jpg?s=72&d=https%3A%2F%2Fa.slack-edge.com%2Fdf10d%2Fimg%2Favatars%2Fava_0011-72.png",
            "first_name": "Quant",
            "real_name": "Quant",
            "display_name": "",
            "team": "TUU48M0T1",
            "name": "admin",
            "is_restricted": false,
            "is_ultra_restricted": false
        },
        "blocks": [
            {
                "type": "rich_text",
                "block_id": "WDC",
                "elements": [
                    {
                        "type": "rich_text_section",
                        "elements": [
                            {
                                "type": "user",
                                "user_id": "UVBDBRJ8Z"
                            },
                            {
                                "type": "text",
                                "text": " do u have access to doctors on the frontline or hospital managers?"
                            }
                        ]
                    }
                ]
            }
        ],
        "thread_ts": "1584466690.175300",
        "parent_user_id": "U01060RCXJ8"
    },
    {
        "client_msg_id": "10528367-5101-4165-8a95-010be79a2bad",
        "type": "message",
        "text": "For me it's the same than you! Still in Madrid closed at home.",
        "user": "UV3URUKK5",
        "ts": "1584561562.197500",
        "team": "TUU48M0T1",
        "user_team": "TUU48M0T1",
        "source_team": "TUU48M0T1",
        "user_profile": {
            "avatar_hash": "64c99c2ed974",
            "image_72": "https:\/\/avatars.slack-edge.com\/2020-03-15\/1000999702004_64c99c2ed97497e08ca9_72.jpg",
            "first_name": "",
            "real_name": "Francisco Javier Quero",
            "display_name": "Francisco Javier Quero",
            "team": "TUU48M0T1",
            "name": "franxi2953",
            "is_restricted": false,
            "is_ultra_restricted": false
        },
        "blocks": [
            {
                "type": "rich_text",
                "block_id": "K44KV",
                "elements": [
                    {
                        "type": "rich_text_section",
                        "elements": [
                            {
                                "type": "text",
                                "text": "For me it's the same than you! Still in Madrid closed at home."
                            }
                        ]
                    }
                ]
            }
        ],
        "thread_ts": "1584379058.131400",
        "parent_user_id": "UV7AZH728"
    },
    {
        "client_msg_id": "e155b5ec-90fe-4425-8218-68a826cc7cdd",
        "type": "message",
        "text": "Hey anyone have any ideas about whether heat release might work for very simple RNA extraction in covid-19? It seems too good to be true. Here it was applied to CHIKV virus before RT-PCR as a replacement for conventional methods of RNA extraction: <https:\/\/www.sciencedirect.com\/science\/article\/abs\/pii\/S0166093404003404> Would love some insight into this.",
        "user": "U0100LKUPSR",
        "ts": "1584564308.200400",
        "team": "TUU48M0T1",
        "user_team": "TUU48M0T1",
        "source_team": "TUU48M0T1",
        "user_profile": {
            "avatar_hash": "ca5f4a765adc",
            "image_72": "https:\/\/avatars.slack-edge.com\/2020-03-14\/1002916890614_ca5f4a765adc40eda476_72.png",
            "first_name": "Sonali",
            "real_name": "Sonali",
            "display_name": "Sonali",
            "team": "TUU48M0T1",
            "name": "uncoolghoul",
            "is_restricted": false,
            "is_ultra_restricted": false
        },
        "edited": {
            "user": "U0100LKUPSR",
            "ts": "1584564703.000000"
        },
        "attachments": [
            {
                "title": "Development of a TaqMan® RT-PCR assay without RNA extraction step for the detection and quantification of African Chikungunya viruses",
                "title_link": "https:\/\/www.sciencedirect.com\/science\/article\/abs\/pii\/S0166093404003404",
                "text": "Chikungunya virus (CHIKV), a member of the alphavirus genus, is of considerable public health concern in Southeast Asian and African countries. Howeve…",
                "fallback": "Development of a TaqMan® RT-PCR assay without RNA extraction step for the detection and quantification of African Chikungunya viruses",
                "from_url": "https:\/\/www.sciencedirect.com\/science\/article\/abs\/pii\/S0166093404003404",
                "thumb_url": "https:\/\/ars.els-cdn.com\/content\/image\/1-s2.0-S0166093405X00131-cov150h.gif",
                "thumb_width": 113,
                "thumb_height": 150,
                "service_icon": "https:\/\/www.sciencedirect.com\/favicon.ico",
                "service_name": "sciencedirect.com",
                "id": 1,
                "original_url": "https:\/\/www.sciencedirect.com\/science\/article\/abs\/pii\/S0166093404003404"
            }
        ],
        "blocks": [
            {
                "type": "rich_text",
                "block_id": "BxN",
                "elements": [
                    {
                        "type": "rich_text_section",
                        "elements": [
                            {
                                "type": "text",
                                "text": "Hey anyone have any ideas about whether heat release might work for very simple RNA extraction in covid-19? It seems too good to be true. Here it was applied to CHIKV virus before RT-PCR as a replacement for conventional methods of RNA extraction: "
                            },
                            {
                                "type": "link",
                                "url": "https:\/\/www.sciencedirect.com\/science\/article\/abs\/pii\/S0166093404003404"
                            },
                            {
                                "type": "text",
                                "text": " Would love some insight into this."
                            }
                        ]
                    }
                ]
            }
        ],
        "thread_ts": "1584564308.200400",
        "reply_count": 7,
        "reply_users_count": 4,
        "latest_reply": "1584711935.226100",
        "reply_users": [
            "U0100LKUPSR",
            "UVALZTQ58",
            "UVBQDE7R8",
            "UV7LUJG1Y"
        ],
        "replies": [
            {
                "user": "U0100LKUPSR",
                "ts": "1584565191.200700"
            },
            {
                "user": "UVALZTQ58",
                "ts": "1584572640.204000"
            },
            {
                "user": "UVALZTQ58",
                "ts": "1584573907.204300"
            },
            {
                "user": "UVBQDE7R8",
                "ts": "1584583699.204800"
            },
            {
                "user": "UVBQDE7R8",
                "ts": "1584584630.205000"
            },
            {
                "user": "UVBQDE7R8",
                "ts": "1584586960.205600"
            },
            {
                "user": "UV7LUJG1Y",
                "ts": "1584711935.226100"
            }
        ],
        "subscribed": false
    },
    {
        "client_msg_id": "466df9a6-9ec3-4d8b-8c63-8859ebbee507",
        "type": "message",
        "text": "Here heat release worked on Norwalk viruses and had similar sensitivity as the standard RNA extraction methods: <https:\/\/jcm.asm.org\/content\/35\/2\/511.short>",
        "user": "U0100LKUPSR",
        "ts": "1584565191.200700",
        "team": "TUU48M0T1",
        "user_team": "TUU48M0T1",
        "source_team": "TUU48M0T1",
        "user_profile": {
            "avatar_hash": "ca5f4a765adc",
            "image_72": "https:\/\/avatars.slack-edge.com\/2020-03-14\/1002916890614_ca5f4a765adc40eda476_72.png",
            "first_name": "Sonali",
            "real_name": "Sonali",
            "display_name": "Sonali",
            "team": "TUU48M0T1",
            "name": "uncoolghoul",
            "is_restricted": false,
            "is_ultra_restricted": false
        },
        "attachments": [
            {
                "service_name": "Journal of Clinical Microbiology",
                "title": "Use of heat release and an internal RNA standard control in reverse transcription-PCR detection of Norwalk virus from stool samples.",
                "title_link": "https:\/\/jcm.asm.org\/content\/35\/2\/511.short",
                "text": "Norwalk virus (NV) and the Norwalk-like viruses are important human pathogens that cause epidemic acute viral gastroenteritis. Current techniques used to recover NV from clinical samples involve multistep viral extraction and elution procedures with subsequent viral detection by reverse transcription-PCR (RT-PCR). In this study, a simple method using heat to recover viral RNA from 45 stool samples was compared to a conventional viral RNA extraction technique, with subsequent analysis by RT-PCR. In addition, we used an internal RNA standard for the detection of inhibitors present in processed samples. Our results indicate that the use of heat to recover NV RNA from stool samples has a sensitivity for the detection of NV RNA that is similar to the more labor-intensive, time-consuming, conventional RNA extraction technique. The use of an RNA internal standard permits the detection of inhibitors present in processed samples, allowing the identification of false negatives. The standard we developed has the advantage of allowing differential detection between wild-type viral RNA and standard using internal oligoprobe hybridization.",
                "fallback": "Journal of Clinical Microbiology: Use of heat release and an internal RNA standard control in reverse transcription-PCR detection of Norwalk virus from stool samples.",
                "image_url": "https:\/\/jcm.asm.org\/sites\/default\/files\/highwire\/jcm\/58\/3.cover-source.jpg",
                "ts": 854784000,
                "from_url": "https:\/\/jcm.asm.org\/content\/35\/2\/511.short",
                "image_width": 189,
                "image_height": 250,
                "image_bytes": 164487,
                "service_icon": "https:\/\/jcm.asm.org\/sites\/default\/files\/images\/favicon.ico",
                "id": 1,
                "original_url": "https:\/\/jcm.asm.org\/content\/35\/2\/511.short"
            }
        ],
        "blocks": [
            {
                "type": "rich_text",
                "block_id": "Kyst",
                "elements": [
                    {
                        "type": "rich_text_section",
                        "elements": [
                            {
                                "type": "text",
                                "text": "Here heat release worked on Norwalk viruses and had similar sensitivity as the standard RNA extraction methods: "
                            },
                            {
                                "type": "link",
                                "url": "https:\/\/jcm.asm.org\/content\/35\/2\/511.short"
                            }
                        ]
                    }
                ]
            }
        ],
        "thread_ts": "1584564308.200400",
        "parent_user_id": "U0100LKUPSR",
        "reactions": [
            {
                "name": "+1",
                "users": [
                    "UV1A22N3W"
                ],
                "count": 1
            }
        ]
    },
    {
        "client_msg_id": "cbb1b4db-b8e4-4365-aa50-b19f941a3e1a",
        "type": "message",
        "text": "There are other publications that hint to a large number of asymptomatic cases:\n• <https:\/\/www.eurosurveillance.org\/content\/10.2807\/1560-7917.ES.2020.25.10.2000180> the diamond princess estimated 18% although they admit it could be higher as they could not test everyone and the population on the ship was old.\n• A study of the initial cluster of UK, France, Spain cases has found the majority of positive test individuals to be asymptomatic <https:\/\/smw.ch\/article\/doi\/smw.2020.20212>\n• This was reported 2 days ago in the italian news, data of a town in Italy, Vo where 3000 people were tested suggests that 50-75% are asymptomatic, now also in the guardian <https:\/\/www.theguardian.com\/world\/2020\/mar\/18\/scientists-say-mass-tests-in-italian-town-have-halted-covid-19>. I did not see a publication yet though.",
        "user": "UVALZTQ58",
        "ts": "1584565886.201400",
        "team": "TUU48M0T1",
        "user_team": "TUU48M0T1",
        "source_team": "TUU48M0T1",
        "user_profile": {
            "avatar_hash": "68ae03dc29bc",
            "image_72": "https:\/\/avatars.slack-edge.com\/2020-03-19\/1000158389970_68ae03dc29bc6cbe2e2c_72.png",
            "first_name": "",
            "real_name": "Larissa de Clauser",
            "display_name": "Larissa de Clauser",
            "team": "TUU48M0T1",
            "name": "larissa.declauser",
            "is_restricted": false,
            "is_ultra_restricted": false
        },
        "edited": {
            "user": "UVALZTQ58",
            "ts": "1584566366.000000"
        },
        "attachments": [
            {
                "title": "Eurosurveillance | Estimating the asymptomatic proportion of coronavirus disease 2019 (COVID-19) cases on board the Diamond Princess cruise ship, Yokohama, Japan, 2020",
                "title_link": "https:\/\/www.eurosurveillance.org\/content\/10.2807\/1560-7917.ES.2020.25.10.2000180",
                "text": "On 5 February 2020, in Yokohama, Japan, a cruise ship hosting 3,711 people underwent a 2-week quarantine after a former passenger was found with COVID-19 post-disembarking. As at 20 February, 634 persons on board tested positive for the causative virus. We conducted statistical modelling to derive the delay-adjusted asymptomatic proportion of infections, along with the infections’ timeline. The estimated asymptomatic proportion was 17.9% (95% credible interval (CrI): 15.5–20.2%). Most infections occurred before the quarantine start.",
                "fallback": "Eurosurveillance | Estimating the asymptomatic proportion of coronavirus disease 2019 (COVID-19) cases on board the Diamond Princess cruise ship, Yokohama, Japan, 2020",
                "from_url": "https:\/\/www.eurosurveillance.org\/content\/10.2807\/1560-7917.ES.2020.25.10.2000180",
                "service_icon": "https:\/\/www.eurosurveillance.org\/images\/instance\/favicon.ico",
                "service_name": "eurosurveillance.org",
                "id": 1,
                "original_url": "https:\/\/www.eurosurveillance.org\/content\/10.2807\/1560-7917.ES.2020.25.10.2000180"
            }
        ],
        "blocks": [
            {
                "type": "rich_text",
                "block_id": "VEb",
                "elements": [
                    {
                        "type": "rich_text_section",
                        "elements": [
                            {
                                "type": "text",
                                "text": "There are other publications that hint to a large number of asymptomatic cases:\n"
                            }
                        ]
                    },
                    {
                        "type": "rich_text_list",
                        "elements": [
                            {
                                "type": "rich_text_section",
                                "elements": [
                                    {
                                        "type": "link",
                                        "url": "https:\/\/www.eurosurveillance.org\/content\/10.2807\/1560-7917.ES.2020.25.10.2000180"
                                    },
                                    {
                                        "type": "text",
                                        "text": " the diamond princess estimated 18% although they admit it could be higher as they could not test everyone and the population on the ship was old."
                                    }
                                ]
                            },
                            {
                                "type": "rich_text_section",
                                "elements": [
                                    {
                                        "type": "text",
                                        "text": "A study of the initial cluster of UK, France, Spain cases has found the majority of positive test individuals to be asymptomatic "
                                    },
                                    {
                                        "type": "link",
                                        "url": "https:\/\/smw.ch\/article\/doi\/smw.2020.20212"
                                    }
                                ]
                            },
                            {
                                "type": "rich_text_section",
                                "elements": [
                                    {
                                        "type": "text",
                                        "text": "This was reported 2 days ago in the italian news, data of a town in Italy, Vo where 3000 people were tested suggests that 50-75% are asymptomatic, now also in the guardian "
                                    },
                                    {
                                        "type": "link",
                                        "url": "https:\/\/www.theguardian.com\/world\/2020\/mar\/18\/scientists-say-mass-tests-in-italian-town-have-halted-covid-19"
                                    },
                                    {
                                        "type": "text",
                                        "text": ". I did not see a publication yet though."
                                    }
                                ]
                            }
                        ],
                        "style": "bullet",
                        "indent": 0
                    }
                ]
            }
        ],
        "thread_ts": "1584406203.141900",
        "parent_user_id": "U01067SK4ES"
    },
    {
        "client_msg_id": "0ba7c34a-b360-4104-ad3f-18d29bd1a14b",
        "type": "message",
        "text": "Would love to join as well, base in Italy - and yes it is serious!",
        "user": "UVALZTQ58",
        "ts": "1584566972.201800",
        "team": "TUU48M0T1",
        "user_team": "TUU48M0T1",
        "source_team": "TUU48M0T1",
        "user_profile": {
            "avatar_hash": "68ae03dc29bc",
            "image_72": "https:\/\/avatars.slack-edge.com\/2020-03-19\/1000158389970_68ae03dc29bc6cbe2e2c_72.png",
            "first_name": "",
            "real_name": "Larissa de Clauser",
            "display_name": "Larissa de Clauser",
            "team": "TUU48M0T1",
            "name": "larissa.declauser",
            "is_restricted": false,
            "is_ultra_restricted": false
        },
        "blocks": [
            {
                "type": "rich_text",
                "block_id": "dDkF7",
                "elements": [
                    {
                        "type": "rich_text_section",
                        "elements": [
                            {
                                "type": "text",
                                "text": "Would love to join as well, base in Italy - and yes it is serious!"
                            }
                        ]
                    }
                ]
            }
        ],
        "thread_ts": "1584379058.131400",
        "parent_user_id": "UV7AZH728"
    },
    {
        "client_msg_id": "1395f3c3-2fe6-4157-bd25-7c292e553db0",
        "type": "message",
        "text": "Hi Sonali,\nI found a few other papers suggesting the same, although the one in the first paper you shared is the only one with an envelope, like coronaviruses. Worth a try I would say.\n• <https:\/\/jvi.asm.org\/content\/84\/9\/4426> poliovirus (ssRNA+, no envelope) heating at 56deg between 4 and 20min leads to RNA release (no RT-PCR done). this paper also suggests that acidification is another way of in vitro viral RNA release (as this replicates the pH in exosomes)\n• rhinovirus (ssRNA+, no envelope) heating at 56deg for 15min, detection of RNA by chip CE <https:\/\/link.springer.com\/article\/10.1007\/s00216-016-9459-2> \n• enterovirus (ssRNA, no envelope) RNA is released in response to heating at 56deg for 20 min starting from the 3' end <https:\/\/journals.plos.org\/plospathogens\/article?id=10.1371\/journal.ppat.1003270>",
        "user": "UVALZTQ58",
        "ts": "1584572640.204000",
        "team": "TUU48M0T1",
        "user_team": "TUU48M0T1",
        "source_team": "TUU48M0T1",
        "user_profile": {
            "avatar_hash": "68ae03dc29bc",
            "image_72": "https:\/\/avatars.slack-edge.com\/2020-03-19\/1000158389970_68ae03dc29bc6cbe2e2c_72.png",
            "first_name": "",
            "real_name": "Larissa de Clauser",
            "display_name": "Larissa de Clauser",
            "team": "TUU48M0T1",
            "name": "larissa.declauser",
            "is_restricted": false,
            "is_ultra_restricted": false
        },
        "attachments": [
            {
                "service_name": "Journal of Virology",
                "title": "Catching a Virus in the Act of RNA Release: a Novel Poliovirus Uncoating Intermediate Characterized by Cryo-Electron Microscopy",
                "title_link": "https:\/\/jvi.asm.org\/content\/84\/9\/4426",
                "text": "Poliovirus infection requires that the particle undergo a series of conformational transitions that lead to cell entry and genome release. In an effort to understand the conformational changes associated with the release of the RNA genome, we have used cryo-electron microscopy to characterize the structure of the 80S “empty” particles of poliovirus that are thought to represent the final product of the cell entry pathway. Using two-dimensional classification methods, we show that preparations of 80S particles contain at least two structures, which might represent snapshots from a continuous series of conformers. Using three-dimensional reconstruction methods, we have solved the structure of two distinct forms at subnanometric resolution, and we have built and refined pseudoatomic models into the reconstructions. The reconstructions and the derived models demonstrate that the two structural forms are both slightly expanded, resulting in partial disruption of interprotomer interfaces near their particle 2-fold axes, which may represent the site where RNA is released. The models demonstrate that each of the two 80S structures has undergone a unique set of movements of the capsid proteins, associated with rearrangement of flexible loops and amino-terminal extensions that participate in contacts between protomers, between pentamers, and with the viral RNA.",
                "fallback": "Journal of Virology: Catching a Virus in the Act of RNA Release: a Novel Poliovirus Uncoating Intermediate Characterized by Cryo-Electron Microscopy",
                "ts": 1272697200,
                "from_url": "https:\/\/jvi.asm.org\/content\/84\/9\/4426",
                "thumb_url": "https:\/\/jvi.asm.org\/sites\/default\/files\/highwire\/jvi\/84\/9.cover.gif",
                "thumb_width": 134,
                "thumb_height": 178,
                "service_icon": "https:\/\/jvi.asm.org\/favicon.ico",
                "id": 1,
                "original_url": "https:\/\/jvi.asm.org\/content\/84\/9\/4426"
            },
            {
                "service_name": "Analytical and Bioanalytical Chemistry",
                "title": "In vitro RNA release from a human rhinovirus monitored by means of a m",
                "title_link": "https:\/\/link.springer.com\/article\/10.1007\/s00216-016-9459-2",
                "text": "Liquid-phase electrophoresis either in the classical capillary format or miniaturized (chip CE) is a valuable tool for quality control of virus preparations and for targeting questions related to conformational changes of viruses during infection. We present an in vitro assay to follow the release of the RNA genome from a human rhinovirus (common cold virus) by using a molecular beacon (MB) and chip CE. The MB, a probe that becomes fluorescent upon hybridization to a complementary sequence, was designed to bind close to the 3′ end of the viral genome. Addition of Trolox (6-hydroxy-2,5,7,8-tetramethylchroman-2-carboxylic acid), a well-known additive for reduction of bleaching and blinking of fluorophores in fluorescence microscopy, to the background electrolyte increased the sensitivity of our chip CE set-up. Hence, a fast, sensitive and straightforward method for the detection of viral RNA is introduced. Additionally, challenges of our assay will be discussed. In particular, we found that (i) desalting of virus preparations prior to analysis increased the recorded signal and (ii) the MB–RNA complex signal decreased with the time of virus storage at −70 °C. This suggests that 3′-proximal sequences of the viral RNA, if not the whole genome, underwent degradation during storage and\/or freezing and thawing. In summary, we demonstrate, for two independent virus batches, that chip electrophoresis can be used to monitor MB hybridization to RNA released upon incubation of the native virus at 56 °C.",
                "fallback": "Analytical and Bioanalytical Chemistry: In vitro RNA release from a human rhinovirus monitored by means of a m",
                "thumb_url": "https:\/\/static-content.springer.com\/cover\/journal\/216\/408\/16.jpg",
                "from_url": "https:\/\/link.springer.com\/article\/10.1007\/s00216-016-9459-2",
                "thumb_width": 153,
                "thumb_height": 203,
                "id": 2,
                "original_url": "https:\/\/link.springer.com\/article\/10.1007\/s00216-016-9459-2"
            },
            {
                "title": "Viral Uncoating Is Directional: Exit of the Genomic RNA in a Common Cold Virus Starts with the Poly-(A) Tail at the 3′-End",
                "title_link": "https:\/\/journals.plos.org\/plospathogens\/article?id=10.1371\/journal.ppat.1003270",
                "text": "Author Summary Viral infection requires safe transfer of the viral genome from within the protective protein shell into the host cell's cytosol. For many viruses this happens after uptake into endosomes, where receptor-binding and\/or the acidic pH trigger conformational modifications or disassembly of the shell, allowing the nucleic acids to escape. For example, common cold viruses are converted into subviral particles still containing the single-stranded positive sense RNA genome; subsequently, the RNA escapes into the cytoplasm, leaving behind empty capsids. We triggered this process by heating HRV2 to 56°C and found that 3′- and 5′-end emerged with different kinetics. Crosslinking prevented complete RNA egress and upon nuclease digestion only sequences derived from the 5′-end were protected. Part of the RNA remaining within the viral shell adopted a rod-like shape pointing towards one of the two-fold axes where the RNA is presumed to exit in single-stranded form. Egress thus commences with the poly-(A) tail and not with the genome-linked peptide VPg. This suggests that assembly and uncoating are well-coordinated to avoid tangling, kinetic traps, and\/or simultaneous exit of the two RNA ends at different sites.",
                "fallback": "Viral Uncoating Is Directional: Exit of the Genomic RNA in a Common Cold Virus Starts with the Poly-(A) Tail at the 3′-End",
                "thumb_url": "https:\/\/journals.plos.org\/plospathogens\/article\/figure\/image?id=10.1371\/journal.ppat.1003270.g009&size=inline",
                "from_url": "https:\/\/journals.plos.org\/plospathogens\/article?id=10.1371\/journal.ppat.1003270",
                "thumb_width": 320,
                "thumb_height": 146,
                "service_icon": "https:\/\/journals.plos.org\/plospathogens\/resource\/img\/favicon.ico",
                "service_name": "journals.plos.org",
                "id": 3,
                "original_url": "https:\/\/journals.plos.org\/plospathogens\/article?id=10.1371\/journal.ppat.1003270"
            }
        ],
        "blocks": [
            {
                "type": "rich_text",
                "block_id": "HAgyH",
                "elements": [
                    {
                        "type": "rich_text_section",
                        "elements": [
                            {
                                "type": "text",
                                "text": "Hi Sonali,\nI found a few other papers suggesting the same, although the one in the first paper you shared is the only one with an envelope, like coronaviruses. Worth a try I would say.\n"
                            }
                        ]
                    },
                    {
                        "type": "rich_text_list",
                        "elements": [
                            {
                                "type": "rich_text_section",
                                "elements": [
                                    {
                                        "type": "link",
                                        "url": "https:\/\/jvi.asm.org\/content\/84\/9\/4426"
                                    },
                                    {
                                        "type": "text",
                                        "text": " poliovirus (ssRNA+, no envelope) heating at 56deg between 4 and 20min leads to RNA release (no RT-PCR done). this paper also suggests that acidification is another way of in vitro viral RNA release (as this replicates the pH in exosomes)"
                                    }
                                ]
                            },
                            {
                                "type": "rich_text_section",
                                "elements": [
                                    {
                                        "type": "text",
                                        "text": "rhinovirus (ssRNA+, no envelope) heating at 56deg for 15min, detection of RNA by chip CE "
                                    },
                                    {
                                        "type": "link",
                                        "url": "https:\/\/link.springer.com\/article\/10.1007\/s00216-016-9459-2"
                                    },
                                    {
                                        "type": "text",
                                        "text": " "
                                    }
                                ]
                            },
                            {
                                "type": "rich_text_section",
                                "elements": [
                                    {
                                        "type": "text",
                                        "text": "enterovirus (ssRNA, no envelope) RNA is released in response to heating at 56deg for 20 min starting from the 3' end "
                                    },
                                    {
                                        "type": "link",
                                        "url": "https:\/\/journals.plos.org\/plospathogens\/article?id=10.1371\/journal.ppat.1003270"
                                    }
                                ]
                            }
                        ],
                        "style": "bullet",
                        "indent": 0
                    }
                ]
            }
        ],
        "thread_ts": "1584564308.200400",
        "parent_user_id": "U0100LKUPSR",
        "reactions": [
            {
                "name": "+1",
                "users": [
                    "UV1A22N3W"
                ],
                "count": 1
            }
        ]
    },
    {
        "client_msg_id": "225e49b0-11e3-4c42-a7ae-64aa202a8fee",
        "type": "message",
        "text": "2 other potential fast methods for RNA isolation:\n• Viral RNA isolation and PCR on a membrane <https:\/\/www.ncbi.nlm.nih.gov\/pmc\/articles\/PMC328510\/> also a study of potato viruses suggests that the RNA on membranes remains stable and can be eluted later for RT-PCR <https:\/\/www.sciencedirect.com\/science\/article\/pii\/S0166093404001867?via%3Dihub>\n• This was designed for field work viral extraction - but not confident it would work as described (lysis with GITC buffer and thats it) <https:\/\/www.ncbi.nlm.nih.gov\/pmc\/articles\/PMC3635480\/> In any case it could be a good way to design the isolation kit.",
        "user": "UVALZTQ58",
        "ts": "1584573907.204300",
        "team": "TUU48M0T1",
        "user_team": "TUU48M0T1",
        "source_team": "TUU48M0T1",
        "user_profile": {
            "avatar_hash": "68ae03dc29bc",
            "image_72": "https:\/\/avatars.slack-edge.com\/2020-03-19\/1000158389970_68ae03dc29bc6cbe2e2c_72.png",
            "first_name": "",
            "real_name": "Larissa de Clauser",
            "display_name": "Larissa de Clauser",
            "team": "TUU48M0T1",
            "name": "larissa.declauser",
            "is_restricted": false,
            "is_ultra_restricted": false
        },
        "attachments": [
            {
                "title": "Evaluation of a simple membrane-based nucleic acid preparation protocol for RT–PCR detection of potato viruses from aphid and plant tissues",
                "title_link": "https:\/\/www.sciencedirect.com\/science\/article\/pii\/S0166093404001867?via%3Dihub",
                "text": "A rapid and simple protocol for preparing viral RNA from aphids (Myzus persicae) and potato (Solanum tuberosum L.) tissue (leaves, sprouts, and tubers…",
                "fallback": "Evaluation of a simple membrane-based nucleic acid preparation protocol for RT–PCR detection of potato viruses from aphid and plant tissues",
                "from_url": "https:\/\/www.sciencedirect.com\/science\/article\/pii\/S0166093404001867?via%3Dihub",
                "thumb_url": "https:\/\/ars.els-cdn.com\/content\/image\/1-s2.0-S0166093400X02789-cov150h.gif",
                "thumb_width": 113,
                "thumb_height": 150,
                "service_icon": "https:\/\/www.sciencedirect.com\/favicon.ico",
                "service_name": "sciencedirect.com",
                "id": 1,
                "original_url": "https:\/\/www.sciencedirect.com\/science\/article\/pii\/S0166093404001867?via%3Dihub"
            },
            {
                "service_name": "PubMed Central (PMC)",
                "title": "Viral RNA extraction for in-the-field analysis",
                "title_link": "https:\/\/www.ncbi.nlm.nih.gov\/pmc\/articles\/PMC3635480\/",
                "text": "Retroviruses encode their genetic information with RNA molecules, and have a high genomic recombination rate which allows them to mutate more rapidly, thereby posting a higher risk to humans. One important way to help combat a pandemic of viral infectious ...",
                "fallback": "PubMed Central (PMC): Viral RNA extraction for in-the-field analysis",
                "thumb_url": "https:\/\/www.ncbi.nlm.nih.gov\/corehtml\/pmc\/pmcgifs\/pmc-logo-share.png",
                "from_url": "https:\/\/www.ncbi.nlm.nih.gov\/pmc\/articles\/PMC3635480\/",
                "thumb_width": 1200,
                "thumb_height": 630,
                "service_icon": "http:\/\/www.ncbi.nlm.nih.gov\/favicon.ico",
                "id": 2,
                "original_url": "https:\/\/www.ncbi.nlm.nih.gov\/pmc\/articles\/PMC3635480\/"
            }
        ],
        "blocks": [
            {
                "type": "rich_text",
                "block_id": "DMC",
                "elements": [
                    {
                        "type": "rich_text_section",
                        "elements": [
                            {
                                "type": "text",
                                "text": "2 other potential fast methods for RNA isolation:\n"
                            }
                        ]
                    },
                    {
                        "type": "rich_text_list",
                        "elements": [
                            {
                                "type": "rich_text_section",
                                "elements": [
                                    {
                                        "type": "text",
                                        "text": "Viral RNA isolation and PCR on a membrane "
                                    },
                                    {
                                        "type": "link",
                                        "url": "https:\/\/www.ncbi.nlm.nih.gov\/pmc\/articles\/PMC328510\/"
                                    },
                                    {
                                        "type": "text",
                                        "text": " also a study of potato viruses suggests that the RNA on membranes remains stable and can be eluted later for RT-PCR "
                                    },
                                    {
                                        "type": "link",
                                        "url": "https:\/\/www.sciencedirect.com\/science\/article\/pii\/S0166093404001867?via%3Dihub"
                                    }
                                ]
                            },
                            {
                                "type": "rich_text_section",
                                "elements": [
                                    {
                                        "type": "text",
                                        "text": "This was designed for field work viral extraction - but not confident it would work as described (lysis with GITC buffer and thats it) "
                                    },
                                    {
                                        "type": "link",
                                        "url": "https:\/\/www.ncbi.nlm.nih.gov\/pmc\/articles\/PMC3635480\/"
                                    },
                                    {
                                        "type": "text",
                                        "text": " In any case it could be a good way to design the isolation kit."
                                    }
                                ]
                            }
                        ],
                        "style": "bullet",
                        "indent": 0
                    }
                ]
            }
        ],
        "thread_ts": "1584564308.200400",
        "parent_user_id": "U0100LKUPSR",
        "reactions": [
            {
                "name": "+1",
                "users": [
                    "UV1A22N3W"
                ],
                "count": 1
            }
        ]
    },
    {
        "client_msg_id": "679d903f-81ec-4e7d-8eb6-f07e7eef6a0b",
        "type": "message",
        "text": "( Hi I just joined and searched for \"RNA extraction\". Please let me know if I can contribute in a better way. )\nThis concept makes complete sense - it's colony PCR. For ecoli you just add it to the reaction, for yeast you have to digest a cell wall first.\nOne wrinkle is that heat + metals like magnesium hydrolyzes RNA, but it seems like in the above papers they're still able to get results - should be tested.",
        "user": "UVBQDE7R8",
        "ts": "1584583699.204800",
        "team": "TUU48M0T1",
        "user_team": "TUU48M0T1",
        "source_team": "TUU48M0T1",
        "user_profile": {
            "avatar_hash": "gb77d2e5c821",
            "image_72": "https:\/\/secure.gravatar.com\/avatar\/b77d2e5c8214c9643410000e998ef9f4.jpg?s=72&d=https%3A%2F%2Fa.slack-edge.com%2Fdf10d%2Fimg%2Favatars%2Fava_0018-72.png",
            "first_name": "",
            "real_name": "Darach",
            "display_name": "Darach",
            "team": "TUU48M0T1",
            "name": "dchmiller",
            "is_restricted": false,
            "is_ultra_restricted": false
        },
        "blocks": [
            {
                "type": "rich_text",
                "block_id": "Q0J",
                "elements": [
                    {
                        "type": "rich_text_section",
                        "elements": [
                            {
                                "type": "text",
                                "text": "( Hi I just joined and searched for \"RNA extraction\". Please let me know if I can contribute in a better way. )\nThis concept makes complete sense - it's colony PCR. For ecoli you just add it to the reaction, for yeast you have to digest a cell wall first.\nOne wrinkle is that heat + metals like magnesium hydrolyzes RNA, but it seems like in the above papers they're still able to get results - should be tested."
                            }
                        ]
                    }
                ]
            }
        ],
        "thread_ts": "1584564308.200400",
        "parent_user_id": "U0100LKUPSR"
    },
    {
        "client_msg_id": "f43598ac-ada4-49fe-9e15-60e44319eb95",
        "type": "message",
        "text": "That CHIKV paper looks legit. Someone should really try that with resuspended swab. It might just be that simple (no extraction!), but I do wonder if nose mucus and inconsistencies between samples could hamper the reaction. If human cells also get lysed during RT, then If someone is snorting EDTA the positive controls should catch a failed reaction. Maybe a two-step procedure (screen without extract, extract the rest of the sample for the failed reactions) would be best?",
        "user": "UVBQDE7R8",
        "ts": "1584584630.205000",
        "team": "TUU48M0T1",
        "user_team": "TUU48M0T1",
        "source_team": "TUU48M0T1",
        "user_profile": {
            "avatar_hash": "gb77d2e5c821",
            "image_72": "https:\/\/secure.gravatar.com\/avatar\/b77d2e5c8214c9643410000e998ef9f4.jpg?s=72&d=https%3A%2F%2Fa.slack-edge.com%2Fdf10d%2Fimg%2Favatars%2Fava_0018-72.png",
            "first_name": "",
            "real_name": "Darach",
            "display_name": "Darach",
            "team": "TUU48M0T1",
            "name": "dchmiller",
            "is_restricted": false,
            "is_ultra_restricted": false
        },
        "edited": {
            "user": "UVBQDE7R8",
            "ts": "1584585047.000000"
        },
        "blocks": [
            {
                "type": "rich_text",
                "block_id": "Mdj",
                "elements": [
                    {
                        "type": "rich_text_section",
                        "elements": [
                            {
                                "type": "text",
                                "text": "That CHIKV paper looks legit. Someone should really try that with resuspended swab. It might just be that simple (no extraction!), but I do wonder if nose mucus and inconsistencies between samples could hamper the reaction. If human cells also get lysed during RT, then If someone is snorting EDTA the positive controls should catch a failed reaction. Maybe a two-step procedure (screen without extract, extract the rest of the sample for the failed reactions) would be best?"
                            }
                        ]
                    }
                ]
            }
        ],
        "thread_ts": "1584564308.200400",
        "parent_user_id": "U0100LKUPSR"
    },
    {
        "client_msg_id": "f7da63ca-237d-45a1-911b-9bc448bab801",
        "type": "message",
        "text": "What do y'all plan to do with this idea next? Know anyone with the ability to test it?",
        "user": "UVBQDE7R8",
        "ts": "1584586960.205600",
        "team": "TUU48M0T1",
        "user_team": "TUU48M0T1",
        "source_team": "TUU48M0T1",
        "user_profile": {
            "avatar_hash": "gb77d2e5c821",
            "image_72": "https:\/\/secure.gravatar.com\/avatar\/b77d2e5c8214c9643410000e998ef9f4.jpg?s=72&d=https%3A%2F%2Fa.slack-edge.com%2Fdf10d%2Fimg%2Favatars%2Fava_0018-72.png",
            "first_name": "",
            "real_name": "Darach",
            "display_name": "Darach",
            "team": "TUU48M0T1",
            "name": "dchmiller",
            "is_restricted": false,
            "is_ultra_restricted": false
        },
        "blocks": [
            {
                "type": "rich_text",
                "block_id": "2wW\/J",
                "elements": [
                    {
                        "type": "rich_text_section",
                        "elements": [
                            {
                                "type": "text",
                                "text": "What do y'all plan to do with this idea next? Know anyone with the ability to test it?"
                            }
                        ]
                    }
                ]
            }
        ],
        "thread_ts": "1584564308.200400",
        "parent_user_id": "U0100LKUPSR"
    }
]