[
    {
        "client_msg_id": "DABE4596-8D06-44B6-82F8-6461897E5DD7",
        "type": "message",
        "text": "I think someone asked about reinfection. Looks like there’s evidence to suggest it won’t happen: <https:\/\/www.biorxiv.org\/content\/10.1101\/2020.03.13.990226v1|https:\/\/www.biorxiv.org\/content\/10.1101\/2020.03.13.990226v1>",
        "user": "UV5CCJ9RC",
        "ts": "1584280792.112000",
        "team": "TUU48M0T1",
        "user_team": "TUU48M0T1",
        "source_team": "TUU48M0T1",
        "user_profile": {
            "avatar_hash": "2c79fe05f7e7",
            "image_72": "https:\/\/avatars.slack-edge.com\/2020-03-10\/992653932501_2c79fe05f7e75be19699_72.png",
            "first_name": "Chris",
            "real_name": "Chris Monaco",
            "display_name": "",
            "team": "TUU48M0T1",
            "name": "cmonaco.hr",
            "is_restricted": false,
            "is_ultra_restricted": false
        },
        "attachments": [
            {
                "service_name": "bioRxiv",
                "title": "Reinfection could not occur in SARS-CoV-2 infected rhesus macaques",
                "title_link": "https:\/\/www.biorxiv.org\/content\/10.1101\/2020.03.13.990226v1",
                "text": "An outbreak of the Corona Virus Disease 2019 (COVID-19), caused by the severe acute respiratory syndrome CoV-2 (SARS-CoV-2), began in Wuhan and spread globally. Recently, it has been reported that discharged patients in China and elsewhere were testing positive after recovering. However, it remains unclear whether the convalescing patients have a risk of \"relapse\" or \"reinfection\". The longitudinal tracking of re-exposure after the disappeared symptoms of the SARS-CoV-2-infected monkeys was performed in this study. We found that weight loss in some monkeys, viral replication mainly in nose, pharynx, lung and gut, as well as moderate interstitial pneumonia at 7 days post-infection (dpi) were clearly observed in rhesus monkeys after the primary infection. After the symptoms were alleviated and the specific antibody tested positively, the half of infected monkeys were rechallenged with the same dose of SARS-CoV-2 strain. Notably, neither viral loads in nasopharyngeal and anal swabs along timeline nor viral replication in all primary tissue compartments at 5 days post-reinfection (dpr) was found in re-exposed monkeys. Combined with the follow-up virologic, radiological and pathological findings, the monkeys with re-exposure showed no recurrence of COVID-19, similarly to the infected monkey without rechallenge. Taken together, our results indicated that the primary SARS-CoV-2 infection could protect from subsequent exposures, which have the reference of prognosis of the disease and vital implications for vaccine design.",
                "fallback": "bioRxiv: Reinfection could not occur in SARS-CoV-2 infected rhesus macaques",
                "thumb_url": "https:\/\/www.biorxiv.org\/sites\/default\/files\/images\/biorxiv_logo_homepage7-5-small.png",
                "ts": 1584169200,
                "from_url": "https:\/\/www.biorxiv.org\/content\/10.1101\/2020.03.13.990226v1",
                "thumb_width": 252,
                "thumb_height": 252,
                "service_icon": "https:\/\/www.biorxiv.org\/sites\/default\/files\/images\/favicon.ico",
                "id": 1,
                "original_url": "https:\/\/www.biorxiv.org\/content\/10.1101\/2020.03.13.990226v1"
            }
        ],
        "blocks": [
            {
                "type": "rich_text",
                "block_id": "xIu",
                "elements": [
                    {
                        "type": "rich_text_section",
                        "elements": [
                            {
                                "type": "text",
                                "text": "I think someone asked about reinfection. Looks like there’s evidence to suggest it won’t happen: "
                            },
                            {
                                "type": "link",
                                "url": "https:\/\/www.biorxiv.org\/content\/10.1101\/2020.03.13.990226v1",
                                "text": "https:\/\/www.biorxiv.org\/content\/10.1101\/2020.03.13.990226v1"
                            }
                        ]
                    }
                ]
            }
        ],
        "thread_ts": "1584280792.112000",
        "reply_count": 1,
        "reply_users_count": 1,
        "latest_reply": "1584392712.136400",
        "reply_users": [
            "UUNGFHSV8"
        ],
        "replies": [
            {
                "user": "UUNGFHSV8",
                "ts": "1584392712.136400"
            }
        ],
        "subscribed": false,
        "reactions": [
            {
                "name": "+1",
                "users": [
                    "UV8T52QJ3",
                    "U0103128G4D"
                ],
                "count": 2
            }
        ]
    },
    {
        "client_msg_id": "e995aec1-4ce5-431a-87a0-fc6de2b06733",
        "type": "message",
        "text": "Hello. Is there any paper which lists open questions about SARS-CoV-2?",
        "user": "UV8T52QJ3",
        "ts": "1584293150.118100",
        "team": "TUU48M0T1",
        "user_team": "TUU48M0T1",
        "source_team": "TUU48M0T1",
        "user_profile": {
            "avatar_hash": "g96f14063d73",
            "image_72": "https:\/\/secure.gravatar.com\/avatar\/96f14063d73cc7867772731f881de414.jpg?s=72&d=https%3A%2F%2Fa.slack-edge.com%2Fdf10d%2Fimg%2Favatars%2Fava_0005-72.png",
            "first_name": "Hernán",
            "real_name": "Hernán Morales Durand",
            "display_name": "Hernán Morales Durand",
            "team": "TUU48M0T1",
            "name": "hernan.morales",
            "is_restricted": false,
            "is_ultra_restricted": false
        },
        "blocks": [
            {
                "type": "rich_text",
                "block_id": "\/FM",
                "elements": [
                    {
                        "type": "rich_text_section",
                        "elements": [
                            {
                                "type": "text",
                                "text": "Hello. Is there any paper which lists open questions about SARS-CoV-2?"
                            }
                        ]
                    }
                ]
            }
        ]
    },
    {
        "client_msg_id": "787e1d89-a6d7-4126-b4ba-7a1b7f6dcf3e",
        "type": "message",
        "text": "Report of a humanized monoclonal antibody that both binds to and neutralizes SARS-CoV-2 <https:\/\/www.biorxiv.org\/content\/10.1101\/2020.03.11.987958v1.full>",
        "user": "UUNGFHSV8",
        "ts": "1584317846.120000",
        "team": "TUU48M0T1",
        "user_team": "TUU48M0T1",
        "source_team": "TUU48M0T1",
        "user_profile": {
            "avatar_hash": "1c55ee32397a",
            "image_72": "https:\/\/avatars.slack-edge.com\/2020-03-07\/987349161984_1c55ee32397a85a87ec4_72.png",
            "first_name": "Isaac",
            "real_name": "Isaac Larkin",
            "display_name": "Isaac Larkin",
            "team": "TUU48M0T1",
            "name": "eyesmo",
            "is_restricted": false,
            "is_ultra_restricted": false
        },
        "attachments": [
            {
                "service_name": "bioRxiv",
                "title": "A human monoclonal antibody blocking SARS-CoV-2 infection",
                "title_link": "https:\/\/www.biorxiv.org\/content\/10.1101\/2020.03.11.987958v1.full",
                "text": "The emergence of the novel human coronavirus SARS-CoV-2 in Wuhan, China has caused a worldwide epidemic of respiratory disease (COVID-19). Vaccines and targeted therapeutics for treatment of this disease are currently lacking. Here we report a human monoclonal antibody that neutralizes SARS-CoV-2 (and SARS-CoV). This cross-neutralizing antibody targets a communal epitope on these viruses and offers potential for prevention and treatment of COVID-19.",
                "fallback": "bioRxiv: A human monoclonal antibody blocking SARS-CoV-2 infection",
                "thumb_url": "https:\/\/www.biorxiv.org\/sites\/default\/files\/images\/biorxiv_logo_homepage7-5-small.png",
                "ts": 1583996400,
                "from_url": "https:\/\/www.biorxiv.org\/content\/10.1101\/2020.03.11.987958v1.full",
                "thumb_width": 252,
                "thumb_height": 252,
                "service_icon": "https:\/\/www.biorxiv.org\/sites\/default\/files\/images\/favicon.ico",
                "id": 1,
                "original_url": "https:\/\/www.biorxiv.org\/content\/10.1101\/2020.03.11.987958v1.full"
            }
        ],
        "blocks": [
            {
                "type": "rich_text",
                "block_id": "7gaQ",
                "elements": [
                    {
                        "type": "rich_text_section",
                        "elements": [
                            {
                                "type": "text",
                                "text": "Report of a humanized monoclonal antibody that both binds to and neutralizes SARS-CoV-2 "
                            },
                            {
                                "type": "link",
                                "url": "https:\/\/www.biorxiv.org\/content\/10.1101\/2020.03.11.987958v1.full"
                            }
                        ]
                    }
                ]
            }
        ]
    },
    {
        "client_msg_id": "edefbf49-fcad-4acc-aad8-14e12c47c924",
        "type": "message",
        "text": "Were you thinking of a cell free reporter system with a toehold switch? Or what did you have in mind?",
        "user": "UV20M5HGQ",
        "ts": "1584328587.120200",
        "team": "TUU48M0T1",
        "user_team": "TUU48M0T1",
        "source_team": "TUU48M0T1",
        "user_profile": {
            "avatar_hash": "de7ea7b7e14e",
            "image_72": "https:\/\/avatars.slack-edge.com\/2020-03-11\/981865374050_de7ea7b7e14e7b4316b9_72.jpg",
            "first_name": "",
            "real_name": "Vesta Korniakova",
            "display_name": "Vesta Korniakova",
            "team": "TUU48M0T1",
            "name": "riboswitchvesta",
            "is_restricted": false,
            "is_ultra_restricted": false
        },
        "blocks": [
            {
                "type": "rich_text",
                "block_id": "iFtwV",
                "elements": [
                    {
                        "type": "rich_text_section",
                        "elements": [
                            {
                                "type": "text",
                                "text": "Were you thinking of a cell free reporter system with a toehold switch? Or what did you have in mind?"
                            }
                        ]
                    }
                ]
            }
        ],
        "thread_ts": "1584134621.096000",
        "parent_user_id": "UUPFF4TC3"
    }
]