[
    {
        "client_msg_id": "21a9c3db-2195-4de8-8d99-c7cb9970465f",
        "type": "message",
        "text": "<@U010D9EGSTH> yes very interesting. However, many already know my aversion to LAMP! I think if the protocol could be deployable reliably let's get on it.",
        "user": "UV7AZH728",
        "ts": "1584704980.225500",
        "team": "TUU48M0T1",
        "user_team": "TUU48M0T1",
        "source_team": "TUU48M0T1",
        "user_profile": {
            "avatar_hash": "g3a93d1b5438",
            "image_72": "https:\/\/secure.gravatar.com\/avatar\/3a93d1b54386d7d5f4abceccfd7414e5.jpg?s=72&d=https%3A%2F%2Fa.slack-edge.com%2Fdf10d%2Fimg%2Favatars%2Fava_0013-72.png",
            "first_name": "",
            "real_name": "Tom Meany",
            "display_name": "Tom Meany",
            "team": "TUU48M0T1",
            "name": "covid19",
            "is_restricted": false,
            "is_ultra_restricted": false
        },
        "blocks": [
            {
                "type": "rich_text",
                "block_id": "tOU",
                "elements": [
                    {
                        "type": "rich_text_section",
                        "elements": [
                            {
                                "type": "user",
                                "user_id": "U010D9EGSTH"
                            },
                            {
                                "type": "text",
                                "text": " yes very interesting. However, many already know my aversion to LAMP! I think if the protocol could be deployable reliably let's get on it."
                            }
                        ]
                    }
                ]
            }
        ]
    },
    {
        "client_msg_id": "9417280d-957f-48a3-a6d5-eab735f0a698",
        "type": "message",
        "text": "<https:\/\/www.opencell.bio\/news\/covid-testing-update>",
        "user": "UV7AZH728",
        "ts": "1584704981.225700",
        "team": "TUU48M0T1",
        "user_team": "TUU48M0T1",
        "source_team": "TUU48M0T1",
        "user_profile": {
            "avatar_hash": "g3a93d1b5438",
            "image_72": "https:\/\/secure.gravatar.com\/avatar\/3a93d1b54386d7d5f4abceccfd7414e5.jpg?s=72&d=https%3A%2F%2Fa.slack-edge.com%2Fdf10d%2Fimg%2Favatars%2Fava_0013-72.png",
            "first_name": "",
            "real_name": "Tom Meany",
            "display_name": "Tom Meany",
            "team": "TUU48M0T1",
            "name": "covid19",
            "is_restricted": false,
            "is_ultra_restricted": false
        },
        "attachments": [
            {
                "title": "COVID testing UPDATE",
                "title_link": "https:\/\/www.opencell.bio\/news\/covid-testing-update",
                "text": "Testing saves lives. Every person caring for a vulnerable individual needs daily testing. Every hero working at the front lines in hospitals needs daily testing. Every bus driver, postal worker, and shop keeper who takes risks to keep our society going needs daily testing. This is a once in a century pandemic and we need action. We need to urge policy makers in the UK and elsewhere to permit “emergency use authorisation” guidelines so that we can lower the strict standards currently required and accelerate test deployment. There are four main options for testing",
                "fallback": "COVID testing UPDATE",
                "thumb_url": "https:\/\/uploads-ssl.webflow.com\/5beda5254920653278723f22\/5e74a8d431a71385abb6718a_Screen%20Shot%202020-03-20%20at%2011.27.41.png",
                "from_url": "https:\/\/www.opencell.bio\/news\/covid-testing-update",
                "thumb_width": 2500,
                "thumb_height": 1440,
                "service_name": "opencell.bio",
                "id": 1,
                "original_url": "https:\/\/www.opencell.bio\/news\/covid-testing-update"
            }
        ],
        "blocks": [
            {
                "type": "rich_text",
                "block_id": "7b7HB",
                "elements": [
                    {
                        "type": "rich_text_section",
                        "elements": [
                            {
                                "type": "link",
                                "url": "https:\/\/www.opencell.bio\/news\/covid-testing-update"
                            }
                        ]
                    }
                ]
            }
        ]
    },
    {
        "client_msg_id": "0e11c000-b327-4773-a5a1-ce9a4ecdecae",
        "type": "message",
        "text": "I think the problem with all these is the amount of RNases in the mucus, which are very stable and fast, at the least you would need some proteinase K,I know from work at Pasteur that was the only thing that kinda worked realative to all these fast extraction protocols, and even then it was at least an order of magnitudte less sensitive than commercial sample prep on ZIKV\/CHIKV from saliva\/plasma samples",
        "user": "UV7LUJG1Y",
        "ts": "1584711935.226100",
        "team": "TUU48M0T1",
        "user_team": "TUU48M0T1",
        "source_team": "TUU48M0T1",
        "user_profile": {
            "avatar_hash": "gffbc3d06e47",
            "image_72": "https:\/\/secure.gravatar.com\/avatar\/ffbc3d06e47cdf8bd64906bda2ef8c3d.jpg?s=72&d=https%3A%2F%2Fa.slack-edge.com%2Fdf10d%2Fimg%2Favatars%2Fava_0019-72.png",
            "first_name": "",
            "real_name": "Guy Aidelberg",
            "display_name": "Guy Aidelberg",
            "team": "TUU48M0T1",
            "name": "guyaidelberg",
            "is_restricted": false,
            "is_ultra_restricted": false
        },
        "blocks": [
            {
                "type": "rich_text",
                "block_id": "cJBW",
                "elements": [
                    {
                        "type": "rich_text_section",
                        "elements": [
                            {
                                "type": "text",
                                "text": "I think the problem with all these is the amount of RNases in the mucus, which are very stable and fast, at the least you would need some proteinase K,I know from work at Pasteur that was the only thing that kinda worked realative to all these fast extraction protocols, and even then it was at least an order of magnitudte less sensitive than commercial sample prep on ZIKV\/CHIKV from saliva\/plasma samples"
                            }
                        ]
                    }
                ]
            }
        ],
        "thread_ts": "1584564308.200400",
        "parent_user_id": "U0100LKUPSR"
    },
    {
        "client_msg_id": "6b287bcf-48b2-4bf9-b71c-61b5ecdba4ef",
        "type": "message",
        "text": "Yep i saw you decrying it further up in the channel. I think that's certainly fair but this extraction method is agnostic of the follwoing amplification method and probably works better with PCR anyway.",
        "user": "U010D9EGSTH",
        "ts": "1584716061.229300",
        "team": "TUU48M0T1",
        "user_team": "TUU48M0T1",
        "source_team": "TUU48M0T1",
        "user_profile": {
            "avatar_hash": "gc4df71cbae9",
            "image_72": "https:\/\/secure.gravatar.com\/avatar\/c4df71cbae90ff8819eff196c6ed3edf.jpg?s=72&d=https%3A%2F%2Fa.slack-edge.com%2Fdf10d%2Fimg%2Favatars%2Fava_0020-72.png",
            "first_name": "",
            "real_name": "Ilya Levantis",
            "display_name": "Ilya Levantis",
            "team": "TUU48M0T1",
            "name": "il79663",
            "is_restricted": false,
            "is_ultra_restricted": false
        },
        "blocks": [
            {
                "type": "rich_text",
                "block_id": "rwnFB",
                "elements": [
                    {
                        "type": "rich_text_section",
                        "elements": [
                            {
                                "type": "text",
                                "text": "Yep i saw you decrying it further up in the channel. I think that's certainly fair but this extraction method is agnostic of the follwoing amplification method and probably works better with PCR anyway."
                            }
                        ]
                    }
                ]
            }
        ]
    },
    {
        "client_msg_id": "fe951347-fdba-49d5-95fb-b7dbcbc57c5b",
        "type": "message",
        "text": "do you have any positive control plasmids at opencell?",
        "user": "U010D9EGSTH",
        "ts": "1584716102.229700",
        "team": "TUU48M0T1",
        "user_team": "TUU48M0T1",
        "source_team": "TUU48M0T1",
        "user_profile": {
            "avatar_hash": "gc4df71cbae9",
            "image_72": "https:\/\/secure.gravatar.com\/avatar\/c4df71cbae90ff8819eff196c6ed3edf.jpg?s=72&d=https%3A%2F%2Fa.slack-edge.com%2Fdf10d%2Fimg%2Favatars%2Fava_0020-72.png",
            "first_name": "",
            "real_name": "Ilya Levantis",
            "display_name": "Ilya Levantis",
            "team": "TUU48M0T1",
            "name": "il79663",
            "is_restricted": false,
            "is_ultra_restricted": false
        },
        "blocks": [
            {
                "type": "rich_text",
                "block_id": "WNw0",
                "elements": [
                    {
                        "type": "rich_text_section",
                        "elements": [
                            {
                                "type": "text",
                                "text": "do you have any positive control plasmids at opencell?"
                            }
                        ]
                    }
                ]
            }
        ],
        "thread_ts": "1584716102.229700",
        "reply_count": 8,
        "reply_users_count": 4,
        "latest_reply": "1584720552.232000",
        "reply_users": [
            "UV02WET96",
            "UV7AZH728",
            "U010D9EGSTH",
            "UV7LUJG1Y"
        ],
        "replies": [
            {
                "user": "UV02WET96",
                "ts": "1584716160.230000"
            },
            {
                "user": "UV7AZH728",
                "ts": "1584718074.230200"
            },
            {
                "user": "UV7AZH728",
                "ts": "1584718119.230400"
            },
            {
                "user": "U010D9EGSTH",
                "ts": "1584718569.230900"
            },
            {
                "user": "U010D9EGSTH",
                "ts": "1584718598.231100"
            },
            {
                "user": "UV7LUJG1Y",
                "ts": "1584719121.231400"
            },
            {
                "user": "UV7AZH728",
                "ts": "1584720523.231800"
            },
            {
                "user": "UV7AZH728",
                "ts": "1584720552.232000"
            }
        ],
        "subscribed": false
    },
    {
        "client_msg_id": "BDB78CC0-04D2-4F1A-84CF-56524BA26925",
        "type": "message",
        "text": "<@UV7AZH728> :point_up_2:",
        "user": "UV02WET96",
        "ts": "1584716160.230000",
        "team": "TUU48M0T1",
        "user_team": "TUU48M0T1",
        "source_team": "TUU48M0T1",
        "user_profile": {
            "avatar_hash": "a99c74a194f8",
            "image_72": "https:\/\/avatars.slack-edge.com\/2020-03-07\/975708504851_a99c74a194f86715ca7d_72.png",
            "first_name": "Thomas",
            "real_name": "Thomas Landrain",
            "display_name": "Thomas Landrain - CoFounder\/CEO JOGL",
            "team": "TUU48M0T1",
            "name": "thomas",
            "is_restricted": false,
            "is_ultra_restricted": false
        },
        "blocks": [
            {
                "type": "rich_text",
                "block_id": "6vJkm",
                "elements": [
                    {
                        "type": "rich_text_section",
                        "elements": [
                            {
                                "type": "user",
                                "user_id": "UV7AZH728"
                            },
                            {
                                "type": "text",
                                "text": " "
                            },
                            {
                                "type": "emoji",
                                "name": "point_up_2"
                            }
                        ]
                    }
                ]
            }
        ],
        "thread_ts": "1584716102.229700",
        "parent_user_id": "U010D9EGSTH"
    },
    {
        "client_msg_id": "fb909d37-4fd5-4af5-bd2d-7ee09163c864",
        "type": "message",
        "text": "Yes SARS\/MERS\/COVID",
        "user": "UV7AZH728",
        "ts": "1584718074.230200",
        "team": "TUU48M0T1",
        "user_team": "TUU48M0T1",
        "source_team": "TUU48M0T1",
        "user_profile": {
            "avatar_hash": "g3a93d1b5438",
            "image_72": "https:\/\/secure.gravatar.com\/avatar\/3a93d1b54386d7d5f4abceccfd7414e5.jpg?s=72&d=https%3A%2F%2Fa.slack-edge.com%2Fdf10d%2Fimg%2Favatars%2Fava_0013-72.png",
            "first_name": "",
            "real_name": "Tom Meany",
            "display_name": "Tom Meany",
            "team": "TUU48M0T1",
            "name": "covid19",
            "is_restricted": false,
            "is_ultra_restricted": false
        },
        "blocks": [
            {
                "type": "rich_text",
                "block_id": "UHim0",
                "elements": [
                    {
                        "type": "rich_text_section",
                        "elements": [
                            {
                                "type": "text",
                                "text": "Yes SARS\/MERS\/COVID"
                            }
                        ]
                    }
                ]
            }
        ],
        "thread_ts": "1584716102.229700",
        "parent_user_id": "U010D9EGSTH"
    },
    {
        "client_msg_id": "371ecdb6-abcb-4c02-a52f-2ad85e6158f6",
        "type": "message",
        "text": "<https:\/\/eu.idtdna.com\/pages\/landing\/coronavirus-research-reagents>",
        "user": "UV7AZH728",
        "ts": "1584718119.230400",
        "team": "TUU48M0T1",
        "user_team": "TUU48M0T1",
        "source_team": "TUU48M0T1",
        "user_profile": {
            "avatar_hash": "g3a93d1b5438",
            "image_72": "https:\/\/secure.gravatar.com\/avatar\/3a93d1b54386d7d5f4abceccfd7414e5.jpg?s=72&d=https%3A%2F%2Fa.slack-edge.com%2Fdf10d%2Fimg%2Favatars%2Fava_0013-72.png",
            "first_name": "",
            "real_name": "Tom Meany",
            "display_name": "Tom Meany",
            "team": "TUU48M0T1",
            "name": "covid19",
            "is_restricted": false,
            "is_ultra_restricted": false
        },
        "attachments": [
            {
                "title": "  2019-nCoV coronavirus reagents - qPCR assays and genes | IDT ",
                "title_link": "https:\/\/eu.idtdna.com\/pages\/landing\/coronavirus-research-reagents",
                "text": "2019-nCoV\/SARS-CoV-2 research – Order qPCR assays for diagnostic testing (design by the CDC) and synthetic genes for coronavirus vaccine development",
                "fallback": "  2019-nCoV coronavirus reagents - qPCR assays and genes | IDT ",
                "from_url": "https:\/\/eu.idtdna.com\/pages\/landing\/coronavirus-research-reagents",
                "service_icon": "https:\/\/eu.idtdna.com\/favicon.ico",
                "service_name": "eu.idtdna.com",
                "id": 1,
                "original_url": "https:\/\/eu.idtdna.com\/pages\/landing\/coronavirus-research-reagents"
            }
        ],
        "blocks": [
            {
                "type": "rich_text",
                "block_id": "syzpC",
                "elements": [
                    {
                        "type": "rich_text_section",
                        "elements": [
                            {
                                "type": "link",
                                "url": "https:\/\/eu.idtdna.com\/pages\/landing\/coronavirus-research-reagents"
                            }
                        ]
                    }
                ]
            }
        ],
        "thread_ts": "1584716102.229700",
        "parent_user_id": "U010D9EGSTH"
    },
    {
        "client_msg_id": "43a05155-59fd-4a9c-b5d3-12d07be16084",
        "type": "message",
        "text": "Very useful, it is a truly revolutionary possibility let me know if you can get things stable and robust. WOuld be amazing",
        "user": "UV7AZH728",
        "ts": "1584718274.230700",
        "team": "TUU48M0T1",
        "user_team": "TUU48M0T1",
        "source_team": "TUU48M0T1",
        "user_profile": {
            "avatar_hash": "g3a93d1b5438",
            "image_72": "https:\/\/secure.gravatar.com\/avatar\/3a93d1b54386d7d5f4abceccfd7414e5.jpg?s=72&d=https%3A%2F%2Fa.slack-edge.com%2Fdf10d%2Fimg%2Favatars%2Fava_0013-72.png",
            "first_name": "",
            "real_name": "Tom Meany",
            "display_name": "Tom Meany",
            "team": "TUU48M0T1",
            "name": "covid19",
            "is_restricted": false,
            "is_ultra_restricted": false
        },
        "blocks": [
            {
                "type": "rich_text",
                "block_id": "kMB",
                "elements": [
                    {
                        "type": "rich_text_section",
                        "elements": [
                            {
                                "type": "text",
                                "text": "Very useful, it is a truly revolutionary possibility let me know if you can get things stable and robust. WOuld be amazing"
                            }
                        ]
                    }
                ]
            }
        ],
        "thread_ts": "1584371356.126500",
        "parent_user_id": "UV7AZH728"
    },
    {
        "client_msg_id": "da8e6078-ecc1-43c3-99c7-144edfc197cc",
        "type": "message",
        "text": "do they include an expression casette to help test RNA extraction + reverse transcription or are they just there for testing the DNA primers?",
        "user": "U010D9EGSTH",
        "ts": "1584718569.230900",
        "team": "TUU48M0T1",
        "user_team": "TUU48M0T1",
        "source_team": "TUU48M0T1",
        "user_profile": {
            "avatar_hash": "gc4df71cbae9",
            "image_72": "https:\/\/secure.gravatar.com\/avatar\/c4df71cbae90ff8819eff196c6ed3edf.jpg?s=72&d=https%3A%2F%2Fa.slack-edge.com%2Fdf10d%2Fimg%2Favatars%2Fava_0020-72.png",
            "first_name": "",
            "real_name": "Ilya Levantis",
            "display_name": "Ilya Levantis",
            "team": "TUU48M0T1",
            "name": "il79663",
            "is_restricted": false,
            "is_ultra_restricted": false
        },
        "blocks": [
            {
                "type": "rich_text",
                "block_id": "fIA=w",
                "elements": [
                    {
                        "type": "rich_text_section",
                        "elements": [
                            {
                                "type": "text",
                                "text": "do they include an expression casette to help test RNA extraction + reverse transcription or are they just there for testing the DNA primers?"
                            }
                        ]
                    }
                ]
            }
        ],
        "thread_ts": "1584716102.229700",
        "parent_user_id": "U010D9EGSTH"
    },
    {
        "client_msg_id": "9cfe96df-f1c7-4c36-aac7-b6bbd7803a92",
        "type": "message",
        "text": "I couldn't tell from the description",
        "user": "U010D9EGSTH",
        "ts": "1584718598.231100",
        "team": "TUU48M0T1",
        "user_team": "TUU48M0T1",
        "source_team": "TUU48M0T1",
        "user_profile": {
            "avatar_hash": "gc4df71cbae9",
            "image_72": "https:\/\/secure.gravatar.com\/avatar\/c4df71cbae90ff8819eff196c6ed3edf.jpg?s=72&d=https%3A%2F%2Fa.slack-edge.com%2Fdf10d%2Fimg%2Favatars%2Fava_0020-72.png",
            "first_name": "",
            "real_name": "Ilya Levantis",
            "display_name": "Ilya Levantis",
            "team": "TUU48M0T1",
            "name": "il79663",
            "is_restricted": false,
            "is_ultra_restricted": false
        },
        "blocks": [
            {
                "type": "rich_text",
                "block_id": "=ledo",
                "elements": [
                    {
                        "type": "rich_text_section",
                        "elements": [
                            {
                                "type": "text",
                                "text": "I couldn't tell from the description"
                            }
                        ]
                    }
                ]
            }
        ],
        "thread_ts": "1584716102.229700",
        "parent_user_id": "U010D9EGSTH"
    },
    {
        "type": "message",
        "text": "Hi all, I’m currently researching a potential new test using lateral flow strips with a group of people from <#CV6HC0KM1|prgm-mammoth-multiplier>. And my task is to research if anything in E. coli supernatant will interfere in a lateral flow strip test.",
        "user": "UUPFF4TC3",
        "ts": "1584719031.231300",
        "team": "TUU48M0T1",
        "user_team": "TUU48M0T1",
        "source_team": "TUU48M0T1",
        "user_profile": {
            "avatar_hash": "g563e1ed9e36",
            "image_72": "https:\/\/secure.gravatar.com\/avatar\/563e1ed9e362af0ce5867baad4d7c568.jpg?s=72&d=https%3A%2F%2Fa.slack-edge.com%2Fdf10d%2Fimg%2Favatars%2Fava_0007-72.png",
            "first_name": "Sophie",
            "real_name": "Sophie Liu",
            "display_name": "Sophie Liu",
            "team": "TUU48M0T1",
            "name": "sophie006liu",
            "is_restricted": false,
            "is_ultra_restricted": false
        },
        "attachments": [
            {
                "fallback": "[March 19th, 2020 9:20 PM] sophie006liu: Could we just lyze a cell and then dip it in a lateral flow strip to see if anything shows up? I'm thinking we could have the following controls\n\n1. Just E coli supernatant\n2. E coli supernatant with reporter DNA\n",
                "ts": "1584678057.008100",
                "author_id": "UUPFF4TC3",
                "author_subname": "Sophie Liu",
                "channel_id": "CV6HC0KM1",
                "channel_name": "prgm-mammoth-multiplier",
                "is_msg_unfurl": true,
                "text": "Could we just lyze a cell and then dip it in a lateral flow strip to see if anything shows up? I'm thinking we could have the following controls\n\n1. Just E coli supernatant\n2. E coli supernatant with reporter DNA\n",
                "author_name": "Sophie Liu",
                "author_link": "https:\/\/open-covid19.slack.com\/team\/UUPFF4TC3",
                "author_icon": "https:\/\/secure.gravatar.com\/avatar\/563e1ed9e362af0ce5867baad4d7c568.jpg?s=48&d=https%3A%2F%2Fa.slack-edge.com%2Fdf10d%2Fimg%2Favatars%2Fava_0007-48.png",
                "mrkdwn_in": [
                    "text"
                ],
                "color": "D0D0D0",
                "from_url": "https:\/\/open-covid19.slack.com\/archives\/CV6HC0KM1\/p1584678057008100",
                "is_share": true,
                "footer": "Posted in #prgm-mammoth-multiplier"
            }
        ]
    },
    {
        "client_msg_id": "881c885d-d633-46d6-a8b3-be19592d1452",
        "type": "message",
        "text": "If you add a T7 promoter before it's easy to make a bunch of RNA",
        "user": "UV7LUJG1Y",
        "ts": "1584719121.231400",
        "team": "TUU48M0T1",
        "user_team": "TUU48M0T1",
        "source_team": "TUU48M0T1",
        "user_profile": {
            "avatar_hash": "gffbc3d06e47",
            "image_72": "https:\/\/secure.gravatar.com\/avatar\/ffbc3d06e47cdf8bd64906bda2ef8c3d.jpg?s=72&d=https%3A%2F%2Fa.slack-edge.com%2Fdf10d%2Fimg%2Favatars%2Fava_0019-72.png",
            "first_name": "",
            "real_name": "Guy Aidelberg",
            "display_name": "Guy Aidelberg",
            "team": "TUU48M0T1",
            "name": "guyaidelberg",
            "is_restricted": false,
            "is_ultra_restricted": false
        },
        "blocks": [
            {
                "type": "rich_text",
                "block_id": "Aqj",
                "elements": [
                    {
                        "type": "rich_text_section",
                        "elements": [
                            {
                                "type": "text",
                                "text": "If you add a T7 promoter before it's easy to make a bunch of RNA"
                            }
                        ]
                    }
                ]
            }
        ],
        "thread_ts": "1584716102.229700",
        "parent_user_id": "U010D9EGSTH"
    },
    {
        "client_msg_id": "c3c57195-1ffc-4106-ab5b-20f046ba6fe0",
        "type": "message",
        "text": "This is a good question. I also could not tell. Also another problem is that they did not design for multiplex assays so that is a big issue because it means you can do less tests\/run. I found a group youseq who are uk based and have actually put the full kit (assay multiplex and designed primers for multiple probes) together and I will try to buy it right away.",
        "user": "UV7AZH728",
        "ts": "1584720523.231800",
        "team": "TUU48M0T1",
        "user_team": "TUU48M0T1",
        "source_team": "TUU48M0T1",
        "user_profile": {
            "avatar_hash": "g3a93d1b5438",
            "image_72": "https:\/\/secure.gravatar.com\/avatar\/3a93d1b54386d7d5f4abceccfd7414e5.jpg?s=72&d=https%3A%2F%2Fa.slack-edge.com%2Fdf10d%2Fimg%2Favatars%2Fava_0013-72.png",
            "first_name": "",
            "real_name": "Tom Meany",
            "display_name": "Tom Meany",
            "team": "TUU48M0T1",
            "name": "covid19",
            "is_restricted": false,
            "is_ultra_restricted": false
        },
        "blocks": [
            {
                "type": "rich_text",
                "block_id": "7PPb",
                "elements": [
                    {
                        "type": "rich_text_section",
                        "elements": [
                            {
                                "type": "text",
                                "text": "This is a good question. I also could not tell. Also another problem is that they did not design for multiplex assays so that is a big issue because it means you can do less tests\/run. I found a group youseq who are uk based and have actually put the full kit (assay multiplex and designed primers for multiple probes) together and I will try to buy it right away."
                            }
                        ]
                    }
                ]
            }
        ],
        "thread_ts": "1584716102.229700",
        "parent_user_id": "U010D9EGSTH",
        "reactions": [
            {
                "name": "+1",
                "users": [
                    "U010D9EGSTH"
                ],
                "count": 1
            }
        ]
    },
    {
        "client_msg_id": "0760511c-0dac-46f7-9d80-5d684d09c60a",
        "type": "message",
        "text": "Over the weekend we are going to be reporting findings here: <https:\/\/github.com\/UK-CoVid19>",
        "user": "UV7AZH728",
        "ts": "1584720552.232000",
        "team": "TUU48M0T1",
        "user_team": "TUU48M0T1",
        "source_team": "TUU48M0T1",
        "user_profile": {
            "avatar_hash": "g3a93d1b5438",
            "image_72": "https:\/\/secure.gravatar.com\/avatar\/3a93d1b54386d7d5f4abceccfd7414e5.jpg?s=72&d=https%3A%2F%2Fa.slack-edge.com%2Fdf10d%2Fimg%2Favatars%2Fava_0013-72.png",
            "first_name": "",
            "real_name": "Tom Meany",
            "display_name": "Tom Meany",
            "team": "TUU48M0T1",
            "name": "covid19",
            "is_restricted": false,
            "is_ultra_restricted": false
        },
        "attachments": [
            {
                "fallback": "UK CoVid-19",
                "text": "Increase CoVid-19 testing capacity to &gt;10K\/day",
                "title": "UK CoVid-19",
                "footer": "<https:\/\/github.com\/UK-CoVid19|@UK-CoVid19>",
                "id": 1,
                "thumb_height": 300,
                "thumb_width": 300,
                "thumb_url": "https:\/\/avatars2.githubusercontent.com\/u\/62264915?v=4",
                "footer_icon": "https:\/\/github.githubassets.com\/favicon.ico",
                "ts": 1584392470,
                "color": "24292f",
                "fields": [
                    {
                        "title": "Location",
                        "value": "London, UK",
                        "short": true
                    },
                    {
                        "title": "URL",
                        "value": "<https:\/\/www.opencell.bio\/coronavirus>",
                        "short": true
                    },
                    {
                        "title": "Repositories",
                        "value": "1",
                        "short": true
                    }
                ],
                "bot_id": "BUW789DM0",
                "app_unfurl_url": "https:\/\/github.com\/UK-CoVid19",
                "is_app_unfurl": true
            }
        ],
        "blocks": [
            {
                "type": "rich_text",
                "block_id": "12F",
                "elements": [
                    {
                        "type": "rich_text_section",
                        "elements": [
                            {
                                "type": "text",
                                "text": "Over the weekend we are going to be reporting findings here: "
                            },
                            {
                                "type": "link",
                                "url": "https:\/\/github.com\/UK-CoVid19"
                            }
                        ]
                    }
                ]
            }
        ],
        "thread_ts": "1584716102.229700",
        "parent_user_id": "U010D9EGSTH"
    },
    {
        "client_msg_id": "04f5168d-870c-4b51-a98b-2b14c7714429",
        "type": "message",
        "text": "We hope this email finds you safe and healthy. As we shared last week, we are collecting resources pertinent to research on COVID-19 that can help scientists developing diagnostics, vaccines, and treatments.\n\nOur <https:\/\/benchling-79e773d54212.intercom-clicks.com\/via\/e?ob=egZFYZetz4fsBIwxAO0%2Fxj%2F%2BeMIgFrxsDVVnqHYnFfQhy8V8%2FbpklwX6CcqwWH%2FT&amp;h=26fb0b1fec6bba969a52b7317c64a3a058bee9ac-s0vt4ab5_26252288708&amp;l=d7d40c079121cc7e901c30de09a5b46055fe043b-2861086|COVID-19 resources webpage> is now live, and it points to sequences, protocols, and other work that has been shared by scientists.\n\nIf you or anyone you know has something to contribute, please find instructions for contributing below or linked from the webpage. *Feel free to share this with your network, especially your friends in virology.*\n\nWe’re grateful to everyone fighting COVID-19 for all of their hard and important work.\n\nBest,\nThe Benchling Team",
        "user": "UV7LUJG1Y",
        "ts": "1584732027.232900",
        "team": "TUU48M0T1",
        "user_team": "TUU48M0T1",
        "source_team": "TUU48M0T1",
        "user_profile": {
            "avatar_hash": "gffbc3d06e47",
            "image_72": "https:\/\/secure.gravatar.com\/avatar\/ffbc3d06e47cdf8bd64906bda2ef8c3d.jpg?s=72&d=https%3A%2F%2Fa.slack-edge.com%2Fdf10d%2Fimg%2Favatars%2Fava_0019-72.png",
            "first_name": "",
            "real_name": "Guy Aidelberg",
            "display_name": "Guy Aidelberg",
            "team": "TUU48M0T1",
            "name": "guyaidelberg",
            "is_restricted": false,
            "is_ultra_restricted": false
        },
        "blocks": [
            {
                "type": "rich_text",
                "block_id": "QA+",
                "elements": [
                    {
                        "type": "rich_text_section",
                        "elements": [
                            {
                                "type": "text",
                                "text": "We hope this email finds you safe and healthy. As we shared last week, we are collecting resources pertinent to research on COVID-19 that can help scientists developing diagnostics, vaccines, and treatments.\n\nOur "
                            },
                            {
                                "type": "link",
                                "url": "https:\/\/benchling-79e773d54212.intercom-clicks.com\/via\/e?ob=egZFYZetz4fsBIwxAO0%2Fxj%2F%2BeMIgFrxsDVVnqHYnFfQhy8V8%2FbpklwX6CcqwWH%2FT&h=26fb0b1fec6bba969a52b7317c64a3a058bee9ac-s0vt4ab5_26252288708&l=d7d40c079121cc7e901c30de09a5b46055fe043b-2861086",
                                "text": "COVID-19 resources webpage"
                            },
                            {
                                "type": "text",
                                "text": " is now live, and it points to sequences, protocols, and other work that has been shared by scientists.\n\nIf you or anyone you know has something to contribute, please find instructions for contributing below or linked from the webpage. "
                            },
                            {
                                "type": "text",
                                "text": "Feel free to share this with your network, especially your friends in virology.",
                                "style": {
                                    "bold": true
                                }
                            },
                            {
                                "type": "text",
                                "text": "\n\nWe’re grateful to everyone fighting COVID-19 for all of their hard and important work.\n\nBest,\nThe Benchling Team"
                            }
                        ]
                    }
                ]
            }
        ],
        "reactions": [
            {
                "name": "heart_eyes",
                "users": [
                    "UV3URUKK5"
                ],
                "count": 1
            }
        ]
    },
    {
        "client_msg_id": "bb06bd47-c7df-4e63-9c85-6b1813ec091d",
        "type": "message",
        "text": "Massively parallel Next-Gen Sequencing-based assay for COVID19 <https:\/\/docs.google.com\/document\/d\/1kP2w_uTMSep2UxTCOnUhh1TMCjWvHEY0sUUpkJHPYV4\/edit>",
        "user": "UUNGFHSV8",
        "ts": "1584741971.233500",
        "team": "TUU48M0T1",
        "user_team": "TUU48M0T1",
        "source_team": "TUU48M0T1",
        "user_profile": {
            "avatar_hash": "1c55ee32397a",
            "image_72": "https:\/\/avatars.slack-edge.com\/2020-03-07\/987349161984_1c55ee32397a85a87ec4_72.png",
            "first_name": "Isaac",
            "real_name": "Isaac Larkin",
            "display_name": "Isaac Larkin",
            "team": "TUU48M0T1",
            "name": "eyesmo",
            "is_restricted": false,
            "is_ultra_restricted": false
        },
        "blocks": [
            {
                "type": "rich_text",
                "block_id": "H0Jz",
                "elements": [
                    {
                        "type": "rich_text_section",
                        "elements": [
                            {
                                "type": "text",
                                "text": "Massively parallel Next-Gen Sequencing-based assay for COVID19 "
                            },
                            {
                                "type": "link",
                                "url": "https:\/\/docs.google.com\/document\/d\/1kP2w_uTMSep2UxTCOnUhh1TMCjWvHEY0sUUpkJHPYV4\/edit"
                            }
                        ]
                    }
                ]
            }
        ],
        "reactions": [
            {
                "name": "100",
                "users": [
                    "UV2SC7ZE3",
                    "UV10KBUQG"
                ],
                "count": 2
            }
        ]
    },
    {
        "client_msg_id": "844a53d1-ea73-4c03-b688-47ad85106484",
        "type": "message",
        "text": "It's possible to run reverse transcriptase from clean cells if you simply lyse them. It's how many of the low-input RNA kits work. So it might be entirely possible to avoid RNA extraction if you can somehow get cells\/viral particles away from the other components of saliva\/nasal fluids.",
        "user": "UV2BVBA4S",
        "ts": "1584749919.233900",
        "team": "TUU48M0T1",
        "user_team": "TUU48M0T1",
        "source_team": "TUU48M0T1",
        "user_profile": {
            "avatar_hash": "gb86c40b6439",
            "image_72": "https:\/\/secure.gravatar.com\/avatar\/b86c40b643942e166767196f14a46b7e.jpg?s=72&d=https%3A%2F%2Fa.slack-edge.com%2Fdf10d%2Fimg%2Favatars%2Fava_0006-72.png",
            "first_name": "",
            "real_name": "geekyjane",
            "display_name": "geekyjane",
            "team": "TUU48M0T1",
            "name": "janette.edson",
            "is_restricted": false,
            "is_ultra_restricted": false
        },
        "blocks": [
            {
                "type": "rich_text",
                "block_id": "Qh\/",
                "elements": [
                    {
                        "type": "rich_text_section",
                        "elements": [
                            {
                                "type": "text",
                                "text": "It's possible to run reverse transcriptase from clean cells if you simply lyse them. It's how many of the low-input RNA kits work. So it might be entirely possible to avoid RNA extraction if you can somehow get cells\/viral particles away from the other components of saliva\/nasal fluids."
                            }
                        ]
                    }
                ]
            }
        ],
        "thread_ts": "1584618424.211600",
        "parent_user_id": "UV1A22N3W",
        "reactions": [
            {
                "name": "+1",
                "users": [
                    "UVBQDE7R8"
                ],
                "count": 1
            }
        ]
    },
    {
        "client_msg_id": "7040644c-d5ec-48f7-b1a9-eb68e81c4a8b",
        "type": "message",
        "text": "This is a good resource for anyone able to do molecular modeling: <https:\/\/covid.postera.ai\/covid|https:\/\/covid.postera.ai\/covid>",
        "user": "UVADMLUB0",
        "ts": "1584751285.235300",
        "team": "TUU48M0T1",
        "user_team": "TUU48M0T1",
        "source_team": "TUU48M0T1",
        "user_profile": {
            "avatar_hash": "14179705705a",
            "image_72": "https:\/\/avatars.slack-edge.com\/2020-03-11\/981468022482_14179705705a94b3db16_72.jpg",
            "first_name": "Bill",
            "real_name": "Bill Slavin",
            "display_name": "Bill Slavin- Executive Director, Indie Lab",
            "team": "TUU48M0T1",
            "name": "bill",
            "is_restricted": false,
            "is_ultra_restricted": false
        },
        "blocks": [
            {
                "type": "rich_text",
                "block_id": "nWqu",
                "elements": [
                    {
                        "type": "rich_text_section",
                        "elements": [
                            {
                                "type": "text",
                                "text": "This is a good resource for anyone able to do molecular modeling: "
                            },
                            {
                                "type": "link",
                                "url": "https:\/\/covid.postera.ai\/covid",
                                "text": "https:\/\/covid.postera.ai\/covid"
                            }
                        ]
                    }
                ]
            }
        ]
    }
]