[
    {
        "client_msg_id": "B33764EA-1578-46C2-85FA-30A4606C241E",
        "type": "message",
        "text": "So I assume I’m not the only one being contacted by journalist. At this stage of the project I think the consensus is to not talk to press. Should be craft a universal response that everyone can use to say give us more time to see where this is going?",
        "user": "UV5CCJ9RC",
        "ts": "1583938303.002400",
        "team": "TUU48M0T1",
        "user_team": "TUU48M0T1",
        "source_team": "TUU48M0T1",
        "user_profile": {
            "avatar_hash": "2c79fe05f7e7",
            "image_72": "https:\/\/avatars.slack-edge.com\/2020-03-10\/992653932501_2c79fe05f7e75be19699_72.png",
            "first_name": "Chris",
            "real_name": "Chris Monaco",
            "display_name": "",
            "team": "TUU48M0T1",
            "name": "cmonaco.hr",
            "is_restricted": false,
            "is_ultra_restricted": false
        },
        "blocks": [
            {
                "type": "rich_text",
                "block_id": "au4l",
                "elements": [
                    {
                        "type": "rich_text_section",
                        "elements": [
                            {
                                "type": "text",
                                "text": "So I assume I’m not the only one being contacted by journalist. At this stage of the project I think the consensus is to not talk to press. Should be craft a universal response that everyone can use to say give us more time to see where this is going?"
                            }
                        ]
                    }
                ]
            }
        ],
        "thread_ts": "1583938303.002400",
        "reply_count": 1,
        "reply_users_count": 1,
        "latest_reply": "1583941938.003800",
        "reply_users": [
            "UV0QTJCMT"
        ],
        "replies": [
            {
                "user": "UV0QTJCMT",
                "ts": "1583941938.003800"
            }
        ],
        "subscribed": false,
        "reactions": [
            {
                "name": "+1",
                "users": [
                    "UV0QTJCMT"
                ],
                "count": 1
            }
        ]
    },
    {
        "type": "message",
        "subtype": "channel_join",
        "ts": "1583938439.002600",
        "user": "UV0RRGB6H",
        "text": "<@UV0RRGB6H> has joined the channel"
    },
    {
        "client_msg_id": "92156686-D342-47B7-9002-FEA2C560ABD1",
        "type": "message",
        "text": "<@UV5CCJ9RC> yup completely agree—i think this is something we’ll discuss on our call today!",
        "user": "UV0QTJCMT",
        "ts": "1583941938.003800",
        "team": "TUU48M0T1",
        "user_team": "TUU48M0T1",
        "source_team": "TUU48M0T1",
        "user_profile": {
            "avatar_hash": "11e3deb6d1a9",
            "image_72": "https:\/\/avatars.slack-edge.com\/2020-03-06\/986844736421_11e3deb6d1a949327ddd_72.png",
            "first_name": "Katherine",
            "real_name": "Katherine Holo",
            "display_name": "Kat Holo",
            "team": "TUU48M0T1",
            "name": "katherineh245",
            "is_restricted": false,
            "is_ultra_restricted": false
        },
        "blocks": [
            {
                "type": "rich_text",
                "block_id": "B2V",
                "elements": [
                    {
                        "type": "rich_text_section",
                        "elements": [
                            {
                                "type": "user",
                                "user_id": "UV5CCJ9RC"
                            },
                            {
                                "type": "text",
                                "text": " yup completely agree—i think this is something we’ll discuss on our call today!"
                            }
                        ]
                    }
                ]
            }
        ],
        "thread_ts": "1583938303.002400",
        "parent_user_id": "UV5CCJ9RC"
    },
    {
        "type": "message",
        "subtype": "channel_join",
        "ts": "1583947335.004100",
        "user": "UUWLPKCLB",
        "text": "<@UUWLPKCLB> has joined the channel"
    },
    {
        "type": "message",
        "subtype": "channel_join",
        "ts": "1583948068.004300",
        "user": "UVA1JS2PR",
        "text": "<@UVA1JS2PR> has joined the channel"
    },
    {
        "type": "message",
        "subtype": "channel_join",
        "ts": "1583949752.004900",
        "user": "UUY5NSL2V",
        "text": "<@UUY5NSL2V> has joined the channel"
    },
    {
        "type": "message",
        "subtype": "channel_join",
        "ts": "1583951222.005100",
        "user": "UV78M0ESG",
        "text": "<@UV78M0ESG> has joined the channel"
    },
    {
        "type": "message",
        "subtype": "channel_join",
        "ts": "1583952342.005300",
        "user": "UUVC28VNW",
        "text": "<@UUVC28VNW> has joined the channel"
    },
    {
        "type": "message",
        "subtype": "channel_join",
        "ts": "1583981817.005600",
        "user": "UUQM4L2AF",
        "text": "<@UUQM4L2AF> has joined the channel",
        "inviter": "UV0QTJCMT"
    },
    {
        "client_msg_id": "8e228302-887e-4f84-98b6-fb8780396e6d",
        "type": "message",
        "text": "heyo <!channel> just wanted to start\/prompt the discussion on whether we want to create a universal response or direct press requests to only a few people\/group or some sort of hybrid between the two. thoughts?",
        "user": "UV0QTJCMT",
        "ts": "1583981876.006600",
        "team": "TUU48M0T1",
        "user_team": "TUU48M0T1",
        "source_team": "TUU48M0T1",
        "user_profile": {
            "avatar_hash": "11e3deb6d1a9",
            "image_72": "https:\/\/avatars.slack-edge.com\/2020-03-06\/986844736421_11e3deb6d1a949327ddd_72.png",
            "first_name": "Katherine",
            "real_name": "Katherine Holo",
            "display_name": "Kat Holo",
            "team": "TUU48M0T1",
            "name": "katherineh245",
            "is_restricted": false,
            "is_ultra_restricted": false
        },
        "blocks": [
            {
                "type": "rich_text",
                "block_id": "EbP",
                "elements": [
                    {
                        "type": "rich_text_section",
                        "elements": [
                            {
                                "type": "text",
                                "text": "heyo "
                            },
                            {
                                "type": "broadcast",
                                "range": "channel"
                            },
                            {
                                "type": "text",
                                "text": " just wanted to start\/prompt the discussion on whether we want to create a universal response or direct press requests to only a few people\/group or some sort of hybrid between the two. thoughts?"
                            }
                        ]
                    }
                ]
            }
        ],
        "reactions": [
            {
                "name": "+1",
                "users": [
                    "UUUEFQW8N"
                ],
                "count": 1
            }
        ]
    },
    {
        "type": "message",
        "subtype": "channel_join",
        "ts": "1583983344.006800",
        "user": "UV2SC7ZE3",
        "text": "<@UV2SC7ZE3> has joined the channel"
    },
    {
        "type": "message",
        "subtype": "channel_join",
        "ts": "1583988527.007000",
        "user": "UUWQU0D8T",
        "text": "<@UUWQU0D8T> has joined the channel"
    }
]