[
    {
        "client_msg_id": "C8ED8B64-F9F3-42B8-BE2F-8F5BE14DC654",
        "type": "message",
        "text": "Awesome news from MIT: \nAn open source design for a ventilator. We can expect to fork this design and improve it :ok_hand:\n<https:\/\/e-vent.mit.edu\/|https:\/\/e-vent.mit.edu\/>\n",
        "user": "UV02WET96",
        "ts": "1584982754.025400",
        "team": "TUU48M0T1",
        "user_team": "TUU48M0T1",
        "source_team": "TUU48M0T1",
        "user_profile": {
            "avatar_hash": "a99c74a194f8",
            "image_72": "https:\/\/avatars.slack-edge.com\/2020-03-07\/975708504851_a99c74a194f86715ca7d_72.png",
            "first_name": "Thomas",
            "real_name": "Thomas Landrain",
            "display_name": "Thomas Landrain - CoFounder\/CEO JOGL",
            "team": "TUU48M0T1",
            "name": "thomas",
            "is_restricted": false,
            "is_ultra_restricted": false
        },
        "attachments": [
            {
                "service_name": "MIT E-Vent | MIT Emergency Ventilator",
                "title": "MIT E-VENT | Emergency ventilator design toolbox",
                "title_link": "https:\/\/e-vent.mit.edu\/",
                "text": "The MIT Emergency Ventilator (E-Vent) is a toolkit created for rapid response in a crisis. It is offered as open source, and will evolve as we learn more.",
                "fallback": "MIT E-Vent | MIT Emergency Ventilator: MIT E-VENT | Emergency ventilator design toolbox",
                "image_url": "https:\/\/e-vent.mit.edu\/wp-content\/uploads\/2020\/03\/MIT_E_Vent_Mannequin_ControllerBoard_3_16_20I4193W-1024x717.jpg",
                "from_url": "https:\/\/e-vent.mit.edu\/",
                "image_width": 357,
                "image_height": 250,
                "image_bytes": 112460,
                "service_icon": "https:\/\/e-vent.mit.edu\/wp-content\/uploads\/2020\/03\/cropped-mit-square-180x180.png",
                "id": 1,
                "original_url": "https:\/\/e-vent.mit.edu\/"
            }
        ],
        "blocks": [
            {
                "type": "rich_text",
                "block_id": "70cfw",
                "elements": [
                    {
                        "type": "rich_text_section",
                        "elements": [
                            {
                                "type": "text",
                                "text": "Awesome news from MIT: \n"
                            },
                            {
                                "type": "text",
                                "text": "An open source design for a ventilator. We can expect to fork this design and improve it "
                            },
                            {
                                "type": "emoji",
                                "name": "ok_hand"
                            },
                            {
                                "type": "text",
                                "text": "\n"
                            },
                            {
                                "type": "link",
                                "url": "https:\/\/e-vent.mit.edu\/",
                                "text": "https:\/\/e-vent.mit.edu\/"
                            },
                            {
                                "type": "text",
                                "text": "\n"
                            }
                        ]
                    }
                ]
            }
        ],
        "reactions": [
            {
                "name": "+1",
                "users": [
                    "U010HTBUHS9"
                ],
                "count": 1
            }
        ]
    },
    {
        "client_msg_id": "5f3f81c4-5f27-41a1-b0bf-b1272eba2741",
        "type": "message",
        "text": "Italian startup ISINNOVA (the one that printed the ventilator valves and more recently adapted diving masks) created this form for makers who want to volunteer by 3D printing components:\n\n<https:\/\/docs.google.com\/forms\/d\/e\/1FAIpQLSdc0aa34YSqm6hPQWRL9OT4bFaowXSlvObUVr9kZurn4MZnoQ\/viewform>",
        "user": "UV2P3AQEN",
        "ts": "1584987315.027000",
        "team": "TUU48M0T1",
        "user_team": "TUU48M0T1",
        "source_team": "TUU48M0T1",
        "user_profile": {
            "avatar_hash": "82d977ce9645",
            "image_72": "https:\/\/avatars.slack-edge.com\/2020-03-16\/1003452392327_82d977ce9645ebc30917_72.jpg",
            "first_name": "Antonio",
            "real_name": "Antonio Mangiapane",
            "display_name": "Antonio Mangiapane",
            "team": "TUU48M0T1",
            "name": "antonio.mangiapane29",
            "is_restricted": false,
            "is_ultra_restricted": false
        },
        "blocks": [
            {
                "type": "rich_text",
                "block_id": "\/cQ",
                "elements": [
                    {
                        "type": "rich_text_section",
                        "elements": [
                            {
                                "type": "text",
                                "text": "Italian startup ISINNOVA (the one that printed the ventilator valves and more recently adapted diving masks) created this form for makers who want to volunteer by 3D printing components:\n\n"
                            },
                            {
                                "type": "link",
                                "url": "https:\/\/docs.google.com\/forms\/d\/e\/1FAIpQLSdc0aa34YSqm6hPQWRL9OT4bFaowXSlvObUVr9kZurn4MZnoQ\/viewform"
                            }
                        ]
                    }
                ]
            }
        ]
    }
]