[
    {
        "client_msg_id": "da23a0ee-14eb-46c1-9b06-9a971246d0e0",
        "type": "message",
        "text": "Some requirements are out now!",
        "user": "U010B4EJG2C",
        "ts": "1584696785.096700",
        "team": "TUU48M0T1",
        "user_team": "TUU48M0T1",
        "source_team": "TUU48M0T1",
        "user_profile": {
            "avatar_hash": "5c9626d7b328",
            "image_72": "https:\/\/avatars.slack-edge.com\/2020-03-19\/1011171782821_5c9626d7b328e5dc84ea_72.jpg",
            "first_name": "Adam",
            "real_name": "Adam Krovina",
            "display_name": "Adam Krovina",
            "team": "TUU48M0T1",
            "name": "adam",
            "is_restricted": false,
            "is_ultra_restricted": false
        },
        "blocks": [
            {
                "type": "rich_text",
                "block_id": "=zyM",
                "elements": [
                    {
                        "type": "rich_text_section",
                        "elements": [
                            {
                                "type": "text",
                                "text": "Some requirements are out now!"
                            }
                        ]
                    }
                ]
            }
        ],
        "thread_ts": "1584625635.074600",
        "parent_user_id": "UV6870881"
    },
    {
        "client_msg_id": "0e2d6e84-a588-4f6d-9a95-535be5d3f567",
        "type": "message",
        "text": "<https:\/\/cdn.fs.agorize.com\/iiw25RXxSkuSKzIVNVQQ>",
        "user": "U010B4EJG2C",
        "ts": "1584696787.096900",
        "team": "TUU48M0T1",
        "user_team": "TUU48M0T1",
        "source_team": "TUU48M0T1",
        "user_profile": {
            "avatar_hash": "5c9626d7b328",
            "image_72": "https:\/\/avatars.slack-edge.com\/2020-03-19\/1011171782821_5c9626d7b328e5dc84ea_72.jpg",
            "first_name": "Adam",
            "real_name": "Adam Krovina",
            "display_name": "Adam Krovina",
            "team": "TUU48M0T1",
            "name": "adam",
            "is_restricted": false,
            "is_ultra_restricted": false
        },
        "blocks": [
            {
                "type": "rich_text",
                "block_id": "nXU",
                "elements": [
                    {
                        "type": "rich_text_section",
                        "elements": [
                            {
                                "type": "link",
                                "url": "https:\/\/cdn.fs.agorize.com\/iiw25RXxSkuSKzIVNVQQ"
                            }
                        ]
                    }
                ]
            }
        ],
        "thread_ts": "1584625635.074600",
        "parent_user_id": "UV6870881",
        "reactions": [
            {
                "name": "+1",
                "users": [
                    "U01081Y0TBP"
                ],
                "count": 1
            }
        ]
    },
    {
        "client_msg_id": "e1d12c28-d9ce-4d61-b6b0-a4995d9b1d28",
        "type": "message",
        "text": "They are not very clear to me",
        "user": "U010B4EJG2C",
        "ts": "1584696811.097100",
        "team": "TUU48M0T1",
        "user_team": "TUU48M0T1",
        "source_team": "TUU48M0T1",
        "user_profile": {
            "avatar_hash": "5c9626d7b328",
            "image_72": "https:\/\/avatars.slack-edge.com\/2020-03-19\/1011171782821_5c9626d7b328e5dc84ea_72.jpg",
            "first_name": "Adam",
            "real_name": "Adam Krovina",
            "display_name": "Adam Krovina",
            "team": "TUU48M0T1",
            "name": "adam",
            "is_restricted": false,
            "is_ultra_restricted": false
        },
        "blocks": [
            {
                "type": "rich_text",
                "block_id": "=nmN",
                "elements": [
                    {
                        "type": "rich_text_section",
                        "elements": [
                            {
                                "type": "text",
                                "text": "They are not very clear to me"
                            }
                        ]
                    }
                ]
            }
        ],
        "thread_ts": "1584625635.074600",
        "parent_user_id": "UV6870881"
    },
    {
        "client_msg_id": "ea71a81a-b26e-4223-af19-ef06fd7a1ee7",
        "type": "message",
        "text": "this standard is mentioned <https:\/\/www.iso.org\/standard\/72069.html> but it's quite expensive. Any way to get to it?",
        "user": "U010B4EJG2C",
        "ts": "1584697004.097300",
        "team": "TUU48M0T1",
        "user_team": "TUU48M0T1",
        "source_team": "TUU48M0T1",
        "user_profile": {
            "avatar_hash": "5c9626d7b328",
            "image_72": "https:\/\/avatars.slack-edge.com\/2020-03-19\/1011171782821_5c9626d7b328e5dc84ea_72.jpg",
            "first_name": "Adam",
            "real_name": "Adam Krovina",
            "display_name": "Adam Krovina",
            "team": "TUU48M0T1",
            "name": "adam",
            "is_restricted": false,
            "is_ultra_restricted": false
        },
        "attachments": [
            {
                "service_name": "ISO",
                "title": "ISO 80601-2-12:2020",
                "title_link": "https:\/\/www.iso.org\/standard\/72069.html",
                "text": "Medical electrical equipment — Part 2-12: Particular requirements for basic safety and essential performance of critical care ventilators",
                "fallback": "ISO: ISO 80601-2-12:2020",
                "thumb_url": "https:\/\/cdn.iso.org\/resources\/wood\/3.0.11\/img\/iso\/iso-logo-print.gif",
                "from_url": "https:\/\/www.iso.org\/standard\/72069.html",
                "thumb_width": 350,
                "thumb_height": 323,
                "service_icon": "https:\/\/cdn.iso.org\/resources\/wood\/3.0.12\/img\/iso\/favicon\/red\/apple-touch-icon-152x152-precomposed.png",
                "id": 1,
                "original_url": "https:\/\/www.iso.org\/standard\/72069.html"
            }
        ],
        "blocks": [
            {
                "type": "rich_text",
                "block_id": "j9r",
                "elements": [
                    {
                        "type": "rich_text_section",
                        "elements": [
                            {
                                "type": "text",
                                "text": "this standard is mentioned "
                            },
                            {
                                "type": "link",
                                "url": "https:\/\/www.iso.org\/standard\/72069.html"
                            },
                            {
                                "type": "text",
                                "text": " but it's quite expensive. Any way to get to it?"
                            }
                        ]
                    }
                ]
            }
        ],
        "thread_ts": "1584625635.074600",
        "parent_user_id": "UV6870881"
    },
    {
        "client_msg_id": "42c0dfe0-2aa6-4e98-8745-6ecc9674e10e",
        "type": "message",
        "text": "redy!",
        "user": "U0109LRFM3Q",
        "ts": "1584714610.097600",
        "team": "TUU48M0T1",
        "user_team": "TUU48M0T1",
        "source_team": "TUU48M0T1",
        "user_profile": {
            "avatar_hash": "g8d0194a49b8",
            "image_72": "https:\/\/secure.gravatar.com\/avatar\/8d0194a49b8c9a543857eba6f2bc6217.jpg?s=72&d=https%3A%2F%2Fa.slack-edge.com%2Fdf10d%2Fimg%2Favatars%2Fava_0009-72.png",
            "first_name": "",
            "real_name": "Vicente Agosin Orellana",
            "display_name": "Vicente Agosin Orellana",
            "team": "TUU48M0T1",
            "name": "v.agosin.orellana",
            "is_restricted": false,
            "is_ultra_restricted": false
        },
        "blocks": [
            {
                "type": "rich_text",
                "block_id": "\/UVN",
                "elements": [
                    {
                        "type": "rich_text_section",
                        "elements": [
                            {
                                "type": "text",
                                "text": "redy!"
                            }
                        ]
                    }
                ]
            }
        ],
        "thread_ts": "1584659084.093600",
        "parent_user_id": "U0109LRFM3Q"
    },
    {
        "client_msg_id": "4b41df80-a055-4f39-b962-c583a6c98e9c",
        "type": "message",
        "text": "I just added a project channel <#C01056ZKHK3|proj-o2generator-team> for O2 generators for anyone interested in that work.  Distinct from ventilators, this is to build O2 concentration to go toward tank pressuring or point-of-use on demand O2 supply for institutions.",
        "user": "UVADMLUB0",
        "ts": "1584723019.102100",
        "team": "TUU48M0T1",
        "user_team": "TUU48M0T1",
        "source_team": "TUU48M0T1",
        "user_profile": {
            "avatar_hash": "14179705705a",
            "image_72": "https:\/\/avatars.slack-edge.com\/2020-03-11\/981468022482_14179705705a94b3db16_72.jpg",
            "first_name": "Bill",
            "real_name": "Bill Slavin",
            "display_name": "Bill Slavin- Executive Director, Indie Lab",
            "team": "TUU48M0T1",
            "name": "bill",
            "is_restricted": false,
            "is_ultra_restricted": false
        },
        "edited": {
            "user": "UVADMLUB0",
            "ts": "1584723055.000000"
        },
        "blocks": [
            {
                "type": "rich_text",
                "block_id": "pQEB2",
                "elements": [
                    {
                        "type": "rich_text_section",
                        "elements": [
                            {
                                "type": "text",
                                "text": "I just added a project channel "
                            },
                            {
                                "type": "channel",
                                "channel_id": "C01056ZKHK3"
                            },
                            {
                                "type": "text",
                                "text": " for O2 generators for anyone interested in that work.  Distinct from ventilators, this is to build O2 concentration to go toward tank pressuring or point-of-use on demand O2 supply for institutions."
                            }
                        ]
                    }
                ]
            }
        ],
        "reactions": [
            {
                "name": "raised_hands",
                "users": [
                    "UV0QTJCMT",
                    "UV02WET96"
                ],
                "count": 2
            }
        ]
    },
    {
        "client_msg_id": "2ecf9d6c-1d37-46d4-9904-8e4507f66499",
        "type": "message",
        "text": "<!channel> would are the people currently facilitating this chapter of the initiative? I’d like to share with you the resources I’ve got on my side so  we better prepare the Hardware Call of tomorrow",
        "user": "UV02WET96",
        "ts": "1584727220.104300",
        "team": "TUU48M0T1",
        "user_team": "TUU48M0T1",
        "source_team": "TUU48M0T1",
        "user_profile": {
            "avatar_hash": "a99c74a194f8",
            "image_72": "https:\/\/avatars.slack-edge.com\/2020-03-07\/975708504851_a99c74a194f86715ca7d_72.png",
            "first_name": "Thomas",
            "real_name": "Thomas Landrain",
            "display_name": "Thomas Landrain - CoFounder\/CEO JOGL",
            "team": "TUU48M0T1",
            "name": "thomas",
            "is_restricted": false,
            "is_ultra_restricted": false
        },
        "blocks": [
            {
                "type": "rich_text",
                "block_id": "cqLW",
                "elements": [
                    {
                        "type": "rich_text_section",
                        "elements": [
                            {
                                "type": "broadcast",
                                "range": "channel"
                            },
                            {
                                "type": "text",
                                "text": " would are the people currently facilitating this chapter of the initiative? I’d like to share with you the resources I’ve got on my side so  we better prepare the Hardware Call of tomorrow"
                            }
                        ]
                    }
                ]
            }
        ],
        "thread_ts": "1584727220.104300",
        "reply_count": 19,
        "reply_users_count": 5,
        "latest_reply": "1584751396.003500",
        "reply_users": [
            "UV0QTJCMT",
            "UV8FL0JCA",
            "UV2P3AQEN",
            "UVADMLUB0",
            "UV02WET96"
        ],
        "replies": [
            {
                "user": "UV0QTJCMT",
                "ts": "1584727288.104400"
            },
            {
                "user": "UV8FL0JCA",
                "ts": "1584727654.104600"
            },
            {
                "user": "UV8FL0JCA",
                "ts": "1584727740.104900"
            },
            {
                "user": "UV2P3AQEN",
                "ts": "1584727754.105100"
            },
            {
                "user": "UV8FL0JCA",
                "ts": "1584727833.105400"
            },
            {
                "user": "UVADMLUB0",
                "ts": "1584729564.107000"
            },
            {
                "user": "UV8FL0JCA",
                "ts": "1584730107.107200"
            },
            {
                "user": "UV02WET96",
                "ts": "1584735025.108300"
            },
            {
                "user": "UV0QTJCMT",
                "ts": "1584735066.109100"
            },
            {
                "user": "UV2P3AQEN",
                "ts": "1584735147.110000"
            },
            {
                "user": "UV02WET96",
                "ts": "1584735191.110600"
            },
            {
                "user": "UV02WET96",
                "ts": "1584735293.111100"
            },
            {
                "user": "UV02WET96",
                "ts": "1584738202.111300"
            },
            {
                "user": "UVADMLUB0",
                "ts": "1584739094.111500"
            },
            {
                "user": "UV02WET96",
                "ts": "1584739465.111700"
            },
            {
                "user": "UV8FL0JCA",
                "ts": "1584742914.112500"
            },
            {
                "user": "UV0QTJCMT",
                "ts": "1584749429.002300"
            },
            {
                "user": "UV0QTJCMT",
                "ts": "1584749455.003300"
            },
            {
                "user": "UV8FL0JCA",
                "ts": "1584751396.003500"
            }
        ],
        "subscribed": false
    },
    {
        "client_msg_id": "4c625abd-c19c-4d49-bf37-8d18cbae0b98",
        "type": "message",
        "text": "i don't think we have dedicated leads yet, i'll hop on a call with you perhaps (after the dev townhall) but <@UV2P3AQEN> would this be of interest to you?",
        "user": "UV0QTJCMT",
        "ts": "1584727288.104400",
        "team": "TUU48M0T1",
        "user_team": "TUU48M0T1",
        "source_team": "TUU48M0T1",
        "user_profile": {
            "avatar_hash": "11e3deb6d1a9",
            "image_72": "https:\/\/avatars.slack-edge.com\/2020-03-06\/986844736421_11e3deb6d1a949327ddd_72.png",
            "first_name": "Katherine",
            "real_name": "Katherine Holo",
            "display_name": "Kat Holo",
            "team": "TUU48M0T1",
            "name": "katherineh245",
            "is_restricted": false,
            "is_ultra_restricted": false
        },
        "blocks": [
            {
                "type": "rich_text",
                "block_id": "8\/D",
                "elements": [
                    {
                        "type": "rich_text_section",
                        "elements": [
                            {
                                "type": "text",
                                "text": "i don't think we have dedicated leads yet, i'll hop on a call with you perhaps (after the dev townhall) but "
                            },
                            {
                                "type": "user",
                                "user_id": "UV2P3AQEN"
                            },
                            {
                                "type": "text",
                                "text": " would this be of interest to you?"
                            }
                        ]
                    }
                ]
            }
        ],
        "thread_ts": "1584727220.104300",
        "parent_user_id": "UV02WET96"
    },
    {
        "client_msg_id": "c1c1236b-8dd9-4a73-a8b4-5458d713732c",
        "type": "message",
        "text": "I’m trying to organize efforts of matching 3D printers with need. Still working on figuring out the right platforms. But im contact local folks in Chicago to get it going here if I can.",
        "user": "UV8FL0JCA",
        "ts": "1584727654.104600",
        "team": "TUU48M0T1",
        "user_team": "TUU48M0T1",
        "source_team": "TUU48M0T1",
        "user_profile": {
            "avatar_hash": "920c820f5900",
            "image_72": "https:\/\/avatars.slack-edge.com\/2020-03-17\/1009529536646_920c820f5900215fb339_72.jpg",
            "first_name": "Eric",
            "real_name": "Eric Chaves",
            "display_name": "Eric Chaves",
            "team": "TUU48M0T1",
            "name": "eric.chaves.llc",
            "is_restricted": false,
            "is_ultra_restricted": false
        },
        "blocks": [
            {
                "type": "rich_text",
                "block_id": "CSGJ",
                "elements": [
                    {
                        "type": "rich_text_section",
                        "elements": [
                            {
                                "type": "text",
                                "text": "I’m trying to organize efforts of matching 3D printers with need. Still working on figuring out the right platforms. But im contact local folks in Chicago to get it going here if I can."
                            }
                        ]
                    }
                ]
            }
        ],
        "thread_ts": "1584727220.104300",
        "parent_user_id": "UV02WET96",
        "reactions": [
            {
                "name": "100",
                "users": [
                    "UV0QTJCMT"
                ],
                "count": 1
            }
        ]
    },
    {
        "client_msg_id": "8f3f7a06-8cc8-4fb9-8d8e-4be9fa57322c",
        "type": "message",
        "text": "I’m open to doing more broad project management if i can. I’m trying to search broadly for networks and voulenteer lists to make sure we’re not duplicating. And that if we build anything, we keep it simple, and we can replicate the model from one city to another.",
        "user": "UV8FL0JCA",
        "ts": "1584727740.104900",
        "team": "TUU48M0T1",
        "user_team": "TUU48M0T1",
        "source_team": "TUU48M0T1",
        "user_profile": {
            "avatar_hash": "920c820f5900",
            "image_72": "https:\/\/avatars.slack-edge.com\/2020-03-17\/1009529536646_920c820f5900215fb339_72.jpg",
            "first_name": "Eric",
            "real_name": "Eric Chaves",
            "display_name": "Eric Chaves",
            "team": "TUU48M0T1",
            "name": "eric.chaves.llc",
            "is_restricted": false,
            "is_ultra_restricted": false
        },
        "blocks": [
            {
                "type": "rich_text",
                "block_id": "MqK+G",
                "elements": [
                    {
                        "type": "rich_text_section",
                        "elements": [
                            {
                                "type": "text",
                                "text": "I’m open to doing more broad project management if i can. I’m trying to search broadly for networks and voulenteer lists to make sure we’re not duplicating. And that if we build anything, we keep it simple, and we can replicate the model from one city to another."
                            }
                        ]
                    }
                ]
            }
        ],
        "thread_ts": "1584727220.104300",
        "parent_user_id": "UV02WET96",
        "reactions": [
            {
                "name": "+1",
                "users": [
                    "UV2P3AQEN",
                    "UV0QTJCMT",
                    "UV02WET96"
                ],
                "count": 3
            }
        ]
    },
    {
        "client_msg_id": "8eaf65c5-15be-4ff4-8eb7-8e7f8a39e539",
        "type": "message",
        "text": "Sure, count me in. I'm also in contact (via a workmate) with a couple of companies here in Sicily which are willing to provide tools to aid local hospitals.",
        "user": "UV2P3AQEN",
        "ts": "1584727754.105100",
        "team": "TUU48M0T1",
        "user_team": "TUU48M0T1",
        "source_team": "TUU48M0T1",
        "user_profile": {
            "avatar_hash": "82d977ce9645",
            "image_72": "https:\/\/avatars.slack-edge.com\/2020-03-16\/1003452392327_82d977ce9645ebc30917_72.jpg",
            "first_name": "Antonio",
            "real_name": "Antonio Mangiapane",
            "display_name": "Antonio Mangiapane",
            "team": "TUU48M0T1",
            "name": "antonio.mangiapane29",
            "is_restricted": false,
            "is_ultra_restricted": false
        },
        "blocks": [
            {
                "type": "rich_text",
                "block_id": "UY+",
                "elements": [
                    {
                        "type": "rich_text_section",
                        "elements": [
                            {
                                "type": "text",
                                "text": "Sure, count me in. I'm also in contact (via a workmate) with a couple of companies here in Sicily which are willing to provide tools to aid local hospitals."
                            }
                        ]
                    }
                ]
            }
        ],
        "thread_ts": "1584727220.104300",
        "parent_user_id": "UV02WET96",
        "reactions": [
            {
                "name": "100",
                "users": [
                    "UV0QTJCMT"
                ],
                "count": 1
            }
        ]
    },
    {
        "client_msg_id": "a7816256-8a2a-4080-857c-866ba6312ef1",
        "type": "message",
        "text": "E.G. This is an amazing list of 3D printers, but no one has mobilzed efforts yet. I want to work on that. Let me know if there’s a better channel to discuss that. #reso<https:\/\/docs.google.com\/spreadsheets\/d\/1QE1vzezYdf6QJwxaMMLrWIks5AYAPUeSRWXxaYd3yK8\/edit#gid=587452832>",
        "user": "UV8FL0JCA",
        "ts": "1584727833.105400",
        "team": "TUU48M0T1",
        "user_team": "TUU48M0T1",
        "source_team": "TUU48M0T1",
        "user_profile": {
            "avatar_hash": "920c820f5900",
            "image_72": "https:\/\/avatars.slack-edge.com\/2020-03-17\/1009529536646_920c820f5900215fb339_72.jpg",
            "first_name": "Eric",
            "real_name": "Eric Chaves",
            "display_name": "Eric Chaves",
            "team": "TUU48M0T1",
            "name": "eric.chaves.llc",
            "is_restricted": false,
            "is_ultra_restricted": false
        },
        "blocks": [
            {
                "type": "rich_text",
                "block_id": "BoHc",
                "elements": [
                    {
                        "type": "rich_text_section",
                        "elements": [
                            {
                                "type": "text",
                                "text": "E.G. This is an amazing list of 3D printers, but no one has mobilzed efforts yet. I want to work on that. Let me know if there’s a better channel to discuss that. #resohttps:\/\/docs.google.com\/spreadsheets\/d\/1QE1vzezYdf6QJwxaMMLrWIks5AYAPUeSRWXxaYd3yK8\/edit#gid=587452832"
                            }
                        ]
                    }
                ]
            }
        ],
        "thread_ts": "1584727220.104300",
        "parent_user_id": "UV02WET96"
    },
    {
        "client_msg_id": "28f18ee4-c72e-41e9-8116-133db38773e8",
        "type": "message",
        "text": "I am trying to grab a printer from my old workplace or just buying a new one. Looks challenging, my city has gone into lockdown.",
        "user": "U0106PLV8PJ",
        "ts": "1584728459.106700",
        "team": "TUU48M0T1",
        "user_team": "TUU48M0T1",
        "source_team": "TUU48M0T1",
        "user_profile": {
            "avatar_hash": "g2cfc1aee243",
            "image_72": "https:\/\/secure.gravatar.com\/avatar\/2cfc1aee24305a18a647efef16d68e02.jpg?s=72&d=https%3A%2F%2Fa.slack-edge.com%2Fdf10d%2Fimg%2Favatars%2Fava_0012-72.png",
            "first_name": "",
            "real_name": "Rupin Chheda",
            "display_name": "",
            "team": "TUU48M0T1",
            "name": "rupin.chheda",
            "is_restricted": false,
            "is_ultra_restricted": false
        },
        "blocks": [
            {
                "type": "rich_text",
                "block_id": "wls",
                "elements": [
                    {
                        "type": "rich_text_section",
                        "elements": [
                            {
                                "type": "text",
                                "text": "I am trying to grab a printer from my old workplace or just buying a new one. Looks challenging, my city has gone into lockdown."
                            }
                        ]
                    }
                ]
            }
        ]
    },
    {
        "client_msg_id": "3b6368b6-f70c-4a85-8ae3-349d14538cd9",
        "type": "message",
        "text": "I'm happy to help facilitate.",
        "user": "UVADMLUB0",
        "ts": "1584729564.107000",
        "team": "TUU48M0T1",
        "user_team": "TUU48M0T1",
        "source_team": "TUU48M0T1",
        "user_profile": {
            "avatar_hash": "14179705705a",
            "image_72": "https:\/\/avatars.slack-edge.com\/2020-03-11\/981468022482_14179705705a94b3db16_72.jpg",
            "first_name": "Bill",
            "real_name": "Bill Slavin",
            "display_name": "Bill Slavin- Executive Director, Indie Lab",
            "team": "TUU48M0T1",
            "name": "bill",
            "is_restricted": false,
            "is_ultra_restricted": false
        },
        "blocks": [
            {
                "type": "rich_text",
                "block_id": "DmS",
                "elements": [
                    {
                        "type": "rich_text_section",
                        "elements": [
                            {
                                "type": "text",
                                "text": "I'm happy to help facilitate."
                            }
                        ]
                    }
                ]
            }
        ],
        "thread_ts": "1584727220.104300",
        "parent_user_id": "UV02WET96"
    },
    {
        "client_msg_id": "dc05f944-24b3-4b35-8f4f-536c02a90a5e",
        "type": "message",
        "text": "Thanks <@UVADMLUB0> I made this temp shared doc to help facilitate with 3D printers without asking them to join a slack group. I’m going to make a new channel to discuss what the next steps are for a better version. <https:\/\/docs.google.com\/document\/d\/1NcDnIdpkpdOBeWocyLZMPd_GLiQEheAYJVFHzs3x4hw\/edit#heading=h.bt7fxktk58g7>",
        "user": "UV8FL0JCA",
        "ts": "1584730107.107200",
        "team": "TUU48M0T1",
        "user_team": "TUU48M0T1",
        "source_team": "TUU48M0T1",
        "user_profile": {
            "avatar_hash": "920c820f5900",
            "image_72": "https:\/\/avatars.slack-edge.com\/2020-03-17\/1009529536646_920c820f5900215fb339_72.jpg",
            "first_name": "Eric",
            "real_name": "Eric Chaves",
            "display_name": "Eric Chaves",
            "team": "TUU48M0T1",
            "name": "eric.chaves.llc",
            "is_restricted": false,
            "is_ultra_restricted": false
        },
        "blocks": [
            {
                "type": "rich_text",
                "block_id": "vdp",
                "elements": [
                    {
                        "type": "rich_text_section",
                        "elements": [
                            {
                                "type": "text",
                                "text": "Thanks "
                            },
                            {
                                "type": "user",
                                "user_id": "UVADMLUB0"
                            },
                            {
                                "type": "text",
                                "text": " I made this temp shared doc to help facilitate with 3D printers without asking them to join a slack group. I’m going to make a new channel to discuss what the next steps are for a better version. "
                            },
                            {
                                "type": "link",
                                "url": "https:\/\/docs.google.com\/document\/d\/1NcDnIdpkpdOBeWocyLZMPd_GLiQEheAYJVFHzs3x4hw\/edit#heading=h.bt7fxktk58g7"
                            }
                        ]
                    }
                ]
            }
        ],
        "thread_ts": "1584727220.104300",
        "parent_user_id": "UV02WET96"
    },
    {
        "client_msg_id": "28851538-A13A-4D26-B8A4-0A66C04C915F",
        "type": "message",
        "text": "Fantastic guys! \nWould 10pm (in 50min) work for you? ",
        "user": "UV02WET96",
        "ts": "1584735025.108300",
        "team": "TUU48M0T1",
        "user_team": "TUU48M0T1",
        "source_team": "TUU48M0T1",
        "user_profile": {
            "avatar_hash": "a99c74a194f8",
            "image_72": "https:\/\/avatars.slack-edge.com\/2020-03-07\/975708504851_a99c74a194f86715ca7d_72.png",
            "first_name": "Thomas",
            "real_name": "Thomas Landrain",
            "display_name": "Thomas Landrain - CoFounder\/CEO JOGL",
            "team": "TUU48M0T1",
            "name": "thomas",
            "is_restricted": false,
            "is_ultra_restricted": false
        },
        "blocks": [
            {
                "type": "rich_text",
                "block_id": "HaV",
                "elements": [
                    {
                        "type": "rich_text_section",
                        "elements": [
                            {
                                "type": "text",
                                "text": "Fantastic guys! \nWould 10pm (in 50min) work for you? "
                            }
                        ]
                    }
                ]
            }
        ],
        "thread_ts": "1584727220.104300",
        "parent_user_id": "UV02WET96"
    },
    {
        "client_msg_id": "a646a3c9-a249-4a5d-b4a1-48e6f5c93dea",
        "type": "message",
        "text": "would work for me-- <@UV2P3AQEN> <@UV8FL0JCA> <@UVADMLUB0>?",
        "user": "UV0QTJCMT",
        "ts": "1584735066.109100",
        "team": "TUU48M0T1",
        "user_team": "TUU48M0T1",
        "source_team": "TUU48M0T1",
        "user_profile": {
            "avatar_hash": "11e3deb6d1a9",
            "image_72": "https:\/\/avatars.slack-edge.com\/2020-03-06\/986844736421_11e3deb6d1a949327ddd_72.png",
            "first_name": "Katherine",
            "real_name": "Katherine Holo",
            "display_name": "Kat Holo",
            "team": "TUU48M0T1",
            "name": "katherineh245",
            "is_restricted": false,
            "is_ultra_restricted": false
        },
        "blocks": [
            {
                "type": "rich_text",
                "block_id": "QkD8",
                "elements": [
                    {
                        "type": "rich_text_section",
                        "elements": [
                            {
                                "type": "text",
                                "text": "would work for me-- "
                            },
                            {
                                "type": "user",
                                "user_id": "UV2P3AQEN"
                            },
                            {
                                "type": "text",
                                "text": " "
                            },
                            {
                                "type": "user",
                                "user_id": "UV8FL0JCA"
                            },
                            {
                                "type": "text",
                                "text": " "
                            },
                            {
                                "type": "user",
                                "user_id": "UVADMLUB0"
                            },
                            {
                                "type": "text",
                                "text": "?"
                            }
                        ]
                    }
                ]
            }
        ],
        "thread_ts": "1584727220.104300",
        "parent_user_id": "UV02WET96"
    },
    {
        "client_msg_id": "7e44d808-e1f1-408f-88d1-f10f19784fd8",
        "type": "message",
        "text": "Ok for me too",
        "user": "UV2P3AQEN",
        "ts": "1584735147.110000",
        "team": "TUU48M0T1",
        "user_team": "TUU48M0T1",
        "source_team": "TUU48M0T1",
        "user_profile": {
            "avatar_hash": "82d977ce9645",
            "image_72": "https:\/\/avatars.slack-edge.com\/2020-03-16\/1003452392327_82d977ce9645ebc30917_72.jpg",
            "first_name": "Antonio",
            "real_name": "Antonio Mangiapane",
            "display_name": "Antonio Mangiapane",
            "team": "TUU48M0T1",
            "name": "antonio.mangiapane29",
            "is_restricted": false,
            "is_ultra_restricted": false
        },
        "blocks": [
            {
                "type": "rich_text",
                "block_id": "hQAu",
                "elements": [
                    {
                        "type": "rich_text_section",
                        "elements": [
                            {
                                "type": "text",
                                "text": "Ok for me too"
                            }
                        ]
                    }
                ]
            }
        ],
        "thread_ts": "1584727220.104300",
        "parent_user_id": "UV02WET96"
    },
    {
        "client_msg_id": "08A47B4C-1030-4997-8E46-F4FA9B5B523C",
        "type": "message",
        "text": "Also, people are working on mapping facilities such as labs in <#CV48ZESEP|prgm-metastudy-team> and <#CVB9NP1L6|prgm-dev-team> <@UV8FL0JCA> you should talk with them",
        "user": "UV02WET96",
        "ts": "1584735191.110600",
        "team": "TUU48M0T1",
        "user_team": "TUU48M0T1",
        "source_team": "TUU48M0T1",
        "user_profile": {
            "avatar_hash": "a99c74a194f8",
            "image_72": "https:\/\/avatars.slack-edge.com\/2020-03-07\/975708504851_a99c74a194f86715ca7d_72.png",
            "first_name": "Thomas",
            "real_name": "Thomas Landrain",
            "display_name": "Thomas Landrain - CoFounder\/CEO JOGL",
            "team": "TUU48M0T1",
            "name": "thomas",
            "is_restricted": false,
            "is_ultra_restricted": false
        },
        "edited": {
            "user": "UV02WET96",
            "ts": "1584735206.000000"
        },
        "blocks": [
            {
                "type": "rich_text",
                "block_id": "eECU",
                "elements": [
                    {
                        "type": "rich_text_section",
                        "elements": [
                            {
                                "type": "text",
                                "text": "Also, people are working on mapping facilities such as labs in "
                            },
                            {
                                "type": "channel",
                                "channel_id": "CV48ZESEP"
                            },
                            {
                                "type": "text",
                                "text": " and "
                            },
                            {
                                "type": "channel",
                                "channel_id": "CVB9NP1L6"
                            },
                            {
                                "type": "text",
                                "text": " "
                            },
                            {
                                "type": "user",
                                "user_id": "UV8FL0JCA"
                            },
                            {
                                "type": "text",
                                "text": " you should talk with them"
                            }
                        ]
                    }
                ]
            }
        ],
        "thread_ts": "1584727220.104300",
        "parent_user_id": "UV02WET96"
    },
    {
        "client_msg_id": "2B3752D7-DE0A-44FA-8578-2AC9C576F3F1",
        "type": "message",
        "text": " <https:\/\/zoom.us\/j\/7804345815|https:\/\/zoom.us\/j\/7804345815>",
        "user": "UV02WET96",
        "ts": "1584735293.111100",
        "team": "TUU48M0T1",
        "user_team": "TUU48M0T1",
        "source_team": "TUU48M0T1",
        "user_profile": {
            "avatar_hash": "a99c74a194f8",
            "image_72": "https:\/\/avatars.slack-edge.com\/2020-03-07\/975708504851_a99c74a194f86715ca7d_72.png",
            "first_name": "Thomas",
            "real_name": "Thomas Landrain",
            "display_name": "Thomas Landrain - CoFounder\/CEO JOGL",
            "team": "TUU48M0T1",
            "name": "thomas",
            "is_restricted": false,
            "is_ultra_restricted": false
        },
        "blocks": [
            {
                "type": "rich_text",
                "block_id": "MzTB",
                "elements": [
                    {
                        "type": "rich_text_section",
                        "elements": [
                            {
                                "type": "text",
                                "text": " "
                            },
                            {
                                "type": "link",
                                "url": "https:\/\/zoom.us\/j\/7804345815",
                                "text": "https:\/\/zoom.us\/j\/7804345815"
                            }
                        ]
                    }
                ]
            }
        ],
        "thread_ts": "1584727220.104300",
        "parent_user_id": "UV02WET96"
    },
    {
        "client_msg_id": "e41a1ccf-3b99-4196-929a-149406e0376a",
        "type": "message",
        "text": "<@UV8FL0JCA> <@UVADMLUB0> we have started if you want to join",
        "user": "UV02WET96",
        "ts": "1584738202.111300",
        "team": "TUU48M0T1",
        "user_team": "TUU48M0T1",
        "source_team": "TUU48M0T1",
        "user_profile": {
            "avatar_hash": "a99c74a194f8",
            "image_72": "https:\/\/avatars.slack-edge.com\/2020-03-07\/975708504851_a99c74a194f86715ca7d_72.png",
            "first_name": "Thomas",
            "real_name": "Thomas Landrain",
            "display_name": "Thomas Landrain - CoFounder\/CEO JOGL",
            "team": "TUU48M0T1",
            "name": "thomas",
            "is_restricted": false,
            "is_ultra_restricted": false
        },
        "blocks": [
            {
                "type": "rich_text",
                "block_id": "I\/Ix",
                "elements": [
                    {
                        "type": "rich_text_section",
                        "elements": [
                            {
                                "type": "user",
                                "user_id": "UV8FL0JCA"
                            },
                            {
                                "type": "text",
                                "text": " "
                            },
                            {
                                "type": "user",
                                "user_id": "UVADMLUB0"
                            },
                            {
                                "type": "text",
                                "text": " we have started if you want to join"
                            }
                        ]
                    }
                ]
            }
        ],
        "thread_ts": "1584727220.104300",
        "parent_user_id": "UV02WET96"
    },
    {
        "client_msg_id": "d3f0444d-2272-4d3b-b3c6-177da6afd242",
        "type": "message",
        "text": "Sorry folks, taking care of kids.",
        "user": "UVADMLUB0",
        "ts": "1584739094.111500",
        "team": "TUU48M0T1",
        "user_team": "TUU48M0T1",
        "source_team": "TUU48M0T1",
        "user_profile": {
            "avatar_hash": "14179705705a",
            "image_72": "https:\/\/avatars.slack-edge.com\/2020-03-11\/981468022482_14179705705a94b3db16_72.jpg",
            "first_name": "Bill",
            "real_name": "Bill Slavin",
            "display_name": "Bill Slavin- Executive Director, Indie Lab",
            "team": "TUU48M0T1",
            "name": "bill",
            "is_restricted": false,
            "is_ultra_restricted": false
        },
        "blocks": [
            {
                "type": "rich_text",
                "block_id": "ELye",
                "elements": [
                    {
                        "type": "rich_text_section",
                        "elements": [
                            {
                                "type": "text",
                                "text": "Sorry folks, taking care of kids."
                            }
                        ]
                    }
                ]
            }
        ],
        "thread_ts": "1584727220.104300",
        "parent_user_id": "UV02WET96"
    },
    {
        "client_msg_id": "c92f68ab-de76-4961-9463-a684a114af6f",
        "type": "message",
        "text": "no worries, we’ll share the content of discussion with you",
        "user": "UV02WET96",
        "ts": "1584739465.111700",
        "team": "TUU48M0T1",
        "user_team": "TUU48M0T1",
        "source_team": "TUU48M0T1",
        "user_profile": {
            "avatar_hash": "a99c74a194f8",
            "image_72": "https:\/\/avatars.slack-edge.com\/2020-03-07\/975708504851_a99c74a194f86715ca7d_72.png",
            "first_name": "Thomas",
            "real_name": "Thomas Landrain",
            "display_name": "Thomas Landrain - CoFounder\/CEO JOGL",
            "team": "TUU48M0T1",
            "name": "thomas",
            "is_restricted": false,
            "is_ultra_restricted": false
        },
        "blocks": [
            {
                "type": "rich_text",
                "block_id": "c5O",
                "elements": [
                    {
                        "type": "rich_text_section",
                        "elements": [
                            {
                                "type": "text",
                                "text": "no worries, we’ll share the content of discussion with you"
                            }
                        ]
                    }
                ]
            }
        ],
        "thread_ts": "1584727220.104300",
        "parent_user_id": "UV02WET96"
    },
    {
        "type": "message",
        "text": "<!channel> for those of you who would be interested in helping with the mask project, please join the <#C0104ANKV4L|proj-mask-team> and help compile designs in the sheet below! if you know other people outside of this workspace that know of open-source designs, please ask them to contribute info! see you on the call *tomorrow, 3\/21 7PM CET*",
        "user": "UV0QTJCMT",
        "ts": "1584740374.111900",
        "team": "TUU48M0T1",
        "user_team": "TUU48M0T1",
        "source_team": "TUU48M0T1",
        "user_profile": {
            "avatar_hash": "11e3deb6d1a9",
            "image_72": "https:\/\/avatars.slack-edge.com\/2020-03-06\/986844736421_11e3deb6d1a949327ddd_72.png",
            "first_name": "Katherine",
            "real_name": "Katherine Holo",
            "display_name": "Kat Holo",
            "team": "TUU48M0T1",
            "name": "katherineh245",
            "is_restricted": false,
            "is_ultra_restricted": false
        },
        "edited": {
            "user": "UV0QTJCMT",
            "ts": "1584740399.000000"
        },
        "attachments": [
            {
                "fallback": "[March 20th, 2020 2:36 PM] katherineh245: <!channel> would it be possible to  list out all of the different designs for masks we have? it'd be great if we could collect a list of all those designs, then develop a framework to \"grade\" their feasibility\/potential success and narrow it down to 4-5 mask designs to test\/validate within the community here or with partners outside of this community. then, should none of our \"best\" existing designs, we could then work on designing new masks. *could everyone with mask designs help start compiling this list (here's the <https:\/\/docs.google.com\/spreadsheets\/d\/1e81ceSrVT6Bl4UaS1SxIUUUzgZAdkIstU7Hzot08Ld8\/edit#gid=0|sheet>, but it might need to be more comprehensive)? _let's aim to have these designs to be collected by TUESDAY 3\/24_*",
                "ts": "1584740168.166500",
                "author_id": "UV0QTJCMT",
                "author_subname": "Katherine Holo",
                "channel_id": "C0104ANKV4L",
                "channel_name": "proj-mask-team",
                "is_msg_unfurl": true,
                "text": "<!channel> would it be possible to  list out all of the different designs for masks we have? it'd be great if we could collect a list of all those designs, then develop a framework to \"grade\" their feasibility\/potential success and narrow it down to 4-5 mask designs to test\/validate within the community here or with partners outside of this community. then, should none of our \"best\" existing designs, we could then work on designing new masks. *could everyone with mask designs help start compiling this list (here's the <https:\/\/docs.google.com\/spreadsheets\/d\/1e81ceSrVT6Bl4UaS1SxIUUUzgZAdkIstU7Hzot08Ld8\/edit#gid=0|sheet>, but it might need to be more comprehensive)? _let's aim to have these designs to be collected by TUESDAY 3\/24_*",
                "author_name": "Katherine Holo",
                "author_link": "https:\/\/open-covid19.slack.com\/team\/UV0QTJCMT",
                "author_icon": "https:\/\/avatars.slack-edge.com\/2020-03-06\/986844736421_11e3deb6d1a949327ddd_48.png",
                "mrkdwn_in": [
                    "text"
                ],
                "files": [
                    {
                        "id": "F010G359U0Y",
                        "created": 1584740171,
                        "timestamp": 1584740171,
                        "name": " Prototypes",
                        "title": "General repository for Face Masks Ideas \/ Prototypes",
                        "mimetype": "application\/vnd.google-apps.spreadsheet",
                        "filetype": "gsheet",
                        "pretty_type": "GSuite Spreadsheet",
                        "user": "UV0QTJCMT",
                        "editable": false,
                        "size": 57523,
                        "mode": "external",
                        "is_external": true,
                        "external_type": "gdrive",
                        "is_public": true,
                        "public_url_shared": false,
                        "display_as_bot": false,
                        "username": "",
                        "url_private": "https:\/\/docs.google.com\/spreadsheets\/d\/1e81ceSrVT6Bl4UaS1SxIUUUzgZAdkIstU7Hzot08Ld8\/edit#gid=0",
                        "thumb_360_w": 360,
                        "thumb_360_h": 167,
                        "permalink": "https:\/\/open-covid19.slack.com\/files\/UV0QTJCMT\/F010G359U0Y\/_prototypes",
                        "is_starred": false,
                        "external_id": "1e81ceSrVT6Bl4UaS1SxIUUUzgZAdkIstU7Hzot08Ld8",
                        "external_url": "https:\/\/docs.google.com\/spreadsheets\/d\/1e81ceSrVT6Bl4UaS1SxIUUUzgZAdkIstU7Hzot08Ld8\/edit#gid=0",
                        "has_rich_preview": false
                    }
                ],
                "color": "D0D0D0",
                "from_url": "https:\/\/open-covid19.slack.com\/archives\/C0104ANKV4L\/p1584740168166500",
                "is_share": true,
                "footer": "Posted in #proj-mask-team"
            }
        ],
        "blocks": [
            {
                "type": "rich_text",
                "block_id": "pg3",
                "elements": [
                    {
                        "type": "rich_text_section",
                        "elements": [
                            {
                                "type": "broadcast",
                                "range": "channel"
                            },
                            {
                                "type": "text",
                                "text": " for those of you who would be interested in helping with the mask project, please join the "
                            },
                            {
                                "type": "channel",
                                "channel_id": "C0104ANKV4L"
                            },
                            {
                                "type": "text",
                                "text": " and help compile designs in the sheet below! if you know other people outside of this workspace that know of open-source designs, please ask them to contribute info! see you on the call "
                            },
                            {
                                "type": "text",
                                "text": "tomorrow, 3\/21 7PM CET",
                                "style": {
                                    "bold": true
                                }
                            }
                        ]
                    }
                ]
            }
        ],
        "reactions": [
            {
                "name": "raised_hands",
                "users": [
                    "UV02WET96"
                ],
                "count": 1
            }
        ]
    },
    {
        "client_msg_id": "f94e29eb-3f3a-4d17-8bbc-238f5514dd7b",
        "type": "message",
        "text": "Shoot, sorry i missed this.",
        "user": "UV8FL0JCA",
        "ts": "1584742914.112500",
        "team": "TUU48M0T1",
        "user_team": "TUU48M0T1",
        "source_team": "TUU48M0T1",
        "user_profile": {
            "avatar_hash": "920c820f5900",
            "image_72": "https:\/\/avatars.slack-edge.com\/2020-03-17\/1009529536646_920c820f5900215fb339_72.jpg",
            "first_name": "Eric",
            "real_name": "Eric Chaves",
            "display_name": "Eric Chaves",
            "team": "TUU48M0T1",
            "name": "eric.chaves.llc",
            "is_restricted": false,
            "is_ultra_restricted": false
        },
        "blocks": [
            {
                "type": "rich_text",
                "block_id": "FrNm9",
                "elements": [
                    {
                        "type": "rich_text_section",
                        "elements": [
                            {
                                "type": "text",
                                "text": "Shoot, sorry i missed this."
                            }
                        ]
                    }
                ]
            }
        ],
        "thread_ts": "1584727220.104300",
        "parent_user_id": "UV02WET96"
    },
    {
        "client_msg_id": "251F7DC2-6244-42C9-9478-8F5C092C2111",
        "type": "message",
        "text": "<@UV8FL0JCA> <@UVADMLUB0> no worries — we basically discussed what we will be going over in the call tomorrow and the message that i sent in the channel about the mask designs. if you two could link up with <@UV2P3AQEN> to help him create the jogl project page dedicated to mask design and also help get the group to put all of their possible mask designs into the spreadsheet that’d be great ",
        "user": "UV0QTJCMT",
        "ts": "1584749429.002300",
        "team": "TUU48M0T1",
        "user_team": "TUU48M0T1",
        "source_team": "TUU48M0T1",
        "user_profile": {
            "avatar_hash": "11e3deb6d1a9",
            "image_72": "https:\/\/avatars.slack-edge.com\/2020-03-06\/986844736421_11e3deb6d1a949327ddd_72.png",
            "first_name": "Katherine",
            "real_name": "Katherine Holo",
            "display_name": "Kat Holo",
            "team": "TUU48M0T1",
            "name": "katherineh245",
            "is_restricted": false,
            "is_ultra_restricted": false
        },
        "blocks": [
            {
                "type": "rich_text",
                "block_id": "gsWq",
                "elements": [
                    {
                        "type": "rich_text_section",
                        "elements": [
                            {
                                "type": "user",
                                "user_id": "UV8FL0JCA"
                            },
                            {
                                "type": "text",
                                "text": " "
                            },
                            {
                                "type": "user",
                                "user_id": "UVADMLUB0"
                            },
                            {
                                "type": "text",
                                "text": " no worries — we basically discussed what we will be going over in the call tomorrow and the message that i sent in the channel about the mask designs. if you two could link up with "
                            },
                            {
                                "type": "user",
                                "user_id": "UV2P3AQEN"
                            },
                            {
                                "type": "text",
                                "text": " to help him create the jogl project page dedicated to mask design and also help get the group to put all of their possible mask designs into the spreadsheet that’d be great "
                            }
                        ]
                    }
                ]
            }
        ],
        "thread_ts": "1584727220.104300",
        "parent_user_id": "UV02WET96"
    },
    {
        "client_msg_id": "DCAE6E4C-E6D9-4EEA-AFFF-5A59F8DAD419",
        "type": "message",
        "text": "and then we can talk post the hardware call tomorrow how you three can help lead\/coordinate the hardware group\/projects",
        "user": "UV0QTJCMT",
        "ts": "1584749455.003300",
        "team": "TUU48M0T1",
        "user_team": "TUU48M0T1",
        "source_team": "TUU48M0T1",
        "user_profile": {
            "avatar_hash": "11e3deb6d1a9",
            "image_72": "https:\/\/avatars.slack-edge.com\/2020-03-06\/986844736421_11e3deb6d1a949327ddd_72.png",
            "first_name": "Katherine",
            "real_name": "Katherine Holo",
            "display_name": "Kat Holo",
            "team": "TUU48M0T1",
            "name": "katherineh245",
            "is_restricted": false,
            "is_ultra_restricted": false
        },
        "blocks": [
            {
                "type": "rich_text",
                "block_id": "8WWsJ",
                "elements": [
                    {
                        "type": "rich_text_section",
                        "elements": [
                            {
                                "type": "text",
                                "text": "and then we can talk post the hardware call tomorrow how you three can help lead\/coordinate the hardware group\/projects"
                            }
                        ]
                    }
                ]
            }
        ],
        "thread_ts": "1584727220.104300",
        "parent_user_id": "UV02WET96"
    },
    {
        "client_msg_id": "e55ac47a-37ea-42f6-b17d-cefbbbf65390",
        "type": "message",
        "text": "Okay sure. I’m mostly offline for the rest of tonight, but will be back on tomorrow am. (chicago CT )",
        "user": "UV8FL0JCA",
        "ts": "1584751396.003500",
        "team": "TUU48M0T1",
        "user_team": "TUU48M0T1",
        "source_team": "TUU48M0T1",
        "user_profile": {
            "avatar_hash": "920c820f5900",
            "image_72": "https:\/\/avatars.slack-edge.com\/2020-03-17\/1009529536646_920c820f5900215fb339_72.jpg",
            "first_name": "Eric",
            "real_name": "Eric Chaves",
            "display_name": "Eric Chaves",
            "team": "TUU48M0T1",
            "name": "eric.chaves.llc",
            "is_restricted": false,
            "is_ultra_restricted": false
        },
        "edited": {
            "user": "UV8FL0JCA",
            "ts": "1584751407.000000"
        },
        "blocks": [
            {
                "type": "rich_text",
                "block_id": "=d0",
                "elements": [
                    {
                        "type": "rich_text_section",
                        "elements": [
                            {
                                "type": "text",
                                "text": "Okay sure. I’m mostly offline for the rest of tonight, but will be back on tomorrow am. (chicago CT )"
                            }
                        ]
                    }
                ]
            }
        ],
        "thread_ts": "1584727220.104300",
        "parent_user_id": "UV02WET96",
        "reactions": [
            {
                "name": "+1",
                "users": [
                    "UV0QTJCMT",
                    "UV02WET96"
                ],
                "count": 2
            }
        ]
    }
]