[
    {
        "type": "message",
        "subtype": "channel_join",
        "ts": "1584006448.000200",
        "user": "UV7AZH728",
        "text": "<@UV7AZH728> has joined the channel"
    },
    {
        "client_msg_id": "39347917-4fc6-485d-a1f5-f0910af0a862",
        "type": "message",
        "text": "<https:\/\/www.opencell.bio\/coronavirus>",
        "user": "UV7AZH728",
        "ts": "1584006483.000400",
        "team": "TUU48M0T1",
        "user_team": "TUU48M0T1",
        "source_team": "TUU48M0T1",
        "user_profile": {
            "avatar_hash": "g3a93d1b5438",
            "image_72": "https:\/\/secure.gravatar.com\/avatar\/3a93d1b54386d7d5f4abceccfd7414e5.jpg?s=72&d=https%3A%2F%2Fa.slack-edge.com%2Fdf10d%2Fimg%2Favatars%2Fava_0013-72.png",
            "first_name": "",
            "real_name": "Tom Meany",
            "display_name": "Tom Meany",
            "team": "TUU48M0T1",
            "name": "covid19",
            "is_restricted": false,
            "is_ultra_restricted": false
        },
        "attachments": [
            {
                "title": "Coronavirus",
                "title_link": "https:\/\/www.opencell.bio\/coronavirus",
                "text": "CoVid-19 testing rate of &gt;10K tests\/day using lab automation infrastructure. Coronavirus testing support for London and United Kingdom",
                "fallback": "Coronavirus",
                "thumb_url": "https:\/\/uploads-ssl.webflow.com\/5beda5244920652be0723efa\/5e6907cb883db4b365e200d6_seocorona.jpg",
                "from_url": "https:\/\/www.opencell.bio\/coronavirus",
                "thumb_width": 793,
                "thumb_height": 370,
                "service_name": "opencell.bio",
                "id": 1,
                "original_url": "https:\/\/www.opencell.bio\/coronavirus"
            }
        ],
        "blocks": [
            {
                "type": "rich_text",
                "block_id": "9jv",
                "elements": [
                    {
                        "type": "rich_text_section",
                        "elements": [
                            {
                                "type": "link",
                                "url": "https:\/\/www.opencell.bio\/coronavirus"
                            }
                        ]
                    }
                ]
            }
        ]
    },
    {
        "type": "message",
        "subtype": "channel_join",
        "ts": "1584062382.000700",
        "user": "UV0S4MVDX",
        "text": "<@UV0S4MVDX> has joined the channel"
    }
]