[
    {
        "type": "message",
        "subtype": "channel_join",
        "ts": "1583938906.000200",
        "user": "UV0RRGB6H",
        "text": "<@UV0RRGB6H> has joined the channel"
    },
    {
        "type": "message",
        "subtype": "channel_join",
        "ts": "1583947311.000400",
        "user": "UUWLPKCLB",
        "text": "<@UUWLPKCLB> has joined the channel"
    },
    {
        "client_msg_id": "1f7cc60a-1470-4d06-98cb-e7f4c54c5b0c",
        "type": "message",
        "text": ":wave:",
        "user": "UUWLPKCLB",
        "ts": "1583947329.000700",
        "team": "TUU48M0T1",
        "user_team": "TUU48M0T1",
        "source_team": "TUU48M0T1",
        "user_profile": {
            "avatar_hash": "g59b893b3b55",
            "image_72": "https:\/\/secure.gravatar.com\/avatar\/59b893b3b558815c856d54c41813a478.jpg?s=72&d=https%3A%2F%2Fa.slack-edge.com%2Fdf10d%2Fimg%2Favatars%2Fava_0026-72.png",
            "first_name": "",
            "real_name": "Kristin",
            "display_name": "Kristin",
            "team": "TUU48M0T1",
            "name": "kristin.ellis88",
            "is_restricted": false,
            "is_ultra_restricted": false
        },
        "blocks": [
            {
                "type": "rich_text",
                "block_id": "cTP",
                "elements": [
                    {
                        "type": "rich_text_section",
                        "elements": [
                            {
                                "type": "emoji",
                                "name": "wave"
                            }
                        ]
                    }
                ]
            }
        ]
    },
    {
        "type": "message",
        "subtype": "channel_join",
        "ts": "1583948078.000900",
        "user": "UVA1JS2PR",
        "text": "<@UVA1JS2PR> has joined the channel"
    },
    {
        "type": "message",
        "subtype": "channel_join",
        "ts": "1583949890.001100",
        "user": "UUPQGNNTV",
        "text": "<@UUPQGNNTV> has joined the channel"
    },
    {
        "type": "message",
        "subtype": "channel_join",
        "ts": "1583983425.000200",
        "user": "UV2SC7ZE3",
        "text": "<@UV2SC7ZE3> has joined the channel"
    }
]