[
    {
        "type": "message",
        "subtype": "channel_join",
        "ts": "1583691180.000200",
        "user": "UV02WET96",
        "text": "<@UV02WET96> has joined the channel"
    },
    {
        "client_msg_id": "3ffabd90-54ec-4e6a-ac51-c72d9388e74a",
        "type": "message",
        "text": "There are more and more opportunities appearing as the situation is worsening. The goal of this channel is to identify and discuss how we could apply to grants with the OpenCovid19 initiative!",
        "user": "UV02WET96",
        "ts": "1583691353.001400",
        "team": "TUU48M0T1",
        "user_team": "TUU48M0T1",
        "source_team": "TUU48M0T1",
        "user_profile": {
            "avatar_hash": "a99c74a194f8",
            "image_72": "https:\/\/avatars.slack-edge.com\/2020-03-07\/975708504851_a99c74a194f86715ca7d_72.png",
            "first_name": "Thomas",
            "real_name": "Thomas Landrain",
            "display_name": "Thomas Landrain - CoFounder\/CEO JOGL",
            "team": "TUU48M0T1",
            "name": "thomas",
            "is_restricted": false,
            "is_ultra_restricted": false
        },
        "edited": {
            "user": "UV02WET96",
            "ts": "1583692019.000000"
        },
        "blocks": [
            {
                "type": "rich_text",
                "block_id": "qJ9",
                "elements": [
                    {
                        "type": "rich_text_section",
                        "elements": [
                            {
                                "type": "text",
                                "text": "There are more and more opportunities appearing as the situation is worsening. The goal of this channel is to identify and discuss how we could apply to grants with the OpenCovid19 initiative!"
                            }
                        ]
                    }
                ]
            }
        ]
    },
    {
        "type": "message",
        "subtype": "channel_join",
        "ts": "1583691842.001600",
        "user": "UV0QTJCMT",
        "text": "<@UV0QTJCMT> has joined the channel"
    },
    {
        "type": "message",
        "subtype": "channel_join",
        "ts": "1583691891.001800",
        "user": "UV0FQT2QL",
        "text": "<@UV0FQT2QL> has joined the channel"
    },
    {
        "client_msg_id": "c12f2716-b0a5-48f9-9183-e5ced376e31d",
        "type": "message",
        "text": "Here is the google doc : <https:\/\/docs.google.com\/document\/d\/1nGw5zq1JZX0TxqlpIfWUdF98M05RZfEOYRssIgelGWE\/edit#>",
        "user": "UV02WET96",
        "ts": "1583692332.002300",
        "team": "TUU48M0T1",
        "user_team": "TUU48M0T1",
        "source_team": "TUU48M0T1",
        "user_profile": {
            "avatar_hash": "a99c74a194f8",
            "image_72": "https:\/\/avatars.slack-edge.com\/2020-03-07\/975708504851_a99c74a194f86715ca7d_72.png",
            "first_name": "Thomas",
            "real_name": "Thomas Landrain",
            "display_name": "Thomas Landrain - CoFounder\/CEO JOGL",
            "team": "TUU48M0T1",
            "name": "thomas",
            "is_restricted": false,
            "is_ultra_restricted": false
        },
        "blocks": [
            {
                "type": "rich_text",
                "block_id": "FP=",
                "elements": [
                    {
                        "type": "rich_text_section",
                        "elements": [
                            {
                                "type": "text",
                                "text": "Here is the google doc : "
                            },
                            {
                                "type": "link",
                                "url": "https:\/\/docs.google.com\/document\/d\/1nGw5zq1JZX0TxqlpIfWUdF98M05RZfEOYRssIgelGWE\/edit#"
                            }
                        ]
                    }
                ]
            }
        ]
    },
    {
        "type": "message",
        "subtype": "channel_join",
        "ts": "1583694466.002600",
        "user": "UV3746ST1",
        "text": "<@UV3746ST1> has joined the channel"
    },
    {
        "type": "message",
        "subtype": "channel_join",
        "ts": "1583695274.000200",
        "user": "UUNGFHSV8",
        "text": "<@UUNGFHSV8> has joined the channel"
    },
    {
        "type": "message",
        "subtype": "channel_join",
        "ts": "1583695803.000400",
        "user": "UV120B2P7",
        "text": "<@UV120B2P7> has joined the channel"
    },
    {
        "type": "message",
        "subtype": "channel_join",
        "ts": "1583700673.000600",
        "user": "UV1D9NR1N",
        "text": "<@UV1D9NR1N> has joined the channel"
    },
    {
        "type": "message",
        "subtype": "channel_join",
        "ts": "1583701364.000800",
        "user": "UV3HA9MM4",
        "text": "<@UV3HA9MM4> has joined the channel"
    },
    {
        "type": "message",
        "subtype": "channel_join",
        "ts": "1583712174.001000",
        "user": "UV1G2M821",
        "text": "<@UV1G2M821> has joined the channel"
    },
    {
        "type": "message",
        "subtype": "channel_join",
        "ts": "1583714764.001200",
        "user": "UUUEFQW8N",
        "text": "<@UUUEFQW8N> has joined the channel"
    },
    {
        "type": "message",
        "subtype": "channel_join",
        "ts": "1583733701.001400",
        "user": "UUPFF4TC3",
        "text": "<@UUPFF4TC3> has joined the channel"
    },
    {
        "client_msg_id": "4a69fa4d-1b63-4ad9-96f3-163f2cda173d",
        "type": "message",
        "text": "Should we start an <http:\/\/experiment.com|experiment.com> campaign?",
        "user": "UUPFF4TC3",
        "ts": "1583733717.001800",
        "team": "TUU48M0T1",
        "user_team": "TUU48M0T1",
        "source_team": "TUU48M0T1",
        "user_profile": {
            "avatar_hash": "g563e1ed9e36",
            "image_72": "https:\/\/secure.gravatar.com\/avatar\/563e1ed9e362af0ce5867baad4d7c568.jpg?s=72&d=https%3A%2F%2Fa.slack-edge.com%2Fdf10d%2Fimg%2Favatars%2Fava_0007-72.png",
            "first_name": "Sophie",
            "real_name": "Sophie Liu",
            "display_name": "Sophie Liu",
            "team": "TUU48M0T1",
            "name": "sophie006liu",
            "is_restricted": false,
            "is_ultra_restricted": false
        },
        "blocks": [
            {
                "type": "rich_text",
                "block_id": "o0v8",
                "elements": [
                    {
                        "type": "rich_text_section",
                        "elements": [
                            {
                                "type": "text",
                                "text": "Should we start an "
                            },
                            {
                                "type": "link",
                                "url": "http:\/\/experiment.com",
                                "text": "experiment.com"
                            },
                            {
                                "type": "text",
                                "text": " campaign?"
                            }
                        ]
                    }
                ]
            }
        ],
        "thread_ts": "1583733717.001800",
        "reply_count": 2,
        "reply_users_count": 2,
        "latest_reply": "1583760169.002100",
        "reply_users": [
            "UUUEFQW8N",
            "UV02WET96"
        ],
        "replies": [
            {
                "user": "UUUEFQW8N",
                "ts": "1583759022.001900"
            },
            {
                "user": "UV02WET96",
                "ts": "1583760169.002100"
            }
        ],
        "subscribed": true,
        "last_read": "1583763092.000273"
    }
]