[
    {
        "client_msg_id": "ebd8220c-2eb8-4d49-bbfa-7592c76c4e6e",
        "type": "message",
        "text": "I think that might make sense for individual labs to go after, but for full group funding we probably want larger scale funding",
        "user": "UUUEFQW8N",
        "ts": "1583759022.001900",
        "team": "TUU48M0T1",
        "user_team": "TUU48M0T1",
        "source_team": "TUU48M0T1",
        "user_profile": {
            "avatar_hash": "5660f4d7fe91",
            "image_72": "https:\/\/avatars.slack-edge.com\/2020-03-06\/974037299378_5660f4d7fe9118b28c09_72.jpg",
            "first_name": "zachmueller",
            "real_name": "zachmueller",
            "display_name": "zachmueller",
            "team": "TUU48M0T1",
            "name": "zach",
            "is_restricted": false,
            "is_ultra_restricted": false
        },
        "blocks": [
            {
                "type": "rich_text",
                "block_id": "GBN",
                "elements": [
                    {
                        "type": "rich_text_section",
                        "elements": [
                            {
                                "type": "text",
                                "text": "I think that might make sense for individual labs to go after, but for full group funding we probably want larger scale funding"
                            }
                        ]
                    }
                ]
            }
        ],
        "thread_ts": "1583733717.001800",
        "parent_user_id": "UUPFF4TC3"
    },
    {
        "client_msg_id": "593f5845-4b2c-4206-84d2-2d4db5d266a0",
        "type": "message",
        "text": "i agree with zach, with the scale of the initiative, we need a large scale funding. However, we could also run a crowdfunding campaign on the side too!",
        "user": "UV02WET96",
        "ts": "1583760169.002100",
        "team": "TUU48M0T1",
        "user_team": "TUU48M0T1",
        "source_team": "TUU48M0T1",
        "user_profile": {
            "avatar_hash": "a99c74a194f8",
            "image_72": "https:\/\/avatars.slack-edge.com\/2020-03-07\/975708504851_a99c74a194f86715ca7d_72.png",
            "first_name": "Thomas",
            "real_name": "Thomas Landrain",
            "display_name": "Thomas Landrain - CoFounder\/CEO JOGL",
            "team": "TUU48M0T1",
            "name": "thomas",
            "is_restricted": false,
            "is_ultra_restricted": false
        },
        "blocks": [
            {
                "type": "rich_text",
                "block_id": "qL0Q",
                "elements": [
                    {
                        "type": "rich_text_section",
                        "elements": [
                            {
                                "type": "text",
                                "text": "i agree with zach, with the scale of the initiative, we need a large scale funding. However, we could also run a crowdfunding campaign on the side too!"
                            }
                        ]
                    }
                ]
            }
        ],
        "thread_ts": "1583733717.001800",
        "parent_user_id": "UUPFF4TC3"
    },
    {
        "client_msg_id": "a12f1f57-81b6-47fc-9ebf-890fed040806",
        "type": "message",
        "text": "Sounds like Gates might also be extending towards funding in addition to doing their own at home test kits: <https:\/\/amp.benzinga.com\/amp\/content\/15504603|https:\/\/amp.benzinga.com\/amp\/content\/15504603>",
        "user": "UUUEFQW8N",
        "ts": "1583763137.002900",
        "team": "TUU48M0T1",
        "user_team": "TUU48M0T1",
        "source_team": "TUU48M0T1",
        "user_profile": {
            "avatar_hash": "5660f4d7fe91",
            "image_72": "https:\/\/avatars.slack-edge.com\/2020-03-06\/974037299378_5660f4d7fe9118b28c09_72.jpg",
            "first_name": "zachmueller",
            "real_name": "zachmueller",
            "display_name": "zachmueller",
            "team": "TUU48M0T1",
            "name": "zach",
            "is_restricted": false,
            "is_ultra_restricted": false
        },
        "attachments": [
            {
                "service_name": "Benzinga",
                "title": "Bill Gates Foundation To Fund Coronavirus Testing Kits In Seattle, Aims At Checking Spread Of Disease In The Region",
                "title_link": "https:\/\/amp.benzinga.com\/amp\/content\/15504603",
                "text": "Microsoft Corporation (NASDAQ: MSFT) co-founder Bill Gates' foundation is set to fund home testing kits to diagnose coronavirus in Seattle. What Happened The Bill and...",
                "fallback": "Benzinga: Bill Gates Foundation To Fund Coronavirus Testing Kits In Seattle, Aims At Checking Spread Of Disease In The Region",
                "image_url": "https:\/\/cdn2.benzinga.com\/files\/imagecache\/600x400xUP\/images\/story\/2012\/1599px-bill_og_melinda_gates_2009-06-03_bilde_01_1.jpeg",
                "from_url": "https:\/\/amp.benzinga.com\/amp\/content\/15504603",
                "image_width": 375,
                "image_height": 250,
                "image_bytes": 24983,
                "service_icon": "https:\/\/www.benzinga.com\/sites\/all\/themes\/bz2\/images\/favicon-package\/apple-touch-icon.png",
                "id": 1,
                "original_url": "https:\/\/amp.benzinga.com\/amp\/content\/15504603"
            }
        ],
        "blocks": [
            {
                "type": "rich_text",
                "block_id": "sXOow",
                "elements": [
                    {
                        "type": "rich_text_section",
                        "elements": [
                            {
                                "type": "text",
                                "text": "Sounds like Gates might also be extending towards funding in addition to doing their own at home test kits: "
                            },
                            {
                                "type": "link",
                                "url": "https:\/\/amp.benzinga.com\/amp\/content\/15504603",
                                "text": "https:\/\/amp.benzinga.com\/amp\/content\/15504603"
                            }
                        ]
                    }
                ]
            }
        ],
        "reactions": [
            {
                "name": "+1",
                "users": [
                    "UV02WET96",
                    "UV0QTJCMT",
                    "UV3746ST1",
                    "UV3HA9MM4"
                ],
                "count": 4
            }
        ]
    },
    {
        "client_msg_id": "d629060c-bccb-4aab-8aeb-ec84dcc6f836",
        "type": "message",
        "text": "I’ve been given a contact at the Gates Foundation and one at the Zuckerberg Foundation too. I’ll ask them! :+1:",
        "user": "UV02WET96",
        "ts": "1583763227.004100",
        "team": "TUU48M0T1",
        "user_team": "TUU48M0T1",
        "source_team": "TUU48M0T1",
        "user_profile": {
            "avatar_hash": "a99c74a194f8",
            "image_72": "https:\/\/avatars.slack-edge.com\/2020-03-07\/975708504851_a99c74a194f86715ca7d_72.png",
            "first_name": "Thomas",
            "real_name": "Thomas Landrain",
            "display_name": "Thomas Landrain - CoFounder\/CEO JOGL",
            "team": "TUU48M0T1",
            "name": "thomas",
            "is_restricted": false,
            "is_ultra_restricted": false
        },
        "blocks": [
            {
                "type": "rich_text",
                "block_id": "FaLnk",
                "elements": [
                    {
                        "type": "rich_text_section",
                        "elements": [
                            {
                                "type": "text",
                                "text": "I’ve been given a contact at the Gates Foundation and one at the Zuckerberg Foundation too. I’ll ask them! "
                            },
                            {
                                "type": "emoji",
                                "name": "+1"
                            }
                        ]
                    }
                ]
            }
        ],
        "reactions": [
            {
                "name": "+1",
                "users": [
                    "UUUEFQW8N",
                    "UV0QTJCMT",
                    "UV3746ST1",
                    "UV3HA9MM4",
                    "UUWPKNE2E"
                ],
                "count": 5
            }
        ]
    }
]