[
    {
        "type": "message",
        "text": "",
        "user": "U01081Y0TBP",
        "ts": "1585137106.000400",
        "team": "TUU48M0T1",
        "user_team": "TUU48M0T1",
        "source_team": "TUU48M0T1",
        "user_profile": {
            "avatar_hash": "60ec5b47107a",
            "image_72": "https:\/\/avatars.slack-edge.com\/2020-03-18\/995274181218_60ec5b47107a3bd2ca7d_72.jpg",
            "first_name": "Peter",
            "real_name": "Peter Kooren",
            "display_name": "Peter Kooren",
            "team": "TUU48M0T1",
            "name": "peterkooren",
            "is_restricted": false,
            "is_ultra_restricted": false
        },
        "attachments": [
            {
                "fallback": "[March 24th, 2020 11:16 PM] m.haklay: A collection of funding calls from Tekiu - Solutions for COVID-19 | Funding calls &amp; collaborative opportunities <https:\/\/docs.google.com\/document\/d\/1dxiT3SVqnoHvLv7UIiA-ybUqDWcyALxNmCdchGU01Bs\/edit#heading=h.r5x7jn4yz162>",
                "ts": "1585088162.248400",
                "author_id": "U010FKTJX32",
                "author_subname": "Muki Haklay",
                "channel_id": "CUNGN9LAE",
                "channel_name": "research",
                "is_msg_unfurl": true,
                "text": "A collection of funding calls from Tekiu - Solutions for COVID-19 | Funding calls &amp; collaborative opportunities <https:\/\/docs.google.com\/document\/d\/1dxiT3SVqnoHvLv7UIiA-ybUqDWcyALxNmCdchGU01Bs\/edit#heading=h.r5x7jn4yz162>",
                "author_name": "Muki Haklay",
                "author_link": "https:\/\/open-covid19.slack.com\/team\/U010FKTJX32",
                "author_icon": "https:\/\/secure.gravatar.com\/avatar\/a5fa73210f15125aa001df8c65edf987.jpg?s=48&d=https%3A%2F%2Fa.slack-edge.com%2Fdf10d%2Fimg%2Favatars%2Fava_0018-48.png",
                "mrkdwn_in": [
                    "text"
                ],
                "color": "D0D0D0",
                "from_url": "https:\/\/open-covid19.slack.com\/archives\/CUNGN9LAE\/p1585088162248400",
                "is_share": true,
                "footer": "Posted in #research"
            }
        ]
    }
]