[
    {
        "client_msg_id": "4E13DFB5-E68C-49E3-99E0-8FAC131670F4",
        "type": "message",
        "text": "do we know what they code they use? is it open source? other wise do we know how to reproduce this <@U010GD44692> ?",
        "user": "UV85V64SD",
        "ts": "1584868040.017900",
        "team": "TUU48M0T1",
        "user_team": "TUU48M0T1",
        "source_team": "TUU48M0T1",
        "user_profile": {
            "avatar_hash": "1e73a651bdfe",
            "image_72": "https:\/\/avatars.slack-edge.com\/2020-03-16\/1004297548853_1e73a651bdfef2c41501_72.jpg",
            "first_name": "Marc",
            "real_name": "Marc Santolini",
            "display_name": "Marc Santolini - CoFounder \/ CSO JOGL",
            "team": "TUU48M0T1",
            "name": "marc.santolini",
            "is_restricted": false,
            "is_ultra_restricted": false
        },
        "blocks": [
            {
                "type": "rich_text",
                "block_id": "PswO",
                "elements": [
                    {
                        "type": "rich_text_section",
                        "elements": [
                            {
                                "type": "text",
                                "text": "do we know what they code they use? is it open source? other wise do we know how to reproduce this "
                            },
                            {
                                "type": "user",
                                "user_id": "U010GD44692"
                            },
                            {
                                "type": "text",
                                "text": " ?"
                            }
                        ]
                    }
                ]
            }
        ]
    },
    {
        "client_msg_id": "98743ceb-ba02-4a52-9dbb-5367682f57de",
        "type": "message",
        "text": "Marc, i do not want to reproduce their code, we are doing ours, the gitlab repo for this is here, i just pushed the code with notebook with some preliminary analysis\n<@UV85V64SD> <@U010AGDDEBZ> <@U0101DKUALV> we have a call at 3pm if you are around.\n\nWe have 3 issues there, everyone is welcome to contribute to them :slightly_smiling_face:\n<https:\/\/gitlab.com\/Liyubov\/metastudy\/-\/issues>",
        "user": "U010B412MF1",
        "ts": "1584870967.019900",
        "team": "TUU48M0T1",
        "user_team": "TUU48M0T1",
        "source_team": "TUU48M0T1",
        "user_profile": {
            "avatar_hash": "218d963a797f",
            "image_72": "https:\/\/avatars.slack-edge.com\/2020-03-19\/1013072792629_218d963a797fbf4410c0_72.png",
            "first_name": "",
            "real_name": "liu",
            "display_name": "liu",
            "team": "TUU48M0T1",
            "name": "liubov.tupikina",
            "is_restricted": false,
            "is_ultra_restricted": false
        },
        "attachments": [
            {
                "service_name": "GitLab",
                "title": "Issues · Liyubov \/ Metastudy",
                "title_link": "https:\/\/gitlab.com\/Liyubov\/metastudy\/-\/issues",
                "text": "Metastudy of the OpenCovid community organisation and response",
                "fallback": "GitLab: Issues · Liyubov \/ Metastudy",
                "thumb_url": "https:\/\/assets.gitlab-static.net\/assets\/gitlab_logo-7ae504fe4f68fdebb3c2034e36621930cd36ea87924c11ff65dbcb8ed50dca58.png",
                "from_url": "https:\/\/gitlab.com\/Liyubov\/metastudy\/-\/issues",
                "thumb_width": 128,
                "thumb_height": 128,
                "service_icon": "https:\/\/assets.gitlab-static.net\/assets\/touch-icon-iphone-5a9cee0e8a51212e70b90c87c12f382c428870c0ff67d1eb034d884b78d2dae7.png",
                "id": 1,
                "original_url": "https:\/\/gitlab.com\/Liyubov\/metastudy\/-\/issues"
            }
        ],
        "blocks": [
            {
                "type": "rich_text",
                "block_id": "GjN6e",
                "elements": [
                    {
                        "type": "rich_text_section",
                        "elements": [
                            {
                                "type": "text",
                                "text": "Marc, i do not want to reproduce their code, we are doing ours, the gitlab repo for this is here, i just pushed the code with notebook with some preliminary analysis\n"
                            },
                            {
                                "type": "user",
                                "user_id": "UV85V64SD"
                            },
                            {
                                "type": "text",
                                "text": " "
                            },
                            {
                                "type": "user",
                                "user_id": "U010AGDDEBZ"
                            },
                            {
                                "type": "text",
                                "text": " "
                            },
                            {
                                "type": "user",
                                "user_id": "U0101DKUALV"
                            },
                            {
                                "type": "text",
                                "text": " we have a call at 3pm if you are around.\n\nWe have 3 issues there, everyone is welcome to contribute to them "
                            },
                            {
                                "type": "emoji",
                                "name": "slightly_smiling_face"
                            },
                            {
                                "type": "text",
                                "text": "\n"
                            },
                            {
                                "type": "link",
                                "url": "https:\/\/gitlab.com\/Liyubov\/metastudy\/-\/issues"
                            }
                        ]
                    }
                ]
            }
        ],
        "thread_ts": "1584870967.019900",
        "reply_count": 7,
        "reply_users_count": 2,
        "latest_reply": "1584903485.001800",
        "reply_users": [
            "U0101DKUALV",
            "U010AGDDEBZ"
        ],
        "replies": [
            {
                "user": "U0101DKUALV",
                "ts": "1584902086.000100"
            },
            {
                "user": "U010AGDDEBZ",
                "ts": "1584902173.000300"
            },
            {
                "user": "U0101DKUALV",
                "ts": "1584902599.000500"
            },
            {
                "user": "U0101DKUALV",
                "ts": "1584902871.000700"
            },
            {
                "user": "U010AGDDEBZ",
                "ts": "1584903144.001400"
            },
            {
                "user": "U0101DKUALV",
                "ts": "1584903264.001600"
            },
            {
                "user": "U010AGDDEBZ",
                "ts": "1584903485.001800"
            }
        ],
        "subscribed": false
    },
    {
        "client_msg_id": "d704d62c-f33e-4692-8a50-7ca6f2bc50a5",
        "type": "message",
        "text": "Okay for 3pm",
        "user": "U010AGDDEBZ",
        "ts": "1584871869.020400",
        "team": "TUU48M0T1",
        "user_team": "TUU48M0T1",
        "source_team": "TUU48M0T1",
        "user_profile": {
            "avatar_hash": "a1cf28a8adcc",
            "image_72": "https:\/\/avatars.slack-edge.com\/2020-03-22\/1017122430308_a1cf28a8adcc052e8332_72.png",
            "first_name": "Rathin",
            "real_name": "Rathin Jeyaram",
            "display_name": "jrathin",
            "team": "TUU48M0T1",
            "name": "jeyaram.rathin",
            "is_restricted": false,
            "is_ultra_restricted": false
        },
        "blocks": [
            {
                "type": "rich_text",
                "block_id": "b2WFL",
                "elements": [
                    {
                        "type": "rich_text_section",
                        "elements": [
                            {
                                "type": "text",
                                "text": "Okay for 3pm"
                            }
                        ]
                    }
                ]
            }
        ]
    },
    {
        "client_msg_id": "a16582d7-2376-4a3f-9fb9-9c3f68f546ea",
        "type": "message",
        "text": "Great. I added Gitlab-metastudy to Slack, so normally we should see our activity there also here...\n\nNever did it with gitlab, should be the same as for github though\n\nHere is the documentation on this from Leo <https:\/\/gitlab.com\/help\/user\/project\/integrations\/gitlab_slack_application.md>",
        "user": "U010B412MF1",
        "ts": "1584871932.021400",
        "team": "TUU48M0T1",
        "user_team": "TUU48M0T1",
        "source_team": "TUU48M0T1",
        "user_profile": {
            "avatar_hash": "218d963a797f",
            "image_72": "https:\/\/avatars.slack-edge.com\/2020-03-19\/1013072792629_218d963a797fbf4410c0_72.png",
            "first_name": "",
            "real_name": "liu",
            "display_name": "liu",
            "team": "TUU48M0T1",
            "name": "liubov.tupikina",
            "is_restricted": false,
            "is_ultra_restricted": false
        },
        "edited": {
            "user": "U010B412MF1",
            "ts": "1584872031.000000"
        },
        "blocks": [
            {
                "type": "rich_text",
                "block_id": "i8=",
                "elements": [
                    {
                        "type": "rich_text_section",
                        "elements": [
                            {
                                "type": "text",
                                "text": "Great. I added Gitlab-metastudy to Slack, so normally we should see our activity there also here...\n\nNever did it with gitlab, should be the same as for github though\n\nHere is the documentation on this from Leo "
                            },
                            {
                                "type": "link",
                                "url": "https:\/\/gitlab.com\/help\/user\/project\/integrations\/gitlab_slack_application.md"
                            }
                        ]
                    }
                ]
            }
        ]
    },
    {
        "type": "message",
        "subtype": "channel_join",
        "ts": "1584883533.021700",
        "user": "U010K47QZHC",
        "text": "<@U010K47QZHC> has joined the channel",
        "inviter": "U010AGDDEBZ"
    },
    {
        "client_msg_id": "d5040e02-71e6-45cc-9f06-c30e5fc7a71a",
        "type": "message",
        "text": "Ahhh, sorry, I am on Pacific Time so I got this too late! Were there any notes taken?",
        "user": "U0101DKUALV",
        "ts": "1584902086.000100",
        "team": "TUU48M0T1",
        "user_team": "TUU48M0T1",
        "source_team": "TUU48M0T1",
        "user_profile": {
            "avatar_hash": "gac6154e1c22",
            "image_72": "https:\/\/secure.gravatar.com\/avatar\/ac6154e1c224ad644230148686eca456.jpg?s=72&d=https%3A%2F%2Fa.slack-edge.com%2Fdf10d%2Fimg%2Favatars%2Fava_0024-72.png",
            "first_name": "",
            "real_name": "Pauline Chane",
            "display_name": "Pauline Chane",
            "team": "TUU48M0T1",
            "name": "pauline.chane",
            "is_restricted": false,
            "is_ultra_restricted": false
        },
        "blocks": [
            {
                "type": "rich_text",
                "block_id": "JzVw",
                "elements": [
                    {
                        "type": "rich_text_section",
                        "elements": [
                            {
                                "type": "text",
                                "text": "Ahhh, sorry, I am on Pacific Time so I got this too late! Were there any notes taken?"
                            }
                        ]
                    }
                ]
            }
        ],
        "thread_ts": "1584870967.019900",
        "parent_user_id": "U010B412MF1"
    },
    {
        "client_msg_id": "0fa2e2c6-cd26-478f-a1d8-30f082e94030",
        "type": "message",
        "text": "We noted some points in the 2020 metastudy notes Google doc.",
        "user": "U010AGDDEBZ",
        "ts": "1584902173.000300",
        "team": "TUU48M0T1",
        "user_team": "TUU48M0T1",
        "source_team": "TUU48M0T1",
        "user_profile": {
            "avatar_hash": "a1cf28a8adcc",
            "image_72": "https:\/\/avatars.slack-edge.com\/2020-03-22\/1017122430308_a1cf28a8adcc052e8332_72.png",
            "first_name": "Rathin",
            "real_name": "Rathin Jeyaram",
            "display_name": "jrathin",
            "team": "TUU48M0T1",
            "name": "jeyaram.rathin",
            "is_restricted": false,
            "is_ultra_restricted": false
        },
        "blocks": [
            {
                "type": "rich_text",
                "block_id": "5XSYB",
                "elements": [
                    {
                        "type": "rich_text_section",
                        "elements": [
                            {
                                "type": "text",
                                "text": "We noted some points in the 2020 metastudy notes Google doc."
                            }
                        ]
                    }
                ]
            }
        ],
        "thread_ts": "1584870967.019900",
        "parent_user_id": "U010B412MF1"
    },
    {
        "client_msg_id": "92a36a25-28fe-4225-80d9-42011fc76304",
        "type": "message",
        "text": "Thank you so much!",
        "user": "U0101DKUALV",
        "ts": "1584902599.000500",
        "team": "TUU48M0T1",
        "user_team": "TUU48M0T1",
        "source_team": "TUU48M0T1",
        "user_profile": {
            "avatar_hash": "gac6154e1c22",
            "image_72": "https:\/\/secure.gravatar.com\/avatar\/ac6154e1c224ad644230148686eca456.jpg?s=72&d=https%3A%2F%2Fa.slack-edge.com%2Fdf10d%2Fimg%2Favatars%2Fava_0024-72.png",
            "first_name": "",
            "real_name": "Pauline Chane",
            "display_name": "Pauline Chane",
            "team": "TUU48M0T1",
            "name": "pauline.chane",
            "is_restricted": false,
            "is_ultra_restricted": false
        },
        "blocks": [
            {
                "type": "rich_text",
                "block_id": "NhB",
                "elements": [
                    {
                        "type": "rich_text_section",
                        "elements": [
                            {
                                "type": "text",
                                "text": "Thank you so much!"
                            }
                        ]
                    }
                ]
            }
        ],
        "thread_ts": "1584870967.019900",
        "parent_user_id": "U010B412MF1"
    },
    {
        "type": "message",
        "text": "<https:\/\/docs.google.com\/spreadsheets\/d\/1kcXcstyfrDD39NkF69gZ8oRnCC9U0LpU03jLGXl9_iM\/edit#gid=1565212751>",
        "files": [
            {
                "id": "FV2LD99V0",
                "created": 1584308243,
                "timestamp": 1584308243,
                "name": "OpenCovid19 Initiative Initial Survey  (Responses)",
                "title": "OpenCovid19 Initiative Initial Survey  (Responses)",
                "mimetype": "application\/vnd.google-apps.spreadsheet",
                "filetype": "gsheet",
                "pretty_type": "GSuite Spreadsheet",
                "user": "UV0QTJCMT",
                "editable": false,
                "size": 181411,
                "mode": "external",
                "is_external": true,
                "external_type": "gdrive",
                "is_public": true,
                "public_url_shared": false,
                "display_as_bot": false,
                "username": "",
                "url_private": "https:\/\/docs.google.com\/spreadsheets\/d\/1kcXcstyfrDD39NkF69gZ8oRnCC9U0LpU03jLGXl9_iM\/edit?usp=drive_web&ouid=107508038961007311473",
                "thumb_64": "https:\/\/a.slack-edge.com\/80588\/img\/files\/gsheet_64.png",
                "thumb_360": "https:\/\/a.slack-edge.com\/80588\/img\/files\/gsheet_360.png",
                "thumb_360_w": 360,
                "thumb_360_h": 167,
                "permalink": "https:\/\/open-covid19.slack.com\/files\/UV0QTJCMT\/FV2LD99V0\/opencovid19_initiative_initial_survey___responses_",
                "is_starred": false,
                "external_id": "1kcXcstyfrDD39NkF69gZ8oRnCC9U0LpU03jLGXl9_iM",
                "external_url": "https:\/\/docs.google.com\/spreadsheets\/d\/1kcXcstyfrDD39NkF69gZ8oRnCC9U0LpU03jLGXl9_iM\/edit?usp=drive_web&ouid=107508038961007311473",
                "has_rich_preview": false
            }
        ],
        "upload": false,
        "blocks": [
            {
                "type": "rich_text",
                "block_id": "hMR00",
                "elements": [
                    {
                        "type": "rich_text_section",
                        "elements": [
                            {
                                "type": "link",
                                "url": "https:\/\/docs.google.com\/spreadsheets\/d\/1kcXcstyfrDD39NkF69gZ8oRnCC9U0LpU03jLGXl9_iM\/edit#gid=1565212751"
                            }
                        ]
                    }
                ]
            }
        ],
        "user": "U0101DKUALV",
        "display_as_bot": false,
        "x_files": [
            "FV2LD99V0"
        ],
        "ts": "1584902871.000700",
        "client_msg_id": "d8e2a7cc-c765-41f9-b30f-bb42c97ca3ee",
        "thread_ts": "1584870967.019900",
        "parent_user_id": "U010B412MF1"
    },
    {
        "client_msg_id": "02aa79aa-f0f4-4daf-ac25-c4023295fc93",
        "type": "message",
        "text": "Thanks!!",
        "user": "U010AGDDEBZ",
        "ts": "1584903144.001400",
        "team": "TUU48M0T1",
        "user_team": "TUU48M0T1",
        "source_team": "TUU48M0T1",
        "user_profile": {
            "avatar_hash": "a1cf28a8adcc",
            "image_72": "https:\/\/avatars.slack-edge.com\/2020-03-22\/1017122430308_a1cf28a8adcc052e8332_72.png",
            "first_name": "Rathin",
            "real_name": "Rathin Jeyaram",
            "display_name": "jrathin",
            "team": "TUU48M0T1",
            "name": "jeyaram.rathin",
            "is_restricted": false,
            "is_ultra_restricted": false
        },
        "blocks": [
            {
                "type": "rich_text",
                "block_id": "=juAo",
                "elements": [
                    {
                        "type": "rich_text_section",
                        "elements": [
                            {
                                "type": "text",
                                "text": "Thanks!!"
                            }
                        ]
                    }
                ]
            }
        ],
        "thread_ts": "1584870967.019900",
        "parent_user_id": "U010B412MF1"
    },
    {
        "client_msg_id": "a71ca55e-6a21-4b42-8dc5-758941091c56",
        "type": "message",
        "text": "I'm about to go to the meeting, but should be easy to pull into a table and match in users json",
        "user": "U0101DKUALV",
        "ts": "1584903264.001600",
        "team": "TUU48M0T1",
        "user_team": "TUU48M0T1",
        "source_team": "TUU48M0T1",
        "user_profile": {
            "avatar_hash": "gac6154e1c22",
            "image_72": "https:\/\/secure.gravatar.com\/avatar\/ac6154e1c224ad644230148686eca456.jpg?s=72&d=https%3A%2F%2Fa.slack-edge.com%2Fdf10d%2Fimg%2Favatars%2Fava_0024-72.png",
            "first_name": "",
            "real_name": "Pauline Chane",
            "display_name": "Pauline Chane",
            "team": "TUU48M0T1",
            "name": "pauline.chane",
            "is_restricted": false,
            "is_ultra_restricted": false
        },
        "blocks": [
            {
                "type": "rich_text",
                "block_id": "C\/43U",
                "elements": [
                    {
                        "type": "rich_text_section",
                        "elements": [
                            {
                                "type": "text",
                                "text": "I'm about to go to the meeting, but should be easy to pull into a table and match in users json"
                            }
                        ]
                    }
                ]
            }
        ],
        "thread_ts": "1584870967.019900",
        "parent_user_id": "U010B412MF1"
    },
    {
        "client_msg_id": "6a1fbaa5-42be-4218-936b-29c3b5ad3d7a",
        "type": "message",
        "text": "Yes. It should be easy to match",
        "user": "U010AGDDEBZ",
        "ts": "1584903485.001800",
        "team": "TUU48M0T1",
        "user_team": "TUU48M0T1",
        "source_team": "TUU48M0T1",
        "user_profile": {
            "avatar_hash": "a1cf28a8adcc",
            "image_72": "https:\/\/avatars.slack-edge.com\/2020-03-22\/1017122430308_a1cf28a8adcc052e8332_72.png",
            "first_name": "Rathin",
            "real_name": "Rathin Jeyaram",
            "display_name": "jrathin",
            "team": "TUU48M0T1",
            "name": "jeyaram.rathin",
            "is_restricted": false,
            "is_ultra_restricted": false
        },
        "blocks": [
            {
                "type": "rich_text",
                "block_id": "2zeD",
                "elements": [
                    {
                        "type": "rich_text_section",
                        "elements": [
                            {
                                "type": "text",
                                "text": "Yes. It should be easy to match"
                            }
                        ]
                    }
                ]
            }
        ],
        "thread_ts": "1584870967.019900",
        "parent_user_id": "U010B412MF1"
    },
    {
        "client_msg_id": "93ca8e4f-aa3b-4eed-88c2-ba226a790084",
        "type": "message",
        "text": "Hello, just a quick update -- I was able to map Slack ID to the survey responses using the e-mail, no luck with cases where the emails are different and names have to be searched instead (only some are captured but not all). I modified <@U010B412MF1>’s code <https:\/\/gitlab.com\/Liyubov\/metastudy\/-\/blob\/master\/Slack%20data\/open_covid_slack_read_data.py> to also read a .csv file containing the survey data. Not the prettiest code at the moment but it will definitely work.\n\nUPDATE\nEDIT: I now have rudimentary numbers. I downloaded responses from the survey and removed any rows including people who joined after the last user \"introduced\" in prgm-introductions--&gt; 2020-03-19.json\nHowever, in digging up this data I suspect not all users are included in the users.json???? Maybe I missed something...\n\nBased on that data it is estimated that only ~38% of Slack users filled out the onboarding survey. Of those who filled out the survey, I was able to assign Slack IDs to 85.4% of the responses before having to resort to manual match for 29 entries. Of those 29 entries, 9 were matched in user data manually (with 2 requiring extra Googling :disappointed: ) and 20 were no where to be found??\n\nIn total, of 199 survey responses, 91.0% were able to be matched to a Slack ID.",
        "user": "U0101DKUALV",
        "ts": "1584934283.004200",
        "team": "TUU48M0T1",
        "user_team": "TUU48M0T1",
        "source_team": "TUU48M0T1",
        "user_profile": {
            "avatar_hash": "gac6154e1c22",
            "image_72": "https:\/\/secure.gravatar.com\/avatar\/ac6154e1c224ad644230148686eca456.jpg?s=72&d=https%3A%2F%2Fa.slack-edge.com%2Fdf10d%2Fimg%2Favatars%2Fava_0024-72.png",
            "first_name": "",
            "real_name": "Pauline Chane",
            "display_name": "Pauline Chane",
            "team": "TUU48M0T1",
            "name": "pauline.chane",
            "is_restricted": false,
            "is_ultra_restricted": false
        },
        "edited": {
            "user": "U0101DKUALV",
            "ts": "1584956865.000000"
        },
        "attachments": [
            {
                "service_name": "GitLab",
                "title": "Slack data\/open_covid_slack_read_data.py · master · Liyubov \/ Metastudy",
                "title_link": "https:\/\/gitlab.com\/Liyubov\/metastudy\/-\/blob\/master\/Slack%20data\/open_covid_slack_read_data.py",
                "text": "Metastudy of the OpenCovid community organisation and response",
                "fallback": "GitLab: Slack data\/open_covid_slack_read_data.py · master · Liyubov \/ Metastudy",
                "thumb_url": "https:\/\/assets.gitlab-static.net\/assets\/gitlab_logo-7ae504fe4f68fdebb3c2034e36621930cd36ea87924c11ff65dbcb8ed50dca58.png",
                "from_url": "https:\/\/gitlab.com\/Liyubov\/metastudy\/-\/blob\/master\/Slack%20data\/open_covid_slack_read_data.py",
                "thumb_width": 128,
                "thumb_height": 128,
                "service_icon": "https:\/\/assets.gitlab-static.net\/assets\/touch-icon-iphone-5a9cee0e8a51212e70b90c87c12f382c428870c0ff67d1eb034d884b78d2dae7.png",
                "id": 1,
                "original_url": "https:\/\/gitlab.com\/Liyubov\/metastudy\/-\/blob\/master\/Slack%20data\/open_covid_slack_read_data.py"
            }
        ],
        "blocks": [
            {
                "type": "rich_text",
                "block_id": "fg=",
                "elements": [
                    {
                        "type": "rich_text_section",
                        "elements": [
                            {
                                "type": "text",
                                "text": "Hello, just a quick update -- I was able to map Slack ID to the survey responses using the e-mail, no luck with cases where the emails are different and names have to be searched instead (only some are captured but not all). I modified "
                            },
                            {
                                "type": "user",
                                "user_id": "U010B412MF1"
                            },
                            {
                                "type": "text",
                                "text": "’s code "
                            },
                            {
                                "type": "link",
                                "url": "https:\/\/gitlab.com\/Liyubov\/metastudy\/-\/blob\/master\/Slack%20data\/open_covid_slack_read_data.py"
                            },
                            {
                                "type": "text",
                                "text": " to also read a .csv file containing the survey data. Not the prettiest code at the moment but it will definitely work.\n\nUPDATE\nEDIT: I now have rudimentary numbers. I downloaded responses from the survey and removed any rows including people who joined after the last user \"introduced\" in prgm-introductions--> 2020-03-19.json\nHowever, in digging up this data I suspect not all users are included in the users.json???? Maybe I missed something...\n\nBased on that data it is estimated that only ~38% of Slack users filled out the onboarding survey. Of those who filled out the survey, I was able to assign Slack IDs to 85.4% of the responses before having to resort to manual match for 29 entries. Of those 29 entries, 9 were matched in user data manually (with 2 requiring extra Googling "
                            },
                            {
                                "type": "emoji",
                                "name": "disappointed"
                            },
                            {
                                "type": "text",
                                "text": " ) and 20 were no where to be found??\n\nIn total, of 199 survey responses, 91.0% were able to be matched to a Slack ID."
                            }
                        ]
                    }
                ]
            }
        ],
        "thread_ts": "1584934283.004200",
        "reply_count": 2,
        "reply_users_count": 2,
        "latest_reply": "1585000651.010100",
        "reply_users": [
            "U010B412MF1",
            "U0101DKUALV"
        ],
        "replies": [
            {
                "user": "U010B412MF1",
                "ts": "1585000577.009900"
            },
            {
                "user": "U0101DKUALV",
                "ts": "1585000651.010100"
            }
        ],
        "subscribed": false,
        "reactions": [
            {
                "name": "heart",
                "users": [
                    "U010B412MF1"
                ],
                "count": 1
            },
            {
                "name": "earth_asia",
                "users": [
                    "U010B412MF1"
                ],
                "count": 1
            }
        ]
    }
]