[
    {
        "client_msg_id": "bd51cae6-d7f5-4cd3-b551-d6414b9976ea",
        "type": "message",
        "text": "ok keep us posted :wink:",
        "user": "UV85V64SD",
        "ts": "1585299052.006500",
        "team": "TUU48M0T1",
        "user_team": "TUU48M0T1",
        "source_team": "TUU48M0T1",
        "user_profile": {
            "avatar_hash": "1e73a651bdfe",
            "image_72": "https:\/\/avatars.slack-edge.com\/2020-03-16\/1004297548853_1e73a651bdfef2c41501_72.jpg",
            "first_name": "Marc",
            "real_name": "Marc Santolini",
            "display_name": "Marc Santolini - CoFounder \/ CSO JOGL",
            "team": "TUU48M0T1",
            "name": "marc.santolini",
            "is_restricted": false,
            "is_ultra_restricted": false
        },
        "blocks": [
            {
                "type": "rich_text",
                "block_id": "ZfIi",
                "elements": [
                    {
                        "type": "rich_text_section",
                        "elements": [
                            {
                                "type": "text",
                                "text": "ok keep us posted "
                            },
                            {
                                "type": "emoji",
                                "name": "wink"
                            }
                        ]
                    }
                ]
            }
        ],
        "thread_ts": "1585127713.001900",
        "parent_user_id": "UV85V64SD"
    },
    {
        "client_msg_id": "4796e2b6-7ab2-4741-96d8-3c05e94bad16",
        "type": "message",
        "text": "Alas, I'll be out for science fair judging during the call :disappointed: Next week it is!",
        "user": "U0101DKUALV",
        "ts": "1585302141.006700",
        "team": "TUU48M0T1",
        "user_team": "TUU48M0T1",
        "source_team": "TUU48M0T1",
        "user_profile": {
            "avatar_hash": "gac6154e1c22",
            "image_72": "https:\/\/secure.gravatar.com\/avatar\/ac6154e1c224ad644230148686eca456.jpg?s=72&d=https%3A%2F%2Fa.slack-edge.com%2Fdf10d%2Fimg%2Favatars%2Fava_0024-72.png",
            "first_name": "",
            "real_name": "Pauline Chane",
            "display_name": "Pauline Chane",
            "team": "TUU48M0T1",
            "name": "pauline.chane",
            "is_restricted": false,
            "is_ultra_restricted": false
        },
        "blocks": [
            {
                "type": "rich_text",
                "block_id": "VvwS",
                "elements": [
                    {
                        "type": "rich_text_section",
                        "elements": [
                            {
                                "type": "text",
                                "text": "Alas, I'll be out for science fair judging during the call "
                            },
                            {
                                "type": "emoji",
                                "name": "disappointed"
                            },
                            {
                                "type": "text",
                                "text": " Next week it is!"
                            }
                        ]
                    }
                ]
            }
        ],
        "thread_ts": "1585127713.001900",
        "parent_user_id": "UV85V64SD"
    },
    {
        "type": "message",
        "subtype": "channel_join",
        "ts": "1585327846.007000",
        "user": "U010GD44692",
        "text": "<@U010GD44692> has joined the channel"
    }
]