[
    {
        "client_msg_id": "0653fa4f-f79f-4967-a067-b92b9a5cd125",
        "type": "message",
        "text": "The supplies for RNA extraction have also become a bottleneck for some, so I applaud your efforts!",
        "user": "UUPQGNNTV",
        "ts": "1584366749.044800",
        "team": "TUU48M0T1",
        "user_team": "TUU48M0T1",
        "source_team": "TUU48M0T1",
        "user_profile": {
            "avatar_hash": "c28127caf7eb",
            "image_72": "https:\/\/avatars.slack-edge.com\/2020-03-07\/989562470694_c28127caf7ebfe67df97_72.jpg",
            "first_name": "",
            "real_name": "Ellen Jorgensen",
            "display_name": "",
            "team": "TUU48M0T1",
            "name": "ejorgensen",
            "is_restricted": false,
            "is_ultra_restricted": false
        },
        "blocks": [
            {
                "type": "rich_text",
                "block_id": "Nk0",
                "elements": [
                    {
                        "type": "rich_text_section",
                        "elements": [
                            {
                                "type": "text",
                                "text": "The supplies for RNA extraction have also become a bottleneck for some, so I applaud your efforts!"
                            }
                        ]
                    }
                ]
            }
        ],
        "thread_ts": "1584366749.044800",
        "reply_count": 2,
        "reply_users_count": 1,
        "latest_reply": "1584636530.049900",
        "reply_users": [
            "U0103128G4D"
        ],
        "replies": [
            {
                "user": "U0103128G4D",
                "ts": "1584636511.049700"
            },
            {
                "user": "U0103128G4D",
                "ts": "1584636530.049900"
            }
        ],
        "subscribed": false
    },
    {
        "client_msg_id": "17629fc1-9fec-4d5b-97e8-5922557945f2",
        "type": "message",
        "text": "What chemistry\/filtration are you using for the RNA extraction? I was part of work on this, and could ping the people who led that part of the effort.",
        "user": "U0100NGSTDJ",
        "ts": "1584369680.045100",
        "team": "TUU48M0T1",
        "user_team": "TUU48M0T1",
        "source_team": "TUU48M0T1",
        "user_profile": {
            "avatar_hash": "ge1d3326342e",
            "image_72": "https:\/\/secure.gravatar.com\/avatar\/e1d3326342ee9de40822577d766465e8.jpg?s=72&d=https%3A%2F%2Fa.slack-edge.com%2Fdf10d%2Fimg%2Favatars%2Fava_0021-72.png",
            "first_name": "",
            "real_name": "Jason Yamada-Hanff",
            "display_name": "",
            "team": "TUU48M0T1",
            "name": "jyamada1",
            "is_restricted": false,
            "is_ultra_restricted": false
        },
        "blocks": [
            {
                "type": "rich_text",
                "block_id": "yl+",
                "elements": [
                    {
                        "type": "rich_text_section",
                        "elements": [
                            {
                                "type": "text",
                                "text": "What chemistry\/filtration are you using for the RNA extraction? I was part of work on this, and could ping the people who led that part of the effort."
                            }
                        ]
                    }
                ]
            }
        ],
        "thread_ts": "1584333621.043000",
        "parent_user_id": "UV1CX069G"
    },
    {
        "client_msg_id": "e16fc571-2d20-4f22-960f-c76071bd4796",
        "type": "message",
        "text": "I just read about lack of \"genome extraction kits\" in The Economist too :slightly_smiling_face:",
        "user": "UV1CX069G",
        "ts": "1584382011.045900",
        "team": "TUU48M0T1",
        "user_team": "TUU48M0T1",
        "source_team": "TUU48M0T1",
        "user_profile": {
            "avatar_hash": "26bcc3d9a939",
            "image_72": "https:\/\/avatars.slack-edge.com\/2020-03-14\/1000260624596_26bcc3d9a93970d5f16b_72.jpg",
            "first_name": "Josh",
            "real_name": "Josh Perfetto",
            "display_name": "Josh Perfetto",
            "team": "TUU48M0T1",
            "name": "josh",
            "is_restricted": false,
            "is_ultra_restricted": false
        },
        "blocks": [
            {
                "type": "rich_text",
                "block_id": "1dtq",
                "elements": [
                    {
                        "type": "rich_text_section",
                        "elements": [
                            {
                                "type": "text",
                                "text": "I just read about lack of \"genome extraction kits\" in The Economist too "
                            },
                            {
                                "type": "emoji",
                                "name": "slightly_smiling_face"
                            }
                        ]
                    }
                ]
            }
        ]
    },
    {
        "client_msg_id": "d0498443-6d53-44c6-93bf-bfb8aca10c3c",
        "type": "message",
        "text": "lol got to love those reporters and their techno jargon!",
        "user": "UUPQGNNTV",
        "ts": "1584388646.046300",
        "team": "TUU48M0T1",
        "user_team": "TUU48M0T1",
        "source_team": "TUU48M0T1",
        "user_profile": {
            "avatar_hash": "c28127caf7eb",
            "image_72": "https:\/\/avatars.slack-edge.com\/2020-03-07\/989562470694_c28127caf7ebfe67df97_72.jpg",
            "first_name": "",
            "real_name": "Ellen Jorgensen",
            "display_name": "",
            "team": "TUU48M0T1",
            "name": "ejorgensen",
            "is_restricted": false,
            "is_ultra_restricted": false
        },
        "blocks": [
            {
                "type": "rich_text",
                "block_id": "9Ll",
                "elements": [
                    {
                        "type": "rich_text_section",
                        "elements": [
                            {
                                "type": "text",
                                "text": "lol got to love those reporters and their techno jargon!"
                            }
                        ]
                    }
                ]
            }
        ]
    },
    {
        "client_msg_id": "d0137d24-1ed3-4515-bcb4-2d9e894868cb",
        "type": "message",
        "text": "I would love to see a standardized protocol that could be rolled out. We could certainly do that for collection of swabs, but analysis might be trickier if everyone has different access to equipment. Ideally, I would like to see swabs collected from dry surfaces and put directly into some sort of stabilizing\/virus inactivation buffer.",
        "user": "UUPQGNNTV",
        "ts": "1584389883.046400",
        "team": "TUU48M0T1",
        "user_team": "TUU48M0T1",
        "source_team": "TUU48M0T1",
        "user_profile": {
            "avatar_hash": "c28127caf7eb",
            "image_72": "https:\/\/avatars.slack-edge.com\/2020-03-07\/989562470694_c28127caf7ebfe67df97_72.jpg",
            "first_name": "",
            "real_name": "Ellen Jorgensen",
            "display_name": "",
            "team": "TUU48M0T1",
            "name": "ejorgensen",
            "is_restricted": false,
            "is_ultra_restricted": false
        },
        "blocks": [
            {
                "type": "rich_text",
                "block_id": "rlT",
                "elements": [
                    {
                        "type": "rich_text_section",
                        "elements": [
                            {
                                "type": "text",
                                "text": "I would love to see a standardized protocol that could be rolled out. We could certainly do that for collection of swabs, but analysis might be trickier if everyone has different access to equipment. Ideally, I would like to see swabs collected from dry surfaces and put directly into some sort of stabilizing\/virus inactivation buffer."
                            }
                        ]
                    }
                ]
            }
        ],
        "thread_ts": "1584226655.024700",
        "parent_user_id": "UV5CCJ9RC"
    }
]