[
    {
        "client_msg_id": "82f35d1b-b98c-4d88-9284-298b249b2071",
        "type": "message",
        "text": "It is getting difficult to get some of the CDC-recommended reagents. The qPCR reagents from Thermo are backordered, my lab is waiting for them.",
        "user": "UUPQGNNTV",
        "ts": "1584196874.010000",
        "team": "TUU48M0T1",
        "user_team": "TUU48M0T1",
        "source_team": "TUU48M0T1",
        "user_profile": {
            "avatar_hash": "c28127caf7eb",
            "image_72": "https:\/\/avatars.slack-edge.com\/2020-03-07\/989562470694_c28127caf7ebfe67df97_72.jpg",
            "first_name": "",
            "real_name": "Ellen Jorgensen",
            "display_name": "",
            "team": "TUU48M0T1",
            "name": "ejorgensen",
            "is_restricted": false,
            "is_ultra_restricted": false
        },
        "blocks": [
            {
                "type": "rich_text",
                "block_id": "pAShY",
                "elements": [
                    {
                        "type": "rich_text_section",
                        "elements": [
                            {
                                "type": "text",
                                "text": "It is getting difficult to get some of the CDC-recommended reagents. The qPCR reagents from Thermo are backordered, my lab is waiting for them."
                            }
                        ]
                    }
                ]
            }
        ],
        "thread_ts": "1584196874.010000",
        "reply_count": 11,
        "reply_users_count": 5,
        "latest_reply": "1584228619.028700",
        "reply_users": [
            "UV5CCJ9RC",
            "UVADMLUB0",
            "UV1D9NR1N",
            "UUPQGNNTV",
            "UVDEJ7W0M"
        ],
        "replies": [
            {
                "user": "UV5CCJ9RC",
                "ts": "1584198499.012200"
            },
            {
                "user": "UVADMLUB0",
                "ts": "1584202943.012400"
            },
            {
                "user": "UV1D9NR1N",
                "ts": "1584205780.012800"
            },
            {
                "user": "UVADMLUB0",
                "ts": "1584206026.013000"
            },
            {
                "user": "UV1D9NR1N",
                "ts": "1584208865.013200"
            },
            {
                "user": "UVADMLUB0",
                "ts": "1584208975.013500"
            },
            {
                "user": "UV5CCJ9RC",
                "ts": "1584217449.015300"
            },
            {
                "user": "UUPQGNNTV",
                "ts": "1584227093.028000"
            },
            {
                "user": "UVDEJ7W0M",
                "ts": "1584227587.028300"
            },
            {
                "user": "UVDEJ7W0M",
                "ts": "1584227628.028500"
            },
            {
                "user": "UUPQGNNTV",
                "ts": "1584228619.028700"
            }
        ],
        "subscribed": false
    },
    {
        "client_msg_id": "D1EC3094-514A-47BA-80A8-75B466252CE5",
        "type": "message",
        "text": "Yeah... along the same lines, I was talking to some folks in the flu group at CDC and they were saying they’re having trouble doing their work because the COVID-19 tests use most of the same reagents. ",
        "user": "UV5CCJ9RC",
        "ts": "1584198499.012200",
        "team": "TUU48M0T1",
        "user_team": "TUU48M0T1",
        "source_team": "TUU48M0T1",
        "user_profile": {
            "avatar_hash": "2c79fe05f7e7",
            "image_72": "https:\/\/avatars.slack-edge.com\/2020-03-10\/992653932501_2c79fe05f7e75be19699_72.png",
            "first_name": "Chris",
            "real_name": "Chris Monaco",
            "display_name": "",
            "team": "TUU48M0T1",
            "name": "cmonaco.hr",
            "is_restricted": false,
            "is_ultra_restricted": false
        },
        "blocks": [
            {
                "type": "rich_text",
                "block_id": "+au",
                "elements": [
                    {
                        "type": "rich_text_section",
                        "elements": [
                            {
                                "type": "text",
                                "text": "Yeah... along the same lines, I was talking to some folks in the flu group at CDC and they were saying they’re having trouble doing their work because the COVID-19 tests use most of the same reagents. "
                            }
                        ]
                    }
                ]
            }
        ],
        "thread_ts": "1584196874.010000",
        "parent_user_id": "UUPQGNNTV"
    },
    {
        "client_msg_id": "a1215e5c-1f92-4089-8fab-066a8d6e7a92",
        "type": "message",
        "text": "Which reagents specifically?",
        "user": "UVADMLUB0",
        "ts": "1584202943.012400",
        "team": "TUU48M0T1",
        "user_team": "TUU48M0T1",
        "source_team": "TUU48M0T1",
        "user_profile": {
            "avatar_hash": "14179705705a",
            "image_72": "https:\/\/avatars.slack-edge.com\/2020-03-11\/981468022482_14179705705a94b3db16_72.jpg",
            "first_name": "Bill",
            "real_name": "Bill Slavin",
            "display_name": "Bill Slavin- Executive Director, Indie Lab",
            "team": "TUU48M0T1",
            "name": "bill",
            "is_restricted": false,
            "is_ultra_restricted": false
        },
        "blocks": [
            {
                "type": "rich_text",
                "block_id": "s66",
                "elements": [
                    {
                        "type": "rich_text_section",
                        "elements": [
                            {
                                "type": "text",
                                "text": "Which reagents specifically?"
                            }
                        ]
                    }
                ]
            }
        ],
        "thread_ts": "1584196874.010000",
        "parent_user_id": "UUPQGNNTV"
    },
    {
        "client_msg_id": "12c75eda-19e7-49ca-9ffd-783d1d093e0e",
        "type": "message",
        "text": "jfc",
        "user": "UV1D9NR1N",
        "ts": "1584205780.012800",
        "team": "TUU48M0T1",
        "user_team": "TUU48M0T1",
        "source_team": "TUU48M0T1",
        "user_profile": {
            "avatar_hash": "4892d7aa327f",
            "image_72": "https:\/\/avatars.slack-edge.com\/2020-03-07\/987006824628_4892d7aa327f46dcc8f7_72.jpg",
            "first_name": "Tito",
            "real_name": "Tito Jankowski",
            "display_name": "Tito Jankowski",
            "team": "TUU48M0T1",
            "name": "tito",
            "is_restricted": false,
            "is_ultra_restricted": false
        },
        "blocks": [
            {
                "type": "rich_text",
                "block_id": "20rE",
                "elements": [
                    {
                        "type": "rich_text_section",
                        "elements": [
                            {
                                "type": "text",
                                "text": "jfc"
                            }
                        ]
                    }
                ]
            }
        ],
        "thread_ts": "1584196874.010000",
        "parent_user_id": "UUPQGNNTV"
    },
    {
        "client_msg_id": "bf186bd1-f388-4857-8761-9ad6ddd246ec",
        "type": "message",
        "text": "<@UV1D9NR1N> jfc?  \"reagents\" is a catch-all term.  If it can be specified it will help others id what the specific ask is outside DNAase free water or sequences.  If people are looking, it helps to be specific.",
        "user": "UVADMLUB0",
        "ts": "1584206026.013000",
        "team": "TUU48M0T1",
        "user_team": "TUU48M0T1",
        "source_team": "TUU48M0T1",
        "user_profile": {
            "avatar_hash": "14179705705a",
            "image_72": "https:\/\/avatars.slack-edge.com\/2020-03-11\/981468022482_14179705705a94b3db16_72.jpg",
            "first_name": "Bill",
            "real_name": "Bill Slavin",
            "display_name": "Bill Slavin- Executive Director, Indie Lab",
            "team": "TUU48M0T1",
            "name": "bill",
            "is_restricted": false,
            "is_ultra_restricted": false
        },
        "blocks": [
            {
                "type": "rich_text",
                "block_id": "6Ul",
                "elements": [
                    {
                        "type": "rich_text_section",
                        "elements": [
                            {
                                "type": "user",
                                "user_id": "UV1D9NR1N"
                            },
                            {
                                "type": "text",
                                "text": " jfc?  \"reagents\" is a catch-all term.  If it can be specified it will help others id what the specific ask is outside DNAase free water or sequences.  If people are looking, it helps to be specific."
                            }
                        ]
                    }
                ]
            }
        ],
        "thread_ts": "1584196874.010000",
        "parent_user_id": "UUPQGNNTV"
    },
    {
        "client_msg_id": "4073b306-fd03-4d21-9f76-00ac145f0076",
        "type": "message",
        "text": "<https:\/\/www.urbandictionary.com\/define.php?term=JFC> :stuck_out_tongue:",
        "user": "UV1D9NR1N",
        "ts": "1584208865.013200",
        "team": "TUU48M0T1",
        "user_team": "TUU48M0T1",
        "source_team": "TUU48M0T1",
        "user_profile": {
            "avatar_hash": "4892d7aa327f",
            "image_72": "https:\/\/avatars.slack-edge.com\/2020-03-07\/987006824628_4892d7aa327f46dcc8f7_72.jpg",
            "first_name": "Tito",
            "real_name": "Tito Jankowski",
            "display_name": "Tito Jankowski",
            "team": "TUU48M0T1",
            "name": "tito",
            "is_restricted": false,
            "is_ultra_restricted": false
        },
        "attachments": [
            {
                "service_name": "Urban Dictionary",
                "title": "Urban Dictionary: JFC",
                "title_link": "https:\/\/www.urbandictionary.com\/define.php?term=JFC",
                "text": "\"Jesus Fucking Christ\" Used when extremely aggravated, confused, excited, or all of the above.",
                "fallback": "Urban Dictionary: Urban Dictionary: JFC",
                "from_url": "https:\/\/www.urbandictionary.com\/define.php?term=JFC",
                "service_icon": "https:\/\/www.urbandictionary.com\/favicon.ico",
                "id": 1,
                "original_url": "https:\/\/www.urbandictionary.com\/define.php?term=JFC"
            }
        ],
        "blocks": [
            {
                "type": "rich_text",
                "block_id": "R5Otg",
                "elements": [
                    {
                        "type": "rich_text_section",
                        "elements": [
                            {
                                "type": "link",
                                "url": "https:\/\/www.urbandictionary.com\/define.php?term=JFC"
                            },
                            {
                                "type": "text",
                                "text": " "
                            },
                            {
                                "type": "emoji",
                                "name": "stuck_out_tongue"
                            }
                        ]
                    }
                ]
            }
        ],
        "thread_ts": "1584196874.010000",
        "parent_user_id": "UUPQGNNTV"
    },
    {
        "client_msg_id": "864b43c1-ceaa-4276-80b1-2e1fe58a30a2",
        "type": "message",
        "text": "I know it's meaning.  Though the article does lend to all jfc's not being equal :wink:",
        "user": "UVADMLUB0",
        "ts": "1584208975.013500",
        "team": "TUU48M0T1",
        "user_team": "TUU48M0T1",
        "source_team": "TUU48M0T1",
        "user_profile": {
            "avatar_hash": "14179705705a",
            "image_72": "https:\/\/avatars.slack-edge.com\/2020-03-11\/981468022482_14179705705a94b3db16_72.jpg",
            "first_name": "Bill",
            "real_name": "Bill Slavin",
            "display_name": "Bill Slavin- Executive Director, Indie Lab",
            "team": "TUU48M0T1",
            "name": "bill",
            "is_restricted": false,
            "is_ultra_restricted": false
        },
        "blocks": [
            {
                "type": "rich_text",
                "block_id": "prq",
                "elements": [
                    {
                        "type": "rich_text_section",
                        "elements": [
                            {
                                "type": "text",
                                "text": "I know it's meaning.  Though the article does lend to all jfc's not being equal "
                            },
                            {
                                "type": "emoji",
                                "name": "wink"
                            }
                        ]
                    }
                ]
            }
        ],
        "thread_ts": "1584196874.010000",
        "parent_user_id": "UUPQGNNTV"
    },
    {
        "client_msg_id": "6F38C523-7D55-437B-A688-1F667B1B85E6",
        "type": "message",
        "text": "I didn’t ask specifics. Could just be a CDC thing. They have all labs capable of COVID-19 testing prioritizing that over all other work so idk",
        "user": "UV5CCJ9RC",
        "ts": "1584217449.015300",
        "team": "TUU48M0T1",
        "user_team": "TUU48M0T1",
        "source_team": "TUU48M0T1",
        "user_profile": {
            "avatar_hash": "2c79fe05f7e7",
            "image_72": "https:\/\/avatars.slack-edge.com\/2020-03-10\/992653932501_2c79fe05f7e75be19699_72.png",
            "first_name": "Chris",
            "real_name": "Chris Monaco",
            "display_name": "",
            "team": "TUU48M0T1",
            "name": "cmonaco.hr",
            "is_restricted": false,
            "is_ultra_restricted": false
        },
        "blocks": [
            {
                "type": "rich_text",
                "block_id": "th02O",
                "elements": [
                    {
                        "type": "rich_text_section",
                        "elements": [
                            {
                                "type": "text",
                                "text": "I didn’t ask specifics. Could just be a CDC thing. They have all labs capable of COVID-19 testing prioritizing that over all other work so idk"
                            }
                        ]
                    }
                ]
            }
        ],
        "thread_ts": "1584196874.010000",
        "parent_user_id": "UUPQGNNTV"
    },
    {
        "client_msg_id": "cdccb6f4-cad5-4d39-af6e-13b8c27e0264",
        "type": "message",
        "text": "Hi environmental monitoring team! I have a few questions for you. Is the intention of this group to simply discuss environmental monitoring efforts, or to develop a standardized process and data collection system. I'm asking for two reasons. One, is the idea that labs would perform both sample collection and processing on their own or do something similar to what MetaSUB is doing where we develop a network of \"testing labs\" and people can send collected samples to those designated labs? Second, should we develop (or adopt if one already exists) a standardized protocol for collection and processing so that we have consistency? I'm just trying to get a better grasp as to the primary goals of this group so I can hopefully start contributing in my geographic area.",
        "user": "UV5CCJ9RC",
        "ts": "1584226655.024700",
        "team": "TUU48M0T1",
        "user_team": "TUU48M0T1",
        "source_team": "TUU48M0T1",
        "user_profile": {
            "avatar_hash": "2c79fe05f7e7",
            "image_72": "https:\/\/avatars.slack-edge.com\/2020-03-10\/992653932501_2c79fe05f7e75be19699_72.png",
            "first_name": "Chris",
            "real_name": "Chris Monaco",
            "display_name": "",
            "team": "TUU48M0T1",
            "name": "cmonaco.hr",
            "is_restricted": false,
            "is_ultra_restricted": false
        },
        "blocks": [
            {
                "type": "rich_text",
                "block_id": "4UTSu",
                "elements": [
                    {
                        "type": "rich_text_section",
                        "elements": [
                            {
                                "type": "text",
                                "text": "Hi environmental monitoring team! I have a few questions for you. Is the intention of this group to simply discuss environmental monitoring efforts, or to develop a standardized process and data collection system. I'm asking for two reasons. One, is the idea that labs would perform both sample collection and processing on their own or do something similar to what MetaSUB is doing where we develop a network of \"testing labs\" and people can send collected samples to those designated labs? Second, should we develop (or adopt if one already exists) a standardized protocol for collection and processing so that we have consistency? I'm just trying to get a better grasp as to the primary goals of this group so I can hopefully start contributing in my geographic area."
                            }
                        ]
                    }
                ]
            }
        ],
        "thread_ts": "1584226655.024700",
        "reply_count": 1,
        "reply_users_count": 1,
        "latest_reply": "1584389883.046400",
        "reply_users": [
            "UUPQGNNTV"
        ],
        "replies": [
            {
                "user": "UUPQGNNTV",
                "ts": "1584389883.046400"
            }
        ],
        "subscribed": false
    },
    {
        "client_msg_id": "4cd7a79c-3fa0-4139-b523-a918af7a8e77",
        "type": "message",
        "text": "If you analyze samples by CDC method, the cost including reagents and worker time is about $35 per sample, so any effort should bear that in mind",
        "user": "UUPQGNNTV",
        "ts": "1584226811.027900",
        "team": "TUU48M0T1",
        "user_team": "TUU48M0T1",
        "source_team": "TUU48M0T1",
        "user_profile": {
            "avatar_hash": "c28127caf7eb",
            "image_72": "https:\/\/avatars.slack-edge.com\/2020-03-07\/989562470694_c28127caf7ebfe67df97_72.jpg",
            "first_name": "",
            "real_name": "Ellen Jorgensen",
            "display_name": "",
            "team": "TUU48M0T1",
            "name": "ejorgensen",
            "is_restricted": false,
            "is_ultra_restricted": false
        },
        "blocks": [
            {
                "type": "rich_text",
                "block_id": "eUq",
                "elements": [
                    {
                        "type": "rich_text_section",
                        "elements": [
                            {
                                "type": "text",
                                "text": "If you analyze samples by CDC method, the cost including reagents and worker time is about $35 per sample, so any effort should bear that in mind"
                            }
                        ]
                    }
                ]
            }
        ],
        "thread_ts": "1584226811.027900",
        "reply_count": 3,
        "reply_users_count": 2,
        "latest_reply": "1584229940.029400",
        "reply_users": [
            "UV5CCJ9RC",
            "UUPQGNNTV"
        ],
        "replies": [
            {
                "user": "UV5CCJ9RC",
                "ts": "1584229840.028900"
            },
            {
                "user": "UUPQGNNTV",
                "ts": "1584229905.029200"
            },
            {
                "user": "UV5CCJ9RC",
                "ts": "1584229940.029400"
            }
        ],
        "subscribed": false
    },
    {
        "client_msg_id": "0bb13a60-bb2a-4689-9d98-fefc0e03049b",
        "type": "message",
        "text": "We snapped up some RNA extraction kits but those are rumored to be in short supply now. We are waiting for Taq-path qPCR master mix from Thermo that is backordered, it's the one specified in the CDC protocol",
        "user": "UUPQGNNTV",
        "ts": "1584227093.028000",
        "team": "TUU48M0T1",
        "user_team": "TUU48M0T1",
        "source_team": "TUU48M0T1",
        "user_profile": {
            "avatar_hash": "c28127caf7eb",
            "image_72": "https:\/\/avatars.slack-edge.com\/2020-03-07\/989562470694_c28127caf7ebfe67df97_72.jpg",
            "first_name": "",
            "real_name": "Ellen Jorgensen",
            "display_name": "",
            "team": "TUU48M0T1",
            "name": "ejorgensen",
            "is_restricted": false,
            "is_ultra_restricted": false
        },
        "blocks": [
            {
                "type": "rich_text",
                "block_id": "HTv4",
                "elements": [
                    {
                        "type": "rich_text_section",
                        "elements": [
                            {
                                "type": "text",
                                "text": "We snapped up some RNA extraction kits but those are rumored to be in short supply now. We are waiting for Taq-path qPCR master mix from Thermo that is backordered, it's the one specified in the CDC protocol"
                            }
                        ]
                    }
                ]
            }
        ],
        "thread_ts": "1584196874.010000",
        "parent_user_id": "UUPQGNNTV",
        "reactions": [
            {
                "name": "+1",
                "users": [
                    "UVADMLUB0"
                ],
                "count": 1
            }
        ]
    },
    {
        "client_msg_id": "d7c3171d-33a4-49c0-befc-a4ca79a99bb1",
        "type": "message",
        "text": "Ellen , have you reachefd out to the bioneer guys? I have a 2 mini prep kits sat in my studio from Biosummit maybe a year or so ago now. They were given out for free as freebies I wonder if they'd be down to help now?",
        "user": "UVDEJ7W0M",
        "ts": "1584227587.028300",
        "team": "TUU48M0T1",
        "user_team": "TUU48M0T1",
        "source_team": "TUU48M0T1",
        "user_profile": {
            "avatar_hash": "ed4d3e4ec01a",
            "image_72": "https:\/\/avatars.slack-edge.com\/2020-03-13\/1001396152231_ed4d3e4ec01aea04db0f_72.png",
            "first_name": "",
            "real_name": "Nel - littlepinkmaker",
            "display_name": "Nel - littlepinkmaker",
            "team": "TUU48M0T1",
            "name": "makeit",
            "is_restricted": false,
            "is_ultra_restricted": false
        },
        "blocks": [
            {
                "type": "rich_text",
                "block_id": "9SG",
                "elements": [
                    {
                        "type": "rich_text_section",
                        "elements": [
                            {
                                "type": "text",
                                "text": "Ellen , have you reachefd out to the bioneer guys? I have a 2 mini prep kits sat in my studio from Biosummit maybe a year or so ago now. They were given out for free as freebies I wonder if they'd be down to help now?"
                            }
                        ]
                    }
                ]
            }
        ],
        "thread_ts": "1584196874.010000",
        "parent_user_id": "UUPQGNNTV"
    },
    {
        "client_msg_id": "3994f897-978f-483c-96f0-4f453c9a912a",
        "type": "message",
        "text": "<https:\/\/us.bioneer.com\/products\/accuprep\/PlasmidMiniPrep-overview.aspx> - Not sure actually if there of any use.",
        "user": "UVDEJ7W0M",
        "ts": "1584227628.028500",
        "team": "TUU48M0T1",
        "user_team": "TUU48M0T1",
        "source_team": "TUU48M0T1",
        "user_profile": {
            "avatar_hash": "ed4d3e4ec01a",
            "image_72": "https:\/\/avatars.slack-edge.com\/2020-03-13\/1001396152231_ed4d3e4ec01aea04db0f_72.png",
            "first_name": "",
            "real_name": "Nel - littlepinkmaker",
            "display_name": "Nel - littlepinkmaker",
            "team": "TUU48M0T1",
            "name": "makeit",
            "is_restricted": false,
            "is_ultra_restricted": false
        },
        "blocks": [
            {
                "type": "rich_text",
                "block_id": "VoF",
                "elements": [
                    {
                        "type": "rich_text_section",
                        "elements": [
                            {
                                "type": "link",
                                "url": "https:\/\/us.bioneer.com\/products\/accuprep\/PlasmidMiniPrep-overview.aspx"
                            },
                            {
                                "type": "text",
                                "text": " - Not sure actually if there of any use."
                            }
                        ]
                    }
                ]
            }
        ],
        "thread_ts": "1584196874.010000",
        "parent_user_id": "UUPQGNNTV"
    },
    {
        "client_msg_id": "77df01cc-9bed-4f64-86f2-bd9548a889ae",
        "type": "message",
        "text": "Those extract dna not RNA and actually contain RNAses",
        "user": "UUPQGNNTV",
        "ts": "1584228619.028700",
        "team": "TUU48M0T1",
        "user_team": "TUU48M0T1",
        "source_team": "TUU48M0T1",
        "user_profile": {
            "avatar_hash": "c28127caf7eb",
            "image_72": "https:\/\/avatars.slack-edge.com\/2020-03-07\/989562470694_c28127caf7ebfe67df97_72.jpg",
            "first_name": "",
            "real_name": "Ellen Jorgensen",
            "display_name": "",
            "team": "TUU48M0T1",
            "name": "ejorgensen",
            "is_restricted": false,
            "is_ultra_restricted": false
        },
        "blocks": [
            {
                "type": "rich_text",
                "block_id": "SgVTB",
                "elements": [
                    {
                        "type": "rich_text_section",
                        "elements": [
                            {
                                "type": "text",
                                "text": "Those extract dna not RNA and actually contain RNAses"
                            }
                        ]
                    }
                ]
            }
        ],
        "thread_ts": "1584196874.010000",
        "parent_user_id": "UUPQGNNTV"
    },
    {
        "client_msg_id": "ed9af521-a2e2-42f8-974e-4957cd437dca",
        "type": "message",
        "text": "Hi Ellen, are you referring the qPCR protocol here <https:\/\/www.cdc.gov\/coronavirus\/2019-ncov\/lab\/rt-pcr-detection-instructions.html>?",
        "user": "UV5CCJ9RC",
        "ts": "1584229840.028900",
        "team": "TUU48M0T1",
        "user_team": "TUU48M0T1",
        "source_team": "TUU48M0T1",
        "user_profile": {
            "avatar_hash": "2c79fe05f7e7",
            "image_72": "https:\/\/avatars.slack-edge.com\/2020-03-10\/992653932501_2c79fe05f7e75be19699_72.png",
            "first_name": "Chris",
            "real_name": "Chris Monaco",
            "display_name": "",
            "team": "TUU48M0T1",
            "name": "cmonaco.hr",
            "is_restricted": false,
            "is_ultra_restricted": false
        },
        "attachments": [
            {
                "service_name": "Centers for Disease Control and Prevention",
                "title": "Coronavirus Disease 2019 (COVID-19)",
                "title_link": "https:\/\/www.cdc.gov\/coronavirus\/2019-ncov\/lab\/rt-pcr-detection-instructions.html",
                "text": "Coronavirus disease 2019 (COVID-19) is a virus (more specifically, a coronavirus) identified as the cause of an outbreak of respiratory illness first detected in Wuhan, China.",
                "fallback": "Centers for Disease Control and Prevention: Coronavirus Disease 2019 (COVID-19)",
                "image_url": "https:\/\/www.cdc.gov\/coronavirus\/2019-ncov\/images\/2019-coronavirus.png",
                "ts": 1581408000,
                "from_url": "https:\/\/www.cdc.gov\/coronavirus\/2019-ncov\/lab\/rt-pcr-detection-instructions.html",
                "image_width": 500,
                "image_height": 250,
                "image_bytes": 407675,
                "service_icon": "https:\/\/www.cdc.gov\/TemplatePackage\/4.0\/assets\/imgs\/favicon.ico",
                "id": 1,
                "original_url": "https:\/\/www.cdc.gov\/coronavirus\/2019-ncov\/lab\/rt-pcr-detection-instructions.html"
            }
        ],
        "blocks": [
            {
                "type": "rich_text",
                "block_id": "xv6B",
                "elements": [
                    {
                        "type": "rich_text_section",
                        "elements": [
                            {
                                "type": "text",
                                "text": "Hi Ellen, are you referring the qPCR protocol here "
                            },
                            {
                                "type": "link",
                                "url": "https:\/\/www.cdc.gov\/coronavirus\/2019-ncov\/lab\/rt-pcr-detection-instructions.html"
                            },
                            {
                                "type": "text",
                                "text": "?"
                            }
                        ]
                    }
                ]
            }
        ],
        "thread_ts": "1584226811.027900",
        "parent_user_id": "UUPQGNNTV"
    },
    {
        "client_msg_id": "038c4c6a-8141-4e57-b520-185782857f13",
        "type": "message",
        "text": "Yup that the protocol we follow for environmental swabs at Aanika",
        "user": "UUPQGNNTV",
        "ts": "1584229905.029200",
        "team": "TUU48M0T1",
        "user_team": "TUU48M0T1",
        "source_team": "TUU48M0T1",
        "user_profile": {
            "avatar_hash": "c28127caf7eb",
            "image_72": "https:\/\/avatars.slack-edge.com\/2020-03-07\/989562470694_c28127caf7ebfe67df97_72.jpg",
            "first_name": "",
            "real_name": "Ellen Jorgensen",
            "display_name": "",
            "team": "TUU48M0T1",
            "name": "ejorgensen",
            "is_restricted": false,
            "is_ultra_restricted": false
        },
        "blocks": [
            {
                "type": "rich_text",
                "block_id": "6JbPV",
                "elements": [
                    {
                        "type": "rich_text_section",
                        "elements": [
                            {
                                "type": "text",
                                "text": "Yup that the protocol we follow for environmental swabs at Aanika"
                            }
                        ]
                    }
                ]
            }
        ],
        "thread_ts": "1584226811.027900",
        "parent_user_id": "UUPQGNNTV"
    },
    {
        "client_msg_id": "86011232-eec6-461c-bd5d-02406d65a8dd",
        "type": "message",
        "text": ":+1:",
        "user": "UV5CCJ9RC",
        "ts": "1584229940.029400",
        "team": "TUU48M0T1",
        "user_team": "TUU48M0T1",
        "source_team": "TUU48M0T1",
        "user_profile": {
            "avatar_hash": "2c79fe05f7e7",
            "image_72": "https:\/\/avatars.slack-edge.com\/2020-03-10\/992653932501_2c79fe05f7e75be19699_72.png",
            "first_name": "Chris",
            "real_name": "Chris Monaco",
            "display_name": "",
            "team": "TUU48M0T1",
            "name": "cmonaco.hr",
            "is_restricted": false,
            "is_ultra_restricted": false
        },
        "blocks": [
            {
                "type": "rich_text",
                "block_id": "EC0X",
                "elements": [
                    {
                        "type": "rich_text_section",
                        "elements": [
                            {
                                "type": "emoji",
                                "name": "+1"
                            }
                        ]
                    }
                ]
            }
        ],
        "thread_ts": "1584226811.027900",
        "parent_user_id": "UUPQGNNTV"
    },
    {
        "client_msg_id": "7fbdb787-2fa0-4ec9-bcdc-45e476271a5f",
        "type": "message",
        "text": "<@UUPQGNNTV> <@UV0ASBY3E> check it out! <https:\/\/www.chaibio.com\/coronavirus>",
        "user": "UV1D9NR1N",
        "ts": "1584238380.030000",
        "team": "TUU48M0T1",
        "user_team": "TUU48M0T1",
        "source_team": "TUU48M0T1",
        "user_profile": {
            "avatar_hash": "4892d7aa327f",
            "image_72": "https:\/\/avatars.slack-edge.com\/2020-03-07\/987006824628_4892d7aa327f46dcc8f7_72.jpg",
            "first_name": "Tito",
            "real_name": "Tito Jankowski",
            "display_name": "Tito Jankowski",
            "team": "TUU48M0T1",
            "name": "tito",
            "is_restricted": false,
            "is_ultra_restricted": false
        },
        "attachments": [
            {
                "title": "Coronavirus Environmental Testing | Chai",
                "title_link": "https:\/\/www.chaibio.com\/coronavirus",
                "text": "Proactively detect Coronavirus in the environment by swabbing door handles, pin pads, and other hard surfaces. Swab to result in one hour.",
                "fallback": "Coronavirus Environmental Testing | Chai",
                "from_url": "https:\/\/www.chaibio.com\/coronavirus",
                "service_icon": "https:\/\/www.chaibio.com\/assets\/favicon-a6c3bc4caa3d5bbc45311c3ba8e5e113f15f46be71eab9ca4f77ac51b8790436.ico",
                "service_name": "chaibio.com",
                "id": 1,
                "original_url": "https:\/\/www.chaibio.com\/coronavirus"
            }
        ],
        "blocks": [
            {
                "type": "rich_text",
                "block_id": "JYC3Q",
                "elements": [
                    {
                        "type": "rich_text_section",
                        "elements": [
                            {
                                "type": "user",
                                "user_id": "UUPQGNNTV"
                            },
                            {
                                "type": "text",
                                "text": " "
                            },
                            {
                                "type": "user",
                                "user_id": "UV0ASBY3E"
                            },
                            {
                                "type": "text",
                                "text": " check it out! "
                            },
                            {
                                "type": "link",
                                "url": "https:\/\/www.chaibio.com\/coronavirus"
                            }
                        ]
                    }
                ]
            }
        ],
        "thread_ts": "1584238380.030000",
        "reply_count": 1,
        "reply_users_count": 1,
        "latest_reply": "1584301152.035600",
        "reply_users": [
            "UV1CX069G"
        ],
        "replies": [
            {
                "user": "UV1CX069G",
                "ts": "1584301152.035600"
            }
        ],
        "subscribed": false
    },
    {
        "type": "message",
        "subtype": "channel_join",
        "ts": "1584238385.030300",
        "user": "UV0ASBY3E",
        "text": "<@UV0ASBY3E> has joined the channel",
        "inviter": "UV1D9NR1N"
    },
    {
        "client_msg_id": "ea865bb4-5a41-44fd-aa7b-900056ecd1c8",
        "type": "message",
        "text": "awesome, go Josh! I'm curious to know what he's using for a positive control.",
        "user": "UV0ASBY3E",
        "ts": "1584241562.031000",
        "team": "TUU48M0T1",
        "user_team": "TUU48M0T1",
        "source_team": "TUU48M0T1",
        "user_profile": {
            "avatar_hash": "gbe6b2b6a8fe",
            "image_72": "https:\/\/secure.gravatar.com\/avatar\/be6b2b6a8fe590233ec91874d0a1e115.jpg?s=72&d=https%3A%2F%2Fa.slack-edge.com%2Fdf10d%2Fimg%2Favatars%2Fava_0009-72.png",
            "first_name": "",
            "real_name": "Derek Jacoby",
            "display_name": "Derek Jacoby",
            "team": "TUU48M0T1",
            "name": "derekja",
            "is_restricted": false,
            "is_ultra_restricted": false
        },
        "blocks": [
            {
                "type": "rich_text",
                "block_id": "mOJx",
                "elements": [
                    {
                        "type": "rich_text_section",
                        "elements": [
                            {
                                "type": "text",
                                "text": "awesome, go Josh! I'm curious to know what he's using for a positive control."
                            }
                        ]
                    }
                ]
            }
        ]
    }
]