[
    {
        "type": "message",
        "subtype": "channel_join",
        "ts": "1584103778.000800",
        "user": "UV2CNECM7",
        "text": "<@UV2CNECM7> has joined the channel"
    },
    {
        "type": "message",
        "subtype": "channel_join",
        "ts": "1584126973.001000",
        "user": "UV5CCJ9RC",
        "text": "<@UV5CCJ9RC> has joined the channel"
    },
    {
        "type": "message",
        "subtype": "channel_join",
        "ts": "1584134232.001200",
        "user": "UUPFF4TC3",
        "text": "<@UUPFF4TC3> has joined the channel"
    },
    {
        "type": "message",
        "subtype": "channel_join",
        "ts": "1584134881.001500",
        "user": "UVDEJ7W0M",
        "text": "<@UVDEJ7W0M> has joined the channel"
    },
    {
        "client_msg_id": "8f4e048f-def1-4493-9ea5-04bf6612aa8d",
        "type": "message",
        "text": "<@UUQM4L2AF> are you at MetaSUB using qPCR for analysis of the environmental samples?",
        "user": "UV5CCJ9RC",
        "ts": "1584137799.002400",
        "team": "TUU48M0T1",
        "user_team": "TUU48M0T1",
        "source_team": "TUU48M0T1",
        "user_profile": {
            "avatar_hash": "2c79fe05f7e7",
            "image_72": "https:\/\/avatars.slack-edge.com\/2020-03-10\/992653932501_2c79fe05f7e75be19699_72.png",
            "first_name": "Chris",
            "real_name": "Chris Monaco",
            "display_name": "",
            "team": "TUU48M0T1",
            "name": "cmonaco.hr",
            "is_restricted": false,
            "is_ultra_restricted": false
        },
        "blocks": [
            {
                "type": "rich_text",
                "block_id": "SPh5p",
                "elements": [
                    {
                        "type": "rich_text_section",
                        "elements": [
                            {
                                "type": "user",
                                "user_id": "UUQM4L2AF"
                            },
                            {
                                "type": "text",
                                "text": " are you at MetaSUB using qPCR for analysis of the environmental samples?"
                            }
                        ]
                    }
                ]
            }
        ]
    },
    {
        "client_msg_id": "d2820da9-f47c-4dbf-9c7a-34d92ca8278e",
        "type": "message",
        "text": "The Covid19 study is separate to the standard MetaSUB protocol, though we do include some of the pipeline. I did initial swabs of Times Sq &gt;1 wk ago and will be doing another 2-week pilot study in Seattle (along with colleagues at Unis\/hospitals in other cities globally). We are conducting multiple assays across different platforms to get the most out of each sample and compare methods. This includes, but not just, qRT-PCR.",
        "user": "UUQM4L2AF",
        "ts": "1584138938.005600",
        "team": "TUU48M0T1",
        "user_team": "TUU48M0T1",
        "source_team": "TUU48M0T1",
        "user_profile": {
            "avatar_hash": "8498d1c7b98b",
            "image_72": "https:\/\/avatars.slack-edge.com\/2020-03-08\/988293405557_8498d1c7b98b63b41054_72.jpg",
            "first_name": "",
            "real_name": "JJ Hastings",
            "display_name": "JJ Hastings",
            "team": "TUU48M0T1",
            "name": "astro.hacker.2001",
            "is_restricted": false,
            "is_ultra_restricted": false
        },
        "blocks": [
            {
                "type": "rich_text",
                "block_id": "kIY",
                "elements": [
                    {
                        "type": "rich_text_section",
                        "elements": [
                            {
                                "type": "text",
                                "text": "The Covid19 study is separate to the standard MetaSUB protocol, though we do include some of the pipeline. I did initial swabs of Times Sq >1 wk ago and will be doing another 2-week pilot study in Seattle (along with colleagues at Unis\/hospitals in other cities globally). We are conducting multiple assays across different platforms to get the most out of each sample and compare methods. This includes, but not just, qRT-PCR."
                            }
                        ]
                    }
                ]
            }
        ]
    },
    {
        "type": "message",
        "subtype": "channel_join",
        "ts": "1584139637.005800",
        "user": "UV120B2P7",
        "text": "<@UV120B2P7> has joined the channel"
    },
    {
        "type": "message",
        "subtype": "channel_join",
        "ts": "1584145046.006000",
        "user": "UUS2G6N6M",
        "text": "<@UUS2G6N6M> has joined the channel"
    },
    {
        "type": "message",
        "subtype": "channel_join",
        "ts": "1584147399.006300",
        "user": "UV20M5HGQ",
        "text": "<@UV20M5HGQ> has joined the channel"
    },
    {
        "client_msg_id": "CF0AEFA6-9324-48DF-8F96-2AFE8070E224",
        "type": "message",
        "text": "Thanks for sharing! ",
        "user": "UV5CCJ9RC",
        "ts": "1584148087.006600",
        "team": "TUU48M0T1",
        "user_team": "TUU48M0T1",
        "source_team": "TUU48M0T1",
        "user_profile": {
            "avatar_hash": "2c79fe05f7e7",
            "image_72": "https:\/\/avatars.slack-edge.com\/2020-03-10\/992653932501_2c79fe05f7e75be19699_72.png",
            "first_name": "Chris",
            "real_name": "Chris Monaco",
            "display_name": "",
            "team": "TUU48M0T1",
            "name": "cmonaco.hr",
            "is_restricted": false,
            "is_ultra_restricted": false
        },
        "blocks": [
            {
                "type": "rich_text",
                "block_id": "Vuupk",
                "elements": [
                    {
                        "type": "rich_text_section",
                        "elements": [
                            {
                                "type": "text",
                                "text": "Thanks for sharing! "
                            }
                        ]
                    }
                ]
            }
        ]
    },
    {
        "type": "message",
        "subtype": "channel_join",
        "ts": "1584150910.006800",
        "user": "U0101V2L3LP",
        "text": "<@U0101V2L3LP> has joined the channel"
    },
    {
        "type": "message",
        "subtype": "channel_join",
        "ts": "1584157409.007100",
        "user": "UVADMLUB0",
        "text": "<@UVADMLUB0> has joined the channel"
    }
]