[
    {
        "type": "message",
        "subtype": "channel_join",
        "ts": "1584103872.000200",
        "user": "UV2CNECM7",
        "text": "<@UV2CNECM7> has joined the channel"
    },
    {
        "type": "message",
        "subtype": "channel_join",
        "ts": "1584111689.000400",
        "user": "UV120B2P7",
        "text": "<@UV120B2P7> has joined the channel"
    },
    {
        "type": "message",
        "subtype": "channel_join",
        "ts": "1584117055.000600",
        "user": "UVADMLUB0",
        "text": "<@UVADMLUB0> has joined the channel"
    },
    {
        "type": "message",
        "subtype": "channel_join",
        "ts": "1584129696.000800",
        "user": "UV0GKVDUZ",
        "text": "<@UV0GKVDUZ> has joined the channel"
    },
    {
        "type": "message",
        "subtype": "channel_join",
        "ts": "1584131659.001000",
        "user": "UVDEJ7W0M",
        "text": "<@UVDEJ7W0M> has joined the channel"
    },
    {
        "client_msg_id": "ce216b77-f982-4e3d-9057-763a1f2ded4f",
        "type": "message",
        "text": "Hello! Is the bio safety board developing their own guidelines to whatever protocols are released from this JOGL initiative? Or will we be heavily referencing existing guidelines\/ written work?",
        "user": "UV0GKVDUZ",
        "ts": "1584135670.001900",
        "team": "TUU48M0T1",
        "user_team": "TUU48M0T1",
        "source_team": "TUU48M0T1",
        "user_profile": {
            "avatar_hash": "g24167ad772d",
            "image_72": "https:\/\/secure.gravatar.com\/avatar\/24167ad772d72889a00b073c722d54c3.jpg?s=72&d=https%3A%2F%2Fa.slack-edge.com%2Fdf10d%2Fimg%2Favatars%2Fava_0013-72.png",
            "first_name": "a",
            "real_name": "a gabo",
            "display_name": "a gabo",
            "team": "TUU48M0T1",
            "name": "katherineananda",
            "is_restricted": false,
            "is_ultra_restricted": false
        },
        "blocks": [
            {
                "type": "rich_text",
                "block_id": "\/zv2n",
                "elements": [
                    {
                        "type": "rich_text_section",
                        "elements": [
                            {
                                "type": "text",
                                "text": "Hello! Is the bio safety board developing their own guidelines to whatever protocols are released from this JOGL initiative? Or will we be heavily referencing existing guidelines\/ written work?"
                            }
                        ]
                    }
                ]
            }
        ]
    },
    {
        "client_msg_id": "1990e2f6-02f6-4cf7-a0b9-6e8f2feda995",
        "type": "message",
        "text": "I kind of see this group as offering general guidance on a case by case basis and being able to connect project teams with experts when those of us here are unable to offer guidance. What I would like to see something like a set of tenants established as guiding principles for the initiative as a whole. Not only would that help ensure that everyone is on the same page when it comes to safety, but it will help show the general public that safety and security is built in to everything we're doing from the very beginning.",
        "user": "UV5CCJ9RC",
        "ts": "1584136237.006900",
        "team": "TUU48M0T1",
        "user_team": "TUU48M0T1",
        "source_team": "TUU48M0T1",
        "user_profile": {
            "avatar_hash": "2c79fe05f7e7",
            "image_72": "https:\/\/avatars.slack-edge.com\/2020-03-10\/992653932501_2c79fe05f7e75be19699_72.png",
            "first_name": "Chris",
            "real_name": "Chris Monaco",
            "display_name": "",
            "team": "TUU48M0T1",
            "name": "cmonaco.hr",
            "is_restricted": false,
            "is_ultra_restricted": false
        },
        "blocks": [
            {
                "type": "rich_text",
                "block_id": "hyja8",
                "elements": [
                    {
                        "type": "rich_text_section",
                        "elements": [
                            {
                                "type": "text",
                                "text": "I kind of see this group as offering general guidance on a case by case basis and being able to connect project teams with experts when those of us here are unable to offer guidance. What I would like to see something like a set of tenants established as guiding principles for the initiative as a whole. Not only would that help ensure that everyone is on the same page when it comes to safety, but it will help show the general public that safety and security is built in to everything we're doing from the very beginning."
                            }
                        ]
                    }
                ]
            }
        ],
        "thread_ts": "1584136237.006900",
        "reply_count": 4,
        "reply_users_count": 3,
        "latest_reply": "1584137784.008900",
        "reply_users": [
            "UV0QTJCMT",
            "UV0GKVDUZ",
            "UV5CCJ9RC"
        ],
        "replies": [
            {
                "user": "UV0QTJCMT",
                "ts": "1584136397.008000"
            },
            {
                "user": "UV0GKVDUZ",
                "ts": "1584136955.008200"
            },
            {
                "user": "UV5CCJ9RC",
                "ts": "1584137669.008400"
            },
            {
                "user": "UV0QTJCMT",
                "ts": "1584137784.008900"
            }
        ],
        "subscribed": false,
        "reactions": [
            {
                "name": "+1",
                "users": [
                    "UV0GKVDUZ",
                    "UV0QTJCMT",
                    "UV02WET96"
                ],
                "count": 3
            }
        ]
    },
    {
        "client_msg_id": "8F2E3AD5-FBCB-499C-ADE7-160436FABF65",
        "type": "message",
        "text": "<@UV5CCJ9RC> that’s a great idea! do you want to start a doc to perhaps start the brainstorming process for tenants and perhaps how the system for reviewing would work? ",
        "user": "UV0QTJCMT",
        "ts": "1584136397.008000",
        "team": "TUU48M0T1",
        "user_team": "TUU48M0T1",
        "source_team": "TUU48M0T1",
        "user_profile": {
            "avatar_hash": "11e3deb6d1a9",
            "image_72": "https:\/\/avatars.slack-edge.com\/2020-03-06\/986844736421_11e3deb6d1a949327ddd_72.png",
            "first_name": "Katherine",
            "real_name": "Katherine Holo",
            "display_name": "Kat Holo",
            "team": "TUU48M0T1",
            "name": "katherineh245",
            "is_restricted": false,
            "is_ultra_restricted": false
        },
        "blocks": [
            {
                "type": "rich_text",
                "block_id": "fYti",
                "elements": [
                    {
                        "type": "rich_text_section",
                        "elements": [
                            {
                                "type": "user",
                                "user_id": "UV5CCJ9RC"
                            },
                            {
                                "type": "text",
                                "text": " that’s a great idea! do you want to start a doc to perhaps start the brainstorming process for tenants and perhaps how the system for reviewing would work? "
                            }
                        ]
                    }
                ]
            }
        ],
        "thread_ts": "1584136237.006900",
        "parent_user_id": "UV5CCJ9RC"
    },
    {
        "client_msg_id": "88011fbc-68c8-4094-a8c5-846ac889f00c",
        "type": "message",
        "text": "<@UV5CCJ9RC> <@UV0QTJCMT> I'm adding it to the spreadsheet.",
        "user": "UV0GKVDUZ",
        "ts": "1584136955.008200",
        "team": "TUU48M0T1",
        "user_team": "TUU48M0T1",
        "source_team": "TUU48M0T1",
        "user_profile": {
            "avatar_hash": "g24167ad772d",
            "image_72": "https:\/\/secure.gravatar.com\/avatar\/24167ad772d72889a00b073c722d54c3.jpg?s=72&d=https%3A%2F%2Fa.slack-edge.com%2Fdf10d%2Fimg%2Favatars%2Fava_0013-72.png",
            "first_name": "a",
            "real_name": "a gabo",
            "display_name": "a gabo",
            "team": "TUU48M0T1",
            "name": "katherineananda",
            "is_restricted": false,
            "is_ultra_restricted": false
        },
        "blocks": [
            {
                "type": "rich_text",
                "block_id": "eRcu",
                "elements": [
                    {
                        "type": "rich_text_section",
                        "elements": [
                            {
                                "type": "user",
                                "user_id": "UV5CCJ9RC"
                            },
                            {
                                "type": "text",
                                "text": " "
                            },
                            {
                                "type": "user",
                                "user_id": "UV0QTJCMT"
                            },
                            {
                                "type": "text",
                                "text": " I'm adding it to the spreadsheet."
                            }
                        ]
                    }
                ]
            }
        ],
        "thread_ts": "1584136237.006900",
        "parent_user_id": "UV5CCJ9RC",
        "reactions": [
            {
                "name": "+1",
                "users": [
                    "UV0QTJCMT"
                ],
                "count": 1
            }
        ]
    },
    {
        "client_msg_id": "fed1437a-d33d-455d-b22f-f47de0a1ffb1",
        "type": "message",
        "text": "Happy to. Could you send me the link to the Google Drive? I can't seem to find it",
        "user": "UV5CCJ9RC",
        "ts": "1584137669.008400",
        "team": "TUU48M0T1",
        "user_team": "TUU48M0T1",
        "source_team": "TUU48M0T1",
        "user_profile": {
            "avatar_hash": "2c79fe05f7e7",
            "image_72": "https:\/\/avatars.slack-edge.com\/2020-03-10\/992653932501_2c79fe05f7e75be19699_72.png",
            "first_name": "Chris",
            "real_name": "Chris Monaco",
            "display_name": "",
            "team": "TUU48M0T1",
            "name": "cmonaco.hr",
            "is_restricted": false,
            "is_ultra_restricted": false
        },
        "blocks": [
            {
                "type": "rich_text",
                "block_id": "yn7",
                "elements": [
                    {
                        "type": "rich_text_section",
                        "elements": [
                            {
                                "type": "text",
                                "text": "Happy to. Could you send me the link to the Google Drive? I can't seem to find it"
                            }
                        ]
                    }
                ]
            }
        ],
        "thread_ts": "1584136237.006900",
        "parent_user_id": "UV5CCJ9RC"
    },
    {
        "client_msg_id": "55657A52-D823-471D-82DA-AE07A3B193B1",
        "type": "message",
        "text": "<https:\/\/drive.google.com\/drive\/folders\/1CLZnM0s_RFr2FCdCwTFUtJkPIjmb42b3|https:\/\/drive.google.com\/drive\/folders\/1CLZnM0s_RFr2FCdCwTFUtJkPIjmb42b3> &lt;- try this i think this should work ",
        "user": "UV0QTJCMT",
        "ts": "1584137784.008900",
        "team": "TUU48M0T1",
        "user_team": "TUU48M0T1",
        "source_team": "TUU48M0T1",
        "user_profile": {
            "avatar_hash": "11e3deb6d1a9",
            "image_72": "https:\/\/avatars.slack-edge.com\/2020-03-06\/986844736421_11e3deb6d1a949327ddd_72.png",
            "first_name": "Katherine",
            "real_name": "Katherine Holo",
            "display_name": "Kat Holo",
            "team": "TUU48M0T1",
            "name": "katherineh245",
            "is_restricted": false,
            "is_ultra_restricted": false
        },
        "blocks": [
            {
                "type": "rich_text",
                "block_id": "sOKN",
                "elements": [
                    {
                        "type": "rich_text_section",
                        "elements": [
                            {
                                "type": "link",
                                "url": "https:\/\/drive.google.com\/drive\/folders\/1CLZnM0s_RFr2FCdCwTFUtJkPIjmb42b3",
                                "text": "https:\/\/drive.google.com\/drive\/folders\/1CLZnM0s_RFr2FCdCwTFUtJkPIjmb42b3"
                            },
                            {
                                "type": "text",
                                "text": " <- try this i think this should work "
                            }
                        ]
                    }
                ]
            }
        ],
        "thread_ts": "1584136237.006900",
        "parent_user_id": "UV5CCJ9RC"
    }
]