[
    {
        "type": "message",
        "subtype": "channel_join",
        "ts": "1583864050.000200",
        "user": "USBSKSF4Z",
        "text": "<@USBSKSF4Z> has joined the channel"
    },
    {
        "type": "message",
        "subtype": "channel_purpose",
        "ts": "1583864051.000300",
        "user": "USBSKSF4Z",
        "text": "<@USBSKSF4Z> set the channel purpose: Physiological patterns (via #wearables eg, heart rate, temp) vs. incidents of flu",
        "purpose": "Physiological patterns (via #wearables eg, heart rate, temp) vs. incidents of flu"
    },
    {
        "type": "message",
        "subtype": "channel_join",
        "ts": "1583864083.000500",
        "user": "U52KBSW9X",
        "text": "<@U52KBSW9X> has joined the channel",
        "inviter": "USBSKSF4Z"
    },
    {
        "type": "message",
        "subtype": "channel_join",
        "ts": "1583864265.000700",
        "user": "U4A6D8F6J",
        "text": "<@U4A6D8F6J> has joined the channel"
    },
    {
        "type": "message",
        "subtype": "channel_join",
        "ts": "1583864406.000900",
        "user": "US5J9BX0S",
        "text": "<@US5J9BX0S> has joined the channel",
        "inviter": "USBSKSF4Z"
    },
    {
        "type": "message",
        "subtype": "channel_join",
        "ts": "1583865950.001100",
        "user": "U4EFEMFS9",
        "text": "<@U4EFEMFS9> has joined the channel"
    },
    {
        "client_msg_id": "b0244514-0125-42d9-b9b6-cebc97eed1ce",
        "type": "message",
        "text": "Let me immediately pose a couple of concrete ideas I’ve been discussing with friends and colleagues:\n\n1. Organize around a data collection protocol, including a device. Right now I think that’s probably the <https:\/\/forum.quantifiedself.com\/t\/sleep-quality-tracking-and-rhr-hrv\/6742|Oura Ring, with some significant reservations>. \n2. Include, among simpler measures, some new analytical approaches that synthesize patterns in continuous data. (For instance, see “<https:\/\/www.ncbi.nlm.nih.gov\/pmc\/articles\/PMC6425759\/|Evidence for a Coupled Oscillator Model of Endocrine Ultradian Rhythms>” by <@UJTJ6RYCF>)\nReservations about the Oura Ring include issues with data access, but it’s possible we could address these with support from the company, which in turn depends on our convincing them to prioritize this support. We have some close contacts there that could lead to success.\n\nAll of this said, this is just one possible approach and there may be others. I post them here to catch up and provide background to my remarks in the call.",
        "user": "U4EFEMFS9",
        "ts": "1583866453.007300",
        "team": "TUU48M0T1",
        "user_team": "T48QEEVTJ",
        "source_team": "T48QEEVTJ",
        "user_profile": {
            "avatar_hash": "g182c4ed7b70",
            "image_72": "https:\/\/secure.gravatar.com\/avatar\/f182c4ed7b704c54e3c1d1984585e2db.jpg?s=72&d=https%3A%2F%2Fa.slack-edge.com%2Fdf10d%2Fimg%2Favatars%2Fava_0002-72.png",
            "first_name": "Gary",
            "real_name": "Gary Wolf",
            "display_name": "agaricus",
            "team": "T48QEEVTJ",
            "name": "agaricus",
            "is_restricted": false,
            "is_ultra_restricted": false
        },
        "attachments": [
            {
                "service_name": "Quantified Self Forum",
                "title": "Sleep Quality Tracking and RHR \/ HRV",
                "title_link": "https:\/\/forum.quantifiedself.com\/t\/sleep-quality-tracking-and-rhr-hrv\/6742",
                "text": "Hello. A hardcore user of the Oura ring told me that a measure of how restful one’s sleep has been is reflected in one’s HRV during sleep (or hours not awake, whichever you prefer). They said that whatever one’s RHR or waking heart rate is - say 65 - is a baseline. And that until one’s heart rate descends and reaches this baseline one is not getting restful sleep. So the total duration of hours of sleep prior to this could be taken as a measure of how high the quality of sleep is. Can anyone ...",
                "fallback": "Quantified Self Forum: Sleep Quality Tracking and RHR \/ HRV",
                "thumb_url": "https:\/\/forum.quantifiedself.com\/images\/discourse-logo-sketch-small.png",
                "fields": [
                    {
                        "title": "Reading time",
                        "value": "2 mins :clock2:",
                        "short": true
                    },
                    {
                        "title": "Likes",
                        "value": "6 :heart:",
                        "short": true
                    }
                ],
                "ts": 1554586494,
                "from_url": "https:\/\/forum.quantifiedself.com\/t\/sleep-quality-tracking-and-rhr-hrv\/6742",
                "thumb_width": 512,
                "thumb_height": 512,
                "service_icon": "https:\/\/forum.quantifiedself.com\/uploads\/default\/optimized\/2X\/5\/58c9d19662da7cd8c2149f1bf632d03ce4e3546d_2_180x180.png",
                "id": 1,
                "original_url": "https:\/\/forum.quantifiedself.com\/t\/sleep-quality-tracking-and-rhr-hrv\/6742"
            },
            {
                "service_name": "PubMed Central (PMC)",
                "title": "Evidence for a Coupled Oscillator Model of Endocrine Ultradian Rhythms",
                "title_link": "https:\/\/www.ncbi.nlm.nih.gov\/pmc\/articles\/PMC6425759\/",
                "text": "Whereas long-period temporal structures in endocrine dynamics have been well studied, endocrine rhythms on the scale of hours are relatively unexplored. The study of these ultradian rhythms (URs) has remained nascent, in part, because a theoretical framework ...",
                "fallback": "PubMed Central (PMC): Evidence for a Coupled Oscillator Model of Endocrine Ultradian Rhythms",
                "thumb_url": "https:\/\/www.ncbi.nlm.nih.gov\/corehtml\/pmc\/pmcgifs\/pmc-logo-share.png",
                "from_url": "https:\/\/www.ncbi.nlm.nih.gov\/pmc\/articles\/PMC6425759\/",
                "thumb_width": 1200,
                "thumb_height": 630,
                "service_icon": "http:\/\/www.ncbi.nlm.nih.gov\/favicon.ico",
                "id": 2,
                "original_url": "https:\/\/www.ncbi.nlm.nih.gov\/pmc\/articles\/PMC6425759\/"
            }
        ],
        "blocks": [
            {
                "type": "rich_text",
                "block_id": "wMo",
                "elements": [
                    {
                        "type": "rich_text_section",
                        "elements": [
                            {
                                "type": "text",
                                "text": "Let me immediately pose a couple of concrete ideas I’ve been discussing with friends and colleagues:\n\n"
                            }
                        ]
                    },
                    {
                        "type": "rich_text_list",
                        "elements": [
                            {
                                "type": "rich_text_section",
                                "elements": [
                                    {
                                        "type": "text",
                                        "text": "Organize around a data collection protocol, including a device. Right now I think that’s probably the "
                                    },
                                    {
                                        "type": "link",
                                        "url": "https:\/\/forum.quantifiedself.com\/t\/sleep-quality-tracking-and-rhr-hrv\/6742",
                                        "text": "Oura Ring, with some significant reservations"
                                    },
                                    {
                                        "type": "text",
                                        "text": ". "
                                    }
                                ]
                            },
                            {
                                "type": "rich_text_section",
                                "elements": [
                                    {
                                        "type": "text",
                                        "text": "Include, among simpler measures, some new analytical approaches that synthesize patterns in continuous data. (For instance, see “"
                                    },
                                    {
                                        "type": "link",
                                        "url": "https:\/\/www.ncbi.nlm.nih.gov\/pmc\/articles\/PMC6425759\/",
                                        "text": "Evidence for a Coupled Oscillator Model of Endocrine Ultradian Rhythms"
                                    },
                                    {
                                        "type": "text",
                                        "text": "” by "
                                    },
                                    {
                                        "type": "user",
                                        "user_id": "UJTJ6RYCF"
                                    },
                                    {
                                        "type": "text",
                                        "text": ")"
                                    }
                                ]
                            }
                        ],
                        "style": "ordered",
                        "indent": 0
                    },
                    {
                        "type": "rich_text_section",
                        "elements": [
                            {
                                "type": "text",
                                "text": "Reservations about the Oura Ring include issues with data access, but it’s possible we could address these with support from the company, which in turn depends on our convincing them to prioritize this support. We have some close contacts there that could lead to success.\n\nAll of this said, this is just one possible approach and there may be others. I post them here to catch up and provide background to my remarks in the call."
                            }
                        ]
                    }
                ]
            }
        ],
        "thread_ts": "1583866453.007300",
        "reply_count": 3,
        "reply_users_count": 3,
        "latest_reply": "1583870415.009800",
        "reply_users": [
            "U4A6D8F6J",
            "U4EFEMFS9",
            "U52KBSW9X"
        ],
        "replies": [
            {
                "user": "U4A6D8F6J",
                "ts": "1583866922.007700"
            },
            {
                "user": "U4EFEMFS9",
                "ts": "1583868633.007900"
            },
            {
                "user": "U52KBSW9X",
                "ts": "1583870415.009800"
            }
        ],
        "subscribed": false
    },
    {
        "type": "message",
        "subtype": "channel_join",
        "ts": "1583866458.007600",
        "user": "UJTJ6RYCF",
        "text": "<@UJTJ6RYCF> has joined the channel",
        "inviter": "U4EFEMFS9"
    },
    {
        "client_msg_id": "2a13851c-ab5c-41d9-a55b-d6ad7b561717",
        "type": "message",
        "text": "what's the data access problem? specific data types that are not available via download and\/or API? something else?",
        "user": "U4A6D8F6J",
        "ts": "1583866922.007700",
        "team": "TUU48M0T1",
        "user_team": "T48QEEVTJ",
        "source_team": "T48QEEVTJ",
        "user_profile": {
            "avatar_hash": "4dc43012615b",
            "image_72": "https:\/\/avatars.slack-edge.com\/2019-10-17\/801801580071_4dc43012615b2074c521_72.jpg",
            "first_name": "Mad",
            "real_name": "Mad Price Ball",
            "display_name": "madprime",
            "team": "T48QEEVTJ",
            "name": "madprime",
            "is_restricted": false,
            "is_ultra_restricted": false
        },
        "blocks": [
            {
                "type": "rich_text",
                "block_id": "\/sA5",
                "elements": [
                    {
                        "type": "rich_text_section",
                        "elements": [
                            {
                                "type": "text",
                                "text": "what's the data access problem? specific data types that are not available via download and\/or API? something else?"
                            }
                        ]
                    }
                ]
            }
        ],
        "thread_ts": "1583866453.007300",
        "parent_user_id": "U4EFEMFS9"
    },
    {
        "client_msg_id": "1165aec1-f7b7-4520-8c73-194b8d8f9537",
        "type": "message",
        "text": "yes, exactly — worth a careful discussion though with community members who have been working with this data a lot.",
        "user": "U4EFEMFS9",
        "ts": "1583868633.007900",
        "team": "TUU48M0T1",
        "user_team": "T48QEEVTJ",
        "source_team": "T48QEEVTJ",
        "user_profile": {
            "avatar_hash": "g182c4ed7b70",
            "image_72": "https:\/\/secure.gravatar.com\/avatar\/f182c4ed7b704c54e3c1d1984585e2db.jpg?s=72&d=https%3A%2F%2Fa.slack-edge.com%2Fdf10d%2Fimg%2Favatars%2Fava_0002-72.png",
            "first_name": "Gary",
            "real_name": "Gary Wolf",
            "display_name": "agaricus",
            "team": "T48QEEVTJ",
            "name": "agaricus",
            "is_restricted": false,
            "is_ultra_restricted": false
        },
        "blocks": [
            {
                "type": "rich_text",
                "block_id": "Wp4",
                "elements": [
                    {
                        "type": "rich_text_section",
                        "elements": [
                            {
                                "type": "text",
                                "text": "yes, exactly — worth a careful discussion though with community members who have been working with this data a lot."
                            }
                        ]
                    }
                ]
            }
        ],
        "thread_ts": "1583866453.007300",
        "parent_user_id": "U4EFEMFS9"
    },
    {
        "client_msg_id": "05FF1445-0CAD-4EA3-B4B0-9B5272A971CF",
        "type": "message",
        "text": "I’d say for a start it’s probably easiest to allow multiple devices (eg when focusing on elevated HR) and don’t worry about special data access in order to get buy in from people. Oura et al allow for getting “raw enough” data to see nightly HR patterns. ",
        "user": "U52KBSW9X",
        "ts": "1583870415.009800",
        "team": "TUU48M0T1",
        "user_team": "T48QEEVTJ",
        "source_team": "T48QEEVTJ",
        "user_profile": {
            "avatar_hash": "079d4f4301af",
            "image_72": "https:\/\/avatars.slack-edge.com\/2019-07-28\/696974040114_079d4f4301af057e28c1_72.jpg",
            "first_name": "Bastian",
            "real_name": "Bastian Greshake Tzovaras",
            "display_name": "gedankenstuecke",
            "team": "T48QEEVTJ",
            "name": "gedankenstuecke",
            "is_restricted": false,
            "is_ultra_restricted": false
        },
        "blocks": [
            {
                "type": "rich_text",
                "block_id": "RwTu+",
                "elements": [
                    {
                        "type": "rich_text_section",
                        "elements": [
                            {
                                "type": "text",
                                "text": "I’d say for a start it’s probably easiest to allow multiple devices (eg when focusing on elevated HR) and don’t worry about special data access in order to get buy in from people. Oura et al allow for getting “raw enough” data to see nightly HR patterns. "
                            }
                        ]
                    }
                ]
            }
        ],
        "thread_ts": "1583866453.007300",
        "parent_user_id": "U4EFEMFS9"
    },
    {
        "client_msg_id": "0c04b4c1-15a2-454c-ac01-57104ac5b944",
        "type": "message",
        "text": "hm. looking at these. (thinking about easy temperature logging) <https:\/\/forum.quantifiedself.com\/t\/synching-exporting-body-temperature-data\/4514>",
        "user": "U4A6D8F6J",
        "ts": "1583870539.010300",
        "team": "TUU48M0T1",
        "user_team": "T48QEEVTJ",
        "source_team": "T48QEEVTJ",
        "user_profile": {
            "avatar_hash": "4dc43012615b",
            "image_72": "https:\/\/avatars.slack-edge.com\/2019-10-17\/801801580071_4dc43012615b2074c521_72.jpg",
            "first_name": "Mad",
            "real_name": "Mad Price Ball",
            "display_name": "madprime",
            "team": "T48QEEVTJ",
            "name": "madprime",
            "is_restricted": false,
            "is_ultra_restricted": false
        },
        "edited": {
            "user": "U4A6D8F6J",
            "ts": "1583873878.000000"
        },
        "blocks": [
            {
                "type": "rich_text",
                "block_id": "pr51",
                "elements": [
                    {
                        "type": "rich_text_section",
                        "elements": [
                            {
                                "type": "text",
                                "text": "hm. looking at these. (thinking about easy temperature logging) "
                            },
                            {
                                "type": "link",
                                "url": "https:\/\/forum.quantifiedself.com\/t\/synching-exporting-body-temperature-data\/4514"
                            }
                        ]
                    }
                ]
            }
        ],
        "thread_ts": "1583870539.010300",
        "reply_count": 1,
        "reply_users_count": 1,
        "latest_reply": "1583875310.010700",
        "reply_users": [
            "U4A6D8F6J"
        ],
        "replies": [
            {
                "user": "U4A6D8F6J",
                "ts": "1583875310.010700"
            }
        ],
        "subscribed": false
    },
    {
        "type": "message",
        "subtype": "channel_join",
        "ts": "1583875181.010600",
        "user": "UKB404YG1",
        "text": "<@UKB404YG1> has joined the channel"
    },
    {
        "client_msg_id": "d0e2effb-3869-47e3-b9ce-9734b30db2d5",
        "type": "message",
        "text": "I should say **I think a retrospective project is easier to get folks to do**\n\nbut I'm personally motivated to try an easy way to track better data for myself &amp; family going forward. investigating the data export within the current apps, vicks promises a csv or jpg. the button is non-functional I'm guessing because I don't have data. the app is clunkier.\n\nkinsa only allows for sync to apple health. In theory I think one can then export from apple health but it's a wholesale dump, removing any granularity on data flow.\n\nso I think I'll buy a vicks.",
        "user": "U4A6D8F6J",
        "ts": "1583875310.010700",
        "team": "TUU48M0T1",
        "user_team": "T48QEEVTJ",
        "source_team": "T48QEEVTJ",
        "user_profile": {
            "avatar_hash": "4dc43012615b",
            "image_72": "https:\/\/avatars.slack-edge.com\/2019-10-17\/801801580071_4dc43012615b2074c521_72.jpg",
            "first_name": "Mad",
            "real_name": "Mad Price Ball",
            "display_name": "madprime",
            "team": "T48QEEVTJ",
            "name": "madprime",
            "is_restricted": false,
            "is_ultra_restricted": false
        },
        "blocks": [
            {
                "type": "rich_text",
                "block_id": "Mn1ow",
                "elements": [
                    {
                        "type": "rich_text_section",
                        "elements": [
                            {
                                "type": "text",
                                "text": "I should say **I think a retrospective project is easier to get folks to do**\n\nbut I'm personally motivated to try an easy way to track better data for myself & family going forward. investigating the data export within the current apps, vicks promises a csv or jpg. the button is non-functional I'm guessing because I don't have data. the app is clunkier.\n\nkinsa only allows for sync to apple health. In theory I think one can then export from apple health but it's a wholesale dump, removing any granularity on data flow.\n\nso I think I'll buy a vicks."
                            }
                        ]
                    }
                ]
            }
        ],
        "thread_ts": "1583870539.010300",
        "parent_user_id": "U4A6D8F6J"
    },
    {
        "client_msg_id": "b028a879-0bd1-457c-b62d-30cb56f8abda",
        "type": "message",
        "text": "On bod temperature being able to take advantage of Azure’s unparalleled hands-on knowledge could be useful.",
        "user": "U4EFEMFS9",
        "ts": "1583875438.013300",
        "team": "TUU48M0T1",
        "user_team": "T48QEEVTJ",
        "source_team": "T48QEEVTJ",
        "user_profile": {
            "avatar_hash": "g182c4ed7b70",
            "image_72": "https:\/\/secure.gravatar.com\/avatar\/f182c4ed7b704c54e3c1d1984585e2db.jpg?s=72&d=https%3A%2F%2Fa.slack-edge.com%2Fdf10d%2Fimg%2Favatars%2Fava_0002-72.png",
            "first_name": "Gary",
            "real_name": "Gary Wolf",
            "display_name": "agaricus",
            "team": "T48QEEVTJ",
            "name": "agaricus",
            "is_restricted": false,
            "is_ultra_restricted": false
        },
        "blocks": [
            {
                "type": "rich_text",
                "block_id": "KqDeV",
                "elements": [
                    {
                        "type": "rich_text_section",
                        "elements": [
                            {
                                "type": "text",
                                "text": "On bod temperature being able to take advantage of Azure’s unparalleled hands-on knowledge could be useful."
                            }
                        ]
                    }
                ]
            }
        ],
        "thread_ts": "1583875438.013300",
        "reply_count": 1,
        "reply_users_count": 1,
        "latest_reply": "1583875567.014400",
        "reply_users": [
            "U4A6D8F6J"
        ],
        "replies": [
            {
                "user": "U4A6D8F6J",
                "ts": "1583875567.014400"
            }
        ],
        "subscribed": false
    },
    {
        "client_msg_id": "4f47688b-fbb7-4b23-bebe-69029515265b",
        "type": "message",
        "text": "She will be honest about advantages\/disadvantages of different approaches.",
        "user": "U4EFEMFS9",
        "ts": "1583875461.014100",
        "team": "TUU48M0T1",
        "user_team": "T48QEEVTJ",
        "source_team": "T48QEEVTJ",
        "user_profile": {
            "avatar_hash": "g182c4ed7b70",
            "image_72": "https:\/\/secure.gravatar.com\/avatar\/f182c4ed7b704c54e3c1d1984585e2db.jpg?s=72&d=https%3A%2F%2Fa.slack-edge.com%2Fdf10d%2Fimg%2Favatars%2Fava_0002-72.png",
            "first_name": "Gary",
            "real_name": "Gary Wolf",
            "display_name": "agaricus",
            "team": "T48QEEVTJ",
            "name": "agaricus",
            "is_restricted": false,
            "is_ultra_restricted": false
        },
        "blocks": [
            {
                "type": "rich_text",
                "block_id": "rl7b",
                "elements": [
                    {
                        "type": "rich_text_section",
                        "elements": [
                            {
                                "type": "text",
                                "text": "She will be honest about advantages\/disadvantages of different approaches."
                            }
                        ]
                    }
                ]
            }
        ]
    },
    {
        "client_msg_id": "2ce4ec63-1081-4e26-a125-48eadab22244",
        "type": "message",
        "text": "she did weigh in on the thread. note that part of _my_ optimization is convenience – I want to be able to take the temperature of a screaming preverbal toddler… that sort of thing. :joy:\n\nat this point it's turning into \"I'm personally interested in this\" :smile: less about group project but still potentially relevant.",
        "user": "U4A6D8F6J",
        "ts": "1583875567.014400",
        "team": "TUU48M0T1",
        "user_team": "T48QEEVTJ",
        "source_team": "T48QEEVTJ",
        "user_profile": {
            "avatar_hash": "4dc43012615b",
            "image_72": "https:\/\/avatars.slack-edge.com\/2019-10-17\/801801580071_4dc43012615b2074c521_72.jpg",
            "first_name": "Mad",
            "real_name": "Mad Price Ball",
            "display_name": "madprime",
            "team": "T48QEEVTJ",
            "name": "madprime",
            "is_restricted": false,
            "is_ultra_restricted": false
        },
        "blocks": [
            {
                "type": "rich_text",
                "block_id": "Oxidy",
                "elements": [
                    {
                        "type": "rich_text_section",
                        "elements": [
                            {
                                "type": "text",
                                "text": "she did weigh in on the thread. note that part of "
                            },
                            {
                                "type": "text",
                                "text": "my",
                                "style": {
                                    "italic": true
                                }
                            },
                            {
                                "type": "text",
                                "text": " optimization is convenience – I want to be able to take the temperature of a screaming preverbal toddler… that sort of thing. "
                            },
                            {
                                "type": "emoji",
                                "name": "joy"
                            },
                            {
                                "type": "text",
                                "text": "\n\nat this point it's turning into \"I'm personally interested in this\" "
                            },
                            {
                                "type": "emoji",
                                "name": "smile"
                            },
                            {
                                "type": "text",
                                "text": " less about group project but still potentially relevant."
                            }
                        ]
                    }
                ]
            }
        ],
        "thread_ts": "1583875438.013300",
        "parent_user_id": "U4EFEMFS9"
    },
    {
        "client_msg_id": "f8497b83-46c8-43a1-8368-3acba4ac520a",
        "type": "message",
        "text": "I think the rough format of a retrospective project – which I think is probably easiest – would be something like…\n\n1. report a memory of getting sick relative to an event (e.g. travel), e.g. \"I got sick the Monday after I went to X\"\n2. connect device data for API retrieval and share it\n#1 doesn't work well for me BUT I think there may be a lot of people for whom this is easier, they can pinpoint the memories to documentation of travel\/events. It's a one-off participation that doesn't rely on people putting in ongoing work.",
        "user": "U4A6D8F6J",
        "ts": "1583875729.016600",
        "team": "TUU48M0T1",
        "user_team": "T48QEEVTJ",
        "source_team": "T48QEEVTJ",
        "user_profile": {
            "avatar_hash": "4dc43012615b",
            "image_72": "https:\/\/avatars.slack-edge.com\/2019-10-17\/801801580071_4dc43012615b2074c521_72.jpg",
            "first_name": "Mad",
            "real_name": "Mad Price Ball",
            "display_name": "madprime",
            "team": "T48QEEVTJ",
            "name": "madprime",
            "is_restricted": false,
            "is_ultra_restricted": false
        },
        "blocks": [
            {
                "type": "rich_text",
                "block_id": "ZR7B",
                "elements": [
                    {
                        "type": "rich_text_section",
                        "elements": [
                            {
                                "type": "text",
                                "text": "I think the rough format of a retrospective project – which I think is probably easiest – would be something like…\n\n"
                            }
                        ]
                    },
                    {
                        "type": "rich_text_list",
                        "elements": [
                            {
                                "type": "rich_text_section",
                                "elements": [
                                    {
                                        "type": "text",
                                        "text": "report a memory of getting sick relative to an event (e.g. travel), e.g. \"I got sick the Monday after I went to X\""
                                    }
                                ]
                            },
                            {
                                "type": "rich_text_section",
                                "elements": [
                                    {
                                        "type": "text",
                                        "text": "connect device data for API retrieval and share it"
                                    }
                                ]
                            }
                        ],
                        "style": "ordered",
                        "indent": 0
                    },
                    {
                        "type": "rich_text_section",
                        "elements": [
                            {
                                "type": "text",
                                "text": "\n#1 doesn't work well for me BUT I think there may be a lot of people for whom this is easier, they can pinpoint the memories to documentation of travel\/events. It's a one-off participation that doesn't rely on people putting in ongoing work."
                            }
                        ]
                    }
                ]
            }
        ]
    }
]