[
    {
        "client_msg_id": "e343b43a-8e25-4883-87ea-c4ddece1d151",
        "type": "message",
        "text": "great, I’ll see how to best put you two in touch regarding that! :slightly_smiling_face:",
        "user": "U52KBSW9X",
        "ts": "1585302219.055800",
        "team": "TUU48M0T1",
        "user_team": "T48QEEVTJ",
        "source_team": "T48QEEVTJ",
        "user_profile": {
            "avatar_hash": "079d4f4301af",
            "image_72": "https:\/\/avatars.slack-edge.com\/2019-07-28\/696974040114_079d4f4301af057e28c1_72.jpg",
            "first_name": "Bastian",
            "real_name": "Bastian Greshake Tzovaras",
            "display_name": "gedankenstuecke",
            "team": "T48QEEVTJ",
            "name": "gedankenstuecke",
            "is_restricted": false,
            "is_ultra_restricted": false
        },
        "blocks": [
            {
                "type": "rich_text",
                "block_id": "28U9W",
                "elements": [
                    {
                        "type": "rich_text_section",
                        "elements": [
                            {
                                "type": "text",
                                "text": "great, I’ll see how to best put you two in touch regarding that! "
                            },
                            {
                                "type": "emoji",
                                "name": "slightly_smiling_face"
                            }
                        ]
                    }
                ]
            }
        ],
        "thread_ts": "1585267902.049900",
        "parent_user_id": "U4A6D8F6J"
    },
    {
        "type": "message",
        "subtype": "thread_broadcast",
        "text": "I’ll probably not be able to look at this before saturday unfortunately. I have an all-day virtual workshop about the autistica project we hope to get on open humans soon today. So if anyone else who’s a python reader wants to look, that would be amazing!",
        "user": "U52KBSW9X",
        "ts": "1585302277.056000",
        "thread_ts": "1585269156.055400",
        "root": {
            "client_msg_id": "dd66c289-771e-4df7-818c-df97db4b8c12",
            "type": "message",
            "text": "Okay! I've added code to expose the data in the retrospective graphs – this might not be what people want, but…\n\n1. it was the most straightforward (because it's already computed)\n2. most intuitive\/matching what the project says will be publicly shared (i.e. data around events, _not_ \"all your fitbit data\" :wink: )\n\nPlus I worked out permissions stuff that we were going to need for public data endpoints. Hopefully. I'll leave this as a PR so <@U52KBSW9X> can review it :slightly_smiling_face:\n\n<https:\/\/github.com\/OpenHumans\/quantified-flu\/pull\/17|https:\/\/github.com\/OpenHumans\/quantified-flu\/pull\/17>\n\n:thinking_face: it's probably missing other stuff.\n\nlike, I'm realizing the public list could at least give event IDs so you have some sort of identifier for each one. but… I should go to our kids now, I'm sure my partner's waiting for some relief :slightly_smiling_face:",
            "user": "U4A6D8F6J",
            "ts": "1585269156.055400",
            "team": "TUU48M0T1",
            "user_team": "T48QEEVTJ",
            "source_team": "T48QEEVTJ",
            "user_profile": {
                "avatar_hash": "4dc43012615b",
                "image_72": "https:\/\/avatars.slack-edge.com\/2019-10-17\/801801580071_4dc43012615b2074c521_72.jpg",
                "first_name": "Mad",
                "real_name": "Mad Price Ball",
                "display_name": "madprime",
                "team": "T48QEEVTJ",
                "name": "madprime",
                "is_restricted": false,
                "is_ultra_restricted": false
            },
            "edited": {
                "user": "U4A6D8F6J",
                "ts": "1585277043.000000"
            },
            "blocks": [
                {
                    "type": "rich_text",
                    "block_id": "aebHI",
                    "elements": [
                        {
                            "type": "rich_text_section",
                            "elements": [
                                {
                                    "type": "text",
                                    "text": "Okay! I've added code to expose the data in the retrospective graphs – this might not be what people want, but…\n\n1. it was the most straightforward (because it's already computed)\n2. most intuitive\/matching what the project says will be publicly shared (i.e. data around events, "
                                },
                                {
                                    "type": "text",
                                    "text": "not",
                                    "style": {
                                        "italic": true
                                    }
                                },
                                {
                                    "type": "text",
                                    "text": " \"all your fitbit data\" "
                                },
                                {
                                    "type": "emoji",
                                    "name": "wink"
                                },
                                {
                                    "type": "text",
                                    "text": " )\n\nPlus I worked out permissions stuff that we were going to need for public data endpoints. Hopefully. I'll leave this as a PR so "
                                },
                                {
                                    "type": "user",
                                    "user_id": "U52KBSW9X"
                                },
                                {
                                    "type": "text",
                                    "text": " can review it "
                                },
                                {
                                    "type": "emoji",
                                    "name": "slightly_smiling_face"
                                },
                                {
                                    "type": "text",
                                    "text": "\n\n"
                                },
                                {
                                    "type": "link",
                                    "url": "https:\/\/github.com\/OpenHumans\/quantified-flu\/pull\/17",
                                    "text": "https:\/\/github.com\/OpenHumans\/quantified-flu\/pull\/17"
                                },
                                {
                                    "type": "text",
                                    "text": "\n\n"
                                },
                                {
                                    "type": "emoji",
                                    "name": "thinking_face"
                                },
                                {
                                    "type": "text",
                                    "text": " it's probably missing other stuff.\n\nlike, I'm realizing the public list could at least give event IDs so you have some sort of identifier for each one. but… I should go to our kids now, I'm sure my partner's waiting for some relief "
                                },
                                {
                                    "type": "emoji",
                                    "name": "slightly_smiling_face"
                                }
                            ]
                        }
                    ]
                }
            ],
            "thread_ts": "1585269156.055400",
            "reply_count": 3,
            "reply_users_count": 2,
            "latest_reply": "1585315020.059600",
            "reply_users": [
                "U52KBSW9X",
                "U4A6D8F6J"
            ],
            "replies": [
                {
                    "user": "U52KBSW9X",
                    "ts": "1585302277.056000"
                },
                {
                    "user": "U4A6D8F6J",
                    "ts": "1585314012.059400"
                },
                {
                    "user": "U52KBSW9X",
                    "ts": "1585315020.059600"
                }
            ],
            "subscribed": false
        },
        "blocks": [
            {
                "type": "rich_text",
                "block_id": "o=m",
                "elements": [
                    {
                        "type": "rich_text_section",
                        "elements": [
                            {
                                "type": "text",
                                "text": "I’ll probably not be able to look at this before saturday unfortunately. I have an all-day virtual workshop about the autistica project we hope to get on open humans soon today. So if anyone else who’s a python reader wants to look, that would be amazing!"
                            }
                        ]
                    }
                ]
            }
        ],
        "client_msg_id": "e0b51807-8d88-43f9-ab48-cdab676796cc"
    },
    {
        "client_msg_id": "dde09ee4-fa55-4116-acdb-cc614a69484b",
        "type": "message",
        "text": "<@UELJCMA12> Did you have any luck in adding the HR data after i added the scope? :slightly_smiling_face:",
        "user": "U52KBSW9X",
        "ts": "1585310048.056400",
        "team": "TUU48M0T1",
        "user_team": "T48QEEVTJ",
        "source_team": "T48QEEVTJ",
        "user_profile": {
            "avatar_hash": "079d4f4301af",
            "image_72": "https:\/\/avatars.slack-edge.com\/2019-07-28\/696974040114_079d4f4301af057e28c1_72.jpg",
            "first_name": "Bastian",
            "real_name": "Bastian Greshake Tzovaras",
            "display_name": "gedankenstuecke",
            "team": "T48QEEVTJ",
            "name": "gedankenstuecke",
            "is_restricted": false,
            "is_ultra_restricted": false
        },
        "blocks": [
            {
                "type": "rich_text",
                "block_id": "ZJTbV",
                "elements": [
                    {
                        "type": "rich_text_section",
                        "elements": [
                            {
                                "type": "user",
                                "user_id": "UELJCMA12"
                            },
                            {
                                "type": "text",
                                "text": " Did you have any luck in adding the HR data after i added the scope? "
                            },
                            {
                                "type": "emoji",
                                "name": "slightly_smiling_face"
                            }
                        ]
                    }
                ]
            }
        ],
        "thread_ts": "1585133253.005100",
        "parent_user_id": "U52KBSW9X"
    },
    {
        "client_msg_id": "aa804854-7b16-4c66-8588-d53203839c85",
        "type": "message",
        "text": "working on it. I asked Christopher to disconnect &amp; reconnect for the new scopes to take effect (i assume)",
        "user": "UELJCMA12",
        "ts": "1585310095.056600",
        "team": "TUU48M0T1",
        "user_team": "T48QEEVTJ",
        "source_team": "T48QEEVTJ",
        "user_profile": {
            "avatar_hash": "gea75ee33133",
            "image_72": "https:\/\/secure.gravatar.com\/avatar\/3ea75ee33133b9866bdb993e26e8da79.jpg?s=72&d=https%3A%2F%2Fa.slack-edge.com%2Fdf10d%2Fimg%2Favatars%2Fava_0004-72.png",
            "first_name": "",
            "real_name": "Ariadni-Karolina Alexiou",
            "display_name": "carolinux",
            "team": "T48QEEVTJ",
            "name": "carolinegr",
            "is_restricted": false,
            "is_ultra_restricted": false
        },
        "blocks": [
            {
                "type": "rich_text",
                "block_id": "h9TM",
                "elements": [
                    {
                        "type": "rich_text_section",
                        "elements": [
                            {
                                "type": "text",
                                "text": "working on it. I asked Christopher to disconnect & reconnect for the new scopes to take effect (i assume)"
                            }
                        ]
                    }
                ]
            }
        ],
        "thread_ts": "1585133253.005100",
        "parent_user_id": "U52KBSW9X",
        "reactions": [
            {
                "name": "heart",
                "users": [
                    "U52KBSW9X"
                ],
                "count": 1
            }
        ]
    },
    {
        "client_msg_id": "e9d6cdc9-3514-433a-b67a-c4a53358318d",
        "type": "message",
        "text": "The reconnect on my side is done :+1:",
        "user": "UPGELJS3T",
        "ts": "1585310131.056800",
        "team": "TUU48M0T1",
        "user_team": "T48QEEVTJ",
        "source_team": "T48QEEVTJ",
        "user_profile": {
            "avatar_hash": "2d11437649f8",
            "image_72": "https:\/\/avatars.slack-edge.com\/2020-03-18\/996753008531_2d11437649f8214e6ff5_72.jpg",
            "first_name": "Christopher",
            "real_name": "Christopher Wansing",
            "display_name": "Christopher Wansing",
            "team": "T48QEEVTJ",
            "name": "christopher.wansing",
            "is_restricted": false,
            "is_ultra_restricted": false
        },
        "blocks": [
            {
                "type": "rich_text",
                "block_id": "RZ+Q",
                "elements": [
                    {
                        "type": "rich_text_section",
                        "elements": [
                            {
                                "type": "text",
                                "text": "The reconnect on my side is done "
                            },
                            {
                                "type": "emoji",
                                "name": "+1"
                            }
                        ]
                    }
                ]
            }
        ],
        "thread_ts": "1585133253.005100",
        "parent_user_id": "U52KBSW9X",
        "reactions": [
            {
                "name": "heart",
                "users": [
                    "U52KBSW9X"
                ],
                "count": 1
            }
        ]
    },
    {
        "client_msg_id": "fa00e4c3-d05f-441a-9b5a-0923d1f7e24e",
        "type": "message",
        "text": "yep, i was about to write that it might be necessary :slightly_smiling_face:",
        "user": "U52KBSW9X",
        "ts": "1585310133.057000",
        "team": "TUU48M0T1",
        "user_team": "T48QEEVTJ",
        "source_team": "T48QEEVTJ",
        "user_profile": {
            "avatar_hash": "079d4f4301af",
            "image_72": "https:\/\/avatars.slack-edge.com\/2019-07-28\/696974040114_079d4f4301af057e28c1_72.jpg",
            "first_name": "Bastian",
            "real_name": "Bastian Greshake Tzovaras",
            "display_name": "gedankenstuecke",
            "team": "T48QEEVTJ",
            "name": "gedankenstuecke",
            "is_restricted": false,
            "is_ultra_restricted": false
        },
        "blocks": [
            {
                "type": "rich_text",
                "block_id": "+\/Qw",
                "elements": [
                    {
                        "type": "rich_text_section",
                        "elements": [
                            {
                                "type": "text",
                                "text": "yep, i was about to write that it might be necessary "
                            },
                            {
                                "type": "emoji",
                                "name": "slightly_smiling_face"
                            }
                        ]
                    }
                ]
            }
        ],
        "thread_ts": "1585133253.005100",
        "parent_user_id": "U52KBSW9X"
    },
    {
        "client_msg_id": "953eda67-628b-410c-9d66-dc572b2da876",
        "type": "message",
        "text": "perfect, you folks are amazing :slightly_smiling_face:",
        "user": "U52KBSW9X",
        "ts": "1585310143.057200",
        "team": "TUU48M0T1",
        "user_team": "T48QEEVTJ",
        "source_team": "T48QEEVTJ",
        "user_profile": {
            "avatar_hash": "079d4f4301af",
            "image_72": "https:\/\/avatars.slack-edge.com\/2019-07-28\/696974040114_079d4f4301af057e28c1_72.jpg",
            "first_name": "Bastian",
            "real_name": "Bastian Greshake Tzovaras",
            "display_name": "gedankenstuecke",
            "team": "T48QEEVTJ",
            "name": "gedankenstuecke",
            "is_restricted": false,
            "is_ultra_restricted": false
        },
        "blocks": [
            {
                "type": "rich_text",
                "block_id": "4hH",
                "elements": [
                    {
                        "type": "rich_text_section",
                        "elements": [
                            {
                                "type": "text",
                                "text": "perfect, you folks are amazing "
                            },
                            {
                                "type": "emoji",
                                "name": "slightly_smiling_face"
                            }
                        ]
                    }
                ]
            }
        ],
        "thread_ts": "1585133253.005100",
        "parent_user_id": "U52KBSW9X"
    },
    {
        "client_msg_id": "B748AE1D-AECC-41E8-AD14-29D451207DC5",
        "type": "message",
        "text": "Maybe I should just double check and merge? I think it’s probably too much to expect someone to dive in and comment so easily. :)",
        "user": "U4A6D8F6J",
        "ts": "1585314012.059400",
        "team": "TUU48M0T1",
        "user_team": "T48QEEVTJ",
        "source_team": "T48QEEVTJ",
        "user_profile": {
            "avatar_hash": "4dc43012615b",
            "image_72": "https:\/\/avatars.slack-edge.com\/2019-10-17\/801801580071_4dc43012615b2074c521_72.jpg",
            "first_name": "Mad",
            "real_name": "Mad Price Ball",
            "display_name": "madprime",
            "team": "T48QEEVTJ",
            "name": "madprime",
            "is_restricted": false,
            "is_ultra_restricted": false
        },
        "blocks": [
            {
                "type": "rich_text",
                "block_id": "Gh6N",
                "elements": [
                    {
                        "type": "rich_text_section",
                        "elements": [
                            {
                                "type": "text",
                                "text": "Maybe I should just double check and merge? I think it’s probably too much to expect someone to dive in and comment so easily. :)"
                            }
                        ]
                    }
                ]
            }
        ],
        "thread_ts": "1585269156.055400",
        "parent_user_id": "U4A6D8F6J"
    },
    {
        "client_msg_id": "1044ff32-ec14-4da3-865a-32e49cadb450",
        "type": "message",
        "text": "okay :slightly_smiling_face:",
        "user": "U52KBSW9X",
        "ts": "1585315020.059600",
        "team": "TUU48M0T1",
        "user_team": "T48QEEVTJ",
        "source_team": "T48QEEVTJ",
        "user_profile": {
            "avatar_hash": "079d4f4301af",
            "image_72": "https:\/\/avatars.slack-edge.com\/2019-07-28\/696974040114_079d4f4301af057e28c1_72.jpg",
            "first_name": "Bastian",
            "real_name": "Bastian Greshake Tzovaras",
            "display_name": "gedankenstuecke",
            "team": "T48QEEVTJ",
            "name": "gedankenstuecke",
            "is_restricted": false,
            "is_ultra_restricted": false
        },
        "blocks": [
            {
                "type": "rich_text",
                "block_id": "uVG",
                "elements": [
                    {
                        "type": "rich_text_section",
                        "elements": [
                            {
                                "type": "text",
                                "text": "okay "
                            },
                            {
                                "type": "emoji",
                                "name": "slightly_smiling_face"
                            }
                        ]
                    }
                ]
            }
        ],
        "thread_ts": "1585269156.055400",
        "parent_user_id": "U4A6D8F6J"
    },
    {
        "client_msg_id": "4e42b29b-07a4-4d4c-bd80-7358b5c12d5a",
        "type": "message",
        "text": "The main requests for wearable support we get: Apple Watch, Garmin devices &amp; Samsung Galaxy Watches. The first one is currently in development and might be ready soonish, fingers crossed",
        "user": "U52KBSW9X",
        "ts": "1585323628.061600",
        "team": "TUU48M0T1",
        "user_team": "T48QEEVTJ",
        "source_team": "T48QEEVTJ",
        "user_profile": {
            "avatar_hash": "079d4f4301af",
            "image_72": "https:\/\/avatars.slack-edge.com\/2019-07-28\/696974040114_079d4f4301af057e28c1_72.jpg",
            "first_name": "Bastian",
            "real_name": "Bastian Greshake Tzovaras",
            "display_name": "gedankenstuecke",
            "team": "T48QEEVTJ",
            "name": "gedankenstuecke",
            "is_restricted": false,
            "is_ultra_restricted": false
        },
        "blocks": [
            {
                "type": "rich_text",
                "block_id": "4i1N",
                "elements": [
                    {
                        "type": "rich_text_section",
                        "elements": [
                            {
                                "type": "text",
                                "text": "The main requests for wearable support we get: Apple Watch, Garmin devices & Samsung Galaxy Watches. The first one is currently in development and might be ready soonish, fingers crossed"
                            }
                        ]
                    }
                ]
            }
        ]
    },
    {
        "client_msg_id": "39566368-d0c9-4148-beda-e0d758533618",
        "type": "message",
        "text": "The Garmin devices are a bit tricky, as their API is locked off unless you apply for access with them. I just filled out their form to become a developer with them, let’s see.",
        "user": "U52KBSW9X",
        "ts": "1585323662.062300",
        "team": "TUU48M0T1",
        "user_team": "T48QEEVTJ",
        "source_team": "T48QEEVTJ",
        "user_profile": {
            "avatar_hash": "079d4f4301af",
            "image_72": "https:\/\/avatars.slack-edge.com\/2019-07-28\/696974040114_079d4f4301af057e28c1_72.jpg",
            "first_name": "Bastian",
            "real_name": "Bastian Greshake Tzovaras",
            "display_name": "gedankenstuecke",
            "team": "T48QEEVTJ",
            "name": "gedankenstuecke",
            "is_restricted": false,
            "is_ultra_restricted": false
        },
        "blocks": [
            {
                "type": "rich_text",
                "block_id": "eVJM",
                "elements": [
                    {
                        "type": "rich_text_section",
                        "elements": [
                            {
                                "type": "text",
                                "text": "The Garmin devices are a bit tricky, as their API is locked off unless you apply for access with them. I just filled out their form to become a developer with them, let’s see."
                            }
                        ]
                    }
                ]
            }
        ]
    },
    {
        "client_msg_id": "4018320c-d4c7-4d71-9fc5-93513e51ba68",
        "type": "message",
        "text": "The Samsung Galaxy watches apparently have their own ‘Samsung Health’  thing, which is the same as the Apple Health app and would require an android app to export data from it. But there seem to be apps that allow export from Samsung Health to Google Fit. So our existing Google Fit integration might work, if we can add the HR data to it :slightly_smiling_face:",
        "user": "U52KBSW9X",
        "ts": "1585323700.063200",
        "team": "TUU48M0T1",
        "user_team": "T48QEEVTJ",
        "source_team": "T48QEEVTJ",
        "user_profile": {
            "avatar_hash": "079d4f4301af",
            "image_72": "https:\/\/avatars.slack-edge.com\/2019-07-28\/696974040114_079d4f4301af057e28c1_72.jpg",
            "first_name": "Bastian",
            "real_name": "Bastian Greshake Tzovaras",
            "display_name": "gedankenstuecke",
            "team": "T48QEEVTJ",
            "name": "gedankenstuecke",
            "is_restricted": false,
            "is_ultra_restricted": false
        },
        "edited": {
            "user": "U52KBSW9X",
            "ts": "1585323729.000000"
        },
        "blocks": [
            {
                "type": "rich_text",
                "block_id": "1tpaO",
                "elements": [
                    {
                        "type": "rich_text_section",
                        "elements": [
                            {
                                "type": "text",
                                "text": "The Samsung Galaxy watches apparently have their own ‘Samsung Health’  thing, which is the same as the Apple Health app and would require an android app to export data from it. But there seem to be apps that allow export from Samsung Health to Google Fit. So our existing Google Fit integration might work, if we can add the HR data to it "
                            },
                            {
                                "type": "emoji",
                                "name": "slightly_smiling_face"
                            }
                        ]
                    }
                ]
            }
        ]
    },
    {
        "client_msg_id": "dd191975-a445-43f0-abaa-49b6a531e2bf",
        "type": "message",
        "text": "some publicly available data now – you can explore on the site, and there's JSON endpoints to get raw data: <https:\/\/quantifiedflu.org\/retrospective\/public>",
        "user": "U4A6D8F6J",
        "ts": "1585323883.064600",
        "team": "TUU48M0T1",
        "user_team": "T48QEEVTJ",
        "source_team": "T48QEEVTJ",
        "user_profile": {
            "avatar_hash": "4dc43012615b",
            "image_72": "https:\/\/avatars.slack-edge.com\/2019-10-17\/801801580071_4dc43012615b2074c521_72.jpg",
            "first_name": "Mad",
            "real_name": "Mad Price Ball",
            "display_name": "madprime",
            "team": "T48QEEVTJ",
            "name": "madprime",
            "is_restricted": false,
            "is_ultra_restricted": false
        },
        "attachments": [
            {
                "title": "Quantified Flu",
                "title_link": "https:\/\/quantifiedflu.org\/retrospective\/public",
                "text": "Quantified Flu is a project to explore personal tracking and infectious disease",
                "fallback": "Quantified Flu",
                "from_url": "https:\/\/quantifiedflu.org\/retrospective\/public",
                "service_icon": "https:\/\/quantifiedflu.org\/static\/img\/favicon-32x32.ec5b54e60581.png",
                "service_name": "quantifiedflu.org",
                "id": 1,
                "original_url": "https:\/\/quantifiedflu.org\/retrospective\/public"
            }
        ],
        "blocks": [
            {
                "type": "rich_text",
                "block_id": "7tLA",
                "elements": [
                    {
                        "type": "rich_text_section",
                        "elements": [
                            {
                                "type": "text",
                                "text": "some publicly available data now – you can explore on the site, and there's JSON endpoints to get raw data: "
                            },
                            {
                                "type": "link",
                                "url": "https:\/\/quantifiedflu.org\/retrospective\/public"
                            }
                        ]
                    }
                ]
            }
        ],
        "thread_ts": "1585323883.064600",
        "reply_count": 2,
        "reply_users_count": 2,
        "latest_reply": "1585323965.065100",
        "reply_users": [
            "U4A6D8F6J",
            "U52KBSW9X"
        ],
        "replies": [
            {
                "user": "U4A6D8F6J",
                "ts": "1585323960.064900"
            },
            {
                "user": "U52KBSW9X",
                "ts": "1585323965.065100"
            }
        ],
        "subscribed": false,
        "reactions": [
            {
                "name": "+1",
                "users": [
                    "U52KBSW9X"
                ],
                "count": 1
            }
        ]
    },
    {
        "client_msg_id": "667c1f64-600b-4c80-be3a-52632a7b77e1",
        "type": "message",
        "text": "cc <@ULHKLAAR2> as FYI &amp; potential feedback :slightly_smiling_face:\n\nas noted in my PR, this is directly linking to the JSON used by graphs – so I wouldn't be surprised to hear it's less than ideal, but it was (at least) straightforward to implement. (And intuitive for individuals: the data that's visible is what's being shared.)",
        "user": "U4A6D8F6J",
        "ts": "1585323960.064900",
        "team": "TUU48M0T1",
        "user_team": "T48QEEVTJ",
        "source_team": "T48QEEVTJ",
        "user_profile": {
            "avatar_hash": "4dc43012615b",
            "image_72": "https:\/\/avatars.slack-edge.com\/2019-10-17\/801801580071_4dc43012615b2074c521_72.jpg",
            "first_name": "Mad",
            "real_name": "Mad Price Ball",
            "display_name": "madprime",
            "team": "T48QEEVTJ",
            "name": "madprime",
            "is_restricted": false,
            "is_ultra_restricted": false
        },
        "blocks": [
            {
                "type": "rich_text",
                "block_id": "aorg",
                "elements": [
                    {
                        "type": "rich_text_section",
                        "elements": [
                            {
                                "type": "text",
                                "text": "cc "
                            },
                            {
                                "type": "user",
                                "user_id": "ULHKLAAR2"
                            },
                            {
                                "type": "text",
                                "text": " as FYI & potential feedback "
                            },
                            {
                                "type": "emoji",
                                "name": "slightly_smiling_face"
                            },
                            {
                                "type": "text",
                                "text": "\n\nas noted in my PR, this is directly linking to the JSON used by graphs – so I wouldn't be surprised to hear it's less than ideal, but it was (at least) straightforward to implement. (And intuitive for individuals: the data that's visible is what's being shared.)"
                            }
                        ]
                    }
                ]
            }
        ],
        "thread_ts": "1585323883.064600",
        "parent_user_id": "U4A6D8F6J"
    },
    {
        "client_msg_id": "f7dc9288-6fc4-4e0a-ae3e-47e4bb13d7b3",
        "type": "message",
        "text": "nice!",
        "user": "U52KBSW9X",
        "ts": "1585323965.065100",
        "team": "TUU48M0T1",
        "user_team": "T48QEEVTJ",
        "source_team": "T48QEEVTJ",
        "user_profile": {
            "avatar_hash": "079d4f4301af",
            "image_72": "https:\/\/avatars.slack-edge.com\/2019-07-28\/696974040114_079d4f4301af057e28c1_72.jpg",
            "first_name": "Bastian",
            "real_name": "Bastian Greshake Tzovaras",
            "display_name": "gedankenstuecke",
            "team": "T48QEEVTJ",
            "name": "gedankenstuecke",
            "is_restricted": false,
            "is_ultra_restricted": false
        },
        "blocks": [
            {
                "type": "rich_text",
                "block_id": "MMJP",
                "elements": [
                    {
                        "type": "rich_text_section",
                        "elements": [
                            {
                                "type": "text",
                                "text": "nice!"
                            }
                        ]
                    }
                ]
            }
        ],
        "thread_ts": "1585323883.064600",
        "parent_user_id": "U4A6D8F6J"
    },
    {
        "type": "message",
        "subtype": "channel_join",
        "ts": "1585324959.065400",
        "user": "U010TPWBVRD",
        "text": "<@U010TPWBVRD> has joined the channel",
        "team": "TUU48M0T1"
    },
    {
        "client_msg_id": "7cc19cda-b7cb-4e8c-ac34-a0b1aac8aba6",
        "type": "message",
        "text": "<@U4AGJ7L87> just wanted to ping you to see if you might be able to implement those d3 graphs on the website for us :heart: :slightly_smiling_face:",
        "user": "U52KBSW9X",
        "ts": "1585326644.065600",
        "team": "TUU48M0T1",
        "user_team": "T48QEEVTJ",
        "source_team": "T48QEEVTJ",
        "user_profile": {
            "avatar_hash": "079d4f4301af",
            "image_72": "https:\/\/avatars.slack-edge.com\/2019-07-28\/696974040114_079d4f4301af057e28c1_72.jpg",
            "first_name": "Bastian",
            "real_name": "Bastian Greshake Tzovaras",
            "display_name": "gedankenstuecke",
            "team": "T48QEEVTJ",
            "name": "gedankenstuecke",
            "is_restricted": false,
            "is_ultra_restricted": false
        },
        "blocks": [
            {
                "type": "rich_text",
                "block_id": "EGKB",
                "elements": [
                    {
                        "type": "rich_text_section",
                        "elements": [
                            {
                                "type": "user",
                                "user_id": "U4AGJ7L87"
                            },
                            {
                                "type": "text",
                                "text": " just wanted to ping you to see if you might be able to implement those d3 graphs on the website for us "
                            },
                            {
                                "type": "emoji",
                                "name": "heart"
                            },
                            {
                                "type": "text",
                                "text": " "
                            },
                            {
                                "type": "emoji",
                                "name": "slightly_smiling_face"
                            }
                        ]
                    }
                ]
            }
        ],
        "thread_ts": "1585104612.000500",
        "parent_user_id": "U4AGJ7L87"
    },
    {
        "client_msg_id": "A0E80C05-4715-4FA9-A1EC-7EE8A665CDDD",
        "type": "message",
        "text": "I would love an open source symptom tracking\/logging mobile app that’s react native (and maybe using expo for easy development &amp; contribution?) that can deposit data into open humans.",
        "user": "U4A6D8F6J",
        "ts": "1585327349.067800",
        "team": "TUU48M0T1",
        "user_team": "T48QEEVTJ",
        "source_team": "T48QEEVTJ",
        "user_profile": {
            "avatar_hash": "4dc43012615b",
            "image_72": "https:\/\/avatars.slack-edge.com\/2019-10-17\/801801580071_4dc43012615b2074c521_72.jpg",
            "first_name": "Mad",
            "real_name": "Mad Price Ball",
            "display_name": "madprime",
            "team": "T48QEEVTJ",
            "name": "madprime",
            "is_restricted": false,
            "is_ultra_restricted": false
        },
        "blocks": [
            {
                "type": "rich_text",
                "block_id": "e\/a",
                "elements": [
                    {
                        "type": "rich_text_section",
                        "elements": [
                            {
                                "type": "text",
                                "text": "I would love an open source symptom tracking\/logging mobile app that’s react native (and maybe using expo for easy development & contribution?) that can deposit data into open humans."
                            }
                        ]
                    }
                ]
            }
        ],
        "reactions": [
            {
                "name": "+1::skin-tone-3",
                "users": [
                    "U49KHPBUJ",
                    "U52KBSW9X"
                ],
                "count": 2
            }
        ]
    },
    {
        "client_msg_id": "daac4ac6-75c4-4383-9235-24bc9138ccfb",
        "type": "message",
        "text": "certainly a possibility, haven't found more time yet though :slightly_smiling_face:",
        "user": "U4AGJ7L87",
        "ts": "1585327561.067900",
        "team": "TUU48M0T1",
        "user_team": "T48QEEVTJ",
        "source_team": "T48QEEVTJ",
        "user_profile": {
            "avatar_hash": "g066561fa364",
            "image_72": "https:\/\/secure.gravatar.com\/avatar\/0066561fa3649531b915aba34caff0b8.jpg?s=72&d=https%3A%2F%2Fa.slack-edge.com%2Fdf10d%2Fimg%2Favatars%2Fava_0024-72.png",
            "first_name": "Beau",
            "real_name": "Beau Gunderson",
            "display_name": "beau",
            "team": "T48QEEVTJ",
            "name": "beau",
            "is_restricted": false,
            "is_ultra_restricted": false
        },
        "blocks": [
            {
                "type": "rich_text",
                "block_id": "25o",
                "elements": [
                    {
                        "type": "rich_text_section",
                        "elements": [
                            {
                                "type": "text",
                                "text": "certainly a possibility, haven't found more time yet though "
                            },
                            {
                                "type": "emoji",
                                "name": "slightly_smiling_face"
                            }
                        ]
                    }
                ]
            }
        ],
        "thread_ts": "1585104612.000500",
        "parent_user_id": "U4AGJ7L87"
    },
    {
        "client_msg_id": "dd576843-8249-430f-82bb-e4a88d148671",
        "type": "message",
        "text": "nice animated graphics from MIT Tech Review:\n<https:\/\/www.technologyreview.com\/s\/615414\/the-covid-19-pandemic-in-two-animated-charts\/>",
        "user": "U49KHPBUJ",
        "ts": "1585329641.068500",
        "team": "TUU48M0T1",
        "user_team": "T48QEEVTJ",
        "source_team": "T48QEEVTJ",
        "user_profile": {
            "avatar_hash": "gfeaaafc4cbf",
            "image_72": "https:\/\/secure.gravatar.com\/avatar\/5feaaafc4cbf208f50f9b2807fa791a9.jpg?s=72&d=https%3A%2F%2Fa.slack-edge.com%2Fdf10d%2Fimg%2Favatars%2Fava_0008-72.png",
            "first_name": "Ben",
            "real_name": "Ben Carr",
            "display_name": "benc",
            "team": "T48QEEVTJ",
            "name": "benc",
            "is_restricted": false,
            "is_ultra_restricted": false
        },
        "attachments": [
            {
                "service_name": "MIT Technology Review",
                "title": "The Covid-19 pandemic in two animated charts",
                "title_link": "https:\/\/www.technologyreview.com\/s\/615414\/the-covid-19-pandemic-in-two-animated-charts\/",
                "text": "Watch our visualization to see how confirmed cases outside China have exploded in recent weeks.",
                "fallback": "MIT Technology Review: The Covid-19 pandemic in two animated charts",
                "image_url": "https:\/\/www.technologyreview.com\/i\/images\/screen-shot-2020-03-27-at-9.48.21-am.png?sw=560&cx=0&cy=0&cw=2016&ch=1134",
                "from_url": "https:\/\/www.technologyreview.com\/s\/615414\/the-covid-19-pandemic-in-two-animated-charts\/",
                "image_width": 444,
                "image_height": 250,
                "image_bytes": 50790,
                "service_icon": "https:\/\/www.technologyreview.com\/favicon.ico?v=2",
                "id": 1,
                "original_url": "https:\/\/www.technologyreview.com\/s\/615414\/the-covid-19-pandemic-in-two-animated-charts\/"
            }
        ],
        "blocks": [
            {
                "type": "rich_text",
                "block_id": "X6j",
                "elements": [
                    {
                        "type": "rich_text_section",
                        "elements": [
                            {
                                "type": "text",
                                "text": "nice animated graphics from MIT Tech Review:\n"
                            },
                            {
                                "type": "link",
                                "url": "https:\/\/www.technologyreview.com\/s\/615414\/the-covid-19-pandemic-in-two-animated-charts\/"
                            }
                        ]
                    }
                ]
            }
        ]
    },
    {
        "client_msg_id": "3415ee71-92e1-4a30-9d93-e2c25a8df1f3",
        "type": "message",
        "text": "No worries, that’s what I assumed. Do you think there’s a chance you might get to it in the next few days? And would you mind me asking every few days as I know how easy things fall of my plate? :innocent: :smile:",
        "user": "U52KBSW9X",
        "ts": "1585331240.068800",
        "team": "TUU48M0T1",
        "user_team": "T48QEEVTJ",
        "source_team": "T48QEEVTJ",
        "user_profile": {
            "avatar_hash": "079d4f4301af",
            "image_72": "https:\/\/avatars.slack-edge.com\/2019-07-28\/696974040114_079d4f4301af057e28c1_72.jpg",
            "first_name": "Bastian",
            "real_name": "Bastian Greshake Tzovaras",
            "display_name": "gedankenstuecke",
            "team": "T48QEEVTJ",
            "name": "gedankenstuecke",
            "is_restricted": false,
            "is_ultra_restricted": false
        },
        "blocks": [
            {
                "type": "rich_text",
                "block_id": "OrAVQ",
                "elements": [
                    {
                        "type": "rich_text_section",
                        "elements": [
                            {
                                "type": "text",
                                "text": "No worries, that’s what I assumed. Do you think there’s a chance you might get to it in the next few days? And would you mind me asking every few days as I know how easy things fall of my plate? "
                            },
                            {
                                "type": "emoji",
                                "name": "innocent"
                            },
                            {
                                "type": "text",
                                "text": " "
                            },
                            {
                                "type": "emoji",
                                "name": "smile"
                            }
                        ]
                    }
                ]
            }
        ],
        "thread_ts": "1585104612.000500",
        "parent_user_id": "U4AGJ7L87"
    }
]