[
    {
        "client_msg_id": "445c1ff5-aebd-4599-832e-1f65f4313da5",
        "type": "message",
        "text": "<@USBSKSF4Z> good luck with the home office! I spent half the morning doing that as well!",
        "user": "U52KBSW9X",
        "ts": "1584369210.000600",
        "team": "TUU48M0T1",
        "user_team": "T48QEEVTJ",
        "source_team": "T48QEEVTJ",
        "user_profile": {
            "avatar_hash": "079d4f4301af",
            "image_72": "https:\/\/avatars.slack-edge.com\/2019-07-28\/696974040114_079d4f4301af057e28c1_72.jpg",
            "first_name": "Bastian",
            "real_name": "Bastian Greshake Tzovaras",
            "display_name": "gedankenstuecke",
            "team": "T48QEEVTJ",
            "name": "gedankenstuecke",
            "is_restricted": false,
            "is_ultra_restricted": false
        },
        "blocks": [
            {
                "type": "rich_text",
                "block_id": "JPo",
                "elements": [
                    {
                        "type": "rich_text_section",
                        "elements": [
                            {
                                "type": "user",
                                "user_id": "USBSKSF4Z"
                            },
                            {
                                "type": "text",
                                "text": " good luck with the home office! I spent half the morning doing that as well!"
                            }
                        ]
                    }
                ]
            }
        ]
    },
    {
        "client_msg_id": "853868ec-84c7-446d-8073-3d9e3831b0ce",
        "type": "message",
        "text": "<!channel> Mad &amp; I started working on a small web-application that does the same kind of analysis that my notebooks did for Oura &amp; Fitbit data. I think we got to a point where I can at least share a beta version with you to get feedback: <https:\/\/quantifiedflu.herokuapp.com\/> *please don’t make it public yet*!\n\nAt this point users can add a date when they fell sick and the app will visualize HR &amp; temperature for 3 weeks before and 2 weeks after the incident and store the graphs. Given what <@U9GTT5PNW> said and also discussions we had internally at CRI in Paris: Do you think it would be interesting to add one more bit to the forms for adding events, which is “were you tested for the flu during your case?” and answers are “No \/ Yes, negative \/ Yes, regular flu \/ Yes, covid19\"?\n\nAlso: what other things do you think are missing? If you are interested in contributing on a code level: The code is open source at <https:\/\/github.com\/madprime\/quantified-flu\/> (and currently it’s deploying from the open PR to show the UI)",
        "user": "U52KBSW9X",
        "ts": "1584369529.004800",
        "team": "TUU48M0T1",
        "user_team": "T48QEEVTJ",
        "source_team": "T48QEEVTJ",
        "user_profile": {
            "avatar_hash": "079d4f4301af",
            "image_72": "https:\/\/avatars.slack-edge.com\/2019-07-28\/696974040114_079d4f4301af057e28c1_72.jpg",
            "first_name": "Bastian",
            "real_name": "Bastian Greshake Tzovaras",
            "display_name": "gedankenstuecke",
            "team": "T48QEEVTJ",
            "name": "gedankenstuecke",
            "is_restricted": false,
            "is_ultra_restricted": false
        },
        "attachments": [
            {
                "title": "Quantified Flu",
                "title_link": "https:\/\/quantifiedflu.herokuapp.com\/",
                "text": "Quantified Flu is a project to explore personal tracking and infectious disease",
                "fallback": "Quantified Flu",
                "from_url": "https:\/\/quantifiedflu.herokuapp.com\/",
                "service_icon": "https:\/\/quantifiedflu.herokuapp.com\/static\/img\/favicon-32x32.2387edd2fc67.png",
                "service_name": "quantifiedflu.herokuapp.com",
                "id": 1,
                "original_url": "https:\/\/quantifiedflu.herokuapp.com\/"
            }
        ],
        "blocks": [
            {
                "type": "rich_text",
                "block_id": "lAQ",
                "elements": [
                    {
                        "type": "rich_text_section",
                        "elements": [
                            {
                                "type": "broadcast",
                                "range": "channel"
                            },
                            {
                                "type": "text",
                                "text": " Mad & I started working on a small web-application that does the same kind of analysis that my notebooks did for Oura & Fitbit data. I think we got to a point where I can at least share a beta version with you to get feedback: "
                            },
                            {
                                "type": "link",
                                "url": "https:\/\/quantifiedflu.herokuapp.com\/"
                            },
                            {
                                "type": "text",
                                "text": " "
                            },
                            {
                                "type": "text",
                                "text": "please don’t make it public yet",
                                "style": {
                                    "bold": true
                                }
                            },
                            {
                                "type": "text",
                                "text": "!\n\nAt this point users can add a date when they fell sick and the app will visualize HR & temperature for 3 weeks before and 2 weeks after the incident and store the graphs. Given what "
                            },
                            {
                                "type": "user",
                                "user_id": "U9GTT5PNW"
                            },
                            {
                                "type": "text",
                                "text": " said and also discussions we had internally at CRI in Paris: Do you think it would be interesting to add one more bit to the forms for adding events, which is “were you tested for the flu during your case?” and answers are “No \/ Yes, negative \/ Yes, regular flu \/ Yes, covid19\"?\n\nAlso: what other things do you think are missing? If you are interested in contributing on a code level: The code is open source at "
                            },
                            {
                                "type": "link",
                                "url": "https:\/\/github.com\/madprime\/quantified-flu\/"
                            },
                            {
                                "type": "text",
                                "text": " (and currently it’s deploying from the open PR to show the UI)"
                            }
                        ]
                    }
                ]
            }
        ],
        "reactions": [
            {
                "name": "+1::skin-tone-5",
                "users": [
                    "US5J9BX0S"
                ],
                "count": 1
            },
            {
                "name": "+1",
                "users": [
                    "USBSKSF4Z"
                ],
                "count": 1
            }
        ]
    },
    {
        "type": "message",
        "subtype": "channel_join",
        "ts": "1584372064.005400",
        "user": "U01059K9EMU",
        "text": "<@U01059K9EMU> has joined the channel"
    },
    {
        "client_msg_id": "84dc482c-7ece-4326-bafd-44075f53fb22",
        "type": "message",
        "text": "welcome <@U01059K9EMU>! :wave:",
        "user": "U52KBSW9X",
        "ts": "1584374907.006300",
        "team": "TUU48M0T1",
        "user_team": "T48QEEVTJ",
        "source_team": "T48QEEVTJ",
        "user_profile": {
            "avatar_hash": "079d4f4301af",
            "image_72": "https:\/\/avatars.slack-edge.com\/2019-07-28\/696974040114_079d4f4301af057e28c1_72.jpg",
            "first_name": "Bastian",
            "real_name": "Bastian Greshake Tzovaras",
            "display_name": "gedankenstuecke",
            "team": "T48QEEVTJ",
            "name": "gedankenstuecke",
            "is_restricted": false,
            "is_ultra_restricted": false
        },
        "blocks": [
            {
                "type": "rich_text",
                "block_id": "jRkoP",
                "elements": [
                    {
                        "type": "rich_text_section",
                        "elements": [
                            {
                                "type": "text",
                                "text": "welcome "
                            },
                            {
                                "type": "user",
                                "user_id": "U01059K9EMU"
                            },
                            {
                                "type": "text",
                                "text": "! "
                            },
                            {
                                "type": "emoji",
                                "name": "wave"
                            }
                        ]
                    }
                ]
            }
        ],
        "reactions": [
            {
                "name": "grinning",
                "users": [
                    "U01059K9EMU"
                ],
                "count": 1
            }
        ]
    },
    {
        "client_msg_id": "d070ffc5-9dca-4110-b954-c0476b801c98",
        "type": "message",
        "text": "*We'd especially be interested in Javascript visualization improvement* – the visualizations are JS already (i.e. already created via a JSON endpoint) and might be improved by someone more savvy (e.g. with D3). See this issue: <https:\/\/github.com\/madprime\/quantified-flu\/issues\/2>\n\n*Also, would welcome feedback on question phrasing, other information to collect.* See this issue: <https:\/\/github.com\/madprime\/quantified-flu\/issues\/4>\n\nThis project might also be a starting point for prospective tracking for people that get sick, going forward. Still thinking about if\/how that would work.",
        "user": "U4A6D8F6J",
        "ts": "1584376012.009200",
        "team": "TUU48M0T1",
        "user_team": "T48QEEVTJ",
        "source_team": "T48QEEVTJ",
        "user_profile": {
            "avatar_hash": "4dc43012615b",
            "image_72": "https:\/\/avatars.slack-edge.com\/2019-10-17\/801801580071_4dc43012615b2074c521_72.jpg",
            "first_name": "Mad",
            "real_name": "Mad Price Ball",
            "display_name": "madprime",
            "team": "T48QEEVTJ",
            "name": "madprime",
            "is_restricted": false,
            "is_ultra_restricted": false
        },
        "edited": {
            "user": "U4A6D8F6J",
            "ts": "1584376263.000000"
        },
        "blocks": [
            {
                "type": "rich_text",
                "block_id": "=qvC1",
                "elements": [
                    {
                        "type": "rich_text_section",
                        "elements": [
                            {
                                "type": "text",
                                "text": "We'd especially be interested in Javascript visualization improvement",
                                "style": {
                                    "bold": true
                                }
                            },
                            {
                                "type": "text",
                                "text": " – the visualizations are JS already (i.e. already created via a JSON endpoint) and might be improved by someone more savvy (e.g. with D3). See this issue: "
                            },
                            {
                                "type": "link",
                                "url": "https:\/\/github.com\/madprime\/quantified-flu\/issues\/2"
                            },
                            {
                                "type": "text",
                                "text": "\n\n"
                            },
                            {
                                "type": "text",
                                "text": "Also, would welcome feedback on question phrasing, other information to collect. ",
                                "style": {
                                    "bold": true
                                }
                            },
                            {
                                "type": "text",
                                "text": "See this issue: "
                            },
                            {
                                "type": "link",
                                "url": "https:\/\/github.com\/madprime\/quantified-flu\/issues\/4"
                            },
                            {
                                "type": "text",
                                "text": "\n\nThis project might also be a starting point for prospective tracking for people that get sick, going forward. Still thinking about if\/how that would work."
                            }
                        ]
                    }
                ]
            }
        ],
        "thread_ts": "1584376012.009200",
        "reply_count": 3,
        "reply_users_count": 2,
        "latest_reply": "1584376139.009700",
        "reply_users": [
            "U52KBSW9X",
            "U4A6D8F6J"
        ],
        "replies": [
            {
                "user": "U52KBSW9X",
                "ts": "1584376083.009300"
            },
            {
                "user": "U4A6D8F6J",
                "ts": "1584376113.009500"
            },
            {
                "user": "U52KBSW9X",
                "ts": "1584376139.009700"
            }
        ],
        "subscribed": false
    },
    {
        "client_msg_id": "43719dfd-cca4-45d5-aa29-9de96a9e9677",
        "type": "message",
        "text": "oh, the graphs it currently serves are already JS-based and semi-interactive at least, it just uses the rather simplistic metricsgraphics.js library as that happened to be the one i already spoke somewhat.",
        "user": "U52KBSW9X",
        "ts": "1584376083.009300",
        "team": "TUU48M0T1",
        "user_team": "T48QEEVTJ",
        "source_team": "T48QEEVTJ",
        "user_profile": {
            "avatar_hash": "079d4f4301af",
            "image_72": "https:\/\/avatars.slack-edge.com\/2019-07-28\/696974040114_079d4f4301af057e28c1_72.jpg",
            "first_name": "Bastian",
            "real_name": "Bastian Greshake Tzovaras",
            "display_name": "gedankenstuecke",
            "team": "T48QEEVTJ",
            "name": "gedankenstuecke",
            "is_restricted": false,
            "is_ultra_restricted": false
        },
        "blocks": [
            {
                "type": "rich_text",
                "block_id": "aS8D",
                "elements": [
                    {
                        "type": "rich_text_section",
                        "elements": [
                            {
                                "type": "text",
                                "text": "oh, the graphs it currently serves are already JS-based and semi-interactive at least, it just uses the rather simplistic metricsgraphics.js library as that happened to be the one i already spoke somewhat."
                            }
                        ]
                    }
                ]
            }
        ],
        "thread_ts": "1584376012.009200",
        "parent_user_id": "U4A6D8F6J"
    },
    {
        "client_msg_id": "b6180bf4-28d9-4528-ba4a-a09cc1ee432f",
        "type": "message",
        "text": "oops, I'll edit what I just wrote so nobody's confused.",
        "user": "U4A6D8F6J",
        "ts": "1584376113.009500",
        "team": "TUU48M0T1",
        "user_team": "T48QEEVTJ",
        "source_team": "T48QEEVTJ",
        "user_profile": {
            "avatar_hash": "4dc43012615b",
            "image_72": "https:\/\/avatars.slack-edge.com\/2019-10-17\/801801580071_4dc43012615b2074c521_72.jpg",
            "first_name": "Mad",
            "real_name": "Mad Price Ball",
            "display_name": "madprime",
            "team": "T48QEEVTJ",
            "name": "madprime",
            "is_restricted": false,
            "is_ultra_restricted": false
        },
        "blocks": [
            {
                "type": "rich_text",
                "block_id": "483nA",
                "elements": [
                    {
                        "type": "rich_text_section",
                        "elements": [
                            {
                                "type": "text",
                                "text": "oops, I'll edit what I just wrote so nobody's confused."
                            }
                        ]
                    }
                ]
            }
        ],
        "thread_ts": "1584376012.009200",
        "parent_user_id": "U4A6D8F6J"
    },
    {
        "client_msg_id": "0f4f2807-a0fa-44c4-99f7-f9fe88bf2537",
        "type": "message",
        "text": "And the data for the frontend is already delivered through a JSON endpoint, so switching to a different library for the visualization should hopefully not be too hard :slightly_smiling_face:",
        "user": "U52KBSW9X",
        "ts": "1584376139.009700",
        "team": "TUU48M0T1",
        "user_team": "T48QEEVTJ",
        "source_team": "T48QEEVTJ",
        "user_profile": {
            "avatar_hash": "079d4f4301af",
            "image_72": "https:\/\/avatars.slack-edge.com\/2019-07-28\/696974040114_079d4f4301af057e28c1_72.jpg",
            "first_name": "Bastian",
            "real_name": "Bastian Greshake Tzovaras",
            "display_name": "gedankenstuecke",
            "team": "T48QEEVTJ",
            "name": "gedankenstuecke",
            "is_restricted": false,
            "is_ultra_restricted": false
        },
        "blocks": [
            {
                "type": "rich_text",
                "block_id": "lgL",
                "elements": [
                    {
                        "type": "rich_text_section",
                        "elements": [
                            {
                                "type": "text",
                                "text": "And the data for the frontend is already delivered through a JSON endpoint, so switching to a different library for the visualization should hopefully not be too hard "
                            },
                            {
                                "type": "emoji",
                                "name": "slightly_smiling_face"
                            }
                        ]
                    }
                ]
            }
        ],
        "thread_ts": "1584376012.009200",
        "parent_user_id": "U4A6D8F6J"
    }
]