[
    {
        "type": "message",
        "subtype": "channel_join",
        "ts": "1585246535.000200",
        "user": "UV02WET96",
        "text": "<@UV02WET96> has joined the channel"
    },
    {
        "client_msg_id": "1234277b-87f9-4a40-a528-da9c743fb0f4",
        "type": "message",
        "text": "In the second to the last paragraph of the preprint, it states: \"With this preliminary evaluation of potential LAMP primer sets, the best performing sets (ORF1a-A, GeneN-A) were shared and synthesized in Wuhan for testing with actual COVID-19 samples.\"  The GeneN-A primer sets were the ones ordered by <@UUPQGNNTV> and it turns out those were a great choice :slightly_smiling_face:",
        "user": "UV10KBUQG",
        "ts": "1585252157.002000",
        "team": "TUU48M0T1",
        "user_team": "TUU48M0T1",
        "source_team": "TUU48M0T1",
        "user_profile": {
            "avatar_hash": "2deebbf6be3d",
            "image_72": "https:\/\/avatars.slack-edge.com\/2020-03-06\/976932190641_2deebbf6be3d17141d91_72.jpg",
            "first_name": "Sarah",
            "real_name": "Sarah Blossom Ware",
            "display_name": "Sarah Blossom Ware - Founder of BioBlaze Community Bio Lab and Geneticist",
            "team": "TUU48M0T1",
            "name": "ware.sarah",
            "is_restricted": false,
            "is_ultra_restricted": false
        },
        "blocks": [
            {
                "type": "rich_text",
                "block_id": "DMXt5",
                "elements": [
                    {
                        "type": "rich_text_section",
                        "elements": [
                            {
                                "type": "text",
                                "text": "In the second to the last paragraph of the preprint, it states: \"With this preliminary evaluation of potential LAMP primer sets, the best performing sets (ORF1a-A, GeneN-A) were shared and synthesized in Wuhan for testing with actual COVID-19 samples.\"  The GeneN-A primer sets were the ones ordered by "
                            },
                            {
                                "type": "user",
                                "user_id": "UUPQGNNTV"
                            },
                            {
                                "type": "text",
                                "text": " and it turns out those were a great choice "
                            },
                            {
                                "type": "emoji",
                                "name": "slightly_smiling_face"
                            }
                        ]
                    }
                ]
            }
        ]
    },
    {
        "client_msg_id": "52ade946-e00a-453d-bbb1-449268701f3f",
        "type": "message",
        "text": ":+1:",
        "user": "UUPQGNNTV",
        "ts": "1585254346.002200",
        "team": "TUU48M0T1",
        "user_team": "TUU48M0T1",
        "source_team": "TUU48M0T1",
        "user_profile": {
            "avatar_hash": "c28127caf7eb",
            "image_72": "https:\/\/avatars.slack-edge.com\/2020-03-07\/989562470694_c28127caf7ebfe67df97_72.jpg",
            "first_name": "",
            "real_name": "Ellen Jorgensen",
            "display_name": "",
            "team": "TUU48M0T1",
            "name": "ejorgensen",
            "is_restricted": false,
            "is_ultra_restricted": false
        },
        "blocks": [
            {
                "type": "rich_text",
                "block_id": "37a",
                "elements": [
                    {
                        "type": "rich_text_section",
                        "elements": [
                            {
                                "type": "emoji",
                                "name": "+1"
                            }
                        ]
                    }
                ]
            }
        ]
    },
    {
        "client_msg_id": "f051bfeb-1fed-49b9-b5dd-2a64bd691f7a",
        "type": "message",
        "text": "When you get the primers, read the tube to see how many nm (nanomoles) are in the tube and add 10 times that in microliters of water. If you don't have molecular biology grade water I guess you could try using distilled water. This gives you a stock of each primer that is 100uM.",
        "user": "UUPQGNNTV",
        "ts": "1585258065.004000",
        "team": "TUU48M0T1",
        "user_team": "TUU48M0T1",
        "source_team": "TUU48M0T1",
        "user_profile": {
            "avatar_hash": "c28127caf7eb",
            "image_72": "https:\/\/avatars.slack-edge.com\/2020-03-07\/989562470694_c28127caf7ebfe67df97_72.jpg",
            "first_name": "",
            "real_name": "Ellen Jorgensen",
            "display_name": "",
            "team": "TUU48M0T1",
            "name": "ejorgensen",
            "is_restricted": false,
            "is_ultra_restricted": false
        },
        "blocks": [
            {
                "type": "rich_text",
                "block_id": "gKe",
                "elements": [
                    {
                        "type": "rich_text_section",
                        "elements": [
                            {
                                "type": "text",
                                "text": "When you get the primers, read the tube to see how many nm (nanomoles) are in the tube and add 10 times that in microliters of water. If you don't have molecular biology grade water I guess you could try using distilled water. This gives you a stock of each primer that is 100uM."
                            }
                        ]
                    }
                ]
            }
        ]
    },
    {
        "client_msg_id": "789e7f6a-c5b6-4db1-83f0-cc6e3b7b4368",
        "type": "message",
        "text": "To make the 10x primer mix:",
        "user": "UUPQGNNTV",
        "ts": "1585258097.004400",
        "team": "TUU48M0T1",
        "user_team": "TUU48M0T1",
        "source_team": "TUU48M0T1",
        "user_profile": {
            "avatar_hash": "c28127caf7eb",
            "image_72": "https:\/\/avatars.slack-edge.com\/2020-03-07\/989562470694_c28127caf7ebfe67df97_72.jpg",
            "first_name": "",
            "real_name": "Ellen Jorgensen",
            "display_name": "",
            "team": "TUU48M0T1",
            "name": "ejorgensen",
            "is_restricted": false,
            "is_ultra_restricted": false
        },
        "blocks": [
            {
                "type": "rich_text",
                "block_id": "fZF",
                "elements": [
                    {
                        "type": "rich_text_section",
                        "elements": [
                            {
                                "type": "text",
                                "text": "To make the 10x primer mix:"
                            }
                        ]
                    }
                ]
            }
        ]
    },
    {
        "client_msg_id": "75940cd5-2667-42ad-994b-37df3bc804aa",
        "type": "message",
        "text": "16uL FIP",
        "user": "UUPQGNNTV",
        "ts": "1585258110.004600",
        "team": "TUU48M0T1",
        "user_team": "TUU48M0T1",
        "source_team": "TUU48M0T1",
        "user_profile": {
            "avatar_hash": "c28127caf7eb",
            "image_72": "https:\/\/avatars.slack-edge.com\/2020-03-07\/989562470694_c28127caf7ebfe67df97_72.jpg",
            "first_name": "",
            "real_name": "Ellen Jorgensen",
            "display_name": "",
            "team": "TUU48M0T1",
            "name": "ejorgensen",
            "is_restricted": false,
            "is_ultra_restricted": false
        },
        "blocks": [
            {
                "type": "rich_text",
                "block_id": "rg3II",
                "elements": [
                    {
                        "type": "rich_text_section",
                        "elements": [
                            {
                                "type": "text",
                                "text": "16uL FIP"
                            }
                        ]
                    }
                ]
            }
        ]
    },
    {
        "client_msg_id": "8072a115-c860-4b02-8125-a62abe358f7a",
        "type": "message",
        "text": "16uL BIP",
        "user": "UUPQGNNTV",
        "ts": "1585258122.004900",
        "team": "TUU48M0T1",
        "user_team": "TUU48M0T1",
        "source_team": "TUU48M0T1",
        "user_profile": {
            "avatar_hash": "c28127caf7eb",
            "image_72": "https:\/\/avatars.slack-edge.com\/2020-03-07\/989562470694_c28127caf7ebfe67df97_72.jpg",
            "first_name": "",
            "real_name": "Ellen Jorgensen",
            "display_name": "",
            "team": "TUU48M0T1",
            "name": "ejorgensen",
            "is_restricted": false,
            "is_ultra_restricted": false
        },
        "blocks": [
            {
                "type": "rich_text",
                "block_id": "Ufj",
                "elements": [
                    {
                        "type": "rich_text_section",
                        "elements": [
                            {
                                "type": "text",
                                "text": "16uL BIP"
                            }
                        ]
                    }
                ]
            }
        ]
    },
    {
        "client_msg_id": "4af1aaa9-7adf-4573-aca8-baf945dff18a",
        "type": "message",
        "text": "2uL F3",
        "user": "UUPQGNNTV",
        "ts": "1585258132.005200",
        "team": "TUU48M0T1",
        "user_team": "TUU48M0T1",
        "source_team": "TUU48M0T1",
        "user_profile": {
            "avatar_hash": "c28127caf7eb",
            "image_72": "https:\/\/avatars.slack-edge.com\/2020-03-07\/989562470694_c28127caf7ebfe67df97_72.jpg",
            "first_name": "",
            "real_name": "Ellen Jorgensen",
            "display_name": "",
            "team": "TUU48M0T1",
            "name": "ejorgensen",
            "is_restricted": false,
            "is_ultra_restricted": false
        },
        "blocks": [
            {
                "type": "rich_text",
                "block_id": "g5B",
                "elements": [
                    {
                        "type": "rich_text_section",
                        "elements": [
                            {
                                "type": "text",
                                "text": "2uL F3"
                            }
                        ]
                    }
                ]
            }
        ]
    },
    {
        "client_msg_id": "1394cd6a-6dcc-4ec7-83d2-48af6b9ce55e",
        "type": "message",
        "text": "2uL B3",
        "user": "UUPQGNNTV",
        "ts": "1585258140.005500",
        "team": "TUU48M0T1",
        "user_team": "TUU48M0T1",
        "source_team": "TUU48M0T1",
        "user_profile": {
            "avatar_hash": "c28127caf7eb",
            "image_72": "https:\/\/avatars.slack-edge.com\/2020-03-07\/989562470694_c28127caf7ebfe67df97_72.jpg",
            "first_name": "",
            "real_name": "Ellen Jorgensen",
            "display_name": "",
            "team": "TUU48M0T1",
            "name": "ejorgensen",
            "is_restricted": false,
            "is_ultra_restricted": false
        },
        "blocks": [
            {
                "type": "rich_text",
                "block_id": "IBM",
                "elements": [
                    {
                        "type": "rich_text_section",
                        "elements": [
                            {
                                "type": "text",
                                "text": "2uL B3"
                            }
                        ]
                    }
                ]
            }
        ]
    },
    {
        "client_msg_id": "96161626-7823-4a43-96f5-11496b6717d7",
        "type": "message",
        "text": "4uL LoopF",
        "user": "UUPQGNNTV",
        "ts": "1585258149.005800",
        "team": "TUU48M0T1",
        "user_team": "TUU48M0T1",
        "source_team": "TUU48M0T1",
        "user_profile": {
            "avatar_hash": "c28127caf7eb",
            "image_72": "https:\/\/avatars.slack-edge.com\/2020-03-07\/989562470694_c28127caf7ebfe67df97_72.jpg",
            "first_name": "",
            "real_name": "Ellen Jorgensen",
            "display_name": "",
            "team": "TUU48M0T1",
            "name": "ejorgensen",
            "is_restricted": false,
            "is_ultra_restricted": false
        },
        "blocks": [
            {
                "type": "rich_text",
                "block_id": "CRUo",
                "elements": [
                    {
                        "type": "rich_text_section",
                        "elements": [
                            {
                                "type": "text",
                                "text": "4uL LoopF"
                            }
                        ]
                    }
                ]
            }
        ]
    },
    {
        "client_msg_id": "dcd37588-05b5-47ac-96a4-68ebb1316311",
        "type": "message",
        "text": "4ul LoopB",
        "user": "UUPQGNNTV",
        "ts": "1585258155.006000",
        "team": "TUU48M0T1",
        "user_team": "TUU48M0T1",
        "source_team": "TUU48M0T1",
        "user_profile": {
            "avatar_hash": "c28127caf7eb",
            "image_72": "https:\/\/avatars.slack-edge.com\/2020-03-07\/989562470694_c28127caf7ebfe67df97_72.jpg",
            "first_name": "",
            "real_name": "Ellen Jorgensen",
            "display_name": "",
            "team": "TUU48M0T1",
            "name": "ejorgensen",
            "is_restricted": false,
            "is_ultra_restricted": false
        },
        "blocks": [
            {
                "type": "rich_text",
                "block_id": "LPe",
                "elements": [
                    {
                        "type": "rich_text_section",
                        "elements": [
                            {
                                "type": "text",
                                "text": "4ul LoopB"
                            }
                        ]
                    }
                ]
            }
        ]
    },
    {
        "client_msg_id": "13c14d32-b2f8-4fbc-ad0f-3bc5fb4b65b8",
        "type": "message",
        "text": "56uL water",
        "user": "UUPQGNNTV",
        "ts": "1585258179.006200",
        "team": "TUU48M0T1",
        "user_team": "TUU48M0T1",
        "source_team": "TUU48M0T1",
        "user_profile": {
            "avatar_hash": "c28127caf7eb",
            "image_72": "https:\/\/avatars.slack-edge.com\/2020-03-07\/989562470694_c28127caf7ebfe67df97_72.jpg",
            "first_name": "",
            "real_name": "Ellen Jorgensen",
            "display_name": "",
            "team": "TUU48M0T1",
            "name": "ejorgensen",
            "is_restricted": false,
            "is_ultra_restricted": false
        },
        "blocks": [
            {
                "type": "rich_text",
                "block_id": "C7VjL",
                "elements": [
                    {
                        "type": "rich_text_section",
                        "elements": [
                            {
                                "type": "text",
                                "text": "56uL water"
                            }
                        ]
                    }
                ]
            }
        ]
    },
    {
        "client_msg_id": "be5b5ffc-c506-4d91-a10c-df512d665092",
        "type": "message",
        "text": "The final volume should be 100uL.",
        "user": "UUPQGNNTV",
        "ts": "1585258209.006800",
        "team": "TUU48M0T1",
        "user_team": "TUU48M0T1",
        "source_team": "TUU48M0T1",
        "user_profile": {
            "avatar_hash": "c28127caf7eb",
            "image_72": "https:\/\/avatars.slack-edge.com\/2020-03-07\/989562470694_c28127caf7ebfe67df97_72.jpg",
            "first_name": "",
            "real_name": "Ellen Jorgensen",
            "display_name": "",
            "team": "TUU48M0T1",
            "name": "ejorgensen",
            "is_restricted": false,
            "is_ultra_restricted": false
        },
        "blocks": [
            {
                "type": "rich_text",
                "block_id": "YGKn",
                "elements": [
                    {
                        "type": "rich_text_section",
                        "elements": [
                            {
                                "type": "text",
                                "text": "The final volume should be 100uL."
                            }
                        ]
                    }
                ]
            }
        ]
    },
    {
        "client_msg_id": "6f384e19-b5ea-4dc6-b9b0-2f3ee6b1f527",
        "type": "message",
        "text": "For each LAMP reaction use:",
        "user": "UUPQGNNTV",
        "ts": "1585258217.007100",
        "team": "TUU48M0T1",
        "user_team": "TUU48M0T1",
        "source_team": "TUU48M0T1",
        "user_profile": {
            "avatar_hash": "c28127caf7eb",
            "image_72": "https:\/\/avatars.slack-edge.com\/2020-03-07\/989562470694_c28127caf7ebfe67df97_72.jpg",
            "first_name": "",
            "real_name": "Ellen Jorgensen",
            "display_name": "",
            "team": "TUU48M0T1",
            "name": "ejorgensen",
            "is_restricted": false,
            "is_ultra_restricted": false
        },
        "blocks": [
            {
                "type": "rich_text",
                "block_id": "jVLq",
                "elements": [
                    {
                        "type": "rich_text_section",
                        "elements": [
                            {
                                "type": "text",
                                "text": "For each LAMP reaction use:"
                            }
                        ]
                    }
                ]
            }
        ]
    },
    {
        "client_msg_id": "61313ebf-8695-4707-b496-1ebfe3ccaed6",
        "type": "message",
        "text": "12.5uL NEB WarmStart® Colorimetric LAMP 2X Master Mix",
        "user": "UUPQGNNTV",
        "ts": "1585258251.007500",
        "team": "TUU48M0T1",
        "user_team": "TUU48M0T1",
        "source_team": "TUU48M0T1",
        "user_profile": {
            "avatar_hash": "c28127caf7eb",
            "image_72": "https:\/\/avatars.slack-edge.com\/2020-03-07\/989562470694_c28127caf7ebfe67df97_72.jpg",
            "first_name": "",
            "real_name": "Ellen Jorgensen",
            "display_name": "",
            "team": "TUU48M0T1",
            "name": "ejorgensen",
            "is_restricted": false,
            "is_ultra_restricted": false
        },
        "blocks": [
            {
                "type": "rich_text",
                "block_id": "CHD",
                "elements": [
                    {
                        "type": "rich_text_section",
                        "elements": [
                            {
                                "type": "text",
                                "text": "12.5uL NEB WarmStart® Colorimetric LAMP 2X Master Mix"
                            }
                        ]
                    }
                ]
            }
        ]
    },
    {
        "client_msg_id": "8e4a1b85-93d4-462f-993a-2d6cca55b334",
        "type": "message",
        "text": "2.5uL 10x primer mix",
        "user": "UUPQGNNTV",
        "ts": "1585258264.007800",
        "team": "TUU48M0T1",
        "user_team": "TUU48M0T1",
        "source_team": "TUU48M0T1",
        "user_profile": {
            "avatar_hash": "c28127caf7eb",
            "image_72": "https:\/\/avatars.slack-edge.com\/2020-03-07\/989562470694_c28127caf7ebfe67df97_72.jpg",
            "first_name": "",
            "real_name": "Ellen Jorgensen",
            "display_name": "",
            "team": "TUU48M0T1",
            "name": "ejorgensen",
            "is_restricted": false,
            "is_ultra_restricted": false
        },
        "blocks": [
            {
                "type": "rich_text",
                "block_id": "YM\/lk",
                "elements": [
                    {
                        "type": "rich_text_section",
                        "elements": [
                            {
                                "type": "text",
                                "text": "2.5uL 10x primer mix"
                            }
                        ]
                    }
                ]
            }
        ]
    },
    {
        "client_msg_id": "a351ece6-0f2f-481c-966e-06deecb55af0",
        "type": "message",
        "text": "water + template to a final volume of 25uL",
        "user": "UUPQGNNTV",
        "ts": "1585258423.008200",
        "team": "TUU48M0T1",
        "user_team": "TUU48M0T1",
        "source_team": "TUU48M0T1",
        "user_profile": {
            "avatar_hash": "c28127caf7eb",
            "image_72": "https:\/\/avatars.slack-edge.com\/2020-03-07\/989562470694_c28127caf7ebfe67df97_72.jpg",
            "first_name": "",
            "real_name": "Ellen Jorgensen",
            "display_name": "",
            "team": "TUU48M0T1",
            "name": "ejorgensen",
            "is_restricted": false,
            "is_ultra_restricted": false
        },
        "blocks": [
            {
                "type": "rich_text",
                "block_id": "nhIkn",
                "elements": [
                    {
                        "type": "rich_text_section",
                        "elements": [
                            {
                                "type": "text",
                                "text": "water + template to a final volume of 25uL"
                            }
                        ]
                    }
                ]
            }
        ]
    },
    {
        "client_msg_id": "f1865170-c035-45bc-8623-ba6faa6f9238",
        "type": "message",
        "text": "In the NEB paper they only did a 20uL reaction. I guess that uses less reagent. They also added DNAse since they were using either synthetic RNA controls or human samples. Since the controls above are a DNA plasmid we shouldn't do that.",
        "user": "UUPQGNNTV",
        "ts": "1585258547.009800",
        "team": "TUU48M0T1",
        "user_team": "TUU48M0T1",
        "source_team": "TUU48M0T1",
        "user_profile": {
            "avatar_hash": "c28127caf7eb",
            "image_72": "https:\/\/avatars.slack-edge.com\/2020-03-07\/989562470694_c28127caf7ebfe67df97_72.jpg",
            "first_name": "",
            "real_name": "Ellen Jorgensen",
            "display_name": "",
            "team": "TUU48M0T1",
            "name": "ejorgensen",
            "is_restricted": false,
            "is_ultra_restricted": false
        },
        "blocks": [
            {
                "type": "rich_text",
                "block_id": "uRd=4",
                "elements": [
                    {
                        "type": "rich_text_section",
                        "elements": [
                            {
                                "type": "text",
                                "text": "In the NEB paper they only did a 20uL reaction. I guess that uses less reagent. They also added DNAse since they were using either synthetic RNA controls or human samples. Since the controls above are a DNA plasmid we shouldn't do that."
                            }
                        ]
                    }
                ]
            }
        ]
    },
    {
        "client_msg_id": "3e804ef8-c912-49d3-b4e9-c1e36f8b00fc",
        "type": "message",
        "text": "I haven't yet calculated how much of the DNA positive control to add, I'll probably do a range to test sensitivity.",
        "user": "UUPQGNNTV",
        "ts": "1585258589.010600",
        "team": "TUU48M0T1",
        "user_team": "TUU48M0T1",
        "source_team": "TUU48M0T1",
        "user_profile": {
            "avatar_hash": "c28127caf7eb",
            "image_72": "https:\/\/avatars.slack-edge.com\/2020-03-07\/989562470694_c28127caf7ebfe67df97_72.jpg",
            "first_name": "",
            "real_name": "Ellen Jorgensen",
            "display_name": "",
            "team": "TUU48M0T1",
            "name": "ejorgensen",
            "is_restricted": false,
            "is_ultra_restricted": false
        },
        "blocks": [
            {
                "type": "rich_text",
                "block_id": "UC0",
                "elements": [
                    {
                        "type": "rich_text_section",
                        "elements": [
                            {
                                "type": "text",
                                "text": "I haven't yet calculated how much of the DNA positive control to add, I'll probably do a range to test sensitivity."
                            }
                        ]
                    }
                ]
            }
        ]
    },
    {
        "client_msg_id": "59568608-2710-4eb8-a1be-0ba7d7fddd19",
        "type": "message",
        "text": "Positive control = template",
        "user": "UUPQGNNTV",
        "ts": "1585258608.010900",
        "team": "TUU48M0T1",
        "user_team": "TUU48M0T1",
        "source_team": "TUU48M0T1",
        "user_profile": {
            "avatar_hash": "c28127caf7eb",
            "image_72": "https:\/\/avatars.slack-edge.com\/2020-03-07\/989562470694_c28127caf7ebfe67df97_72.jpg",
            "first_name": "",
            "real_name": "Ellen Jorgensen",
            "display_name": "",
            "team": "TUU48M0T1",
            "name": "ejorgensen",
            "is_restricted": false,
            "is_ultra_restricted": false
        },
        "blocks": [
            {
                "type": "rich_text",
                "block_id": "kXB",
                "elements": [
                    {
                        "type": "rich_text_section",
                        "elements": [
                            {
                                "type": "text",
                                "text": "Positive control = template"
                            }
                        ]
                    }
                ]
            }
        ],
        "reactions": [
            {
                "name": "+1",
                "users": [
                    "UV10KBUQG"
                ],
                "count": 1
            }
        ]
    },
    {
        "client_msg_id": "7b4d5c63-f380-4a98-858c-b4dd92b80a72",
        "type": "message",
        "text": "The IDT plasmid positive control is at 200,000 units\/uL. They recommend using 5uL of 200units\/uL so I dilutied it 1:1000 and used 5uL plasmid and 5uL water in the positive control, and 10uL water in the negative control.",
        "user": "UUPQGNNTV",
        "ts": "1585276439.012700",
        "team": "TUU48M0T1",
        "user_team": "TUU48M0T1",
        "source_team": "TUU48M0T1",
        "user_profile": {
            "avatar_hash": "c28127caf7eb",
            "image_72": "https:\/\/avatars.slack-edge.com\/2020-03-07\/989562470694_c28127caf7ebfe67df97_72.jpg",
            "first_name": "",
            "real_name": "Ellen Jorgensen",
            "display_name": "",
            "team": "TUU48M0T1",
            "name": "ejorgensen",
            "is_restricted": false,
            "is_ultra_restricted": false
        },
        "blocks": [
            {
                "type": "rich_text",
                "block_id": "Vte",
                "elements": [
                    {
                        "type": "rich_text_section",
                        "elements": [
                            {
                                "type": "text",
                                "text": "The IDT plasmid positive control is at 200,000 units\/uL. They recommend using 5uL of 200units\/uL so I dilutied it 1:1000 and used 5uL plasmid and 5uL water in the positive control, and 10uL water in the negative control."
                            }
                        ]
                    }
                ]
            }
        ]
    },
    {
        "client_msg_id": "6c57bc00-cacc-42dc-8164-00b86050ece2",
        "type": "message",
        "text": "They tell you in the spec sheet to do the dilution fresh every time.",
        "user": "UUPQGNNTV",
        "ts": "1585276471.013200",
        "team": "TUU48M0T1",
        "user_team": "TUU48M0T1",
        "source_team": "TUU48M0T1",
        "user_profile": {
            "avatar_hash": "c28127caf7eb",
            "image_72": "https:\/\/avatars.slack-edge.com\/2020-03-07\/989562470694_c28127caf7ebfe67df97_72.jpg",
            "first_name": "",
            "real_name": "Ellen Jorgensen",
            "display_name": "",
            "team": "TUU48M0T1",
            "name": "ejorgensen",
            "is_restricted": false,
            "is_ultra_restricted": false
        },
        "blocks": [
            {
                "type": "rich_text",
                "block_id": "fvp8",
                "elements": [
                    {
                        "type": "rich_text_section",
                        "elements": [
                            {
                                "type": "text",
                                "text": "They tell you in the spec sheet to do the dilution fresh every time."
                            }
                        ]
                    }
                ]
            }
        ]
    },
    {
        "type": "message",
        "text": "Seems to work fine. Next experiment would be to see how few copies it detects by diluting the positive control. Also could throw in some cheek cells to see if it negatively affected it as another experiment. If anyone has the RNA positive control that Twist is selling, would be interesting to see how it does with that.",
        "files": [
            {
                "id": "F010VLX18NQ",
                "created": 1585278415,
                "timestamp": 1585278415,
                "name": "LAMP_N_setA.jpg",
                "title": "LAMP_N_setA.jpg",
                "mimetype": "image\/jpeg",
                "filetype": "jpg",
                "pretty_type": "JPEG",
                "user": "UUPQGNNTV",
                "editable": false,
                "size": 38748,
                "mode": "hosted",
                "is_external": false,
                "external_type": "",
                "is_public": true,
                "public_url_shared": false,
                "display_as_bot": false,
                "username": "",
                "url_private": "https:\/\/files.slack.com\/files-pri\/TUU48M0T1-F010VLX18NQ\/lamp_n_seta.jpg?t=xoxe-980144714919-1031585465028-1034106672247-1815eabca44f30d1d2d966083f8c8bbb",
                "url_private_download": "https:\/\/files.slack.com\/files-pri\/TUU48M0T1-F010VLX18NQ\/download\/lamp_n_seta.jpg?t=xoxe-980144714919-1031585465028-1034106672247-1815eabca44f30d1d2d966083f8c8bbb",
                "thumb_64": "https:\/\/files.slack.com\/files-tmb\/TUU48M0T1-F010VLX18NQ-f269e8234b\/lamp_n_seta_64.jpg?t=xoxe-980144714919-1031585465028-1034106672247-1815eabca44f30d1d2d966083f8c8bbb",
                "thumb_80": "https:\/\/files.slack.com\/files-tmb\/TUU48M0T1-F010VLX18NQ-f269e8234b\/lamp_n_seta_80.jpg?t=xoxe-980144714919-1031585465028-1034106672247-1815eabca44f30d1d2d966083f8c8bbb",
                "thumb_360": "https:\/\/files.slack.com\/files-tmb\/TUU48M0T1-F010VLX18NQ-f269e8234b\/lamp_n_seta_360.jpg?t=xoxe-980144714919-1031585465028-1034106672247-1815eabca44f30d1d2d966083f8c8bbb",
                "thumb_360_w": 360,
                "thumb_360_h": 270,
                "thumb_480": "https:\/\/files.slack.com\/files-tmb\/TUU48M0T1-F010VLX18NQ-f269e8234b\/lamp_n_seta_480.jpg?t=xoxe-980144714919-1031585465028-1034106672247-1815eabca44f30d1d2d966083f8c8bbb",
                "thumb_480_w": 480,
                "thumb_480_h": 360,
                "thumb_160": "https:\/\/files.slack.com\/files-tmb\/TUU48M0T1-F010VLX18NQ-f269e8234b\/lamp_n_seta_160.jpg?t=xoxe-980144714919-1031585465028-1034106672247-1815eabca44f30d1d2d966083f8c8bbb",
                "image_exif_rotation": 1,
                "original_w": 640,
                "original_h": 480,
                "thumb_tiny": "AwAkADCYClx7UtLSGJj2FGPamliDTucZzQAmKTFAJJxTqAClFJRQAzvTj90UxAcfN1pzZyPSgAXrTqaowKWgBaKKO9ABSUtJQAUtJS0Af\/\/Z",
                "permalink": "https:\/\/open-covid19.slack.com\/files\/UUPQGNNTV\/F010VLX18NQ\/lamp_n_seta.jpg",
                "permalink_public": "https:\/\/slack-files.com\/TUU48M0T1-F010VLX18NQ-2181487e2b",
                "is_starred": false,
                "has_rich_preview": false
            }
        ],
        "upload": true,
        "blocks": [
            {
                "type": "rich_text",
                "block_id": "VHrs",
                "elements": [
                    {
                        "type": "rich_text_section",
                        "elements": [
                            {
                                "type": "text",
                                "text": "Seems to work fine. Next experiment would be to see how few copies it detects by diluting the positive control. Also could throw in some cheek cells to see if it negatively affected it as another experiment. If anyone has the RNA positive control that Twist is selling, would be interesting to see how it does with that."
                            }
                        ]
                    }
                ]
            }
        ],
        "user": "UUPQGNNTV",
        "display_as_bot": false,
        "ts": "1585278418.016100",
        "client_msg_id": "9817fb7d-1461-448f-9d98-c4d44f1ae5ac"
    }
]