[
    {
        "type": "message",
        "subtype": "channel_join",
        "ts": "1585156389.000200",
        "user": "UVDM3SQ3A",
        "text": "<@UVDM3SQ3A> has joined the channel"
    },
    {
        "type": "message",
        "subtype": "channel_join",
        "ts": "1585156895.000400",
        "user": "U010RE1NDCG",
        "text": "<@U010RE1NDCG> has joined the channel"
    }
]