[
    {
        "client_msg_id": "4360da70-918a-4720-a67d-c9cc12f527fb",
        "type": "message",
        "text": "They use sound waves to do the sample prep: <https:\/\/www.youtube.com\/watch?v=j-y3xi1K7JE>",
        "user": "UV7LUJG1Y",
        "ts": "1584907981.007500",
        "team": "TUU48M0T1",
        "user_team": "TUU48M0T1",
        "source_team": "TUU48M0T1",
        "user_profile": {
            "avatar_hash": "gffbc3d06e47",
            "image_72": "https:\/\/secure.gravatar.com\/avatar\/ffbc3d06e47cdf8bd64906bda2ef8c3d.jpg?s=72&d=https%3A%2F%2Fa.slack-edge.com%2Fdf10d%2Fimg%2Favatars%2Fava_0019-72.png",
            "first_name": "",
            "real_name": "Guy Aidelberg",
            "display_name": "Guy Aidelberg",
            "team": "TUU48M0T1",
            "name": "guyaidelberg",
            "is_restricted": false,
            "is_ultra_restricted": false
        },
        "attachments": [
            {
                "service_name": "YouTube",
                "service_url": "https:\/\/www.youtube.com\/",
                "title": "Journey Inside the Cepheid GeneXpert® Cartridge - 3D Animation",
                "title_link": "https:\/\/www.youtube.com\/watch?v=j-y3xi1K7JE",
                "author_name": "CepheidNews",
                "author_link": "https:\/\/www.youtube.com\/user\/CepheidNews",
                "thumb_url": "https:\/\/i.ytimg.com\/vi\/j-y3xi1K7JE\/hqdefault.jpg",
                "thumb_width": 480,
                "thumb_height": 360,
                "fallback": "YouTube Video: Journey Inside the Cepheid GeneXpert® Cartridge - 3D Animation",
                "video_html": "<iframe width=\"400\" height=\"225\" src=\"https:\/\/www.youtube.com\/embed\/j-y3xi1K7JE?feature=oembed&autoplay=1&iv_load_policy=3\" frameborder=\"0\" allow=\"accelerometer; autoplay; encrypted-media; gyroscope; picture-in-picture\" allowfullscreen><\/iframe>",
                "video_html_width": 400,
                "video_html_height": 225,
                "from_url": "https:\/\/www.youtube.com\/watch?v=j-y3xi1K7JE",
                "service_icon": "https:\/\/a.slack-edge.com\/80588\/img\/unfurl_icons\/youtube.png",
                "id": 1,
                "original_url": "https:\/\/www.youtube.com\/watch?v=j-y3xi1K7JE"
            }
        ],
        "blocks": [
            {
                "type": "rich_text",
                "block_id": "QvL=c",
                "elements": [
                    {
                        "type": "rich_text_section",
                        "elements": [
                            {
                                "type": "text",
                                "text": "They use sound waves to do the sample prep: "
                            },
                            {
                                "type": "link",
                                "url": "https:\/\/www.youtube.com\/watch?v=j-y3xi1K7JE"
                            }
                        ]
                    }
                ]
            }
        ],
        "thread_ts": "1584823208.004700",
        "parent_user_id": "UVALZTQ58"
    },
    {
        "client_msg_id": "798b2a25-b8a4-4292-b611-0027777efe55",
        "type": "message",
        "text": "Just heating might work, but would really lower sensitivity especially because of the RNases",
        "user": "UV7LUJG1Y",
        "ts": "1584908014.007800",
        "team": "TUU48M0T1",
        "user_team": "TUU48M0T1",
        "source_team": "TUU48M0T1",
        "user_profile": {
            "avatar_hash": "gffbc3d06e47",
            "image_72": "https:\/\/secure.gravatar.com\/avatar\/ffbc3d06e47cdf8bd64906bda2ef8c3d.jpg?s=72&d=https%3A%2F%2Fa.slack-edge.com%2Fdf10d%2Fimg%2Favatars%2Fava_0019-72.png",
            "first_name": "",
            "real_name": "Guy Aidelberg",
            "display_name": "Guy Aidelberg",
            "team": "TUU48M0T1",
            "name": "guyaidelberg",
            "is_restricted": false,
            "is_ultra_restricted": false
        },
        "blocks": [
            {
                "type": "rich_text",
                "block_id": "E\/tPw",
                "elements": [
                    {
                        "type": "rich_text_section",
                        "elements": [
                            {
                                "type": "text",
                                "text": "Just heating might work, but would really lower sensitivity especially because of the RNases"
                            }
                        ]
                    }
                ]
            }
        ],
        "thread_ts": "1584823208.004700",
        "parent_user_id": "UVALZTQ58"
    },
    {
        "type": "message",
        "text": "Fwd from hardware channel",
        "user": "U01081Y0TBP",
        "ts": "1584914331.008000",
        "team": "TUU48M0T1",
        "user_team": "TUU48M0T1",
        "source_team": "TUU48M0T1",
        "user_profile": {
            "avatar_hash": "60ec5b47107a",
            "image_72": "https:\/\/avatars.slack-edge.com\/2020-03-18\/995274181218_60ec5b47107a3bd2ca7d_72.jpg",
            "first_name": "Peter",
            "real_name": "Peter Kooren",
            "display_name": "Peter Kooren",
            "team": "TUU48M0T1",
            "name": "peterkooren",
            "is_restricted": false,
            "is_ultra_restricted": false
        },
        "attachments": [
            {
                "fallback": "[March 22nd, 2020 10:11 PM] brent: This was shared recently, and discussed as 'open hardware' - but I'm not seeing where any of the hardware files are shared. <http:\/\/linuxgizmos.com\/open-source-beaglebone-based-diagnostics-computer-to-add-covid-19-testing\/>\n\nLooking for options for us to help build PCBs \/ etc. for testing equipment, ventilators or similar.",
                "ts": "1584911460.022000",
                "author_id": "UVBEDFNPJ",
                "author_subname": "Brent Picasso",
                "channel_id": "C01037HNAK1",
                "channel_name": "prgm-hardware-team",
                "is_msg_unfurl": true,
                "text": "This was shared recently, and discussed as 'open hardware' - but I'm not seeing where any of the hardware files are shared. <http:\/\/linuxgizmos.com\/open-source-beaglebone-based-diagnostics-computer-to-add-covid-19-testing\/>\n\nLooking for options for us to help build PCBs \/ etc. for testing equipment, ventilators or similar.",
                "author_name": "Brent Picasso",
                "author_link": "https:\/\/open-covid19.slack.com\/team\/UVBEDFNPJ",
                "author_icon": "https:\/\/secure.gravatar.com\/avatar\/283f55a73d87c092accdfe6d3073482d.jpg?s=48&d=https%3A%2F%2Fa.slack-edge.com%2Fdf10d%2Fimg%2Favatars%2Fava_0009-48.png",
                "mrkdwn_in": [
                    "text"
                ],
                "color": "D0D0D0",
                "from_url": "https:\/\/open-covid19.slack.com\/archives\/C01037HNAK1\/p1584911460022000",
                "is_share": true,
                "footer": "Posted in #prgm-hardware-team"
            }
        ],
        "blocks": [
            {
                "type": "rich_text",
                "block_id": "p66",
                "elements": [
                    {
                        "type": "rich_text_section",
                        "elements": [
                            {
                                "type": "text",
                                "text": "Fwd from hardware channel"
                            }
                        ]
                    }
                ]
            }
        ]
    }
]