[
    {
        "client_msg_id": "c5fd5ce2-8942-4d50-bb48-9a5804179201",
        "type": "message",
        "text": "hello again <!everyone>! hope you are all safe and doing well and hope you're adjusting well to any new changes to your work\/school\/home life due to this pandemic :heart: wanted to share a few helpful announcements with the group:\n\n1. *Our Third-All-Community Call is tomorrow, _3\/18, at 6 PM Paris Time_* -- we will be using this zoom link (<https:\/\/zoom.us\/j\/7804345815>)  We'll be sharing the agenda tomorrow and in the Zoom room, but main points of discussion will be about the new JOGL program\/challenge pages, slack &amp; drive organization, identifying challenge\/workgroup leads, and current\/new project ideas. *We will also be having WEEKLY calls every Wednesday at 6 PM Paris Time to share important updates and questions.*    \n2. If you are interested in helping us with communications, the *<#CURG6ALTC|prgm-communications-team>* is having a call on _*Thursday, 3\/19 6PM Paris Time*_ to coordinate efforts on launching the OpenCovid19 Facebook &amp; Twitter accounts\n3. The *<#CV0QED4KU|prgm-governance-team>* will be having a call on _*Friday, 3\/20, 4 PM Paris Time*_\n4. *The <#CVB9NP1L6|prgm-dev-team>* will be having a call on *_Friday, 3\/20, 8 PM Paris Time_.*\n5. The <#C01037HNAK1|prgm-hardware-team> and <#CUWUM8M2P|prgm-biosafetyboard> are also working on scheduling calls for this week to coordinate efforts and brainstorm project\/work ideas. *Please join those channels if you would be interested in helping out with projects there.* \n6. There's currently a task group who are working on creating a dashboard to easily visualize the information we collected from all of you in our team survey (locations, access to labs, skills, etc), *please reach out to <@U0101DKUALV> or <@U0100NGSTDJ> if you would like to help, and if you haven't taken the survey yet, please do so!*  \n7. We've been working on fleshing out our new Onboarding Doc, right now, there is some helpful information to get started on it if you would like to take a look <http:\/\/bit.ly\/opencovid19-onboarding|bit.ly\/opencovid19-onboarding>\n8. The *<#C0102DVT3HV|prgm-design-team>* has been working on banners and logos for our group, if you're interested in graphic design ui\/ux, join the channel! \n9. There have been many great ideas floating around, if you want to create a group for it, please create a slack channel with the prefix *#proj-[project name]* and _clearly_ define the objectives of the project idea in the slack channel description.  then, _announce it in either the relevant #chlg-[detect,prevent, or treat] or #prgm-[workgroup] channels_. \nAs always, if you have any questions don't hesitate to ask! Starting in the <#C0102E5J2S3|prgm-introductions> or <#C0103BDEJQN|prgm-questions-support-feedback> are two channels to start with :slightly_smiling_face:\n\nThanks everyone for your amazing work, and we'll see you tomorrow! :wave:",
        "user": "UV0QTJCMT",
        "ts": "1584471919.127400",
        "team": "TUU48M0T1",
        "user_team": "TUU48M0T1",
        "source_team": "TUU48M0T1",
        "user_profile": {
            "avatar_hash": "11e3deb6d1a9",
            "image_72": "https:\/\/avatars.slack-edge.com\/2020-03-06\/986844736421_11e3deb6d1a949327ddd_72.png",
            "first_name": "Katherine",
            "real_name": "Katherine Holo",
            "display_name": "Kat Holo",
            "team": "TUU48M0T1",
            "name": "katherineh245",
            "is_restricted": false,
            "is_ultra_restricted": false
        },
        "edited": {
            "user": "UV0QTJCMT",
            "ts": "1584499208.000000"
        },
        "blocks": [
            {
                "type": "rich_text",
                "block_id": "kRR\/2",
                "elements": [
                    {
                        "type": "rich_text_section",
                        "elements": [
                            {
                                "type": "text",
                                "text": "hello again "
                            },
                            {
                                "type": "broadcast",
                                "range": "everyone"
                            },
                            {
                                "type": "text",
                                "text": "! hope you are all safe and doing well and hope you're adjusting well to any new changes to your work\/school\/home life due to this pandemic "
                            },
                            {
                                "type": "emoji",
                                "name": "heart"
                            },
                            {
                                "type": "text",
                                "text": " wanted to share a few helpful announcements with the group:\n\n"
                            }
                        ]
                    },
                    {
                        "type": "rich_text_list",
                        "elements": [
                            {
                                "type": "rich_text_section",
                                "elements": [
                                    {
                                        "type": "text",
                                        "text": "Our Third-All-Community Call is tomorrow,",
                                        "style": {
                                            "bold": true
                                        }
                                    },
                                    {
                                        "type": "text",
                                        "text": " 3\/18, at 6 PM Paris Time",
                                        "style": {
                                            "bold": true,
                                            "italic": true
                                        }
                                    },
                                    {
                                        "type": "text",
                                        "text": " -- we will be using this zoom link ("
                                    },
                                    {
                                        "type": "link",
                                        "url": "https:\/\/zoom.us\/j\/7804345815"
                                    },
                                    {
                                        "type": "text",
                                        "text": ")  We'll be sharing the agenda tomorrow and in the Zoom room, but main points of discussion will be about the new JOGL program\/challenge pages, slack & drive organization, identifying challenge\/workgroup leads, and current\/new project ideas. "
                                    },
                                    {
                                        "type": "text",
                                        "text": "We will also be having WEEKLY calls every Wednesday at 6 PM Paris Time to share important updates and questions.  ",
                                        "style": {
                                            "bold": true
                                        }
                                    },
                                    {
                                        "type": "text",
                                        "text": "  "
                                    }
                                ]
                            },
                            {
                                "type": "rich_text_section",
                                "elements": [
                                    {
                                        "type": "text",
                                        "text": "If you are interested in helping us with communications, the "
                                    },
                                    {
                                        "type": "channel",
                                        "channel_id": "CURG6ALTC",
                                        "style": {
                                            "bold": true
                                        }
                                    },
                                    {
                                        "type": "text",
                                        "text": " is having a call on "
                                    },
                                    {
                                        "type": "text",
                                        "text": "Thursday, 3\/19 6PM Paris Time",
                                        "style": {
                                            "bold": true,
                                            "italic": true
                                        }
                                    },
                                    {
                                        "type": "text",
                                        "text": " to coordinate efforts on launching the OpenCovid19 Facebook & Twitter accounts"
                                    }
                                ]
                            },
                            {
                                "type": "rich_text_section",
                                "elements": [
                                    {
                                        "type": "text",
                                        "text": "The "
                                    },
                                    {
                                        "type": "channel",
                                        "channel_id": "CV0QED4KU",
                                        "style": {
                                            "bold": true
                                        }
                                    },
                                    {
                                        "type": "text",
                                        "text": " ",
                                        "style": {
                                            "bold": true
                                        }
                                    },
                                    {
                                        "type": "text",
                                        "text": "will be having a call on "
                                    },
                                    {
                                        "type": "text",
                                        "text": "Friday, 3\/20, 4 PM Paris Time",
                                        "style": {
                                            "bold": true,
                                            "italic": true
                                        }
                                    }
                                ]
                            },
                            {
                                "type": "rich_text_section",
                                "elements": [
                                    {
                                        "type": "text",
                                        "text": "The ",
                                        "style": {
                                            "bold": true
                                        }
                                    },
                                    {
                                        "type": "channel",
                                        "channel_id": "CVB9NP1L6",
                                        "style": {
                                            "bold": true
                                        }
                                    },
                                    {
                                        "type": "text",
                                        "text": " ",
                                        "style": {
                                            "bold": true
                                        }
                                    },
                                    {
                                        "type": "text",
                                        "text": "will be having a call on "
                                    },
                                    {
                                        "type": "text",
                                        "text": "Friday, 3\/20, 8 PM Paris Time",
                                        "style": {
                                            "bold": true,
                                            "italic": true
                                        }
                                    },
                                    {
                                        "type": "text",
                                        "text": ".",
                                        "style": {
                                            "bold": true
                                        }
                                    }
                                ]
                            },
                            {
                                "type": "rich_text_section",
                                "elements": [
                                    {
                                        "type": "text",
                                        "text": "The "
                                    },
                                    {
                                        "type": "channel",
                                        "channel_id": "C01037HNAK1"
                                    },
                                    {
                                        "type": "text",
                                        "text": " and "
                                    },
                                    {
                                        "type": "channel",
                                        "channel_id": "CUWUM8M2P"
                                    },
                                    {
                                        "type": "text",
                                        "text": " are also working on scheduling calls for this week to coordinate efforts and brainstorm project\/work ideas. "
                                    },
                                    {
                                        "type": "text",
                                        "text": "Please join those channels if you would be interested in helping out with projects there.",
                                        "style": {
                                            "bold": true
                                        }
                                    },
                                    {
                                        "type": "text",
                                        "text": " "
                                    }
                                ]
                            },
                            {
                                "type": "rich_text_section",
                                "elements": [
                                    {
                                        "type": "text",
                                        "text": "There's currently a task group who are working on creating a dashboard to easily visualize the information we collected from all of you in our team survey (locations, access to labs, skills, etc), "
                                    },
                                    {
                                        "type": "text",
                                        "text": "please reach out to ",
                                        "style": {
                                            "bold": true
                                        }
                                    },
                                    {
                                        "type": "user",
                                        "user_id": "U0101DKUALV",
                                        "style": {
                                            "bold": true
                                        }
                                    },
                                    {
                                        "type": "text",
                                        "text": " or ",
                                        "style": {
                                            "bold": true
                                        }
                                    },
                                    {
                                        "type": "user",
                                        "user_id": "U0100NGSTDJ",
                                        "style": {
                                            "bold": true
                                        }
                                    },
                                    {
                                        "type": "text",
                                        "text": " if you would like to help, and if you haven't taken the survey yet, please do so! ",
                                        "style": {
                                            "bold": true
                                        }
                                    },
                                    {
                                        "type": "text",
                                        "text": " "
                                    }
                                ]
                            },
                            {
                                "type": "rich_text_section",
                                "elements": [
                                    {
                                        "type": "text",
                                        "text": "We've been working on fleshing out our new Onboarding Doc, right now, there is some helpful information to get started on it if you would like to take a look "
                                    },
                                    {
                                        "type": "link",
                                        "url": "http:\/\/bit.ly\/opencovid19-onboarding",
                                        "text": "bit.ly\/opencovid19-onboarding"
                                    }
                                ]
                            },
                            {
                                "type": "rich_text_section",
                                "elements": [
                                    {
                                        "type": "text",
                                        "text": "The "
                                    },
                                    {
                                        "type": "channel",
                                        "channel_id": "C0102DVT3HV",
                                        "style": {
                                            "bold": true
                                        }
                                    },
                                    {
                                        "type": "text",
                                        "text": " has been working on banners and logos for our group, if you're interested in graphic design ui\/ux, join the channel! "
                                    }
                                ]
                            },
                            {
                                "type": "rich_text_section",
                                "elements": [
                                    {
                                        "type": "text",
                                        "text": "There have been many great ideas floating around, if you want to create a group for it, please create a slack channel with the prefix "
                                    },
                                    {
                                        "type": "text",
                                        "text": "#proj-[project name]",
                                        "style": {
                                            "bold": true
                                        }
                                    },
                                    {
                                        "type": "text",
                                        "text": " and "
                                    },
                                    {
                                        "type": "text",
                                        "text": "clearly",
                                        "style": {
                                            "italic": true
                                        }
                                    },
                                    {
                                        "type": "text",
                                        "text": " define the objectives of the project idea in the slack channel description.  then, "
                                    },
                                    {
                                        "type": "text",
                                        "text": "announce it in either the relevant #chlg-[detect,prevent, or treat] or #prgm-[workgroup] channels",
                                        "style": {
                                            "italic": true
                                        }
                                    },
                                    {
                                        "type": "text",
                                        "text": ". "
                                    }
                                ]
                            }
                        ],
                        "style": "ordered",
                        "indent": 0
                    },
                    {
                        "type": "rich_text_section",
                        "elements": [
                            {
                                "type": "text",
                                "text": "\nAs always, if you have any questions don't hesitate to ask! Starting in the "
                            },
                            {
                                "type": "channel",
                                "channel_id": "C0102E5J2S3"
                            },
                            {
                                "type": "text",
                                "text": " or "
                            },
                            {
                                "type": "channel",
                                "channel_id": "C0103BDEJQN"
                            },
                            {
                                "type": "text",
                                "text": " are two channels to start with "
                            },
                            {
                                "type": "emoji",
                                "name": "slightly_smiling_face"
                            },
                            {
                                "type": "text",
                                "text": "\n\nThanks everyone for your amazing work, and we'll see you tomorrow! "
                            },
                            {
                                "type": "emoji",
                                "name": "wave"
                            }
                        ]
                    }
                ]
            }
        ],
        "thread_ts": "1584471919.127400",
        "reply_count": 2,
        "reply_users_count": 2,
        "latest_reply": "1584522236.143000",
        "reply_users": [
            "U01016B7KPY",
            "UV0QTJCMT"
        ],
        "replies": [
            {
                "user": "U01016B7KPY",
                "ts": "1584521835.141900"
            },
            {
                "user": "UV0QTJCMT",
                "ts": "1584522236.143000"
            }
        ],
        "subscribed": false,
        "reactions": [
            {
                "name": "heart",
                "users": [
                    "U0103128G4D",
                    "UV2SC7ZE3",
                    "U01060RCXJ8",
                    "UV02WET96",
                    "UUWPKNE2E",
                    "UV143JZD3",
                    "UV1D9NR1N",
                    "UV13874FN",
                    "U01012QS8J0",
                    "UV0RRGB6H",
                    "UV85V64SD",
                    "U0109U9BE7P"
                ],
                "count": 12
            },
            {
                "name": "+1",
                "users": [
                    "U01060RCXJ8",
                    "UV02WET96",
                    "U0100QFHM52",
                    "UV143JZD3",
                    "UV1D9NR1N",
                    "UV13874FN",
                    "U0103128G4D"
                ],
                "count": 7
            },
            {
                "name": "pray",
                "users": [
                    "UV02WET96",
                    "UV1D9NR1N",
                    "UV13874FN"
                ],
                "count": 3
            },
            {
                "name": "100",
                "users": [
                    "UV02WET96",
                    "UV1D9NR1N",
                    "UV13874FN",
                    "U0103128G4D"
                ],
                "count": 4
            },
            {
                "name": "the_horns",
                "users": [
                    "UV1D9NR1N",
                    "U01019BQXM3",
                    "UV13874FN",
                    "UV02WET96"
                ],
                "count": 4
            }
        ]
    },
    {
        "client_msg_id": "85d6f481-e4b0-464e-b273-851668e2f2c7",
        "type": "message",
        "text": "Hi <@UUZHHJVGR> I’ve been curious about this idea as well. Please keep me posted if I can help!",
        "user": "UV8FL0JCA",
        "ts": "1584489515.133300",
        "team": "TUU48M0T1",
        "user_team": "TUU48M0T1",
        "source_team": "TUU48M0T1",
        "user_profile": {
            "avatar_hash": "920c820f5900",
            "image_72": "https:\/\/avatars.slack-edge.com\/2020-03-17\/1009529536646_920c820f5900215fb339_72.jpg",
            "first_name": "Eric",
            "real_name": "Eric Chaves",
            "display_name": "Eric Chaves",
            "team": "TUU48M0T1",
            "name": "eric.chaves.llc",
            "is_restricted": false,
            "is_ultra_restricted": false
        },
        "blocks": [
            {
                "type": "rich_text",
                "block_id": "He+Z",
                "elements": [
                    {
                        "type": "rich_text_section",
                        "elements": [
                            {
                                "type": "text",
                                "text": "Hi "
                            },
                            {
                                "type": "user",
                                "user_id": "UUZHHJVGR"
                            },
                            {
                                "type": "text",
                                "text": " I’ve been curious about this idea as well. Please keep me posted if I can help!"
                            }
                        ]
                    }
                ]
            }
        ],
        "thread_ts": "1584127794.426700",
        "parent_user_id": "UUZHHJVGR"
    }
]