[
    {
        "client_msg_id": "38487329-2c92-494a-818d-38012c723d8b",
        "type": "message",
        "text": "The link in the form and here takes the user to the older sheet with 50 mask ideas. It'd be great if the link was updated to the list with 54 masks.",
        "user": "UV0CX49QB",
        "ts": "1585293394.022100",
        "team": "TUU48M0T1",
        "user_team": "TUU48M0T1",
        "source_team": "TUU48M0T1",
        "user_profile": {
            "avatar_hash": "faebd33b1bc9",
            "image_72": "https:\/\/avatars.slack-edge.com\/2020-03-17\/1007182038528_faebd33b1bc9f6356697_72.jpg",
            "first_name": "David",
            "real_name": "David Šmehlík",
            "display_name": "David",
            "team": "TUU48M0T1",
            "name": "akuataja",
            "is_restricted": false,
            "is_ultra_restricted": false
        },
        "blocks": [
            {
                "type": "rich_text",
                "block_id": "sRv",
                "elements": [
                    {
                        "type": "rich_text_section",
                        "elements": [
                            {
                                "type": "text",
                                "text": "The link in the form and here takes the user to the older sheet with 50 mask ideas. It'd be great if the link was updated to the list with 54 masks."
                            }
                        ]
                    }
                ]
            }
        ],
        "thread_ts": "1585239765.015200",
        "parent_user_id": "UV02WET96"
    },
    {
        "client_msg_id": "43850449-C993-4F02-98A0-3C4A883090BA",
        "type": "message",
        "text": "Will do",
        "user": "UV02WET96",
        "ts": "1585298677.023000",
        "team": "TUU48M0T1",
        "user_team": "TUU48M0T1",
        "source_team": "TUU48M0T1",
        "user_profile": {
            "avatar_hash": "a99c74a194f8",
            "image_72": "https:\/\/avatars.slack-edge.com\/2020-03-07\/975708504851_a99c74a194f86715ca7d_72.png",
            "first_name": "Thomas",
            "real_name": "Thomas Landrain",
            "display_name": "Thomas Landrain - CoFounder\/CEO JOGL",
            "team": "TUU48M0T1",
            "name": "thomas",
            "is_restricted": false,
            "is_ultra_restricted": false
        },
        "blocks": [
            {
                "type": "rich_text",
                "block_id": "Zn7",
                "elements": [
                    {
                        "type": "rich_text_section",
                        "elements": [
                            {
                                "type": "text",
                                "text": "Will do"
                            }
                        ]
                    }
                ]
            }
        ],
        "thread_ts": "1585239765.015200",
        "parent_user_id": "UV02WET96"
    }
]