[
    {
        "client_msg_id": "8b657193-c3ec-4bfd-9aca-cc6b31d644c9",
        "type": "message",
        "text": "Yeah no worries.  I know it sucks doing stuff ~by yourself~ ah great Eris and Charlie are working with you!  :grin:  Hope you’re taking care of yourself and chatting with friends, exercising and sleeping :slightly_smiling_face:",
        "user": "UV3HA9MM4",
        "ts": "1584095261.037300",
        "team": "TUU48M0T1",
        "user_team": "TUU48M0T1",
        "source_team": "TUU48M0T1",
        "user_profile": {
            "avatar_hash": "b2f89757c831",
            "image_72": "https:\/\/avatars.slack-edge.com\/2020-03-07\/987455908032_b2f89757c8312ec04011_72.jpg",
            "first_name": "AJP",
            "real_name": "AJP",
            "display_name": "AJP",
            "team": "TUU48M0T1",
            "name": "bioajp",
            "is_restricted": false,
            "is_ultra_restricted": false
        },
        "edited": {
            "user": "UV3HA9MM4",
            "ts": "1584098509.000000"
        },
        "blocks": [
            {
                "type": "rich_text",
                "block_id": "uAa6e",
                "elements": [
                    {
                        "type": "rich_text_section",
                        "elements": [
                            {
                                "type": "text",
                                "text": "Yeah no worries.  I know it sucks doing stuff "
                            },
                            {
                                "type": "text",
                                "text": "by yourself",
                                "style": {
                                    "strike": true
                                }
                            },
                            {
                                "type": "text",
                                "text": " ah great Eris and Charlie are working with you!  "
                            },
                            {
                                "type": "emoji",
                                "name": "grin"
                            },
                            {
                                "type": "text",
                                "text": "  Hope you’re taking care of yourself and chatting with friends, exercising and sleeping "
                            },
                            {
                                "type": "emoji",
                                "name": "slightly_smiling_face"
                            }
                        ]
                    }
                ]
            }
        ],
        "thread_ts": "1583961520.034600",
        "parent_user_id": "UUPFF4TC3"
    },
    {
        "client_msg_id": "718d20a5-1e84-43f7-839e-e807ae618c45",
        "type": "message",
        "text": "Haha thanks, I can't say I've been sleeping but the rest yes! I hope you're taking care of yourself as well!",
        "user": "UUPFF4TC3",
        "ts": "1584128097.038500",
        "team": "TUU48M0T1",
        "user_team": "TUU48M0T1",
        "source_team": "TUU48M0T1",
        "user_profile": {
            "avatar_hash": "g563e1ed9e36",
            "image_72": "https:\/\/secure.gravatar.com\/avatar\/563e1ed9e362af0ce5867baad4d7c568.jpg?s=72&d=https%3A%2F%2Fa.slack-edge.com%2Fdf10d%2Fimg%2Favatars%2Fava_0007-72.png",
            "first_name": "Sophie",
            "real_name": "Sophie Liu",
            "display_name": "Sophie Liu",
            "team": "TUU48M0T1",
            "name": "sophie006liu",
            "is_restricted": false,
            "is_ultra_restricted": false
        },
        "blocks": [
            {
                "type": "rich_text",
                "block_id": "k9I",
                "elements": [
                    {
                        "type": "rich_text_section",
                        "elements": [
                            {
                                "type": "text",
                                "text": "Haha thanks, I can't say I've been sleeping but the rest yes! I hope you're taking care of yourself as well!"
                            }
                        ]
                    }
                ]
            }
        ],
        "thread_ts": "1583961520.034600",
        "parent_user_id": "UUPFF4TC3",
        "reactions": [
            {
                "name": "+1",
                "users": [
                    "UV3HA9MM4"
                ],
                "count": 1
            }
        ]
    },
    {
        "client_msg_id": "64af3f64-abe3-4ff3-a0b7-4c9da66c5645",
        "type": "message",
        "text": "for the positive controls and stuff\n\nI feel like our purpose rn is just to make sure those tests work on a positive, so in a sense our experimental sample is our positive control which would be the order rna fragment",
        "user": "UUPFF4TC3",
        "ts": "1584128119.038900",
        "team": "TUU48M0T1",
        "user_team": "TUU48M0T1",
        "source_team": "TUU48M0T1",
        "user_profile": {
            "avatar_hash": "g563e1ed9e36",
            "image_72": "https:\/\/secure.gravatar.com\/avatar\/563e1ed9e362af0ce5867baad4d7c568.jpg?s=72&d=https%3A%2F%2Fa.slack-edge.com%2Fdf10d%2Fimg%2Favatars%2Fava_0007-72.png",
            "first_name": "Sophie",
            "real_name": "Sophie Liu",
            "display_name": "Sophie Liu",
            "team": "TUU48M0T1",
            "name": "sophie006liu",
            "is_restricted": false,
            "is_ultra_restricted": false
        },
        "blocks": [
            {
                "type": "rich_text",
                "block_id": "6fqCy",
                "elements": [
                    {
                        "type": "rich_text_section",
                        "elements": [
                            {
                                "type": "text",
                                "text": "for the positive controls and stuff\n\nI feel like our purpose rn is just to make sure those tests work on a positive, so in a sense our experimental sample is our positive control which would be the order rna fragment"
                            }
                        ]
                    }
                ]
            }
        ],
        "reactions": [
            {
                "name": "+1",
                "users": [
                    "UV3HA9MM4"
                ],
                "count": 1
            }
        ]
    },
    {
        "client_msg_id": "47caa36c-5d6d-4f32-9966-b3d05971db03",
        "type": "message",
        "text": "Do you guys think it would be worthwhile to contact Mammoth Biosciences to see if they would be willing to give a positive control RNA to test with?",
        "user": "UUPFF4TC3",
        "ts": "1584138840.041000",
        "team": "TUU48M0T1",
        "user_team": "TUU48M0T1",
        "source_team": "TUU48M0T1",
        "user_profile": {
            "avatar_hash": "g563e1ed9e36",
            "image_72": "https:\/\/secure.gravatar.com\/avatar\/563e1ed9e362af0ce5867baad4d7c568.jpg?s=72&d=https%3A%2F%2Fa.slack-edge.com%2Fdf10d%2Fimg%2Favatars%2Fava_0007-72.png",
            "first_name": "Sophie",
            "real_name": "Sophie Liu",
            "display_name": "Sophie Liu",
            "team": "TUU48M0T1",
            "name": "sophie006liu",
            "is_restricted": false,
            "is_ultra_restricted": false
        },
        "blocks": [
            {
                "type": "rich_text",
                "block_id": "4u25",
                "elements": [
                    {
                        "type": "rich_text_section",
                        "elements": [
                            {
                                "type": "text",
                                "text": "Do you guys think it would be worthwhile to contact Mammoth Biosciences to see if they would be willing to give a positive control RNA to test with?"
                            }
                        ]
                    }
                ]
            }
        ],
        "thread_ts": "1584138840.041000",
        "reply_count": 3,
        "reply_users_count": 3,
        "latest_reply": "1584151573.041700",
        "reply_users": [
            "UUUEFQW8N",
            "UV3HA9MM4",
            "UVADMLUB0"
        ],
        "replies": [
            {
                "user": "UUUEFQW8N",
                "ts": "1584139393.041200"
            },
            {
                "user": "UV3HA9MM4",
                "ts": "1584141064.041500"
            },
            {
                "user": "UVADMLUB0",
                "ts": "1584151573.041700"
            }
        ],
        "subscribed": true,
        "last_read": "1584151573.041700",
        "reactions": [
            {
                "name": "100",
                "users": [
                    "UV3HA9MM4"
                ],
                "count": 1
            }
        ]
    },
    {
        "client_msg_id": "6ec4b9e0-4988-4e79-9a00-b41af572d371",
        "type": "message",
        "text": "Might not hurt, but I imagine they get theirs from one of the synthesis companies anyways?",
        "user": "UUUEFQW8N",
        "ts": "1584139393.041200",
        "team": "TUU48M0T1",
        "user_team": "TUU48M0T1",
        "source_team": "TUU48M0T1",
        "user_profile": {
            "avatar_hash": "5660f4d7fe91",
            "image_72": "https:\/\/avatars.slack-edge.com\/2020-03-06\/974037299378_5660f4d7fe9118b28c09_72.jpg",
            "first_name": "zachmueller",
            "real_name": "zachmueller",
            "display_name": "zachmueller",
            "team": "TUU48M0T1",
            "name": "zach",
            "is_restricted": false,
            "is_ultra_restricted": false
        },
        "blocks": [
            {
                "type": "rich_text",
                "block_id": "HdT9",
                "elements": [
                    {
                        "type": "rich_text_section",
                        "elements": [
                            {
                                "type": "text",
                                "text": "Might not hurt, but I imagine they get theirs from one of the synthesis companies anyways?"
                            }
                        ]
                    }
                ]
            }
        ],
        "thread_ts": "1584138840.041000",
        "parent_user_id": "UUPFF4TC3"
    },
    {
        "client_msg_id": "ce077f59-40fc-4672-9908-0e9a8042ea26",
        "type": "message",
        "text": "I don’t think we’ll get positive control RNA but DNA plasmids are available.\n\nThere’s a researcher at Imperial, UK who’s looking at offering armoured RNA (put inside some kind of viral envelope but without the nasty bits of the envelop to make it dangerous).   Otherwise the naked RNA itself will likely be destroyed by all those RNases floating about.",
        "user": "UV3HA9MM4",
        "ts": "1584141064.041500",
        "team": "TUU48M0T1",
        "user_team": "TUU48M0T1",
        "source_team": "TUU48M0T1",
        "user_profile": {
            "avatar_hash": "b2f89757c831",
            "image_72": "https:\/\/avatars.slack-edge.com\/2020-03-07\/987455908032_b2f89757c8312ec04011_72.jpg",
            "first_name": "AJP",
            "real_name": "AJP",
            "display_name": "AJP",
            "team": "TUU48M0T1",
            "name": "bioajp",
            "is_restricted": false,
            "is_ultra_restricted": false
        },
        "blocks": [
            {
                "type": "rich_text",
                "block_id": "GGD",
                "elements": [
                    {
                        "type": "rich_text_section",
                        "elements": [
                            {
                                "type": "text",
                                "text": "I don’t think we’ll get positive control RNA but DNA plasmids are available.\n\nThere’s a researcher at Imperial, UK who’s looking at offering armoured RNA (put inside some kind of viral envelope but without the nasty bits of the envelop to make it dangerous).   Otherwise the naked RNA itself will likely be destroyed by all those RNases floating about."
                            }
                        ]
                    }
                ]
            }
        ],
        "thread_ts": "1584138840.041000",
        "parent_user_id": "UUPFF4TC3"
    },
    {
        "client_msg_id": "5c6806ef-8972-437c-89ad-03964177b564",
        "type": "message",
        "text": "Twist is the best resource at the moment for controls if I understand correctly.  Definitely contact both, it will help us understand the supply chain better.",
        "user": "UVADMLUB0",
        "ts": "1584151573.041700",
        "team": "TUU48M0T1",
        "user_team": "TUU48M0T1",
        "source_team": "TUU48M0T1",
        "user_profile": {
            "avatar_hash": "14179705705a",
            "image_72": "https:\/\/avatars.slack-edge.com\/2020-03-11\/981468022482_14179705705a94b3db16_72.jpg",
            "first_name": "Bill",
            "real_name": "Bill Slavin",
            "display_name": "Bill Slavin- Executive Director, Indie Lab",
            "team": "TUU48M0T1",
            "name": "bill",
            "is_restricted": false,
            "is_ultra_restricted": false
        },
        "blocks": [
            {
                "type": "rich_text",
                "block_id": "6RG",
                "elements": [
                    {
                        "type": "rich_text_section",
                        "elements": [
                            {
                                "type": "text",
                                "text": "Twist is the best resource at the moment for controls if I understand correctly.  Definitely contact both, it will help us understand the supply chain better."
                            }
                        ]
                    }
                ]
            }
        ],
        "thread_ts": "1584138840.041000",
        "parent_user_id": "UUPFF4TC3"
    }
]