[
    {
        "client_msg_id": "469968dd-b41e-4dec-8d41-549bde073c9f",
        "type": "message",
        "text": "My understanding:\n\nThe substrate is `\/56-FAM\/TTATTATT\/3Bio\/` , i.e. at the 5' end it has fluoroscein, a fluorophore and at the 3' end it has biotin. Linked by RNA. The Cas12A cuts the FAM away from the biotin. If the FAM is connected to the biotin it will form in a particular place on the strip where streptavidin binds the biotin. If not it won't.",
        "user": "UUW05LBEV",
        "ts": "1584015928.035300",
        "team": "TUU48M0T1",
        "user_team": "TUU48M0T1",
        "source_team": "TUU48M0T1",
        "user_profile": {
            "avatar_hash": "g29002d3ec38",
            "image_72": "https:\/\/secure.gravatar.com\/avatar\/29002d3ec38577934dfa24598f68a0fc.jpg?s=72&d=https%3A%2F%2Fa.slack-edge.com%2Fdf10d%2Fimg%2Favatars%2Fava_0008-72.png",
            "first_name": "",
            "real_name": "Theo Sanderson",
            "display_name": "Theo Sanderson",
            "team": "TUU48M0T1",
            "name": "theo",
            "is_restricted": false,
            "is_ultra_restricted": false
        },
        "blocks": [
            {
                "type": "rich_text",
                "block_id": "0A5bq",
                "elements": [
                    {
                        "type": "rich_text_section",
                        "elements": [
                            {
                                "type": "text",
                                "text": "My understanding:\n\nThe substrate is "
                            },
                            {
                                "type": "text",
                                "text": "\/56-FAM\/TTATTATT\/3Bio\/",
                                "style": {
                                    "code": true
                                }
                            },
                            {
                                "type": "text",
                                "text": " , i.e. at the 5' end it has fluoroscein, a fluorophore and at the 3' end it has biotin. Linked by RNA. The Cas12A cuts the FAM away from the biotin. If the FAM is connected to the biotin it will form in a particular place on the strip where streptavidin binds the biotin. If not it won't."
                            }
                        ]
                    }
                ]
            }
        ],
        "thread_ts": "1583950220.030600",
        "parent_user_id": "UUPFF4TC3"
    },
    {
        "client_msg_id": "19b76a46-ee81-42c6-93e6-20932c2ad532",
        "type": "message",
        "text": "Sophie… well done! :simple_smile:\nI’d double check it all then try to order it.\nSuper excited for this project.  I know <@UV7AZH728> and OpenCell team in London will be watching it too.",
        "user": "UV3HA9MM4",
        "ts": "1584036066.036100",
        "team": "TUU48M0T1",
        "user_team": "TUU48M0T1",
        "source_team": "TUU48M0T1",
        "user_profile": {
            "avatar_hash": "b2f89757c831",
            "image_72": "https:\/\/avatars.slack-edge.com\/2020-03-07\/987455908032_b2f89757c8312ec04011_72.jpg",
            "first_name": "AJP",
            "real_name": "AJP",
            "display_name": "AJP",
            "team": "TUU48M0T1",
            "name": "bioajp",
            "is_restricted": false,
            "is_ultra_restricted": false
        },
        "blocks": [
            {
                "type": "rich_text",
                "block_id": "6ObHt",
                "elements": [
                    {
                        "type": "rich_text_section",
                        "elements": [
                            {
                                "type": "text",
                                "text": "Sophie… well done! "
                            },
                            {
                                "type": "emoji",
                                "name": "simple_smile"
                            },
                            {
                                "type": "text",
                                "text": "\nI’d double check it all then try to order it.\nSuper excited for this project.  I know "
                            },
                            {
                                "type": "user",
                                "user_id": "UV7AZH728"
                            },
                            {
                                "type": "text",
                                "text": " and OpenCell team in London will be watching it too."
                            }
                        ]
                    }
                ]
            }
        ],
        "thread_ts": "1583961520.034600",
        "parent_user_id": "UUPFF4TC3"
    },
    {
        "type": "message",
        "subtype": "channel_join",
        "ts": "1584036072.036400",
        "user": "UV7AZH728",
        "text": "<@UV7AZH728> has joined the channel",
        "inviter": "UV3HA9MM4"
    },
    {
        "type": "message",
        "subtype": "channel_join",
        "ts": "1584065431.036700",
        "user": "UVD19AXHV",
        "text": "<@UVD19AXHV> has joined the channel",
        "inviter": "UV0QTJCMT"
    },
    {
        "client_msg_id": "8e236a11-613e-48a5-895e-044bf034e14a",
        "type": "message",
        "text": "Thanks for the support!! It really means a lot :smile: <@UV3HA9MM4>",
        "user": "UUPFF4TC3",
        "ts": "1584068406.036900",
        "team": "TUU48M0T1",
        "user_team": "TUU48M0T1",
        "source_team": "TUU48M0T1",
        "user_profile": {
            "avatar_hash": "g563e1ed9e36",
            "image_72": "https:\/\/secure.gravatar.com\/avatar\/563e1ed9e362af0ce5867baad4d7c568.jpg?s=72&d=https%3A%2F%2Fa.slack-edge.com%2Fdf10d%2Fimg%2Favatars%2Fava_0007-72.png",
            "first_name": "Sophie",
            "real_name": "Sophie Liu",
            "display_name": "Sophie Liu",
            "team": "TUU48M0T1",
            "name": "sophie006liu",
            "is_restricted": false,
            "is_ultra_restricted": false
        },
        "blocks": [
            {
                "type": "rich_text",
                "block_id": "OYQcQ",
                "elements": [
                    {
                        "type": "rich_text_section",
                        "elements": [
                            {
                                "type": "text",
                                "text": "Thanks for the support!! It really means a lot "
                            },
                            {
                                "type": "emoji",
                                "name": "smile"
                            },
                            {
                                "type": "text",
                                "text": " "
                            },
                            {
                                "type": "user",
                                "user_id": "UV3HA9MM4"
                            }
                        ]
                    }
                ]
            }
        ],
        "thread_ts": "1583961520.034600",
        "parent_user_id": "UUPFF4TC3"
    }
]