[
    {
        "type": "message",
        "subtype": "channel_join",
        "ts": "1583741309.018300",
        "user": "UURGMNE3T",
        "text": "<@UURGMNE3T> has joined the channel"
    },
    {
        "client_msg_id": "74de885a-d1aa-4739-881e-fd914425cf7f",
        "type": "message",
        "text": "Left a comment on the doc.  Some of these are really small or precise volumes.  Is there an option to increase volume sizes?",
        "user": "UV3HA9MM4",
        "ts": "1583743935.018400",
        "team": "TUU48M0T1",
        "user_team": "TUU48M0T1",
        "source_team": "TUU48M0T1",
        "user_profile": {
            "avatar_hash": "b2f89757c831",
            "image_72": "https:\/\/avatars.slack-edge.com\/2020-03-07\/987455908032_b2f89757c8312ec04011_72.jpg",
            "first_name": "AJP",
            "real_name": "AJP",
            "display_name": "AJP",
            "team": "TUU48M0T1",
            "name": "bioajp",
            "is_restricted": false,
            "is_ultra_restricted": false
        },
        "edited": {
            "user": "UV3HA9MM4",
            "ts": "1583743941.000000"
        },
        "blocks": [
            {
                "type": "rich_text",
                "block_id": "xl5",
                "elements": [
                    {
                        "type": "rich_text_section",
                        "elements": [
                            {
                                "type": "text",
                                "text": "Left a comment on the doc.  Some of these are really small or precise volumes.  Is there an option to increase volume sizes?"
                            }
                        ]
                    }
                ]
            }
        ],
        "thread_ts": "1583732604.015400",
        "parent_user_id": "UUPFF4TC3"
    },
    {
        "client_msg_id": "3f710315-dd51-48bc-b7c7-1d89e1375844",
        "type": "message",
        "text": "Could likely do a larger batch of any master mix pieces to get the volume up from a pipetting perspective",
        "user": "UUUEFQW8N",
        "ts": "1583758783.018700",
        "team": "TUU48M0T1",
        "user_team": "TUU48M0T1",
        "source_team": "TUU48M0T1",
        "user_profile": {
            "avatar_hash": "5660f4d7fe91",
            "image_72": "https:\/\/avatars.slack-edge.com\/2020-03-06\/974037299378_5660f4d7fe9118b28c09_72.jpg",
            "first_name": "zachmueller",
            "real_name": "zachmueller",
            "display_name": "zachmueller",
            "team": "TUU48M0T1",
            "name": "zach",
            "is_restricted": false,
            "is_ultra_restricted": false
        },
        "blocks": [
            {
                "type": "rich_text",
                "block_id": "1p=\/t",
                "elements": [
                    {
                        "type": "rich_text_section",
                        "elements": [
                            {
                                "type": "text",
                                "text": "Could likely do a larger batch of any master mix pieces to get the volume up from a pipetting perspective"
                            }
                        ]
                    }
                ]
            }
        ],
        "thread_ts": "1583732604.015400",
        "parent_user_id": "UUPFF4TC3",
        "reactions": [
            {
                "name": "+1",
                "users": [
                    "UUPFF4TC3"
                ],
                "count": 1
            }
        ]
    },
    {
        "type": "message",
        "subtype": "channel_join",
        "ts": "1583799802.019300",
        "user": "UV02WET96",
        "text": "<@UV02WET96> has joined the channel"
    },
    {
        "client_msg_id": "68b15f0f-8def-402f-ae2e-0cd4610b7354",
        "type": "message",
        "text": "<@UUUEFQW8N> yeah that's what i was thinking",
        "user": "UUPFF4TC3",
        "ts": "1583809512.019500",
        "team": "TUU48M0T1",
        "user_team": "TUU48M0T1",
        "source_team": "TUU48M0T1",
        "user_profile": {
            "avatar_hash": "g563e1ed9e36",
            "image_72": "https:\/\/secure.gravatar.com\/avatar\/563e1ed9e362af0ce5867baad4d7c568.jpg?s=72&d=https%3A%2F%2Fa.slack-edge.com%2Fdf10d%2Fimg%2Favatars%2Fava_0007-72.png",
            "first_name": "Sophie",
            "real_name": "Sophie Liu",
            "display_name": "Sophie Liu",
            "team": "TUU48M0T1",
            "name": "sophie006liu",
            "is_restricted": false,
            "is_ultra_restricted": false
        },
        "blocks": [
            {
                "type": "rich_text",
                "block_id": "e=3",
                "elements": [
                    {
                        "type": "rich_text_section",
                        "elements": [
                            {
                                "type": "user",
                                "user_id": "UUUEFQW8N"
                            },
                            {
                                "type": "text",
                                "text": " yeah that's what i was thinking"
                            }
                        ]
                    }
                ]
            }
        ],
        "thread_ts": "1583732604.015400",
        "parent_user_id": "UUPFF4TC3",
        "reactions": [
            {
                "name": "100",
                "users": [
                    "UUUEFQW8N"
                ],
                "count": 1
            }
        ]
    },
    {
        "client_msg_id": "30747703-3428-4495-8f9c-159034806811",
        "type": "message",
        "text": "I have a few questions about the materials needed <https:\/\/mammoth.bio\/wp-content\/uploads\/2020\/03\/Mammoth-Biosciences-A-protocol-for-rapid-detection-of-SARS-CoV-2-using-CRISPR-diagnostics-DETECTR.pdf>",
        "user": "UUPFF4TC3",
        "ts": "1583813895.020200",
        "team": "TUU48M0T1",
        "user_team": "TUU48M0T1",
        "source_team": "TUU48M0T1",
        "user_profile": {
            "avatar_hash": "g563e1ed9e36",
            "image_72": "https:\/\/secure.gravatar.com\/avatar\/563e1ed9e362af0ce5867baad4d7c568.jpg?s=72&d=https%3A%2F%2Fa.slack-edge.com%2Fdf10d%2Fimg%2Favatars%2Fava_0007-72.png",
            "first_name": "Sophie",
            "real_name": "Sophie Liu",
            "display_name": "Sophie Liu",
            "team": "TUU48M0T1",
            "name": "sophie006liu",
            "is_restricted": false,
            "is_ultra_restricted": false
        },
        "blocks": [
            {
                "type": "rich_text",
                "block_id": "Jfrqh",
                "elements": [
                    {
                        "type": "rich_text_section",
                        "elements": [
                            {
                                "type": "text",
                                "text": "I have a few questions about the materials needed "
                            },
                            {
                                "type": "link",
                                "url": "https:\/\/mammoth.bio\/wp-content\/uploads\/2020\/03\/Mammoth-Biosciences-A-protocol-for-rapid-detection-of-SARS-CoV-2-using-CRISPR-diagnostics-DETECTR.pdf"
                            }
                        ]
                    }
                ]
            }
        ],
        "thread_ts": "1583813895.020200",
        "reply_count": 1,
        "reply_users_count": 1,
        "latest_reply": "1583814283.021100",
        "reply_users": [
            "UUPFF4TC3"
        ],
        "replies": [
            {
                "user": "UUPFF4TC3",
                "ts": "1583814283.021100"
            }
        ],
        "subscribed": false
    },
    {
        "client_msg_id": "6d3cf642-bf1c-41da-b242-3f668a21d691",
        "type": "message",
        "text": "Does synthego make the crRNA for the N, E, and RNAnase P gene?",
        "user": "UUPFF4TC3",
        "ts": "1583814283.021100",
        "team": "TUU48M0T1",
        "user_team": "TUU48M0T1",
        "source_team": "TUU48M0T1",
        "user_profile": {
            "avatar_hash": "g563e1ed9e36",
            "image_72": "https:\/\/secure.gravatar.com\/avatar\/563e1ed9e362af0ce5867baad4d7c568.jpg?s=72&d=https%3A%2F%2Fa.slack-edge.com%2Fdf10d%2Fimg%2Favatars%2Fava_0007-72.png",
            "first_name": "Sophie",
            "real_name": "Sophie Liu",
            "display_name": "Sophie Liu",
            "team": "TUU48M0T1",
            "name": "sophie006liu",
            "is_restricted": false,
            "is_ultra_restricted": false
        },
        "blocks": [
            {
                "type": "rich_text",
                "block_id": "B70v",
                "elements": [
                    {
                        "type": "rich_text_section",
                        "elements": [
                            {
                                "type": "text",
                                "text": "Does synthego make the crRNA for the N, E, and RNAnase P gene?"
                            }
                        ]
                    }
                ]
            }
        ],
        "thread_ts": "1583813895.020200",
        "parent_user_id": "UUPFF4TC3"
    },
    {
        "client_msg_id": "448f5cff-3769-4b8c-8c10-9f14ba05fcf3",
        "type": "message",
        "text": "<https:\/\/docs.google.com\/spreadsheets\/d\/1eJM92RRodU_poXjYylLYBab0bW-nAJkZFcCSatsLOAI\/edit#gid=0>",
        "user": "UUPFF4TC3",
        "ts": "1583814341.021700",
        "team": "TUU48M0T1",
        "user_team": "TUU48M0T1",
        "source_team": "TUU48M0T1",
        "user_profile": {
            "avatar_hash": "g563e1ed9e36",
            "image_72": "https:\/\/secure.gravatar.com\/avatar\/563e1ed9e362af0ce5867baad4d7c568.jpg?s=72&d=https%3A%2F%2Fa.slack-edge.com%2Fdf10d%2Fimg%2Favatars%2Fava_0007-72.png",
            "first_name": "Sophie",
            "real_name": "Sophie Liu",
            "display_name": "Sophie Liu",
            "team": "TUU48M0T1",
            "name": "sophie006liu",
            "is_restricted": false,
            "is_ultra_restricted": false
        },
        "blocks": [
            {
                "type": "rich_text",
                "block_id": "yWkV",
                "elements": [
                    {
                        "type": "rich_text_section",
                        "elements": [
                            {
                                "type": "link",
                                "url": "https:\/\/docs.google.com\/spreadsheets\/d\/1eJM92RRodU_poXjYylLYBab0bW-nAJkZFcCSatsLOAI\/edit#gid=0"
                            }
                        ]
                    }
                ]
            }
        ]
    },
    {
        "client_msg_id": "8ea6f6b4-fdff-411a-8165-d9283c6d625f",
        "type": "message",
        "text": "I tried my best to list all the materials needed and the supplier, but for some like the guide RNA i'm not sure if I listed the right supplier. Can someone please double check to make sure my list of reagents and oligos is accurate?",
        "user": "UUPFF4TC3",
        "ts": "1583814394.023200",
        "team": "TUU48M0T1",
        "user_team": "TUU48M0T1",
        "source_team": "TUU48M0T1",
        "user_profile": {
            "avatar_hash": "g563e1ed9e36",
            "image_72": "https:\/\/secure.gravatar.com\/avatar\/563e1ed9e362af0ce5867baad4d7c568.jpg?s=72&d=https%3A%2F%2Fa.slack-edge.com%2Fdf10d%2Fimg%2Favatars%2Fava_0007-72.png",
            "first_name": "Sophie",
            "real_name": "Sophie Liu",
            "display_name": "Sophie Liu",
            "team": "TUU48M0T1",
            "name": "sophie006liu",
            "is_restricted": false,
            "is_ultra_restricted": false
        },
        "blocks": [
            {
                "type": "rich_text",
                "block_id": "7X0R",
                "elements": [
                    {
                        "type": "rich_text_section",
                        "elements": [
                            {
                                "type": "text",
                                "text": "I tried my best to list all the materials needed and the supplier, but for some like the guide RNA i'm not sure if I listed the right supplier. Can someone please double check to make sure my list of reagents and oligos is accurate?"
                            }
                        ]
                    }
                ]
            }
        ],
        "thread_ts": "1583814394.023200",
        "reply_count": 3,
        "reply_users_count": 3,
        "latest_reply": "1583952185.033400",
        "reply_users": [
            "UUW05LBEV",
            "UV1G2M821",
            "UUPFF4TC3"
        ],
        "replies": [
            {
                "user": "UUW05LBEV",
                "ts": "1583872461.025700"
            },
            {
                "user": "UV1G2M821",
                "ts": "1583952093.033200"
            },
            {
                "user": "UUPFF4TC3",
                "ts": "1583952185.033400"
            }
        ],
        "subscribed": false
    }
]