[
    {
        "client_msg_id": "37e4bd43-9d3c-46a5-bef8-56383c56461b",
        "type": "message",
        "text": "What is the place to put wild ideas on prevention? I can't find a excel yet for prevention, as there is for detection.",
        "user": "U01081Y0TBP",
        "ts": "1584780207.001100",
        "team": "TUU48M0T1",
        "user_team": "TUU48M0T1",
        "source_team": "TUU48M0T1",
        "user_profile": {
            "avatar_hash": "60ec5b47107a",
            "image_72": "https:\/\/avatars.slack-edge.com\/2020-03-18\/995274181218_60ec5b47107a3bd2ca7d_72.jpg",
            "first_name": "Peter",
            "real_name": "Peter Kooren",
            "display_name": "Peter Kooren",
            "team": "TUU48M0T1",
            "name": "peterkooren",
            "is_restricted": false,
            "is_ultra_restricted": false
        },
        "blocks": [
            {
                "type": "rich_text",
                "block_id": "\/LHX",
                "elements": [
                    {
                        "type": "rich_text_section",
                        "elements": [
                            {
                                "type": "text",
                                "text": "What is the place to put wild ideas on prevention? I can't find a excel yet for prevention, as there is for detection."
                            }
                        ]
                    }
                ]
            }
        ],
        "thread_ts": "1584780207.001100",
        "reply_count": 1,
        "reply_users_count": 1,
        "latest_reply": "1584912099.005300",
        "reply_users": [
            "UV20M5HGQ"
        ],
        "replies": [
            {
                "user": "UV20M5HGQ",
                "ts": "1584912099.005300"
            }
        ],
        "subscribed": false,
        "reactions": [
            {
                "name": "heart",
                "users": [
                    "UV20M5HGQ"
                ],
                "count": 1
            }
        ]
    },
    {
        "client_msg_id": "1614d025-e49c-4bf9-8f33-fd98b242279e",
        "type": "message",
        "text": "I had the idea of a face lotion that can hinder the virus. I am a mechanical engineer, so I don't know the feasibility and\/or the essential ingredients for such a lotion.",
        "user": "U01081Y0TBP",
        "ts": "1584780325.002700",
        "team": "TUU48M0T1",
        "user_team": "TUU48M0T1",
        "source_team": "TUU48M0T1",
        "user_profile": {
            "avatar_hash": "60ec5b47107a",
            "image_72": "https:\/\/avatars.slack-edge.com\/2020-03-18\/995274181218_60ec5b47107a3bd2ca7d_72.jpg",
            "first_name": "Peter",
            "real_name": "Peter Kooren",
            "display_name": "Peter Kooren",
            "team": "TUU48M0T1",
            "name": "peterkooren",
            "is_restricted": false,
            "is_ultra_restricted": false
        },
        "blocks": [
            {
                "type": "rich_text",
                "block_id": "KHm",
                "elements": [
                    {
                        "type": "rich_text_section",
                        "elements": [
                            {
                                "type": "text",
                                "text": "I had the idea of a face lotion that can hinder the virus. I am a mechanical engineer, so I don't know the feasibility and\/or the essential ingredients for such a lotion."
                            }
                        ]
                    }
                ]
            }
        ]
    },
    {
        "client_msg_id": "9c9d6395-94a5-4bfd-980a-9faff9abe8a2",
        "type": "message",
        "text": "Hey prevention friends! After some interest in the design team, I created a project for an educational game on the virus and safety practices so that we can reach kids in one of their favorite medium! We need designers, developers, scientists, biosafety ppl, etc to participate!  Pls join if you are interested in participating: <https:\/\/app.jogl.io\/project\/140>   slack channel: <#C01044Q28UB|proj-dev-edgame>",
        "user": "UV76CQTB4",
        "ts": "1584819588.004400",
        "team": "TUU48M0T1",
        "user_team": "TUU48M0T1",
        "source_team": "TUU48M0T1",
        "user_profile": {
            "avatar_hash": "07668a20a751",
            "image_72": "https:\/\/avatars.slack-edge.com\/2020-03-17\/993297059666_07668a20a751afe52104_72.png",
            "first_name": "",
            "real_name": "Julie Legault",
            "display_name": "Julie Legault",
            "team": "TUU48M0T1",
            "name": "julie",
            "is_restricted": false,
            "is_ultra_restricted": false
        },
        "attachments": [
            {
                "title": "JOGL - Just One Giant Lab",
                "title_link": "https:\/\/app.jogl.io\/project\/140",
                "text": "JOGL helps sync humanity onto solving our most important social &amp; environmental problems using open science, responsible innovation &amp; continuous learning.",
                "fallback": "JOGL - Just One Giant Lab",
                "thumb_url": "https:\/\/app.jogl.io\/planet.jpg",
                "from_url": "https:\/\/app.jogl.io\/project\/140",
                "thumb_width": 2049,
                "thumb_height": 1011,
                "service_icon": "https:\/\/app.jogl.io\/favicon.ico",
                "service_name": "app.jogl.io",
                "id": 1,
                "original_url": "https:\/\/app.jogl.io\/project\/140"
            }
        ],
        "blocks": [
            {
                "type": "rich_text",
                "block_id": "UPub",
                "elements": [
                    {
                        "type": "rich_text_section",
                        "elements": [
                            {
                                "type": "text",
                                "text": "Hey prevention friends! After some interest in the design team, I created a project for an educational game on the virus and safety practices so that we can reach kids in one of their favorite medium! We need designers, developers, scientists, biosafety ppl, etc to participate!  Pls join if you are interested in participating: "
                            },
                            {
                                "type": "link",
                                "url": "https:\/\/app.jogl.io\/project\/140"
                            },
                            {
                                "type": "text",
                                "text": "   slack channel: "
                            },
                            {
                                "type": "channel",
                                "channel_id": "C01044Q28UB"
                            }
                        ]
                    }
                ]
            }
        ],
        "reactions": [
            {
                "name": "heart_eyes",
                "users": [
                    "U0103128G4D"
                ],
                "count": 1
            }
        ]
    }
]