[
    {
        "client_msg_id": "7186c01e-ef19-4577-92d9-5f003656bf00",
        "type": "message",
        "text": "<!channel> hello--just a reminder that i will be *archiving* this channel *tomorrow*.  please refer to the list of channels for other relevant focuses\/groups to join. there is the *<#CV0QED4KU|prgm-governance-team>* that is working on managing the tools\/structures directly related to this project and a development team project *<#CVAS7QHF0|proj-dev-open-source-resources>* that will be working on developing and finding the best resources (such as lab notebooks) for open source collaboration. thanks!",
        "user": "UV0QTJCMT",
        "ts": "1584478501.089000",
        "team": "TUU48M0T1",
        "user_team": "TUU48M0T1",
        "source_team": "TUU48M0T1",
        "user_profile": {
            "avatar_hash": "11e3deb6d1a9",
            "image_72": "https:\/\/avatars.slack-edge.com\/2020-03-06\/986844736421_11e3deb6d1a949327ddd_72.png",
            "first_name": "Katherine",
            "real_name": "Katherine Holo",
            "display_name": "Kat Holo",
            "team": "TUU48M0T1",
            "name": "katherineh245",
            "is_restricted": false,
            "is_ultra_restricted": false
        },
        "blocks": [
            {
                "type": "rich_text",
                "block_id": "iF9L",
                "elements": [
                    {
                        "type": "rich_text_section",
                        "elements": [
                            {
                                "type": "broadcast",
                                "range": "channel"
                            },
                            {
                                "type": "text",
                                "text": " hello--just a reminder that i will be "
                            },
                            {
                                "type": "text",
                                "text": "archiving",
                                "style": {
                                    "bold": true
                                }
                            },
                            {
                                "type": "text",
                                "text": " this channel "
                            },
                            {
                                "type": "text",
                                "text": "tomorrow",
                                "style": {
                                    "bold": true
                                }
                            },
                            {
                                "type": "text",
                                "text": ".  please refer to the list of channels for other relevant focuses\/groups to join. there is the "
                            },
                            {
                                "type": "channel",
                                "channel_id": "CV0QED4KU",
                                "style": {
                                    "bold": true
                                }
                            },
                            {
                                "type": "text",
                                "text": " that is working on managing the tools\/structures directly related to this project and a development team project *"
                            },
                            {
                                "type": "channel",
                                "channel_id": "CVAS7QHF0"
                            },
                            {
                                "type": "text",
                                "text": "* that will be working on developing and finding the best resources (such as lab notebooks) for open source collaboration. thanks!"
                            }
                        ]
                    }
                ]
            }
        ],
        "reactions": [
            {
                "name": "+1",
                "users": [
                    "U01016B7KPY"
                ],
                "count": 1
            }
        ]
    }
]