[
    {
        "type": "message",
        "subtype": "channel_join",
        "ts": "1583936492.004100",
        "user": "UUW41MYTV",
        "text": "<@UUW41MYTV> has joined the channel"
    },
    {
        "type": "message",
        "subtype": "channel_join",
        "ts": "1583938475.004300",
        "user": "UV0RRGB6H",
        "text": "<@UV0RRGB6H> has joined the channel"
    },
    {
        "type": "message",
        "subtype": "channel_join",
        "ts": "1583948065.004500",
        "user": "UVA1JS2PR",
        "text": "<@UVA1JS2PR> has joined the channel"
    },
    {
        "type": "message",
        "text": "*current working doc on slack organization* <https:\/\/docs.google.com\/document\/d\/1d3FYs9rcb3T_y6oUxf99mLq2iZ2-jTyjEqDpYtqHx2M\/edit#>  -- would love to see comments on this thread regarding the structuring of channels",
        "files": [
            {
                "id": "FV5KSTQR2",
                "created": 1583868631,
                "timestamp": 1583868631,
                "name": "OpenCovid19 Initiative Slack Organization",
                "title": "OpenCovid19 Initiative Slack Organization",
                "mimetype": "application\/vnd.google-apps.document",
                "filetype": "gdoc",
                "pretty_type": "GSuite Document",
                "user": "UV0QTJCMT",
                "editable": false,
                "size": 2868,
                "mode": "external",
                "is_external": true,
                "external_type": "gdrive",
                "is_public": true,
                "public_url_shared": false,
                "display_as_bot": false,
                "username": "",
                "url_private": "https:\/\/docs.google.com\/document\/d\/1d3FYs9rcb3T_y6oUxf99mLq2iZ2-jTyjEqDpYtqHx2M\/edit#heading=h.7ulwnnysam8y",
                "thumb_64": "https:\/\/files.slack.com\/files-tmb\/TUU48M0T1-FV5KSTQR2-31d8e49e28\/opencovid19_initiative_slack_organization_64.png?t=xoxe-980144714919-1031585465028-1034106672247-1815eabca44f30d1d2d966083f8c8bbb",
                "thumb_80": "https:\/\/files.slack.com\/files-tmb\/TUU48M0T1-FV5KSTQR2-31d8e49e28\/opencovid19_initiative_slack_organization_80.png?t=xoxe-980144714919-1031585465028-1034106672247-1815eabca44f30d1d2d966083f8c8bbb",
                "thumb_360": "https:\/\/files.slack.com\/files-tmb\/TUU48M0T1-FV5KSTQR2-31d8e49e28\/opencovid19_initiative_slack_organization_360.png?t=xoxe-980144714919-1031585465028-1034106672247-1815eabca44f30d1d2d966083f8c8bbb",
                "thumb_360_w": 278,
                "thumb_360_h": 360,
                "thumb_480": "https:\/\/files.slack.com\/files-tmb\/TUU48M0T1-FV5KSTQR2-31d8e49e28\/opencovid19_initiative_slack_organization_480.png?t=xoxe-980144714919-1031585465028-1034106672247-1815eabca44f30d1d2d966083f8c8bbb",
                "thumb_480_w": 371,
                "thumb_480_h": 480,
                "thumb_160": "https:\/\/files.slack.com\/files-tmb\/TUU48M0T1-FV5KSTQR2-31d8e49e28\/opencovid19_initiative_slack_organization_160.png?t=xoxe-980144714919-1031585465028-1034106672247-1815eabca44f30d1d2d966083f8c8bbb",
                "thumb_720": "https:\/\/files.slack.com\/files-tmb\/TUU48M0T1-FV5KSTQR2-31d8e49e28\/opencovid19_initiative_slack_organization_720.png?t=xoxe-980144714919-1031585465028-1034106672247-1815eabca44f30d1d2d966083f8c8bbb",
                "thumb_720_w": 557,
                "thumb_720_h": 720,
                "thumb_800": "https:\/\/files.slack.com\/files-tmb\/TUU48M0T1-FV5KSTQR2-31d8e49e28\/opencovid19_initiative_slack_organization_800.png?t=xoxe-980144714919-1031585465028-1034106672247-1815eabca44f30d1d2d966083f8c8bbb",
                "thumb_800_w": 800,
                "thumb_800_h": 1035,
                "thumb_960": "https:\/\/files.slack.com\/files-tmb\/TUU48M0T1-FV5KSTQR2-31d8e49e28\/opencovid19_initiative_slack_organization_960.png?t=xoxe-980144714919-1031585465028-1034106672247-1815eabca44f30d1d2d966083f8c8bbb",
                "thumb_960_w": 742,
                "thumb_960_h": 960,
                "thumb_1024": "https:\/\/files.slack.com\/files-tmb\/TUU48M0T1-FV5KSTQR2-31d8e49e28\/opencovid19_initiative_slack_organization_1024.png?t=xoxe-980144714919-1031585465028-1034106672247-1815eabca44f30d1d2d966083f8c8bbb",
                "thumb_1024_w": 791,
                "thumb_1024_h": 1024,
                "image_exif_rotation": 1,
                "original_w": 800,
                "original_h": 1035,
                "thumb_tiny": "AwAwACXSJxSb\/b9aUjPpSbT7flQAb\/b9aA\/tj8aUDHXH5UuBQAUUUUANbtScf3v50rY4ycUuB6UtQGggfxClz7j8qQgZ6UYHpRqA+igdKKYCHPal\/OiigBpBJ6UAEU6igAooooA\/\/9k=",
                "permalink": "https:\/\/open-covid19.slack.com\/files\/UV0QTJCMT\/FV5KSTQR2\/opencovid19_initiative_slack_organization",
                "is_starred": false,
                "external_id": "1d3FYs9rcb3T_y6oUxf99mLq2iZ2-jTyjEqDpYtqHx2M",
                "external_url": "https:\/\/docs.google.com\/document\/d\/1d3FYs9rcb3T_y6oUxf99mLq2iZ2-jTyjEqDpYtqHx2M\/edit#heading=h.7ulwnnysam8y",
                "has_rich_preview": true
            }
        ],
        "upload": false,
        "blocks": [
            {
                "type": "rich_text",
                "block_id": "dwVPW",
                "elements": [
                    {
                        "type": "rich_text_section",
                        "elements": [
                            {
                                "type": "text",
                                "text": "current working doc on slack organization",
                                "style": {
                                    "bold": true
                                }
                            },
                            {
                                "type": "text",
                                "text": " "
                            },
                            {
                                "type": "link",
                                "url": "https:\/\/docs.google.com\/document\/d\/1d3FYs9rcb3T_y6oUxf99mLq2iZ2-jTyjEqDpYtqHx2M\/edit#"
                            },
                            {
                                "type": "text",
                                "text": "  -- would love to see comments on this thread regarding the structuring of channels"
                            }
                        ]
                    }
                ]
            }
        ],
        "user": "UV0QTJCMT",
        "display_as_bot": false,
        "x_files": [
            "FV5KSTQR2"
        ],
        "ts": "1583950137.005200",
        "edited": {
            "user": "UV0QTJCMT",
            "ts": "1583950152.000000"
        },
        "client_msg_id": "50b6a43b-773b-4220-bd20-c162cacfa973",
        "reactions": [
            {
                "name": "+1",
                "users": [
                    "UV8T52QJ3"
                ],
                "count": 1
            }
        ]
    },
    {
        "type": "message",
        "text": "*new drive structure* -- the other drive structure mentioned above would be a recommended for the project level, but the structure of project leaders to organize their folder",
        "files": [
            {
                "id": "FVA4UATQF",
                "created": 1583950268,
                "timestamp": 1583950268,
                "name": "image.png",
                "title": "image.png",
                "mimetype": "image\/png",
                "filetype": "png",
                "pretty_type": "PNG",
                "user": "UV0QTJCMT",
                "editable": false,
                "size": 117958,
                "mode": "hosted",
                "is_external": false,
                "external_type": "",
                "is_public": true,
                "public_url_shared": false,
                "display_as_bot": false,
                "username": "",
                "url_private": "https:\/\/files.slack.com\/files-pri\/TUU48M0T1-FVA4UATQF\/image.png?t=xoxe-980144714919-1031585465028-1034106672247-1815eabca44f30d1d2d966083f8c8bbb",
                "url_private_download": "https:\/\/files.slack.com\/files-pri\/TUU48M0T1-FVA4UATQF\/download\/image.png?t=xoxe-980144714919-1031585465028-1034106672247-1815eabca44f30d1d2d966083f8c8bbb",
                "thumb_64": "https:\/\/files.slack.com\/files-tmb\/TUU48M0T1-FVA4UATQF-64cdb84b4e\/image_64.png?t=xoxe-980144714919-1031585465028-1034106672247-1815eabca44f30d1d2d966083f8c8bbb",
                "thumb_80": "https:\/\/files.slack.com\/files-tmb\/TUU48M0T1-FVA4UATQF-64cdb84b4e\/image_80.png?t=xoxe-980144714919-1031585465028-1034106672247-1815eabca44f30d1d2d966083f8c8bbb",
                "thumb_360": "https:\/\/files.slack.com\/files-tmb\/TUU48M0T1-FVA4UATQF-64cdb84b4e\/image_360.png?t=xoxe-980144714919-1031585465028-1034106672247-1815eabca44f30d1d2d966083f8c8bbb",
                "thumb_360_w": 314,
                "thumb_360_h": 360,
                "thumb_480": "https:\/\/files.slack.com\/files-tmb\/TUU48M0T1-FVA4UATQF-64cdb84b4e\/image_480.png?t=xoxe-980144714919-1031585465028-1034106672247-1815eabca44f30d1d2d966083f8c8bbb",
                "thumb_480_w": 419,
                "thumb_480_h": 480,
                "thumb_160": "https:\/\/files.slack.com\/files-tmb\/TUU48M0T1-FVA4UATQF-64cdb84b4e\/image_160.png?t=xoxe-980144714919-1031585465028-1034106672247-1815eabca44f30d1d2d966083f8c8bbb",
                "thumb_720": "https:\/\/files.slack.com\/files-tmb\/TUU48M0T1-FVA4UATQF-64cdb84b4e\/image_720.png?t=xoxe-980144714919-1031585465028-1034106672247-1815eabca44f30d1d2d966083f8c8bbb",
                "thumb_720_w": 628,
                "thumb_720_h": 720,
                "image_exif_rotation": 1,
                "original_w": 658,
                "original_h": 754,
                "thumb_tiny": "AwAwACm67MCfkH4vSqTjOVB9Cc1IQCCD0NV22xthWX3GKAJsv\/eT8qMv\/eT8qh84f7P509H3DOFx7UCvcmHQZ\/Simjr2z9adQMa5YdM\/lUW5s8\/yqSQ4U4J\/AVArvkfKfzqWMnByOQPxpePQUxWYnBTA9d1Oyf8AJqhDhg9hS00Mc84\/OnUANcMQcEVXPBw0oHsTVlvumoDGrHJTJpWQWJFXA6Z9yadj\/Z\/Wo1+UYUED0p2TjqaAHj6UtMByepp9MD\/\/2Q==",
                "permalink": "https:\/\/open-covid19.slack.com\/files\/UV0QTJCMT\/FVA4UATQF\/image.png",
                "permalink_public": "https:\/\/slack-files.com\/TUU48M0T1-FVA4UATQF-0b4c3bafbc",
                "is_starred": false,
                "has_rich_preview": false
            }
        ],
        "upload": true,
        "blocks": [
            {
                "type": "rich_text",
                "block_id": "5eLs",
                "elements": [
                    {
                        "type": "rich_text_section",
                        "elements": [
                            {
                                "type": "text",
                                "text": "new drive structure",
                                "style": {
                                    "bold": true
                                }
                            },
                            {
                                "type": "text",
                                "text": " -- the other drive structure mentioned above would be a recommended for the project level, but the structure of project leaders to organize their folder"
                            }
                        ]
                    }
                ]
            }
        ],
        "user": "UV0QTJCMT",
        "display_as_bot": false,
        "ts": "1583950271.006600",
        "client_msg_id": "01b8b408-5e65-4009-a3b4-792edb15d882",
        "reactions": [
            {
                "name": "+1",
                "users": [
                    "UVBEDFNPJ"
                ],
                "count": 1
            }
        ]
    }
]