[
    {
        "type": "message",
        "text": "Here are all the images with transparent background \/ On the program banner I used [AVENIR] and the color is R67 V78 B227",
        "files": [
            {
                "id": "F010C7FBMQV",
                "created": 1584632758,
                "timestamp": 1584632758,
                "name": "OpenCovid_program banner.png",
                "title": "OpenCovid_program banner.png",
                "mimetype": "image\/png",
                "filetype": "png",
                "pretty_type": "PNG",
                "user": "UV6PMT2DQ",
                "editable": false,
                "size": 197945,
                "mode": "hosted",
                "is_external": false,
                "external_type": "",
                "is_public": true,
                "public_url_shared": false,
                "display_as_bot": false,
                "username": "",
                "url_private": "https:\/\/files.slack.com\/files-pri\/TUU48M0T1-F010C7FBMQV\/opencovid_program_banner.png?t=xoxe-980144714919-1031585465028-1034106672247-1815eabca44f30d1d2d966083f8c8bbb",
                "url_private_download": "https:\/\/files.slack.com\/files-pri\/TUU48M0T1-F010C7FBMQV\/download\/opencovid_program_banner.png?t=xoxe-980144714919-1031585465028-1034106672247-1815eabca44f30d1d2d966083f8c8bbb",
                "thumb_64": "https:\/\/files.slack.com\/files-tmb\/TUU48M0T1-F010C7FBMQV-fca950db50\/opencovid_program_banner_64.png?t=xoxe-980144714919-1031585465028-1034106672247-1815eabca44f30d1d2d966083f8c8bbb",
                "thumb_80": "https:\/\/files.slack.com\/files-tmb\/TUU48M0T1-F010C7FBMQV-fca950db50\/opencovid_program_banner_80.png?t=xoxe-980144714919-1031585465028-1034106672247-1815eabca44f30d1d2d966083f8c8bbb",
                "thumb_360": "https:\/\/files.slack.com\/files-tmb\/TUU48M0T1-F010C7FBMQV-fca950db50\/opencovid_program_banner_360.png?t=xoxe-980144714919-1031585465028-1034106672247-1815eabca44f30d1d2d966083f8c8bbb",
                "thumb_360_w": 360,
                "thumb_360_h": 116,
                "thumb_480": "https:\/\/files.slack.com\/files-tmb\/TUU48M0T1-F010C7FBMQV-fca950db50\/opencovid_program_banner_480.png?t=xoxe-980144714919-1031585465028-1034106672247-1815eabca44f30d1d2d966083f8c8bbb",
                "thumb_480_w": 480,
                "thumb_480_h": 155,
                "thumb_160": "https:\/\/files.slack.com\/files-tmb\/TUU48M0T1-F010C7FBMQV-fca950db50\/opencovid_program_banner_160.png?t=xoxe-980144714919-1031585465028-1034106672247-1815eabca44f30d1d2d966083f8c8bbb",
                "thumb_720": "https:\/\/files.slack.com\/files-tmb\/TUU48M0T1-F010C7FBMQV-fca950db50\/opencovid_program_banner_720.png?t=xoxe-980144714919-1031585465028-1034106672247-1815eabca44f30d1d2d966083f8c8bbb",
                "thumb_720_w": 720,
                "thumb_720_h": 233,
                "thumb_800": "https:\/\/files.slack.com\/files-tmb\/TUU48M0T1-F010C7FBMQV-fca950db50\/opencovid_program_banner_800.png?t=xoxe-980144714919-1031585465028-1034106672247-1815eabca44f30d1d2d966083f8c8bbb",
                "thumb_800_w": 800,
                "thumb_800_h": 258,
                "thumb_960": "https:\/\/files.slack.com\/files-tmb\/TUU48M0T1-F010C7FBMQV-fca950db50\/opencovid_program_banner_960.png?t=xoxe-980144714919-1031585465028-1034106672247-1815eabca44f30d1d2d966083f8c8bbb",
                "thumb_960_w": 960,
                "thumb_960_h": 310,
                "thumb_1024": "https:\/\/files.slack.com\/files-tmb\/TUU48M0T1-F010C7FBMQV-fca950db50\/opencovid_program_banner_1024.png?t=xoxe-980144714919-1031585465028-1034106672247-1815eabca44f30d1d2d966083f8c8bbb",
                "thumb_1024_w": 1024,
                "thumb_1024_h": 331,
                "image_exif_rotation": 1,
                "original_w": 5159,
                "original_h": 1667,
                "thumb_tiny": "AwAPADDMpQpKluwqT7O\/t+dH2d\/b86dmBFRUv2d\/aj7O\/qKOVgRUVL9nf2o+zv7fnRZgf\/\/Z",
                "permalink": "https:\/\/open-covid19.slack.com\/files\/UV6PMT2DQ\/F010C7FBMQV\/opencovid_program_banner.png",
                "permalink_public": "https:\/\/slack-files.com\/TUU48M0T1-F010C7FBMQV-bef0b4699a",
                "is_starred": false,
                "has_rich_preview": false
            },
            {
                "id": "F010BNXH02G",
                "created": 1584632758,
                "timestamp": 1584632758,
                "name": "OpenCovid_logo without text.png",
                "title": "OpenCovid_logo without text.png",
                "mimetype": "image\/png",
                "filetype": "png",
                "pretty_type": "PNG",
                "user": "UV6PMT2DQ",
                "editable": false,
                "size": 135087,
                "mode": "hosted",
                "is_external": false,
                "external_type": "",
                "is_public": true,
                "public_url_shared": false,
                "display_as_bot": false,
                "username": "",
                "url_private": "https:\/\/files.slack.com\/files-pri\/TUU48M0T1-F010BNXH02G\/opencovid_logo_without_text.png?t=xoxe-980144714919-1031585465028-1034106672247-1815eabca44f30d1d2d966083f8c8bbb",
                "url_private_download": "https:\/\/files.slack.com\/files-pri\/TUU48M0T1-F010BNXH02G\/download\/opencovid_logo_without_text.png?t=xoxe-980144714919-1031585465028-1034106672247-1815eabca44f30d1d2d966083f8c8bbb",
                "thumb_64": "https:\/\/files.slack.com\/files-tmb\/TUU48M0T1-F010BNXH02G-c2b95d71b5\/opencovid_logo_without_text_64.png?t=xoxe-980144714919-1031585465028-1034106672247-1815eabca44f30d1d2d966083f8c8bbb",
                "thumb_80": "https:\/\/files.slack.com\/files-tmb\/TUU48M0T1-F010BNXH02G-c2b95d71b5\/opencovid_logo_without_text_80.png?t=xoxe-980144714919-1031585465028-1034106672247-1815eabca44f30d1d2d966083f8c8bbb",
                "thumb_360": "https:\/\/files.slack.com\/files-tmb\/TUU48M0T1-F010BNXH02G-c2b95d71b5\/opencovid_logo_without_text_360.png?t=xoxe-980144714919-1031585465028-1034106672247-1815eabca44f30d1d2d966083f8c8bbb",
                "thumb_360_w": 360,
                "thumb_360_h": 360,
                "thumb_480": "https:\/\/files.slack.com\/files-tmb\/TUU48M0T1-F010BNXH02G-c2b95d71b5\/opencovid_logo_without_text_480.png?t=xoxe-980144714919-1031585465028-1034106672247-1815eabca44f30d1d2d966083f8c8bbb",
                "thumb_480_w": 480,
                "thumb_480_h": 480,
                "thumb_160": "https:\/\/files.slack.com\/files-tmb\/TUU48M0T1-F010BNXH02G-c2b95d71b5\/opencovid_logo_without_text_160.png?t=xoxe-980144714919-1031585465028-1034106672247-1815eabca44f30d1d2d966083f8c8bbb",
                "thumb_720": "https:\/\/files.slack.com\/files-tmb\/TUU48M0T1-F010BNXH02G-c2b95d71b5\/opencovid_logo_without_text_720.png?t=xoxe-980144714919-1031585465028-1034106672247-1815eabca44f30d1d2d966083f8c8bbb",
                "thumb_720_w": 720,
                "thumb_720_h": 720,
                "thumb_800": "https:\/\/files.slack.com\/files-tmb\/TUU48M0T1-F010BNXH02G-c2b95d71b5\/opencovid_logo_without_text_800.png?t=xoxe-980144714919-1031585465028-1034106672247-1815eabca44f30d1d2d966083f8c8bbb",
                "thumb_800_w": 800,
                "thumb_800_h": 800,
                "thumb_960": "https:\/\/files.slack.com\/files-tmb\/TUU48M0T1-F010BNXH02G-c2b95d71b5\/opencovid_logo_without_text_960.png?t=xoxe-980144714919-1031585465028-1034106672247-1815eabca44f30d1d2d966083f8c8bbb",
                "thumb_960_w": 960,
                "thumb_960_h": 960,
                "thumb_1024": "https:\/\/files.slack.com\/files-tmb\/TUU48M0T1-F010BNXH02G-c2b95d71b5\/opencovid_logo_without_text_1024.png?t=xoxe-980144714919-1031585465028-1034106672247-1815eabca44f30d1d2d966083f8c8bbb",
                "thumb_1024_w": 1024,
                "thumb_1024_h": 1024,
                "image_exif_rotation": 1,
                "original_w": 1667,
                "original_h": 1667,
                "thumb_tiny": "AwAwADDMooooAKKUKTQQR1oASiiigAoHWigUAW40BFQz4DgDBxUeSMgE0E8YHTrVuWgrCUUUVAwooooAKKKKACiiigD\/2Q==",
                "permalink": "https:\/\/open-covid19.slack.com\/files\/UV6PMT2DQ\/F010BNXH02G\/opencovid_logo_without_text.png",
                "permalink_public": "https:\/\/slack-files.com\/TUU48M0T1-F010BNXH02G-36731c6e13",
                "is_starred": false,
                "has_rich_preview": false
            },
            {
                "id": "FVDD6JFSN",
                "created": 1584632758,
                "timestamp": 1584632758,
                "name": "OpenCovid_logo.png",
                "title": "OpenCovid_logo.png",
                "mimetype": "image\/png",
                "filetype": "png",
                "pretty_type": "PNG",
                "user": "UV6PMT2DQ",
                "editable": false,
                "size": 80906,
                "mode": "hosted",
                "is_external": false,
                "external_type": "",
                "is_public": true,
                "public_url_shared": false,
                "display_as_bot": false,
                "username": "",
                "url_private": "https:\/\/files.slack.com\/files-pri\/TUU48M0T1-FVDD6JFSN\/opencovid_logo.png?t=xoxe-980144714919-1031585465028-1034106672247-1815eabca44f30d1d2d966083f8c8bbb",
                "url_private_download": "https:\/\/files.slack.com\/files-pri\/TUU48M0T1-FVDD6JFSN\/download\/opencovid_logo.png?t=xoxe-980144714919-1031585465028-1034106672247-1815eabca44f30d1d2d966083f8c8bbb",
                "thumb_64": "https:\/\/files.slack.com\/files-tmb\/TUU48M0T1-FVDD6JFSN-8811685246\/opencovid_logo_64.png?t=xoxe-980144714919-1031585465028-1034106672247-1815eabca44f30d1d2d966083f8c8bbb",
                "thumb_80": "https:\/\/files.slack.com\/files-tmb\/TUU48M0T1-FVDD6JFSN-8811685246\/opencovid_logo_80.png?t=xoxe-980144714919-1031585465028-1034106672247-1815eabca44f30d1d2d966083f8c8bbb",
                "thumb_360": "https:\/\/files.slack.com\/files-tmb\/TUU48M0T1-FVDD6JFSN-8811685246\/opencovid_logo_360.png?t=xoxe-980144714919-1031585465028-1034106672247-1815eabca44f30d1d2d966083f8c8bbb",
                "thumb_360_w": 360,
                "thumb_360_h": 360,
                "thumb_480": "https:\/\/files.slack.com\/files-tmb\/TUU48M0T1-FVDD6JFSN-8811685246\/opencovid_logo_480.png?t=xoxe-980144714919-1031585465028-1034106672247-1815eabca44f30d1d2d966083f8c8bbb",
                "thumb_480_w": 480,
                "thumb_480_h": 480,
                "thumb_160": "https:\/\/files.slack.com\/files-tmb\/TUU48M0T1-FVDD6JFSN-8811685246\/opencovid_logo_160.png?t=xoxe-980144714919-1031585465028-1034106672247-1815eabca44f30d1d2d966083f8c8bbb",
                "thumb_720": "https:\/\/files.slack.com\/files-tmb\/TUU48M0T1-FVDD6JFSN-8811685246\/opencovid_logo_720.png?t=xoxe-980144714919-1031585465028-1034106672247-1815eabca44f30d1d2d966083f8c8bbb",
                "thumb_720_w": 720,
                "thumb_720_h": 720,
                "thumb_800": "https:\/\/files.slack.com\/files-tmb\/TUU48M0T1-FVDD6JFSN-8811685246\/opencovid_logo_800.png?t=xoxe-980144714919-1031585465028-1034106672247-1815eabca44f30d1d2d966083f8c8bbb",
                "thumb_800_w": 800,
                "thumb_800_h": 800,
                "thumb_960": "https:\/\/files.slack.com\/files-tmb\/TUU48M0T1-FVDD6JFSN-8811685246\/opencovid_logo_960.png?t=xoxe-980144714919-1031585465028-1034106672247-1815eabca44f30d1d2d966083f8c8bbb",
                "thumb_960_w": 960,
                "thumb_960_h": 960,
                "thumb_1024": "https:\/\/files.slack.com\/files-tmb\/TUU48M0T1-FVDD6JFSN-8811685246\/opencovid_logo_1024.png?t=xoxe-980144714919-1031585465028-1034106672247-1815eabca44f30d1d2d966083f8c8bbb",
                "thumb_1024_w": 1024,
                "thumb_1024_h": 1024,
                "image_exif_rotation": 1,
                "original_w": 1667,
                "original_h": 1667,
                "thumb_tiny": "AwAwADDMooooAKKKKACiiigB0ab2xRImxsU0HFBOaelgCiiikAUUUUAFFFFABRRRQAUUUUAf\/9k=",
                "permalink": "https:\/\/open-covid19.slack.com\/files\/UV6PMT2DQ\/FVDD6JFSN\/opencovid_logo.png",
                "permalink_public": "https:\/\/slack-files.com\/TUU48M0T1-FVDD6JFSN-1ed9ce8308",
                "is_starred": false,
                "has_rich_preview": false
            }
        ],
        "upload": true,
        "blocks": [
            {
                "type": "rich_text",
                "block_id": "i=0",
                "elements": [
                    {
                        "type": "rich_text_section",
                        "elements": [
                            {
                                "type": "text",
                                "text": "Here are all the images with transparent background \/ On the program banner I used [AVENIR] and the color is R67 V78 B227"
                            }
                        ]
                    }
                ]
            }
        ],
        "user": "UV6PMT2DQ",
        "ts": "1584632770.118100",
        "client_msg_id": "5d25fcd5-0396-4a7a-94eb-46fc8101014f",
        "reactions": [
            {
                "name": "heart",
                "users": [
                    "UV0QTJCMT",
                    "U0103128G4D",
                    "UV02WET96"
                ],
                "count": 3
            }
        ]
    },
    {
        "type": "message",
        "text": "For the banners I used [FUTURA] \/ Prevention (R250 V242 B5) Diagnostic (R44 V143 B254) Treatment (R245 V95 B243)",
        "files": [
            {
                "id": "F010C73NZ40",
                "created": 1584632881,
                "timestamp": 1584632881,
                "name": "OpenCovid banner_prevention.png",
                "title": "OpenCovid banner_prevention.png",
                "mimetype": "image\/png",
                "filetype": "png",
                "pretty_type": "PNG",
                "user": "UV6PMT2DQ",
                "editable": false,
                "size": 92240,
                "mode": "hosted",
                "is_external": false,
                "external_type": "",
                "is_public": true,
                "public_url_shared": false,
                "display_as_bot": false,
                "username": "",
                "url_private": "https:\/\/files.slack.com\/files-pri\/TUU48M0T1-F010C73NZ40\/opencovid_banner_prevention.png?t=xoxe-980144714919-1031585465028-1034106672247-1815eabca44f30d1d2d966083f8c8bbb",
                "url_private_download": "https:\/\/files.slack.com\/files-pri\/TUU48M0T1-F010C73NZ40\/download\/opencovid_banner_prevention.png?t=xoxe-980144714919-1031585465028-1034106672247-1815eabca44f30d1d2d966083f8c8bbb",
                "thumb_64": "https:\/\/files.slack.com\/files-tmb\/TUU48M0T1-F010C73NZ40-e92cb5efbf\/opencovid_banner_prevention_64.png?t=xoxe-980144714919-1031585465028-1034106672247-1815eabca44f30d1d2d966083f8c8bbb",
                "thumb_80": "https:\/\/files.slack.com\/files-tmb\/TUU48M0T1-F010C73NZ40-e92cb5efbf\/opencovid_banner_prevention_80.png?t=xoxe-980144714919-1031585465028-1034106672247-1815eabca44f30d1d2d966083f8c8bbb",
                "thumb_360": "https:\/\/files.slack.com\/files-tmb\/TUU48M0T1-F010C73NZ40-e92cb5efbf\/opencovid_banner_prevention_360.png?t=xoxe-980144714919-1031585465028-1034106672247-1815eabca44f30d1d2d966083f8c8bbb",
                "thumb_360_w": 360,
                "thumb_360_h": 116,
                "thumb_480": "https:\/\/files.slack.com\/files-tmb\/TUU48M0T1-F010C73NZ40-e92cb5efbf\/opencovid_banner_prevention_480.png?t=xoxe-980144714919-1031585465028-1034106672247-1815eabca44f30d1d2d966083f8c8bbb",
                "thumb_480_w": 480,
                "thumb_480_h": 155,
                "thumb_160": "https:\/\/files.slack.com\/files-tmb\/TUU48M0T1-F010C73NZ40-e92cb5efbf\/opencovid_banner_prevention_160.png?t=xoxe-980144714919-1031585465028-1034106672247-1815eabca44f30d1d2d966083f8c8bbb",
                "thumb_720": "https:\/\/files.slack.com\/files-tmb\/TUU48M0T1-F010C73NZ40-e92cb5efbf\/opencovid_banner_prevention_720.png?t=xoxe-980144714919-1031585465028-1034106672247-1815eabca44f30d1d2d966083f8c8bbb",
                "thumb_720_w": 720,
                "thumb_720_h": 233,
                "thumb_800": "https:\/\/files.slack.com\/files-tmb\/TUU48M0T1-F010C73NZ40-e92cb5efbf\/opencovid_banner_prevention_800.png?t=xoxe-980144714919-1031585465028-1034106672247-1815eabca44f30d1d2d966083f8c8bbb",
                "thumb_800_w": 800,
                "thumb_800_h": 259,
                "thumb_960": "https:\/\/files.slack.com\/files-tmb\/TUU48M0T1-F010C73NZ40-e92cb5efbf\/opencovid_banner_prevention_960.png?t=xoxe-980144714919-1031585465028-1034106672247-1815eabca44f30d1d2d966083f8c8bbb",
                "thumb_960_w": 960,
                "thumb_960_h": 310,
                "thumb_1024": "https:\/\/files.slack.com\/files-tmb\/TUU48M0T1-F010C73NZ40-e92cb5efbf\/opencovid_banner_prevention_1024.png?t=xoxe-980144714919-1031585465028-1034106672247-1815eabca44f30d1d2d966083f8c8bbb",
                "thumb_1024_w": 1024,
                "thumb_1024_h": 331,
                "image_exif_rotation": 1,
                "original_w": 5159,
                "original_h": 1668,
                "thumb_tiny": "AwAPADDMoq39gk9RR9gk9RU80e4FRRlgCcZ70rDaxAOcd6s\/YJPUUfYJPUUc0e4WKtFWvsEnqKX7BJ6ijmj3A\/\/Z",
                "permalink": "https:\/\/open-covid19.slack.com\/files\/UV6PMT2DQ\/F010C73NZ40\/opencovid_banner_prevention.png",
                "permalink_public": "https:\/\/slack-files.com\/TUU48M0T1-F010C73NZ40-918ea814de",
                "is_starred": false,
                "has_rich_preview": false
            },
            {
                "id": "FVDDDM5NW",
                "created": 1584632881,
                "timestamp": 1584632881,
                "name": "OpenCovid banner_treatment.png",
                "title": "OpenCovid banner_treatment.png",
                "mimetype": "image\/png",
                "filetype": "png",
                "pretty_type": "PNG",
                "user": "UV6PMT2DQ",
                "editable": false,
                "size": 85080,
                "mode": "hosted",
                "is_external": false,
                "external_type": "",
                "is_public": true,
                "public_url_shared": false,
                "display_as_bot": false,
                "username": "",
                "url_private": "https:\/\/files.slack.com\/files-pri\/TUU48M0T1-FVDDDM5NW\/opencovid_banner_treatment.png?t=xoxe-980144714919-1031585465028-1034106672247-1815eabca44f30d1d2d966083f8c8bbb",
                "url_private_download": "https:\/\/files.slack.com\/files-pri\/TUU48M0T1-FVDDDM5NW\/download\/opencovid_banner_treatment.png?t=xoxe-980144714919-1031585465028-1034106672247-1815eabca44f30d1d2d966083f8c8bbb",
                "thumb_64": "https:\/\/files.slack.com\/files-tmb\/TUU48M0T1-FVDDDM5NW-732b170610\/opencovid_banner_treatment_64.png?t=xoxe-980144714919-1031585465028-1034106672247-1815eabca44f30d1d2d966083f8c8bbb",
                "thumb_80": "https:\/\/files.slack.com\/files-tmb\/TUU48M0T1-FVDDDM5NW-732b170610\/opencovid_banner_treatment_80.png?t=xoxe-980144714919-1031585465028-1034106672247-1815eabca44f30d1d2d966083f8c8bbb",
                "thumb_360": "https:\/\/files.slack.com\/files-tmb\/TUU48M0T1-FVDDDM5NW-732b170610\/opencovid_banner_treatment_360.png?t=xoxe-980144714919-1031585465028-1034106672247-1815eabca44f30d1d2d966083f8c8bbb",
                "thumb_360_w": 360,
                "thumb_360_h": 116,
                "thumb_480": "https:\/\/files.slack.com\/files-tmb\/TUU48M0T1-FVDDDM5NW-732b170610\/opencovid_banner_treatment_480.png?t=xoxe-980144714919-1031585465028-1034106672247-1815eabca44f30d1d2d966083f8c8bbb",
                "thumb_480_w": 480,
                "thumb_480_h": 155,
                "thumb_160": "https:\/\/files.slack.com\/files-tmb\/TUU48M0T1-FVDDDM5NW-732b170610\/opencovid_banner_treatment_160.png?t=xoxe-980144714919-1031585465028-1034106672247-1815eabca44f30d1d2d966083f8c8bbb",
                "thumb_720": "https:\/\/files.slack.com\/files-tmb\/TUU48M0T1-FVDDDM5NW-732b170610\/opencovid_banner_treatment_720.png?t=xoxe-980144714919-1031585465028-1034106672247-1815eabca44f30d1d2d966083f8c8bbb",
                "thumb_720_w": 720,
                "thumb_720_h": 233,
                "thumb_800": "https:\/\/files.slack.com\/files-tmb\/TUU48M0T1-FVDDDM5NW-732b170610\/opencovid_banner_treatment_800.png?t=xoxe-980144714919-1031585465028-1034106672247-1815eabca44f30d1d2d966083f8c8bbb",
                "thumb_800_w": 800,
                "thumb_800_h": 259,
                "thumb_960": "https:\/\/files.slack.com\/files-tmb\/TUU48M0T1-FVDDDM5NW-732b170610\/opencovid_banner_treatment_960.png?t=xoxe-980144714919-1031585465028-1034106672247-1815eabca44f30d1d2d966083f8c8bbb",
                "thumb_960_w": 960,
                "thumb_960_h": 310,
                "thumb_1024": "https:\/\/files.slack.com\/files-tmb\/TUU48M0T1-FVDDDM5NW-732b170610\/opencovid_banner_treatment_1024.png?t=xoxe-980144714919-1031585465028-1034106672247-1815eabca44f30d1d2d966083f8c8bbb",
                "thumb_1024_w": 1024,
                "thumb_1024_h": 331,
                "image_exif_rotation": 1,
                "original_w": 5159,
                "original_h": 1668,
                "thumb_tiny": "AwAPADDMoqz9jb+8KPsbf3hTsx2ZXRd7BR3pCMMR6VZ+xt\/eFH2Nv7woswsytRVn7G394UfY2\/vCizCzP\/\/Z",
                "permalink": "https:\/\/open-covid19.slack.com\/files\/UV6PMT2DQ\/FVDDDM5NW\/opencovid_banner_treatment.png",
                "permalink_public": "https:\/\/slack-files.com\/TUU48M0T1-FVDDDM5NW-5d1fadd766",
                "is_starred": false,
                "has_rich_preview": false
            },
            {
                "id": "F010BP4L2Q4",
                "created": 1584632881,
                "timestamp": 1584632881,
                "name": "OpenCovid banner_diagnostic.png",
                "title": "OpenCovid banner_diagnostic.png",
                "mimetype": "image\/png",
                "filetype": "png",
                "pretty_type": "PNG",
                "user": "UV6PMT2DQ",
                "editable": false,
                "size": 98817,
                "mode": "hosted",
                "is_external": false,
                "external_type": "",
                "is_public": true,
                "public_url_shared": false,
                "display_as_bot": false,
                "username": "",
                "url_private": "https:\/\/files.slack.com\/files-pri\/TUU48M0T1-F010BP4L2Q4\/opencovid_banner_diagnostic.png?t=xoxe-980144714919-1031585465028-1034106672247-1815eabca44f30d1d2d966083f8c8bbb",
                "url_private_download": "https:\/\/files.slack.com\/files-pri\/TUU48M0T1-F010BP4L2Q4\/download\/opencovid_banner_diagnostic.png?t=xoxe-980144714919-1031585465028-1034106672247-1815eabca44f30d1d2d966083f8c8bbb",
                "thumb_64": "https:\/\/files.slack.com\/files-tmb\/TUU48M0T1-F010BP4L2Q4-98eadd2860\/opencovid_banner_diagnostic_64.png?t=xoxe-980144714919-1031585465028-1034106672247-1815eabca44f30d1d2d966083f8c8bbb",
                "thumb_80": "https:\/\/files.slack.com\/files-tmb\/TUU48M0T1-F010BP4L2Q4-98eadd2860\/opencovid_banner_diagnostic_80.png?t=xoxe-980144714919-1031585465028-1034106672247-1815eabca44f30d1d2d966083f8c8bbb",
                "thumb_360": "https:\/\/files.slack.com\/files-tmb\/TUU48M0T1-F010BP4L2Q4-98eadd2860\/opencovid_banner_diagnostic_360.png?t=xoxe-980144714919-1031585465028-1034106672247-1815eabca44f30d1d2d966083f8c8bbb",
                "thumb_360_w": 360,
                "thumb_360_h": 116,
                "thumb_480": "https:\/\/files.slack.com\/files-tmb\/TUU48M0T1-F010BP4L2Q4-98eadd2860\/opencovid_banner_diagnostic_480.png?t=xoxe-980144714919-1031585465028-1034106672247-1815eabca44f30d1d2d966083f8c8bbb",
                "thumb_480_w": 480,
                "thumb_480_h": 155,
                "thumb_160": "https:\/\/files.slack.com\/files-tmb\/TUU48M0T1-F010BP4L2Q4-98eadd2860\/opencovid_banner_diagnostic_160.png?t=xoxe-980144714919-1031585465028-1034106672247-1815eabca44f30d1d2d966083f8c8bbb",
                "thumb_720": "https:\/\/files.slack.com\/files-tmb\/TUU48M0T1-F010BP4L2Q4-98eadd2860\/opencovid_banner_diagnostic_720.png?t=xoxe-980144714919-1031585465028-1034106672247-1815eabca44f30d1d2d966083f8c8bbb",
                "thumb_720_w": 720,
                "thumb_720_h": 233,
                "thumb_800": "https:\/\/files.slack.com\/files-tmb\/TUU48M0T1-F010BP4L2Q4-98eadd2860\/opencovid_banner_diagnostic_800.png?t=xoxe-980144714919-1031585465028-1034106672247-1815eabca44f30d1d2d966083f8c8bbb",
                "thumb_800_w": 800,
                "thumb_800_h": 258,
                "thumb_960": "https:\/\/files.slack.com\/files-tmb\/TUU48M0T1-F010BP4L2Q4-98eadd2860\/opencovid_banner_diagnostic_960.png?t=xoxe-980144714919-1031585465028-1034106672247-1815eabca44f30d1d2d966083f8c8bbb",
                "thumb_960_w": 960,
                "thumb_960_h": 310,
                "thumb_1024": "https:\/\/files.slack.com\/files-tmb\/TUU48M0T1-F010BP4L2Q4-98eadd2860\/opencovid_banner_diagnostic_1024.png?t=xoxe-980144714919-1031585465028-1034106672247-1815eabca44f30d1d2d966083f8c8bbb",
                "thumb_1024_w": 1024,
                "thumb_1024_h": 331,
                "image_exif_rotation": 1,
                "original_w": 5159,
                "original_h": 1667,
                "thumb_tiny": "AwAPADDMoqx9lb+8KPsrf3hT5WK6K4oNWPsrf3hR9lb+8KLMLor0VY+yt\/eFH2Vv7wo5WF0f\/9k=",
                "permalink": "https:\/\/open-covid19.slack.com\/files\/UV6PMT2DQ\/F010BP4L2Q4\/opencovid_banner_diagnostic.png",
                "permalink_public": "https:\/\/slack-files.com\/TUU48M0T1-F010BP4L2Q4-c0da9d7ee6",
                "is_starred": false,
                "has_rich_preview": false
            }
        ],
        "upload": true,
        "blocks": [
            {
                "type": "rich_text",
                "block_id": "qpd",
                "elements": [
                    {
                        "type": "rich_text_section",
                        "elements": [
                            {
                                "type": "text",
                                "text": "For the banners I used [FUTURA] \/ Prevention (R250 V242 B5) Diagnostic (R44 V143 B254) Treatment (R245 V95 B243)"
                            }
                        ]
                    }
                ]
            }
        ],
        "user": "UV6PMT2DQ",
        "ts": "1584632902.118800",
        "client_msg_id": "66ec65a6-b141-48e5-849b-c14e103b9656"
    },
    {
        "client_msg_id": "45a870c1-e2e9-4b46-8c37-6d605bbfa6dd",
        "type": "message",
        "text": "hello! I am a graphic designer and game designer. I would love to contribute :slightly_smiling_face:",
        "user": "U010BHAPG3F",
        "ts": "1584633304.120800",
        "team": "TUU48M0T1",
        "user_team": "TUU48M0T1",
        "source_team": "TUU48M0T1",
        "user_profile": {
            "avatar_hash": "ga3e10157782",
            "image_72": "https:\/\/secure.gravatar.com\/avatar\/a3e1015778251ea7f8648407ce22631b.jpg?s=72&d=https%3A%2F%2Fa.slack-edge.com%2Fdf10d%2Fimg%2Favatars%2Fava_0024-72.png",
            "first_name": "",
            "real_name": "radhika_beaumé",
            "display_name": "radhika_beaumé",
            "team": "TUU48M0T1",
            "name": "radhika.beaume",
            "is_restricted": false,
            "is_ultra_restricted": false
        },
        "blocks": [
            {
                "type": "rich_text",
                "block_id": "sVVAg",
                "elements": [
                    {
                        "type": "rich_text_section",
                        "elements": [
                            {
                                "type": "text",
                                "text": "hello! I am a graphic designer and game designer. I would love to contribute "
                            },
                            {
                                "type": "emoji",
                                "name": "slightly_smiling_face"
                            }
                        ]
                    }
                ]
            }
        ]
    },
    {
        "client_msg_id": "FF78BA30-CC8A-4137-B756-676114D709D3",
        "type": "message",
        "text": "Would it be interesting\/relevant to make an education type game about the virus+health safety practices? I’d be up to work on that. Could keep those out-of-school kids occupied. ",
        "user": "UV76CQTB4",
        "ts": "1584635813.123600",
        "team": "TUU48M0T1",
        "user_team": "TUU48M0T1",
        "source_team": "TUU48M0T1",
        "user_profile": {
            "avatar_hash": "07668a20a751",
            "image_72": "https:\/\/avatars.slack-edge.com\/2020-03-17\/993297059666_07668a20a751afe52104_72.png",
            "first_name": "",
            "real_name": "Julie Legault",
            "display_name": "Julie Legault",
            "team": "TUU48M0T1",
            "name": "julie",
            "is_restricted": false,
            "is_ultra_restricted": false
        },
        "blocks": [
            {
                "type": "rich_text",
                "block_id": "QVU",
                "elements": [
                    {
                        "type": "rich_text_section",
                        "elements": [
                            {
                                "type": "text",
                                "text": "Would it be interesting\/relevant to make an education type game about the virus+health safety practices? I’d be up to work on that. Could keep those out-of-school kids occupied. "
                            }
                        ]
                    }
                ]
            }
        ],
        "thread_ts": "1584635813.123600",
        "reply_count": 10,
        "reply_users_count": 5,
        "latest_reply": "1584730468.130800",
        "reply_users": [
            "U0103128G4D",
            "UV76CQTB4",
            "UV02WET96",
            "UUWPKNE2E",
            "UV0QTJCMT"
        ],
        "replies": [
            {
                "user": "U0103128G4D",
                "ts": "1584636428.124300"
            },
            {
                "user": "U0103128G4D",
                "ts": "1584636438.124500"
            },
            {
                "user": "U0103128G4D",
                "ts": "1584636441.124700"
            },
            {
                "user": "UV76CQTB4",
                "ts": "1584636624.125400"
            },
            {
                "user": "UV02WET96",
                "ts": "1584655723.126600"
            },
            {
                "user": "UUWPKNE2E",
                "ts": "1584701417.127000"
            },
            {
                "user": "UV76CQTB4",
                "ts": "1584723508.129200"
            },
            {
                "user": "UV0QTJCMT",
                "ts": "1584726798.129500"
            },
            {
                "user": "UV02WET96",
                "ts": "1584726992.129800"
            },
            {
                "user": "UV76CQTB4",
                "ts": "1584730468.130800"
            }
        ],
        "subscribed": false,
        "reactions": [
            {
                "name": "star-struck",
                "users": [
                    "U010BMYLX36",
                    "UV2SC7ZE3",
                    "U0103128G4D",
                    "UV6PMT2DQ",
                    "UV02WET96"
                ],
                "count": 5
            },
            {
                "name": "+1",
                "users": [
                    "U010BHAPG3F"
                ],
                "count": 1
            }
        ]
    },
    {
        "client_msg_id": "21597573-1482-4c85-ab50-a7d6e9e8c18c",
        "type": "message",
        "text": "Highly recommend if you create that to join the Remote Academia workspace",
        "user": "U0103128G4D",
        "ts": "1584636428.124300",
        "team": "TUU48M0T1",
        "user_team": "TUU48M0T1",
        "source_team": "TUU48M0T1",
        "user_profile": {
            "avatar_hash": "g76b7a7fcf75",
            "image_72": "https:\/\/secure.gravatar.com\/avatar\/76b7a7fcf754c895c0bf9763dfdebde4.jpg?s=72&d=https%3A%2F%2Fa.slack-edge.com%2Fdf10d%2Fimg%2Favatars%2Fava_0005-72.png",
            "first_name": "",
            "real_name": "Melody Wu",
            "display_name": "Melody Wu",
            "team": "TUU48M0T1",
            "name": "melody_w",
            "is_restricted": false,
            "is_ultra_restricted": false
        },
        "blocks": [
            {
                "type": "rich_text",
                "block_id": "opF",
                "elements": [
                    {
                        "type": "rich_text_section",
                        "elements": [
                            {
                                "type": "text",
                                "text": "Highly recommend if you create that to join the Remote Academia workspace"
                            }
                        ]
                    }
                ]
            }
        ],
        "thread_ts": "1584635813.123600",
        "parent_user_id": "UV76CQTB4"
    },
    {
        "client_msg_id": "596660f4-e190-40ec-addd-d202a1dbd56c",
        "type": "message",
        "text": "There are lots of teachers\/profs providing resources on there",
        "user": "U0103128G4D",
        "ts": "1584636438.124500",
        "team": "TUU48M0T1",
        "user_team": "TUU48M0T1",
        "source_team": "TUU48M0T1",
        "user_profile": {
            "avatar_hash": "g76b7a7fcf75",
            "image_72": "https:\/\/secure.gravatar.com\/avatar\/76b7a7fcf754c895c0bf9763dfdebde4.jpg?s=72&d=https%3A%2F%2Fa.slack-edge.com%2Fdf10d%2Fimg%2Favatars%2Fava_0005-72.png",
            "first_name": "",
            "real_name": "Melody Wu",
            "display_name": "Melody Wu",
            "team": "TUU48M0T1",
            "name": "melody_w",
            "is_restricted": false,
            "is_ultra_restricted": false
        },
        "blocks": [
            {
                "type": "rich_text",
                "block_id": "ZvdQ4",
                "elements": [
                    {
                        "type": "rich_text_section",
                        "elements": [
                            {
                                "type": "text",
                                "text": "There are lots of teachers\/profs providing resources on there"
                            }
                        ]
                    }
                ]
            }
        ],
        "thread_ts": "1584635813.123600",
        "parent_user_id": "UV76CQTB4"
    },
    {
        "client_msg_id": "919f7060-c415-4999-88f9-fabdee74dc69",
        "type": "message",
        "text": "so you could recommend",
        "user": "U0103128G4D",
        "ts": "1584636441.124700",
        "team": "TUU48M0T1",
        "user_team": "TUU48M0T1",
        "source_team": "TUU48M0T1",
        "user_profile": {
            "avatar_hash": "g76b7a7fcf75",
            "image_72": "https:\/\/secure.gravatar.com\/avatar\/76b7a7fcf754c895c0bf9763dfdebde4.jpg?s=72&d=https%3A%2F%2Fa.slack-edge.com%2Fdf10d%2Fimg%2Favatars%2Fava_0005-72.png",
            "first_name": "",
            "real_name": "Melody Wu",
            "display_name": "Melody Wu",
            "team": "TUU48M0T1",
            "name": "melody_w",
            "is_restricted": false,
            "is_ultra_restricted": false
        },
        "blocks": [
            {
                "type": "rich_text",
                "block_id": "V9apL",
                "elements": [
                    {
                        "type": "rich_text_section",
                        "elements": [
                            {
                                "type": "text",
                                "text": "so you could recommend"
                            }
                        ]
                    }
                ]
            }
        ],
        "thread_ts": "1584635813.123600",
        "parent_user_id": "UV76CQTB4"
    },
    {
        "client_msg_id": "92EE5AD4-777D-44A7-8A54-6DA9A0EE731A",
        "type": "message",
        "text": "Thanks for that recommendation :blush: ",
        "user": "UV76CQTB4",
        "ts": "1584636624.125400",
        "team": "TUU48M0T1",
        "user_team": "TUU48M0T1",
        "source_team": "TUU48M0T1",
        "user_profile": {
            "avatar_hash": "07668a20a751",
            "image_72": "https:\/\/avatars.slack-edge.com\/2020-03-17\/993297059666_07668a20a751afe52104_72.png",
            "first_name": "",
            "real_name": "Julie Legault",
            "display_name": "Julie Legault",
            "team": "TUU48M0T1",
            "name": "julie",
            "is_restricted": false,
            "is_ultra_restricted": false
        },
        "blocks": [
            {
                "type": "rich_text",
                "block_id": "4Nb4w",
                "elements": [
                    {
                        "type": "rich_text_section",
                        "elements": [
                            {
                                "type": "text",
                                "text": "Thanks for that recommendation "
                            },
                            {
                                "type": "emoji",
                                "name": "blush"
                            },
                            {
                                "type": "text",
                                "text": " "
                            }
                        ]
                    }
                ]
            }
        ],
        "thread_ts": "1584635813.123600",
        "parent_user_id": "UV76CQTB4",
        "reactions": [
            {
                "name": "+1",
                "users": [
                    "U0103128G4D"
                ],
                "count": 1
            }
        ]
    },
    {
        "client_msg_id": "3fdf3efe-e924-445a-9910-36c0fe3122f3",
        "type": "message",
        "text": "<@UV76CQTB4> Definitely create a project on JOGL for that, with have several game designers such as <@U010BHAPG3F> in the community who I’m sure would love to contribute :+1:",
        "user": "UV02WET96",
        "ts": "1584655723.126600",
        "team": "TUU48M0T1",
        "user_team": "TUU48M0T1",
        "source_team": "TUU48M0T1",
        "user_profile": {
            "avatar_hash": "a99c74a194f8",
            "image_72": "https:\/\/avatars.slack-edge.com\/2020-03-07\/975708504851_a99c74a194f86715ca7d_72.png",
            "first_name": "Thomas",
            "real_name": "Thomas Landrain",
            "display_name": "Thomas Landrain - CoFounder\/CEO JOGL",
            "team": "TUU48M0T1",
            "name": "thomas",
            "is_restricted": false,
            "is_ultra_restricted": false
        },
        "blocks": [
            {
                "type": "rich_text",
                "block_id": "rrZOr",
                "elements": [
                    {
                        "type": "rich_text_section",
                        "elements": [
                            {
                                "type": "user",
                                "user_id": "UV76CQTB4"
                            },
                            {
                                "type": "text",
                                "text": " Definitely create a project on JOGL for that, with have several game designers such as "
                            },
                            {
                                "type": "user",
                                "user_id": "U010BHAPG3F"
                            },
                            {
                                "type": "text",
                                "text": " in the community who I’m sure would love to contribute "
                            },
                            {
                                "type": "emoji",
                                "name": "+1"
                            }
                        ]
                    }
                ]
            }
        ],
        "thread_ts": "1584635813.123600",
        "parent_user_id": "UV76CQTB4",
        "reactions": [
            {
                "name": "+1",
                "users": [
                    "U010BHAPG3F"
                ],
                "count": 1
            }
        ]
    }
]