[
    {
        "client_msg_id": "8492da1a-2059-4567-993e-49938f7c3ef7",
        "type": "message",
        "text": "Hi Suraj welcome to the group",
        "user": "UVA46RKLY",
        "ts": "1584946494.000400",
        "team": "TUU48M0T1",
        "user_team": "TUU48M0T1",
        "source_team": "TUU48M0T1",
        "user_profile": {
            "avatar_hash": "8d10ec5a9437",
            "image_72": "https:\/\/avatars.slack-edge.com\/2020-03-12\/996164491840_8d10ec5a943740f34518_72.jpg",
            "first_name": "Nivedita",
            "real_name": "Nivedita Bhattacharya",
            "display_name": "Nivi",
            "team": "TUU48M0T1",
            "name": "evaladybrave",
            "is_restricted": false,
            "is_ultra_restricted": false
        },
        "blocks": [
            {
                "type": "rich_text",
                "block_id": "w8odC",
                "elements": [
                    {
                        "type": "rich_text_section",
                        "elements": [
                            {
                                "type": "text",
                                "text": "Hi Suraj welcome to the group"
                            }
                        ]
                    }
                ]
            }
        ]
    }
]