[
    {
        "type": "message",
        "subtype": "channel_join",
        "ts": "1584196266.000200",
        "user": "U0100EPL9RT",
        "text": "<@U0100EPL9RT> has joined the channel"
    },
    {
        "type": "message",
        "subtype": "channel_join",
        "ts": "1584222335.000400",
        "user": "U0100BF93LY",
        "text": "<@U0100BF93LY> has joined the channel"
    },
    {
        "client_msg_id": "3e4ba4bf-8e51-417b-abf9-b5f19bb55e45",
        "type": "message",
        "text": "I'm a very strong believer that, like with HIV, strong saline environments are essential for viral RNA deactivation. At least with greater correlation than temperature. I have two premises to believe that:\n*a) Empirical evidence:* Most media outlets say that the virus is non-infectious at ~26ºC, but then it thrives in a human body at 37ºC.\n*b) Statistical thermodynamics evidence:* PCR heating cycles. The logic of denaturation and annealing. Single RNA structures show way more reversibility than double-helical structures, so I would say temperature is not a deactivator",
        "user": "U0100BF93LY",
        "ts": "1584222633.004300",
        "team": "TUU48M0T1",
        "user_team": "TUU48M0T1",
        "source_team": "TUU48M0T1",
        "user_profile": {
            "avatar_hash": "7290646a8195",
            "image_72": "https:\/\/avatars.slack-edge.com\/2020-03-14\/1002603752278_7290646a8195e8171ad5_72.jpg",
            "first_name": "Bruno",
            "real_name": "Bruno Guerreiro",
            "display_name": "Bruno Guerreiro",
            "team": "TUU48M0T1",
            "name": "bm.guerreiro",
            "is_restricted": false,
            "is_ultra_restricted": false
        },
        "edited": {
            "user": "U0100BF93LY",
            "ts": "1584222643.000000"
        },
        "blocks": [
            {
                "type": "rich_text",
                "block_id": "BLJFl",
                "elements": [
                    {
                        "type": "rich_text_section",
                        "elements": [
                            {
                                "type": "text",
                                "text": "I'm a very strong believer that, like with HIV, strong saline environments are essential for viral RNA deactivation. At least with greater correlation than temperature. I have two premises to believe that:\n"
                            },
                            {
                                "type": "text",
                                "text": "a) Empirical evidence: ",
                                "style": {
                                    "bold": true
                                }
                            },
                            {
                                "type": "text",
                                "text": "Most media outlets say that the virus is non-infectious at ~26ºC, but then it thrives in a human body at 37ºC.\n"
                            },
                            {
                                "type": "text",
                                "text": "b) Statistical thermodynamics evidence: ",
                                "style": {
                                    "bold": true
                                }
                            },
                            {
                                "type": "text",
                                "text": "PCR heating cycles. The logic of denaturation and annealing. Single RNA structures show way more reversibility than double-helical structures, so I would say temperature is not a deactivator"
                            }
                        ]
                    }
                ]
            }
        ]
    },
    {
        "type": "message",
        "subtype": "channel_join",
        "ts": "1584224916.004600",
        "user": "U01009BMH52",
        "text": "<@U01009BMH52> has joined the channel"
    },
    {
        "client_msg_id": "3f80a68c-1eec-4549-b9d8-90038ac4a7d6",
        "type": "message",
        "text": "Good point <@U0100BF93LY>! If ever you come across any publications\/articles about salinity please share!",
        "user": "UV20M5HGQ",
        "ts": "1584230803.005200",
        "team": "TUU48M0T1",
        "user_team": "TUU48M0T1",
        "source_team": "TUU48M0T1",
        "user_profile": {
            "avatar_hash": "de7ea7b7e14e",
            "image_72": "https:\/\/avatars.slack-edge.com\/2020-03-11\/981865374050_de7ea7b7e14e7b4316b9_72.jpg",
            "first_name": "",
            "real_name": "Vesta Korniakova",
            "display_name": "Vesta Korniakova",
            "team": "TUU48M0T1",
            "name": "riboswitchvesta",
            "is_restricted": false,
            "is_ultra_restricted": false
        },
        "blocks": [
            {
                "type": "rich_text",
                "block_id": "Vfyw",
                "elements": [
                    {
                        "type": "rich_text_section",
                        "elements": [
                            {
                                "type": "text",
                                "text": "Good point "
                            },
                            {
                                "type": "user",
                                "user_id": "U0100BF93LY"
                            },
                            {
                                "type": "text",
                                "text": "! If ever you come across any publications\/articles about salinity please share!"
                            }
                        ]
                    }
                ]
            }
        ],
        "thread_ts": "1584230803.005200",
        "reply_count": 1,
        "reply_users_count": 1,
        "latest_reply": "1584359583.009500",
        "reply_users": [
            "UV4EY2049"
        ],
        "replies": [
            {
                "user": "UV4EY2049",
                "ts": "1584359583.009500"
            }
        ],
        "subscribed": false
    },
    {
        "type": "message",
        "subtype": "channel_join",
        "ts": "1584232174.005400",
        "user": "UVC39L18D",
        "text": "<@UVC39L18D> has joined the channel"
    },
    {
        "type": "message",
        "subtype": "channel_join",
        "ts": "1584252348.005600",
        "user": "UVDTYV2MT",
        "text": "<@UVDTYV2MT> has joined the channel"
    }
]