[
    {
        "type": "message",
        "subtype": "channel_join",
        "ts": "1584434508.009500",
        "user": "U0101DKUALV",
        "text": "<@U0101DKUALV> has joined the channel"
    },
    {
        "client_msg_id": "e83d86cf-a58b-4f6e-b189-d9986e7a17bb",
        "type": "message",
        "text": "Hello! I am Pauline, a B.S. Chemical Biology graduate from UC Berkeley who is (was....?) working as a lab technician in a Seattle brewery. The pandemic has hit Seattle hard and put a lot of jobs and businesses in jeopardy, including mine, possibly...\n\nMy experience and skills are a bit of a mixed basket, going from doing quasi-meta-analyses for a supplements company to metalloprotein characterization to data cleanup in large databases, and even briefly running a pseudonymic bad science art account, but through all those adventures I find I can learn quickly and can't sit still... at all. After struggling to decide what to do for a long term career, I've currently settled on automation in QA\/QC processes and am in the process of taking classes and getting admitted into a certificate, then hopefully Master's program.\n\nWith my employment at risk and lots of free time, I figure I might as well put all this light reading I'm done on COVID-19 to good use! Please let me know if there are tasks, big or small, I can help with -- my ultimate hope is seeing us produce \/results\/ and \/progress\/ to flattening this darn curve!",
        "user": "U0101DKUALV",
        "ts": "1584435061.015200",
        "team": "TUU48M0T1",
        "user_team": "TUU48M0T1",
        "source_team": "TUU48M0T1",
        "user_profile": {
            "avatar_hash": "gac6154e1c22",
            "image_72": "https:\/\/secure.gravatar.com\/avatar\/ac6154e1c224ad644230148686eca456.jpg?s=72&d=https%3A%2F%2Fa.slack-edge.com%2Fdf10d%2Fimg%2Favatars%2Fava_0024-72.png",
            "first_name": "",
            "real_name": "Pauline Chane",
            "display_name": "Pauline Chane",
            "team": "TUU48M0T1",
            "name": "pauline.chane",
            "is_restricted": false,
            "is_ultra_restricted": false
        },
        "edited": {
            "user": "U0101DKUALV",
            "ts": "1584435138.000000"
        },
        "blocks": [
            {
                "type": "rich_text",
                "block_id": "j4Sh3",
                "elements": [
                    {
                        "type": "rich_text_section",
                        "elements": [
                            {
                                "type": "text",
                                "text": "Hello! I am Pauline, a B.S. Chemical Biology graduate from UC Berkeley who is (was....?) working as a lab technician in a Seattle brewery. The pandemic has hit Seattle hard and put a lot of jobs and businesses in jeopardy, including mine, possibly...\n\nMy experience and skills are a bit of a mixed basket, going from doing quasi-meta-analyses for a supplements company to metalloprotein characterization to data cleanup in large databases, and even briefly running a pseudonymic bad science art account, but through all those adventures I find I can learn quickly and can't sit still... at all. After struggling to decide what to do for a long term career, I've currently settled on automation in QA\/QC processes and am in the process of taking classes and getting admitted into a certificate, then hopefully Master's program.\n\nWith my employment at risk and lots of free time, I figure I might as well put all this light reading I'm done on COVID-19 to good use! Please let me know if there are tasks, big or small, I can help with -- my ultimate hope is seeing us produce \/results\/ and \/progress\/ to flattening this darn curve!"
                            }
                        ]
                    }
                ]
            }
        ],
        "reactions": [
            {
                "name": "clap",
                "users": [
                    "U01012QS8J0",
                    "UV8AZ6ABC",
                    "UV2SC7ZE3",
                    "U010AGDDEBZ"
                ],
                "count": 4
            }
        ]
    },
    {
        "type": "message",
        "subtype": "channel_join",
        "ts": "1584442727.015800",
        "user": "U01044P6YH5",
        "text": "<@U01044P6YH5> has joined the channel"
    },
    {
        "type": "message",
        "subtype": "channel_join",
        "ts": "1584447944.016000",
        "user": "UV6LNPJ3C",
        "text": "<@UV6LNPJ3C> has joined the channel"
    },
    {
        "type": "message",
        "subtype": "channel_join",
        "ts": "1584461994.016300",
        "user": "U0105Q00ACQ",
        "text": "<@U0105Q00ACQ> has joined the channel"
    },
    {
        "client_msg_id": "0a643986-9f3f-4556-bf5e-e89471b1a169",
        "type": "message",
        "text": "Excellent, glad to have you around guys! I will bring up some scope of what we can do and what help we need at the online meetup tomorrow, make sure to tune in!\n\nBasically the first idea is to use the opportunity to have the collective intelligence activated on JOGL to collect data about it, analyse it and represent it.  Why do people come on JOGL? Do people easily find how to engage? How many steps until they engage? When do they get in slack and how do they interact in there? What creates peaks in activity, how does the community self organise and sustain its activity?\n\nFor this we can use:\n\n—&gt;  *Questionnaires* sent to members to better understand the “user experience” towards impact.\n*NEED*: UX designer, social science background, questionnaire design…\n\n*—&gt; digital data*\n\t==&gt; slack\n\t==&gt; JOGL data:\n*NEED:* Slack API proficient person,  elastic search expert\n\n*—&gt; a dashboard for data visualisation (graphs, networks)*\n*NEED*: *bokeh react* developer?",
        "user": "UV85V64SD",
        "ts": "1584473692.019200",
        "team": "TUU48M0T1",
        "user_team": "TUU48M0T1",
        "source_team": "TUU48M0T1",
        "user_profile": {
            "avatar_hash": "1e73a651bdfe",
            "image_72": "https:\/\/avatars.slack-edge.com\/2020-03-16\/1004297548853_1e73a651bdfef2c41501_72.jpg",
            "first_name": "Marc",
            "real_name": "Marc Santolini",
            "display_name": "Marc Santolini - CoFounder \/ CSO JOGL",
            "team": "TUU48M0T1",
            "name": "marc.santolini",
            "is_restricted": false,
            "is_ultra_restricted": false
        },
        "edited": {
            "user": "UV85V64SD",
            "ts": "1584474029.000000"
        },
        "blocks": [
            {
                "type": "rich_text",
                "block_id": "W=SmA",
                "elements": [
                    {
                        "type": "rich_text_section",
                        "elements": [
                            {
                                "type": "text",
                                "text": "Excellent, glad to have you around guys! I will bring up some scope of what we can do and what help we need at the online meetup tomorrow, make sure to tune in!\n\nBasically the first idea is to use the opportunity to have the collective intelligence activated on JOGL to collect data about it, analyse it and represent it.  Why do people come on JOGL? Do people easily find how to engage? How many steps until they engage? When do they get in slack and how do they interact in there? What creates peaks in activity, how does the community self organise and sustain its activity?\n\nFor this we can use:\n\n—>  "
                            },
                            {
                                "type": "text",
                                "text": "Questionnaires",
                                "style": {
                                    "bold": true
                                }
                            },
                            {
                                "type": "text",
                                "text": " sent to members to better understand the “user experience” towards impact.\n"
                            },
                            {
                                "type": "text",
                                "text": "NEED",
                                "style": {
                                    "bold": true
                                }
                            },
                            {
                                "type": "text",
                                "text": ": UX designer, social science background, questionnaire design…\n\n"
                            },
                            {
                                "type": "text",
                                "text": "—> digital data",
                                "style": {
                                    "bold": true
                                }
                            },
                            {
                                "type": "text",
                                "text": "\n\t==> slack\n\t==> JOGL data:\n"
                            },
                            {
                                "type": "text",
                                "text": "NEED: ",
                                "style": {
                                    "bold": true
                                }
                            },
                            {
                                "type": "text",
                                "text": "Slack API proficient person,  elastic search expert\n\n"
                            },
                            {
                                "type": "text",
                                "text": "—> a dashboard for data visualisation (graphs, networks)",
                                "style": {
                                    "bold": true
                                }
                            },
                            {
                                "type": "text",
                                "text": "\n"
                            },
                            {
                                "type": "text",
                                "text": "NEED",
                                "style": {
                                    "bold": true
                                }
                            },
                            {
                                "type": "text",
                                "text": ": "
                            },
                            {
                                "type": "text",
                                "text": "bokeh react",
                                "style": {
                                    "bold": true
                                }
                            },
                            {
                                "type": "text",
                                "text": " developer?"
                            }
                        ]
                    }
                ]
            }
        ],
        "thread_ts": "1584473692.019200",
        "reply_count": 10,
        "reply_users_count": 4,
        "latest_reply": "1584519982.024200",
        "reply_users": [
            "U0101DKUALV",
            "UV85V64SD",
            "U01012QS8J0",
            "UV8AZ6ABC"
        ],
        "replies": [
            {
                "user": "U0101DKUALV",
                "ts": "1584475517.019600"
            },
            {
                "user": "UV85V64SD",
                "ts": "1584481189.019800"
            },
            {
                "user": "U0101DKUALV",
                "ts": "1584481670.021400"
            },
            {
                "user": "U01012QS8J0",
                "ts": "1584483678.022400"
            },
            {
                "user": "UV8AZ6ABC",
                "ts": "1584483871.022900"
            },
            {
                "user": "U01012QS8J0",
                "ts": "1584484198.023100"
            },
            {
                "user": "UV8AZ6ABC",
                "ts": "1584484357.023300"
            },
            {
                "user": "UV8AZ6ABC",
                "ts": "1584484417.023500"
            },
            {
                "user": "U0101DKUALV",
                "ts": "1584485155.023900"
            },
            {
                "user": "UV85V64SD",
                "ts": "1584519982.024200"
            }
        ],
        "subscribed": false
    },
    {
        "client_msg_id": "0c936a8d-d653-4066-9774-3a12b1c9c4f1",
        "type": "message",
        "text": "Hello, on a small scale I have been collecting data from event attendance for a women in a STEM organization I volunteer for and analyzing data about our mailing list, with also some experience identifying prospects from a previous job. I may be able to help with the first need?",
        "user": "U0101DKUALV",
        "ts": "1584475517.019600",
        "team": "TUU48M0T1",
        "user_team": "TUU48M0T1",
        "source_team": "TUU48M0T1",
        "user_profile": {
            "avatar_hash": "gac6154e1c22",
            "image_72": "https:\/\/secure.gravatar.com\/avatar\/ac6154e1c224ad644230148686eca456.jpg?s=72&d=https%3A%2F%2Fa.slack-edge.com%2Fdf10d%2Fimg%2Favatars%2Fava_0024-72.png",
            "first_name": "",
            "real_name": "Pauline Chane",
            "display_name": "Pauline Chane",
            "team": "TUU48M0T1",
            "name": "pauline.chane",
            "is_restricted": false,
            "is_ultra_restricted": false
        },
        "blocks": [
            {
                "type": "rich_text",
                "block_id": "md1U",
                "elements": [
                    {
                        "type": "rich_text_section",
                        "elements": [
                            {
                                "type": "text",
                                "text": "Hello, on a small scale I have been collecting data from event attendance for a women in a STEM organization I volunteer for and analyzing data about our mailing list, with also some experience identifying prospects from a previous job. I may be able to help with the first need?"
                            }
                        ]
                    }
                ]
            }
        ],
        "thread_ts": "1584473692.019200",
        "parent_user_id": "UV85V64SD"
    },
    {
        "client_msg_id": "ea3df315-9ccc-4f9a-bfec-2766f0ee5c55",
        "type": "message",
        "text": "great! indeed :slightly_smiling_face: are you attending tomorrow’s call?",
        "user": "UV85V64SD",
        "ts": "1584481189.019800",
        "team": "TUU48M0T1",
        "user_team": "TUU48M0T1",
        "source_team": "TUU48M0T1",
        "user_profile": {
            "avatar_hash": "1e73a651bdfe",
            "image_72": "https:\/\/avatars.slack-edge.com\/2020-03-16\/1004297548853_1e73a651bdfef2c41501_72.jpg",
            "first_name": "Marc",
            "real_name": "Marc Santolini",
            "display_name": "Marc Santolini - CoFounder \/ CSO JOGL",
            "team": "TUU48M0T1",
            "name": "marc.santolini",
            "is_restricted": false,
            "is_ultra_restricted": false
        },
        "blocks": [
            {
                "type": "rich_text",
                "block_id": "8EohC",
                "elements": [
                    {
                        "type": "rich_text_section",
                        "elements": [
                            {
                                "type": "text",
                                "text": "great! indeed "
                            },
                            {
                                "type": "emoji",
                                "name": "slightly_smiling_face"
                            },
                            {
                                "type": "text",
                                "text": " are you attending tomorrow’s call?"
                            }
                        ]
                    }
                ]
            }
        ],
        "thread_ts": "1584473692.019200",
        "parent_user_id": "UV85V64SD"
    },
    {
        "type": "message",
        "subtype": "channel_join",
        "ts": "1584481330.020100",
        "user": "U01075QTUBX",
        "text": "<@U01075QTUBX> has joined the channel"
    },
    {
        "type": "message",
        "subtype": "channel_join",
        "ts": "1584481610.020300",
        "user": "UV8AZ6ABC",
        "text": "<@UV8AZ6ABC> has joined the channel"
    },
    {
        "client_msg_id": "aace6c84-54c2-4c4d-885c-15c2bb3836fa",
        "type": "message",
        "text": "Possibly? I'm new to Slack and having trouble finding the info I need, what time is it? I will have to be gone around late afternoon my time to take an online final.",
        "user": "U0101DKUALV",
        "ts": "1584481670.021400",
        "team": "TUU48M0T1",
        "user_team": "TUU48M0T1",
        "source_team": "TUU48M0T1",
        "user_profile": {
            "avatar_hash": "gac6154e1c22",
            "image_72": "https:\/\/secure.gravatar.com\/avatar\/ac6154e1c224ad644230148686eca456.jpg?s=72&d=https%3A%2F%2Fa.slack-edge.com%2Fdf10d%2Fimg%2Favatars%2Fava_0024-72.png",
            "first_name": "",
            "real_name": "Pauline Chane",
            "display_name": "Pauline Chane",
            "team": "TUU48M0T1",
            "name": "pauline.chane",
            "is_restricted": false,
            "is_ultra_restricted": false
        },
        "blocks": [
            {
                "type": "rich_text",
                "block_id": "Dsq",
                "elements": [
                    {
                        "type": "rich_text_section",
                        "elements": [
                            {
                                "type": "text",
                                "text": "Possibly? I'm new to Slack and having trouble finding the info I need, what time is it? I will have to be gone around late afternoon my time to take an online final."
                            }
                        ]
                    }
                ]
            }
        ],
        "thread_ts": "1584473692.019200",
        "parent_user_id": "UV85V64SD"
    },
    {
        "client_msg_id": "7addc3ec-4a40-4f35-976e-40bde5cd9236",
        "type": "message",
        "text": "Hi there! I'm a ux design researcher currently working with data viz and quali analysis",
        "user": "UV8AZ6ABC",
        "ts": "1584481705.022300",
        "team": "TUU48M0T1",
        "user_team": "TUU48M0T1",
        "source_team": "TUU48M0T1",
        "user_profile": {
            "avatar_hash": "b4d8c336125b",
            "image_72": "https:\/\/avatars.slack-edge.com\/2020-03-17\/1006719750788_b4d8c336125bdcf987eb_72.jpg",
            "first_name": "Juliana",
            "real_name": "Juliana Cavalheiro",
            "display_name": "Juliana Cavalheiro",
            "team": "TUU48M0T1",
            "name": "ju.cavalheiro",
            "is_restricted": false,
            "is_ultra_restricted": false
        },
        "blocks": [
            {
                "type": "rich_text",
                "block_id": "vjX5c",
                "elements": [
                    {
                        "type": "rich_text_section",
                        "elements": [
                            {
                                "type": "text",
                                "text": "Hi there! I'm a ux design researcher currently working with data viz and quali analysis"
                            }
                        ]
                    }
                ]
            }
        ],
        "reactions": [
            {
                "name": "wave",
                "users": [
                    "U01012QS8J0"
                ],
                "count": 1
            },
            {
                "name": "flag-br",
                "users": [
                    "U01012QS8J0"
                ],
                "count": 1
            },
            {
                "name": "question",
                "users": [
                    "U01012QS8J0"
                ],
                "count": 1
            }
        ]
    },
    {
        "client_msg_id": "bf23cdbe-7d40-489f-87af-7d9e436a32ae",
        "type": "message",
        "text": "I addition I would say we can use the questionnaire to get a sense of the general community, but also as a screener to get participants for in-depth interviews to dig deeper into their motivations, expectations and experiences.\n\n<@UV8AZ6ABC> I’m also a design researcher and would love to collaborate with you on this :wink:",
        "user": "U01012QS8J0",
        "ts": "1584483678.022400",
        "team": "TUU48M0T1",
        "user_team": "TUU48M0T1",
        "source_team": "TUU48M0T1",
        "user_profile": {
            "avatar_hash": "d13f0bd2fe10",
            "image_72": "https:\/\/avatars.slack-edge.com\/2020-03-15\/1001580885461_d13f0bd2fe1003227a1e_72.png",
            "first_name": "William",
            "real_name": "William S. G.",
            "display_name": "William",
            "team": "TUU48M0T1",
            "name": "williamgeorg",
            "is_restricted": false,
            "is_ultra_restricted": false
        },
        "blocks": [
            {
                "type": "rich_text",
                "block_id": "heUcq",
                "elements": [
                    {
                        "type": "rich_text_section",
                        "elements": [
                            {
                                "type": "text",
                                "text": "I addition I would say we can use the questionnaire to get a sense of the general community, but also as a screener to get participants for in-depth interviews to dig deeper into their motivations, expectations and experiences.\n\n"
                            },
                            {
                                "type": "user",
                                "user_id": "UV8AZ6ABC"
                            },
                            {
                                "type": "text",
                                "text": " I’m also a design researcher and would love to collaborate with you on this "
                            },
                            {
                                "type": "emoji",
                                "name": "wink"
                            }
                        ]
                    }
                ]
            }
        ],
        "thread_ts": "1584473692.019200",
        "parent_user_id": "UV85V64SD"
    },
    {
        "client_msg_id": "3d0da29d-4233-48c6-b7dd-03e8aca351b4",
        "type": "message",
        "text": "do we already have a calendar\/roadmap for this project? are we going to meet to organize this?\n\nyep, we can work together on this, for sure!",
        "user": "UV8AZ6ABC",
        "ts": "1584483871.022900",
        "team": "TUU48M0T1",
        "user_team": "TUU48M0T1",
        "source_team": "TUU48M0T1",
        "user_profile": {
            "avatar_hash": "b4d8c336125b",
            "image_72": "https:\/\/avatars.slack-edge.com\/2020-03-17\/1006719750788_b4d8c336125bdcf987eb_72.jpg",
            "first_name": "Juliana",
            "real_name": "Juliana Cavalheiro",
            "display_name": "Juliana Cavalheiro",
            "team": "TUU48M0T1",
            "name": "ju.cavalheiro",
            "is_restricted": false,
            "is_ultra_restricted": false
        },
        "blocks": [
            {
                "type": "rich_text",
                "block_id": "o8CF",
                "elements": [
                    {
                        "type": "rich_text_section",
                        "elements": [
                            {
                                "type": "text",
                                "text": "do we already have a calendar\/roadmap for this project? are we going to meet to organize this?\n\nyep, we can work together on this, for sure!"
                            }
                        ]
                    }
                ]
            }
        ],
        "thread_ts": "1584473692.019200",
        "parent_user_id": "UV85V64SD"
    },
    {
        "client_msg_id": "30adc62e-e292-40a8-8429-e43c945f0bfc",
        "type": "message",
        "text": "<@UV8AZ6ABC> I don’t think we do. Probably to be defined during \/ after our meetup tomorrow. We may need a separate meeting for the metastudy to organize this workstream specifically.",
        "user": "U01012QS8J0",
        "ts": "1584484198.023100",
        "team": "TUU48M0T1",
        "user_team": "TUU48M0T1",
        "source_team": "TUU48M0T1",
        "user_profile": {
            "avatar_hash": "d13f0bd2fe10",
            "image_72": "https:\/\/avatars.slack-edge.com\/2020-03-15\/1001580885461_d13f0bd2fe1003227a1e_72.png",
            "first_name": "William",
            "real_name": "William S. G.",
            "display_name": "William",
            "team": "TUU48M0T1",
            "name": "williamgeorg",
            "is_restricted": false,
            "is_ultra_restricted": false
        },
        "blocks": [
            {
                "type": "rich_text",
                "block_id": "tTuI",
                "elements": [
                    {
                        "type": "rich_text_section",
                        "elements": [
                            {
                                "type": "user",
                                "user_id": "UV8AZ6ABC"
                            },
                            {
                                "type": "text",
                                "text": " I don’t think we do. Probably to be defined during \/ after our meetup tomorrow. We may need a separate meeting for the metastudy to organize this workstream specifically."
                            }
                        ]
                    }
                ]
            }
        ],
        "thread_ts": "1584473692.019200",
        "parent_user_id": "UV85V64SD"
    },
    {
        "client_msg_id": "81db51e6-cd46-4e73-a8ad-a37f4b72fd0d",
        "type": "message",
        "text": "yep, I agree\ncould you share with me the meetup time plz?",
        "user": "UV8AZ6ABC",
        "ts": "1584484357.023300",
        "team": "TUU48M0T1",
        "user_team": "TUU48M0T1",
        "source_team": "TUU48M0T1",
        "user_profile": {
            "avatar_hash": "b4d8c336125b",
            "image_72": "https:\/\/avatars.slack-edge.com\/2020-03-17\/1006719750788_b4d8c336125bdcf987eb_72.jpg",
            "first_name": "Juliana",
            "real_name": "Juliana Cavalheiro",
            "display_name": "Juliana Cavalheiro",
            "team": "TUU48M0T1",
            "name": "ju.cavalheiro",
            "is_restricted": false,
            "is_ultra_restricted": false
        },
        "blocks": [
            {
                "type": "rich_text",
                "block_id": "n1p",
                "elements": [
                    {
                        "type": "rich_text_section",
                        "elements": [
                            {
                                "type": "text",
                                "text": "yep, I agree\ncould you share with me the meetup time plz?"
                            }
                        ]
                    }
                ]
            }
        ],
        "thread_ts": "1584473692.019200",
        "parent_user_id": "UV85V64SD"
    },
    {
        "client_msg_id": "05a514b6-acc4-461d-9b58-be6c4aced6e7",
        "type": "message",
        "text": "thank you a lot :)",
        "user": "UV8AZ6ABC",
        "ts": "1584484417.023500",
        "team": "TUU48M0T1",
        "user_team": "TUU48M0T1",
        "source_team": "TUU48M0T1",
        "user_profile": {
            "avatar_hash": "b4d8c336125b",
            "image_72": "https:\/\/avatars.slack-edge.com\/2020-03-17\/1006719750788_b4d8c336125bdcf987eb_72.jpg",
            "first_name": "Juliana",
            "real_name": "Juliana Cavalheiro",
            "display_name": "Juliana Cavalheiro",
            "team": "TUU48M0T1",
            "name": "ju.cavalheiro",
            "is_restricted": false,
            "is_ultra_restricted": false
        },
        "blocks": [
            {
                "type": "rich_text",
                "block_id": "Dsv\/",
                "elements": [
                    {
                        "type": "rich_text_section",
                        "elements": [
                            {
                                "type": "text",
                                "text": "thank you a lot :)"
                            }
                        ]
                    }
                ]
            }
        ],
        "thread_ts": "1584473692.019200",
        "parent_user_id": "UV85V64SD",
        "reactions": [
            {
                "name": "+1",
                "users": [
                    "U01012QS8J0",
                    "U0101DKUALV"
                ],
                "count": 2
            }
        ]
    },
    {
        "client_msg_id": "8805d94a-e211-4987-b77a-6390c8c19342",
        "type": "message",
        "text": "Hi, which call will this be discussed in and what time?",
        "user": "U0101DKUALV",
        "ts": "1584485155.023900",
        "team": "TUU48M0T1",
        "user_team": "TUU48M0T1",
        "source_team": "TUU48M0T1",
        "user_profile": {
            "avatar_hash": "gac6154e1c22",
            "image_72": "https:\/\/secure.gravatar.com\/avatar\/ac6154e1c224ad644230148686eca456.jpg?s=72&d=https%3A%2F%2Fa.slack-edge.com%2Fdf10d%2Fimg%2Favatars%2Fava_0024-72.png",
            "first_name": "",
            "real_name": "Pauline Chane",
            "display_name": "Pauline Chane",
            "team": "TUU48M0T1",
            "name": "pauline.chane",
            "is_restricted": false,
            "is_ultra_restricted": false
        },
        "blocks": [
            {
                "type": "rich_text",
                "block_id": "Z=N=3",
                "elements": [
                    {
                        "type": "rich_text_section",
                        "elements": [
                            {
                                "type": "text",
                                "text": "Hi, which call will this be discussed in and what time?"
                            }
                        ]
                    }
                ]
            }
        ],
        "thread_ts": "1584473692.019200",
        "parent_user_id": "UV85V64SD"
    }
]