[
    {
        "client_msg_id": "f7b26746-0f01-43d4-91c8-618695434a88",
        "type": "message",
        "text": "<https:\/\/www.nuova.de\/en\/medical-oxygen-sensors.html>",
        "user": "U0108DWH5NH",
        "ts": "1584779410.083900",
        "team": "TUU48M0T1",
        "user_team": "TUU48M0T1",
        "source_team": "TUU48M0T1",
        "user_profile": {
            "avatar_hash": "gd582b07cb4c",
            "image_72": "https:\/\/secure.gravatar.com\/avatar\/d582b07cb4cff8ecfdf7095f4f4eefc5.jpg?s=72&d=https%3A%2F%2Fa.slack-edge.com%2Fdf10d%2Fimg%2Favatars%2Fava_0025-72.png",
            "first_name": "",
            "real_name": "Juraj Marak",
            "display_name": "Juraj Marak",
            "team": "TUU48M0T1",
            "name": "kukulo2011",
            "is_restricted": false,
            "is_ultra_restricted": false
        },
        "blocks": [
            {
                "type": "rich_text",
                "block_id": "8wnlW",
                "elements": [
                    {
                        "type": "rich_text_section",
                        "elements": [
                            {
                                "type": "link",
                                "url": "https:\/\/www.nuova.de\/en\/medical-oxygen-sensors.html"
                            }
                        ]
                    }
                ]
            }
        ],
        "thread_ts": "1584747678.082100",
        "parent_user_id": "U010B4EJG2C"
    },
    {
        "client_msg_id": "fb1c6905-1597-4ded-83a4-9940115741f5",
        "type": "message",
        "text": "<https:\/\/www.alibaba.com\/showroom\/medical-oxygen-sensor.html>",
        "user": "U0108DWH5NH",
        "ts": "1584779490.084100",
        "team": "TUU48M0T1",
        "user_team": "TUU48M0T1",
        "source_team": "TUU48M0T1",
        "user_profile": {
            "avatar_hash": "gd582b07cb4c",
            "image_72": "https:\/\/secure.gravatar.com\/avatar\/d582b07cb4cff8ecfdf7095f4f4eefc5.jpg?s=72&d=https%3A%2F%2Fa.slack-edge.com%2Fdf10d%2Fimg%2Favatars%2Fava_0025-72.png",
            "first_name": "",
            "real_name": "Juraj Marak",
            "display_name": "Juraj Marak",
            "team": "TUU48M0T1",
            "name": "kukulo2011",
            "is_restricted": false,
            "is_ultra_restricted": false
        },
        "attachments": [
            {
                "title": "medical oxygen sensor, medical oxygen sensor Suppliers and Manufacturers at Alibaba.com",
                "title_link": "https:\/\/www.alibaba.com\/showroom\/medical-oxygen-sensor.html",
                "text": "<http:\/\/Alibaba.com|Alibaba.com> offers 450 medical oxygen sensor products. About 45% of these are Sensors. A wide variety of medical oxygen sensor options are available to you,",
                "fallback": "medical oxygen sensor, medical oxygen sensor Suppliers and Manufacturers at Alibaba.com",
                "from_url": "https:\/\/www.alibaba.com\/showroom\/medical-oxygen-sensor.html",
                "service_icon": "http:\/\/is.alicdn.com\/favicon.ico",
                "service_name": "alibaba.com",
                "id": 1,
                "original_url": "https:\/\/www.alibaba.com\/showroom\/medical-oxygen-sensor.html"
            }
        ],
        "blocks": [
            {
                "type": "rich_text",
                "block_id": "V+P6",
                "elements": [
                    {
                        "type": "rich_text_section",
                        "elements": [
                            {
                                "type": "link",
                                "url": "https:\/\/www.alibaba.com\/showroom\/medical-oxygen-sensor.html"
                            }
                        ]
                    }
                ]
            }
        ],
        "thread_ts": "1584747678.082100",
        "parent_user_id": "U010B4EJG2C"
    },
    {
        "client_msg_id": "43b5f4e0-6240-4656-bf05-f9dff6ff33df",
        "type": "message",
        "text": "Actuator: <https:\/\/www.medicalexpo.com\/prod\/asco-numatics\/product-111223-862738.html>",
        "user": "U0108DWH5NH",
        "ts": "1584780166.084400",
        "team": "TUU48M0T1",
        "user_team": "TUU48M0T1",
        "source_team": "TUU48M0T1",
        "user_profile": {
            "avatar_hash": "gd582b07cb4c",
            "image_72": "https:\/\/secure.gravatar.com\/avatar\/d582b07cb4cff8ecfdf7095f4f4eefc5.jpg?s=72&d=https%3A%2F%2Fa.slack-edge.com%2Fdf10d%2Fimg%2Favatars%2Fava_0025-72.png",
            "first_name": "",
            "real_name": "Juraj Marak",
            "display_name": "Juraj Marak",
            "team": "TUU48M0T1",
            "name": "kukulo2011",
            "is_restricted": false,
            "is_ultra_restricted": false
        },
        "attachments": [
            {
                "title": "Series 202 - Valve for the medical industry \/ solenoid \/ proportional by ASCO Numatics | MedicalExpo",
                "title_link": "https:\/\/www.medicalexpo.com\/prod\/asco-numatics\/product-111223-862738.html",
                "text": "FEATURES ​​​Ideal to precisely control flow rates in medical equipment and analytical instrumentation Compact construction saves valuable space in equipment Valves do not require minimum operating pressure Low hysteresis, excellent repeatability, and high sensitivity for precise flow control Body...",
                "fallback": "Series 202 - Valve for the medical industry \/ solenoid \/ proportional by ASCO Numatics | MedicalExpo",
                "thumb_url": "https:\/\/img.medicalexpo.com\/images_me\/photo-g\/111223-12924852.jpg",
                "from_url": "https:\/\/www.medicalexpo.com\/prod\/asco-numatics\/product-111223-862738.html",
                "thumb_width": 300,
                "thumb_height": 300,
                "service_icon": "https:\/\/www.medicalexpo.com\/favicon.ico",
                "service_name": "medicalexpo.com",
                "id": 1,
                "original_url": "https:\/\/www.medicalexpo.com\/prod\/asco-numatics\/product-111223-862738.html"
            }
        ],
        "blocks": [
            {
                "type": "rich_text",
                "block_id": "oQgW",
                "elements": [
                    {
                        "type": "rich_text_section",
                        "elements": [
                            {
                                "type": "text",
                                "text": "Actuator: "
                            },
                            {
                                "type": "link",
                                "url": "https:\/\/www.medicalexpo.com\/prod\/asco-numatics\/product-111223-862738.html"
                            }
                        ]
                    }
                ]
            }
        ],
        "thread_ts": "1584747678.082100",
        "parent_user_id": "U010B4EJG2C"
    },
    {
        "client_msg_id": "9ce728fd-bf8b-492f-b3d2-66bb6ddd1e5f",
        "type": "message",
        "text": "I reckon it is simpler to replace the bag of the bag-valve-mask by a standard pump. E.g. a membrane pump.",
        "user": "U01081Y0TBP",
        "ts": "1584781816.084700",
        "team": "TUU48M0T1",
        "user_team": "TUU48M0T1",
        "source_team": "TUU48M0T1",
        "user_profile": {
            "avatar_hash": "60ec5b47107a",
            "image_72": "https:\/\/avatars.slack-edge.com\/2020-03-18\/995274181218_60ec5b47107a3bd2ca7d_72.jpg",
            "first_name": "Peter",
            "real_name": "Peter Kooren",
            "display_name": "Peter Kooren",
            "team": "TUU48M0T1",
            "name": "peterkooren",
            "is_restricted": false,
            "is_ultra_restricted": false
        },
        "blocks": [
            {
                "type": "rich_text",
                "block_id": "ZMV",
                "elements": [
                    {
                        "type": "rich_text_section",
                        "elements": [
                            {
                                "type": "text",
                                "text": "I reckon it is simpler to replace the bag of the bag-valve-mask by a standard pump. E.g. a membrane pump."
                            }
                        ]
                    }
                ]
            }
        ],
        "thread_ts": "1584601845.025900",
        "parent_user_id": "U0108DWH5NH"
    },
    {
        "client_msg_id": "f3865e45-05e0-4789-861f-47612c1fee88",
        "type": "message",
        "text": "Clear sketches by the way!",
        "user": "U01081Y0TBP",
        "ts": "1584781870.084900",
        "team": "TUU48M0T1",
        "user_team": "TUU48M0T1",
        "source_team": "TUU48M0T1",
        "user_profile": {
            "avatar_hash": "60ec5b47107a",
            "image_72": "https:\/\/avatars.slack-edge.com\/2020-03-18\/995274181218_60ec5b47107a3bd2ca7d_72.jpg",
            "first_name": "Peter",
            "real_name": "Peter Kooren",
            "display_name": "Peter Kooren",
            "team": "TUU48M0T1",
            "name": "peterkooren",
            "is_restricted": false,
            "is_ultra_restricted": false
        },
        "blocks": [
            {
                "type": "rich_text",
                "block_id": "dQ4",
                "elements": [
                    {
                        "type": "rich_text_section",
                        "elements": [
                            {
                                "type": "text",
                                "text": "Clear sketches by the way!"
                            }
                        ]
                    }
                ]
            }
        ],
        "thread_ts": "1584601845.025900",
        "parent_user_id": "U0108DWH5NH"
    },
    {
        "client_msg_id": "e0261161-3595-40cd-becb-d623dbfbae81",
        "type": "message",
        "text": "Or a piston pump, which are typically cheaper",
        "user": "U01081Y0TBP",
        "ts": "1584782008.085100",
        "team": "TUU48M0T1",
        "user_team": "TUU48M0T1",
        "source_team": "TUU48M0T1",
        "user_profile": {
            "avatar_hash": "60ec5b47107a",
            "image_72": "https:\/\/avatars.slack-edge.com\/2020-03-18\/995274181218_60ec5b47107a3bd2ca7d_72.jpg",
            "first_name": "Peter",
            "real_name": "Peter Kooren",
            "display_name": "Peter Kooren",
            "team": "TUU48M0T1",
            "name": "peterkooren",
            "is_restricted": false,
            "is_ultra_restricted": false
        },
        "blocks": [
            {
                "type": "rich_text",
                "block_id": "W91S",
                "elements": [
                    {
                        "type": "rich_text_section",
                        "elements": [
                            {
                                "type": "text",
                                "text": "Or a piston pump, which are typically cheaper"
                            }
                        ]
                    }
                ]
            }
        ],
        "thread_ts": "1584601845.025900",
        "parent_user_id": "U0108DWH5NH"
    },
    {
        "client_msg_id": "a6277426-4371-4fc6-b0d4-3309b017f024",
        "type": "message",
        "text": "I just realized the O2 sensor might be redundant in case we measure the flow of air &amp; oxygen separately",
        "user": "U010B4EJG2C",
        "ts": "1584786172.085300",
        "team": "TUU48M0T1",
        "user_team": "TUU48M0T1",
        "source_team": "TUU48M0T1",
        "user_profile": {
            "avatar_hash": "5c9626d7b328",
            "image_72": "https:\/\/avatars.slack-edge.com\/2020-03-19\/1011171782821_5c9626d7b328e5dc84ea_72.jpg",
            "first_name": "Adam",
            "real_name": "Adam Krovina",
            "display_name": "Adam Krovina",
            "team": "TUU48M0T1",
            "name": "adam",
            "is_restricted": false,
            "is_ultra_restricted": false
        },
        "blocks": [
            {
                "type": "rich_text",
                "block_id": "BzUM8",
                "elements": [
                    {
                        "type": "rich_text_section",
                        "elements": [
                            {
                                "type": "text",
                                "text": "I just realized the O2 sensor might be redundant in case we measure the flow of air & oxygen separately"
                            }
                        ]
                    }
                ]
            }
        ],
        "thread_ts": "1584747678.082100",
        "parent_user_id": "U010B4EJG2C"
    },
    {
        "client_msg_id": "a3b60906-2292-4916-af89-2d54093845fb",
        "type": "message",
        "text": "The proportional valve is a good idea, I agree",
        "user": "U010B4EJG2C",
        "ts": "1584786201.085500",
        "team": "TUU48M0T1",
        "user_team": "TUU48M0T1",
        "source_team": "TUU48M0T1",
        "user_profile": {
            "avatar_hash": "5c9626d7b328",
            "image_72": "https:\/\/avatars.slack-edge.com\/2020-03-19\/1011171782821_5c9626d7b328e5dc84ea_72.jpg",
            "first_name": "Adam",
            "real_name": "Adam Krovina",
            "display_name": "Adam Krovina",
            "team": "TUU48M0T1",
            "name": "adam",
            "is_restricted": false,
            "is_ultra_restricted": false
        },
        "blocks": [
            {
                "type": "rich_text",
                "block_id": "8wEsG",
                "elements": [
                    {
                        "type": "rich_text_section",
                        "elements": [
                            {
                                "type": "text",
                                "text": "The proportional valve is a good idea, I agree"
                            }
                        ]
                    }
                ]
            }
        ],
        "thread_ts": "1584747678.082100",
        "parent_user_id": "U010B4EJG2C"
    },
    {
        "type": "message",
        "text": "Here is my current desing, please review. If we agree, let's find the right components.",
        "files": [
            {
                "id": "F010G6X2R7W",
                "created": 1584786400,
                "timestamp": 1584786400,
                "name": "image.png",
                "title": "image.png",
                "mimetype": "image\/png",
                "filetype": "png",
                "pretty_type": "PNG",
                "user": "U010B4EJG2C",
                "editable": false,
                "size": 666380,
                "mode": "hosted",
                "is_external": false,
                "external_type": "",
                "is_public": true,
                "public_url_shared": false,
                "display_as_bot": false,
                "username": "",
                "url_private": "https:\/\/files.slack.com\/files-pri\/TUU48M0T1-F010G6X2R7W\/image.png?t=xoxe-980144714919-1031585465028-1034106672247-1815eabca44f30d1d2d966083f8c8bbb",
                "url_private_download": "https:\/\/files.slack.com\/files-pri\/TUU48M0T1-F010G6X2R7W\/download\/image.png?t=xoxe-980144714919-1031585465028-1034106672247-1815eabca44f30d1d2d966083f8c8bbb",
                "thumb_64": "https:\/\/files.slack.com\/files-tmb\/TUU48M0T1-F010G6X2R7W-8923c228fb\/image_64.png?t=xoxe-980144714919-1031585465028-1034106672247-1815eabca44f30d1d2d966083f8c8bbb",
                "thumb_80": "https:\/\/files.slack.com\/files-tmb\/TUU48M0T1-F010G6X2R7W-8923c228fb\/image_80.png?t=xoxe-980144714919-1031585465028-1034106672247-1815eabca44f30d1d2d966083f8c8bbb",
                "thumb_360": "https:\/\/files.slack.com\/files-tmb\/TUU48M0T1-F010G6X2R7W-8923c228fb\/image_360.png?t=xoxe-980144714919-1031585465028-1034106672247-1815eabca44f30d1d2d966083f8c8bbb",
                "thumb_360_w": 360,
                "thumb_360_h": 288,
                "thumb_480": "https:\/\/files.slack.com\/files-tmb\/TUU48M0T1-F010G6X2R7W-8923c228fb\/image_480.png?t=xoxe-980144714919-1031585465028-1034106672247-1815eabca44f30d1d2d966083f8c8bbb",
                "thumb_480_w": 480,
                "thumb_480_h": 384,
                "thumb_160": "https:\/\/files.slack.com\/files-tmb\/TUU48M0T1-F010G6X2R7W-8923c228fb\/image_160.png?t=xoxe-980144714919-1031585465028-1034106672247-1815eabca44f30d1d2d966083f8c8bbb",
                "thumb_720": "https:\/\/files.slack.com\/files-tmb\/TUU48M0T1-F010G6X2R7W-8923c228fb\/image_720.png?t=xoxe-980144714919-1031585465028-1034106672247-1815eabca44f30d1d2d966083f8c8bbb",
                "thumb_720_w": 720,
                "thumb_720_h": 577,
                "thumb_800": "https:\/\/files.slack.com\/files-tmb\/TUU48M0T1-F010G6X2R7W-8923c228fb\/image_800.png?t=xoxe-980144714919-1031585465028-1034106672247-1815eabca44f30d1d2d966083f8c8bbb",
                "thumb_800_w": 800,
                "thumb_800_h": 641,
                "thumb_960": "https:\/\/files.slack.com\/files-tmb\/TUU48M0T1-F010G6X2R7W-8923c228fb\/image_960.png?t=xoxe-980144714919-1031585465028-1034106672247-1815eabca44f30d1d2d966083f8c8bbb",
                "thumb_960_w": 960,
                "thumb_960_h": 769,
                "thumb_1024": "https:\/\/files.slack.com\/files-tmb\/TUU48M0T1-F010G6X2R7W-8923c228fb\/image_1024.png?t=xoxe-980144714919-1031585465028-1034106672247-1815eabca44f30d1d2d966083f8c8bbb",
                "thumb_1024_w": 1024,
                "thumb_1024_h": 820,
                "image_exif_rotation": 1,
                "original_w": 1552,
                "original_h": 1243,
                "thumb_tiny": "AwAmADCelB4ptLkUhjqO9IKOtADhS00U6gCKjFFLQAUopvalzQA7NLmmjrS0AMooFFIYUUtFACilpop1MR\/\/2Q==",
                "permalink": "https:\/\/open-covid19.slack.com\/files\/U010B4EJG2C\/F010G6X2R7W\/image.png",
                "permalink_public": "https:\/\/slack-files.com\/TUU48M0T1-F010G6X2R7W-d69075ffe1",
                "is_starred": false,
                "has_rich_preview": false
            }
        ],
        "upload": true,
        "blocks": [
            {
                "type": "rich_text",
                "block_id": "=w9e",
                "elements": [
                    {
                        "type": "rich_text_section",
                        "elements": [
                            {
                                "type": "text",
                                "text": "Here is my current desing, please review. If we agree, let's find the right components."
                            }
                        ]
                    }
                ]
            }
        ],
        "user": "U010B4EJG2C",
        "display_as_bot": false,
        "ts": "1584786407.085700",
        "client_msg_id": "1f124710-64c7-4560-9dc7-92e1192a8a8b",
        "thread_ts": "1584747678.082100",
        "parent_user_id": "U010B4EJG2C"
    },
    {
        "client_msg_id": "37b49b96-a137-4c87-b5ec-538333523325",
        "type": "message",
        "text": "I would place the oxygen sensor right after the T junction before pressure gauge and valve.",
        "user": "U0108DWH5NH",
        "ts": "1584788376.086100",
        "team": "TUU48M0T1",
        "user_team": "TUU48M0T1",
        "source_team": "TUU48M0T1",
        "user_profile": {
            "avatar_hash": "gd582b07cb4c",
            "image_72": "https:\/\/secure.gravatar.com\/avatar\/d582b07cb4cff8ecfdf7095f4f4eefc5.jpg?s=72&d=https%3A%2F%2Fa.slack-edge.com%2Fdf10d%2Fimg%2Favatars%2Fava_0025-72.png",
            "first_name": "",
            "real_name": "Juraj Marak",
            "display_name": "Juraj Marak",
            "team": "TUU48M0T1",
            "name": "kukulo2011",
            "is_restricted": false,
            "is_ultra_restricted": false
        },
        "blocks": [
            {
                "type": "rich_text",
                "block_id": "\/+T",
                "elements": [
                    {
                        "type": "rich_text_section",
                        "elements": [
                            {
                                "type": "text",
                                "text": "I would place the oxygen sensor right after the T junction before pressure gauge and valve."
                            }
                        ]
                    }
                ]
            }
        ],
        "thread_ts": "1584747678.082100",
        "parent_user_id": "U010B4EJG2C"
    },
    {
        "client_msg_id": "65c0aa84-d9f3-4eea-859d-b51341a51b5b",
        "type": "message",
        "text": "On Y junction we will need directional two way valve. This might be 3D printed.",
        "user": "U0108DWH5NH",
        "ts": "1584788432.086300",
        "team": "TUU48M0T1",
        "user_team": "TUU48M0T1",
        "source_team": "TUU48M0T1",
        "user_profile": {
            "avatar_hash": "gd582b07cb4c",
            "image_72": "https:\/\/secure.gravatar.com\/avatar\/d582b07cb4cff8ecfdf7095f4f4eefc5.jpg?s=72&d=https%3A%2F%2Fa.slack-edge.com%2Fdf10d%2Fimg%2Favatars%2Fava_0025-72.png",
            "first_name": "",
            "real_name": "Juraj Marak",
            "display_name": "Juraj Marak",
            "team": "TUU48M0T1",
            "name": "kukulo2011",
            "is_restricted": false,
            "is_ultra_restricted": false
        },
        "edited": {
            "user": "U0108DWH5NH",
            "ts": "1584788497.000000"
        },
        "blocks": [
            {
                "type": "rich_text",
                "block_id": "T8v",
                "elements": [
                    {
                        "type": "rich_text_section",
                        "elements": [
                            {
                                "type": "text",
                                "text": "On Y junction we will need directional two way valve. This might be 3D printed."
                            }
                        ]
                    }
                ]
            }
        ],
        "thread_ts": "1584747678.082100",
        "parent_user_id": "U010B4EJG2C"
    },
    {
        "client_msg_id": "f8f69009-d443-451c-a36c-03ce75982a2e",
        "type": "message",
        "text": "Do we need the solenoid valve Nr. 8 on exhaust?",
        "user": "U0108DWH5NH",
        "ts": "1584788562.086600",
        "team": "TUU48M0T1",
        "user_team": "TUU48M0T1",
        "source_team": "TUU48M0T1",
        "user_profile": {
            "avatar_hash": "gd582b07cb4c",
            "image_72": "https:\/\/secure.gravatar.com\/avatar\/d582b07cb4cff8ecfdf7095f4f4eefc5.jpg?s=72&d=https%3A%2F%2Fa.slack-edge.com%2Fdf10d%2Fimg%2Favatars%2Fava_0025-72.png",
            "first_name": "",
            "real_name": "Juraj Marak",
            "display_name": "Juraj Marak",
            "team": "TUU48M0T1",
            "name": "kukulo2011",
            "is_restricted": false,
            "is_ultra_restricted": false
        },
        "blocks": [
            {
                "type": "rich_text",
                "block_id": "4HlWp",
                "elements": [
                    {
                        "type": "rich_text_section",
                        "elements": [
                            {
                                "type": "text",
                                "text": "Do we need the solenoid valve Nr. 8 on exhaust?"
                            }
                        ]
                    }
                ]
            }
        ],
        "thread_ts": "1584747678.082100",
        "parent_user_id": "U010B4EJG2C"
    },
    {
        "client_msg_id": "ffc423e1-7f89-49dc-a276-8292d6e4589b",
        "type": "message",
        "text": "We can place the oxygen sensor there, optionally. The Y junction and hoses to patient may be commercial, no need to make it.",
        "user": "U010B4EJG2C",
        "ts": "1584790121.086900",
        "team": "TUU48M0T1",
        "user_team": "TUU48M0T1",
        "source_team": "TUU48M0T1",
        "user_profile": {
            "avatar_hash": "5c9626d7b328",
            "image_72": "https:\/\/avatars.slack-edge.com\/2020-03-19\/1011171782821_5c9626d7b328e5dc84ea_72.jpg",
            "first_name": "Adam",
            "real_name": "Adam Krovina",
            "display_name": "Adam Krovina",
            "team": "TUU48M0T1",
            "name": "adam",
            "is_restricted": false,
            "is_ultra_restricted": false
        },
        "blocks": [
            {
                "type": "rich_text",
                "block_id": "Sf54",
                "elements": [
                    {
                        "type": "rich_text_section",
                        "elements": [
                            {
                                "type": "text",
                                "text": "We can place the oxygen sensor there, optionally. The Y junction and hoses to patient may be commercial, no need to make it."
                            }
                        ]
                    }
                ]
            }
        ],
        "thread_ts": "1584747678.082100",
        "parent_user_id": "U010B4EJG2C"
    },
    {
        "client_msg_id": "d658921f-18b3-4f33-a781-60881bd7bf36",
        "type": "message",
        "text": "I think without the solenoid 8 the pressure could bypass the patient and go directly to exhaust",
        "user": "U010B4EJG2C",
        "ts": "1584790147.087100",
        "team": "TUU48M0T1",
        "user_team": "TUU48M0T1",
        "source_team": "TUU48M0T1",
        "user_profile": {
            "avatar_hash": "5c9626d7b328",
            "image_72": "https:\/\/avatars.slack-edge.com\/2020-03-19\/1011171782821_5c9626d7b328e5dc84ea_72.jpg",
            "first_name": "Adam",
            "real_name": "Adam Krovina",
            "display_name": "Adam Krovina",
            "team": "TUU48M0T1",
            "name": "adam",
            "is_restricted": false,
            "is_ultra_restricted": false
        },
        "blocks": [
            {
                "type": "rich_text",
                "block_id": "iI7",
                "elements": [
                    {
                        "type": "rich_text_section",
                        "elements": [
                            {
                                "type": "text",
                                "text": "I think without the solenoid 8 the pressure could bypass the patient and go directly to exhaust"
                            }
                        ]
                    }
                ]
            }
        ],
        "thread_ts": "1584747678.082100",
        "parent_user_id": "U010B4EJG2C"
    },
    {
        "client_msg_id": "0bfc028c-0b08-4fbb-a309-1f53a51a3d02",
        "type": "message",
        "text": "Then it is OK.",
        "user": "U0108DWH5NH",
        "ts": "1584790727.087300",
        "team": "TUU48M0T1",
        "user_team": "TUU48M0T1",
        "source_team": "TUU48M0T1",
        "user_profile": {
            "avatar_hash": "gd582b07cb4c",
            "image_72": "https:\/\/secure.gravatar.com\/avatar\/d582b07cb4cff8ecfdf7095f4f4eefc5.jpg?s=72&d=https%3A%2F%2Fa.slack-edge.com%2Fdf10d%2Fimg%2Favatars%2Fava_0025-72.png",
            "first_name": "",
            "real_name": "Juraj Marak",
            "display_name": "Juraj Marak",
            "team": "TUU48M0T1",
            "name": "kukulo2011",
            "is_restricted": false,
            "is_ultra_restricted": false
        },
        "blocks": [
            {
                "type": "rich_text",
                "block_id": "p9Iip",
                "elements": [
                    {
                        "type": "rich_text_section",
                        "elements": [
                            {
                                "type": "text",
                                "text": "Then it is OK."
                            }
                        ]
                    }
                ]
            }
        ],
        "thread_ts": "1584747678.082100",
        "parent_user_id": "U010B4EJG2C"
    },
    {
        "type": "message",
        "text": "in the <https:\/\/github.com\/jcl5m1\/ventilator\/tree\/master\/data\/20200317> there is some useful data for the breath cycle.",
        "files": [
            {
                "id": "F0103UJQKGA",
                "created": 1584793445,
                "timestamp": 1584793445,
                "name": "Screenshot from 2020-03-21 13.22.20.jpeg",
                "title": "Screenshot from 2020-03-21 13.22.20.jpeg",
                "mimetype": "image\/jpeg",
                "filetype": "jpg",
                "pretty_type": "JPEG",
                "user": "U0108DWH5NH",
                "editable": false,
                "size": 58077,
                "mode": "hosted",
                "is_external": false,
                "external_type": "",
                "is_public": true,
                "public_url_shared": false,
                "display_as_bot": false,
                "username": "",
                "url_private": "https:\/\/files.slack.com\/files-pri\/TUU48M0T1-F0103UJQKGA\/screenshot_from_2020-03-21_13.22.20.jpeg?t=xoxe-980144714919-1031585465028-1034106672247-1815eabca44f30d1d2d966083f8c8bbb",
                "url_private_download": "https:\/\/files.slack.com\/files-pri\/TUU48M0T1-F0103UJQKGA\/download\/screenshot_from_2020-03-21_13.22.20.jpeg?t=xoxe-980144714919-1031585465028-1034106672247-1815eabca44f30d1d2d966083f8c8bbb",
                "thumb_64": "https:\/\/files.slack.com\/files-tmb\/TUU48M0T1-F0103UJQKGA-3e6f582b14\/screenshot_from_2020-03-21_13.22.20_64.jpg?t=xoxe-980144714919-1031585465028-1034106672247-1815eabca44f30d1d2d966083f8c8bbb",
                "thumb_80": "https:\/\/files.slack.com\/files-tmb\/TUU48M0T1-F0103UJQKGA-3e6f582b14\/screenshot_from_2020-03-21_13.22.20_80.jpg?t=xoxe-980144714919-1031585465028-1034106672247-1815eabca44f30d1d2d966083f8c8bbb",
                "thumb_360": "https:\/\/files.slack.com\/files-tmb\/TUU48M0T1-F0103UJQKGA-3e6f582b14\/screenshot_from_2020-03-21_13.22.20_360.jpg?t=xoxe-980144714919-1031585465028-1034106672247-1815eabca44f30d1d2d966083f8c8bbb",
                "thumb_360_w": 360,
                "thumb_360_h": 170,
                "thumb_480": "https:\/\/files.slack.com\/files-tmb\/TUU48M0T1-F0103UJQKGA-3e6f582b14\/screenshot_from_2020-03-21_13.22.20_480.jpg?t=xoxe-980144714919-1031585465028-1034106672247-1815eabca44f30d1d2d966083f8c8bbb",
                "thumb_480_w": 480,
                "thumb_480_h": 227,
                "thumb_160": "https:\/\/files.slack.com\/files-tmb\/TUU48M0T1-F0103UJQKGA-3e6f582b14\/screenshot_from_2020-03-21_13.22.20_160.jpg?t=xoxe-980144714919-1031585465028-1034106672247-1815eabca44f30d1d2d966083f8c8bbb",
                "thumb_720": "https:\/\/files.slack.com\/files-tmb\/TUU48M0T1-F0103UJQKGA-3e6f582b14\/screenshot_from_2020-03-21_13.22.20_720.jpg?t=xoxe-980144714919-1031585465028-1034106672247-1815eabca44f30d1d2d966083f8c8bbb",
                "thumb_720_w": 720,
                "thumb_720_h": 341,
                "thumb_800": "https:\/\/files.slack.com\/files-tmb\/TUU48M0T1-F0103UJQKGA-3e6f582b14\/screenshot_from_2020-03-21_13.22.20_800.jpg?t=xoxe-980144714919-1031585465028-1034106672247-1815eabca44f30d1d2d966083f8c8bbb",
                "thumb_800_w": 800,
                "thumb_800_h": 379,
                "thumb_960": "https:\/\/files.slack.com\/files-tmb\/TUU48M0T1-F0103UJQKGA-3e6f582b14\/screenshot_from_2020-03-21_13.22.20_960.jpg?t=xoxe-980144714919-1031585465028-1034106672247-1815eabca44f30d1d2d966083f8c8bbb",
                "thumb_960_w": 960,
                "thumb_960_h": 454,
                "thumb_1024": "https:\/\/files.slack.com\/files-tmb\/TUU48M0T1-F0103UJQKGA-3e6f582b14\/screenshot_from_2020-03-21_13.22.20_1024.jpg?t=xoxe-980144714919-1031585465028-1034106672247-1815eabca44f30d1d2d966083f8c8bbb",
                "thumb_1024_w": 1024,
                "thumb_1024_h": 485,
                "image_exif_rotation": 1,
                "original_w": 1035,
                "original_h": 490,
                "thumb_tiny": "AwAWADDSHSlpucYo3UAOopu4UbqAHUU3dSg5oATGQOcUmw+tOHQUtADNh9aNp9afSHpQA0KfWlUbaVelFAH\/2Q==",
                "permalink": "https:\/\/open-covid19.slack.com\/files\/U0108DWH5NH\/F0103UJQKGA\/screenshot_from_2020-03-21_13.22.20.jpeg",
                "permalink_public": "https:\/\/slack-files.com\/TUU48M0T1-F0103UJQKGA-b154527af7",
                "is_starred": false,
                "has_rich_preview": false
            }
        ],
        "upload": true,
        "blocks": [
            {
                "type": "rich_text",
                "block_id": "HPZ3",
                "elements": [
                    {
                        "type": "rich_text_section",
                        "elements": [
                            {
                                "type": "text",
                                "text": "in the "
                            },
                            {
                                "type": "link",
                                "url": "https:\/\/github.com\/jcl5m1\/ventilator\/tree\/master\/data\/20200317"
                            },
                            {
                                "type": "text",
                                "text": " there is some useful data for the breath cycle."
                            }
                        ]
                    }
                ]
            }
        ],
        "user": "U0108DWH5NH",
        "display_as_bot": false,
        "ts": "1584793449.088200",
        "client_msg_id": "e1ea548b-fd62-4671-ac04-a862ab8bad81"
    },
    {
        "type": "message",
        "text": "When I am reading correctly, the values are in mmH2O, when we convert them to Pa, then we will get this:",
        "files": [
            {
                "id": "F01058UCRDZ",
                "created": 1584794659,
                "timestamp": 1584794659,
                "name": "Screenshot from 2020-03-21 13.41.21.jpeg",
                "title": "Screenshot from 2020-03-21 13.41.21.jpeg",
                "mimetype": "image\/jpeg",
                "filetype": "jpg",
                "pretty_type": "JPEG",
                "user": "U0108DWH5NH",
                "editable": false,
                "size": 71878,
                "mode": "hosted",
                "is_external": false,
                "external_type": "",
                "is_public": true,
                "public_url_shared": false,
                "display_as_bot": false,
                "username": "",
                "url_private": "https:\/\/files.slack.com\/files-pri\/TUU48M0T1-F01058UCRDZ\/screenshot_from_2020-03-21_13.41.21.jpeg?t=xoxe-980144714919-1031585465028-1034106672247-1815eabca44f30d1d2d966083f8c8bbb",
                "url_private_download": "https:\/\/files.slack.com\/files-pri\/TUU48M0T1-F01058UCRDZ\/download\/screenshot_from_2020-03-21_13.41.21.jpeg?t=xoxe-980144714919-1031585465028-1034106672247-1815eabca44f30d1d2d966083f8c8bbb",
                "thumb_64": "https:\/\/files.slack.com\/files-tmb\/TUU48M0T1-F01058UCRDZ-9931f21463\/screenshot_from_2020-03-21_13.41.21_64.jpg?t=xoxe-980144714919-1031585465028-1034106672247-1815eabca44f30d1d2d966083f8c8bbb",
                "thumb_80": "https:\/\/files.slack.com\/files-tmb\/TUU48M0T1-F01058UCRDZ-9931f21463\/screenshot_from_2020-03-21_13.41.21_80.jpg?t=xoxe-980144714919-1031585465028-1034106672247-1815eabca44f30d1d2d966083f8c8bbb",
                "thumb_360": "https:\/\/files.slack.com\/files-tmb\/TUU48M0T1-F01058UCRDZ-9931f21463\/screenshot_from_2020-03-21_13.41.21_360.jpg?t=xoxe-980144714919-1031585465028-1034106672247-1815eabca44f30d1d2d966083f8c8bbb",
                "thumb_360_w": 360,
                "thumb_360_h": 222,
                "thumb_480": "https:\/\/files.slack.com\/files-tmb\/TUU48M0T1-F01058UCRDZ-9931f21463\/screenshot_from_2020-03-21_13.41.21_480.jpg?t=xoxe-980144714919-1031585465028-1034106672247-1815eabca44f30d1d2d966083f8c8bbb",
                "thumb_480_w": 480,
                "thumb_480_h": 296,
                "thumb_160": "https:\/\/files.slack.com\/files-tmb\/TUU48M0T1-F01058UCRDZ-9931f21463\/screenshot_from_2020-03-21_13.41.21_160.jpg?t=xoxe-980144714919-1031585465028-1034106672247-1815eabca44f30d1d2d966083f8c8bbb",
                "thumb_720": "https:\/\/files.slack.com\/files-tmb\/TUU48M0T1-F01058UCRDZ-9931f21463\/screenshot_from_2020-03-21_13.41.21_720.jpg?t=xoxe-980144714919-1031585465028-1034106672247-1815eabca44f30d1d2d966083f8c8bbb",
                "thumb_720_w": 720,
                "thumb_720_h": 445,
                "thumb_800": "https:\/\/files.slack.com\/files-tmb\/TUU48M0T1-F01058UCRDZ-9931f21463\/screenshot_from_2020-03-21_13.41.21_800.jpg?t=xoxe-980144714919-1031585465028-1034106672247-1815eabca44f30d1d2d966083f8c8bbb",
                "thumb_800_w": 800,
                "thumb_800_h": 494,
                "image_exif_rotation": 1,
                "original_w": 907,
                "original_h": 560,
                "thumb_tiny": "AwAdADDSA9qOKQ0ZoGLxRxTc8UE\/5\/OkFh2BQRSd\/wAaXP1piGtx14pMj1H504qD1GaTYvpQO4mR6ijI9RS7F9KPLX0pWC4gIyORUhpgRQc4p1MR\/9k=",
                "permalink": "https:\/\/open-covid19.slack.com\/files\/U0108DWH5NH\/F01058UCRDZ\/screenshot_from_2020-03-21_13.41.21.jpeg",
                "permalink_public": "https:\/\/slack-files.com\/TUU48M0T1-F01058UCRDZ-eb8a3be73f",
                "is_starred": false,
                "has_rich_preview": false
            }
        ],
        "upload": true,
        "blocks": [
            {
                "type": "rich_text",
                "block_id": "o+f9R",
                "elements": [
                    {
                        "type": "rich_text_section",
                        "elements": [
                            {
                                "type": "text",
                                "text": "When I am reading correctly, the values are in mmH2O, when we convert them to Pa, then we will get this:"
                            }
                        ]
                    }
                ]
            }
        ],
        "user": "U0108DWH5NH",
        "display_as_bot": false,
        "ts": "1584794663.088500",
        "client_msg_id": "cd4112eb-aaca-447a-a270-d0af3baba8e1",
        "thread_ts": "1584794663.088500",
        "reply_count": 1,
        "reply_users_count": 1,
        "latest_reply": "1584944874.114800",
        "reply_users": [
            "U01081Y0TBP"
        ],
        "replies": [
            {
                "user": "U01081Y0TBP",
                "ts": "1584944874.114800"
            }
        ],
        "subscribed": false
    },
    {
        "type": "message",
        "text": "",
        "files": [
            {
                "id": "F0106LVU15X",
                "created": 1584795037,
                "timestamp": 1584795037,
                "name": "Screenshot from 2020-03-21 13.49.21.jpeg",
                "title": "Screenshot from 2020-03-21 13.49.21.jpeg",
                "mimetype": "image\/jpeg",
                "filetype": "jpg",
                "pretty_type": "JPEG",
                "user": "U0108DWH5NH",
                "editable": false,
                "size": 93005,
                "mode": "hosted",
                "is_external": false,
                "external_type": "",
                "is_public": true,
                "public_url_shared": false,
                "display_as_bot": false,
                "username": "",
                "url_private": "https:\/\/files.slack.com\/files-pri\/TUU48M0T1-F0106LVU15X\/screenshot_from_2020-03-21_13.49.21.jpeg?t=xoxe-980144714919-1031585465028-1034106672247-1815eabca44f30d1d2d966083f8c8bbb",
                "url_private_download": "https:\/\/files.slack.com\/files-pri\/TUU48M0T1-F0106LVU15X\/download\/screenshot_from_2020-03-21_13.49.21.jpeg?t=xoxe-980144714919-1031585465028-1034106672247-1815eabca44f30d1d2d966083f8c8bbb",
                "thumb_64": "https:\/\/files.slack.com\/files-tmb\/TUU48M0T1-F0106LVU15X-1fe2e60d1e\/screenshot_from_2020-03-21_13.49.21_64.jpg?t=xoxe-980144714919-1031585465028-1034106672247-1815eabca44f30d1d2d966083f8c8bbb",
                "thumb_80": "https:\/\/files.slack.com\/files-tmb\/TUU48M0T1-F0106LVU15X-1fe2e60d1e\/screenshot_from_2020-03-21_13.49.21_80.jpg?t=xoxe-980144714919-1031585465028-1034106672247-1815eabca44f30d1d2d966083f8c8bbb",
                "thumb_360": "https:\/\/files.slack.com\/files-tmb\/TUU48M0T1-F0106LVU15X-1fe2e60d1e\/screenshot_from_2020-03-21_13.49.21_360.jpg?t=xoxe-980144714919-1031585465028-1034106672247-1815eabca44f30d1d2d966083f8c8bbb",
                "thumb_360_w": 360,
                "thumb_360_h": 199,
                "thumb_480": "https:\/\/files.slack.com\/files-tmb\/TUU48M0T1-F0106LVU15X-1fe2e60d1e\/screenshot_from_2020-03-21_13.49.21_480.jpg?t=xoxe-980144714919-1031585465028-1034106672247-1815eabca44f30d1d2d966083f8c8bbb",
                "thumb_480_w": 480,
                "thumb_480_h": 265,
                "thumb_160": "https:\/\/files.slack.com\/files-tmb\/TUU48M0T1-F0106LVU15X-1fe2e60d1e\/screenshot_from_2020-03-21_13.49.21_160.jpg?t=xoxe-980144714919-1031585465028-1034106672247-1815eabca44f30d1d2d966083f8c8bbb",
                "thumb_720": "https:\/\/files.slack.com\/files-tmb\/TUU48M0T1-F0106LVU15X-1fe2e60d1e\/screenshot_from_2020-03-21_13.49.21_720.jpg?t=xoxe-980144714919-1031585465028-1034106672247-1815eabca44f30d1d2d966083f8c8bbb",
                "thumb_720_w": 720,
                "thumb_720_h": 398,
                "thumb_800": "https:\/\/files.slack.com\/files-tmb\/TUU48M0T1-F0106LVU15X-1fe2e60d1e\/screenshot_from_2020-03-21_13.49.21_800.jpg?t=xoxe-980144714919-1031585465028-1034106672247-1815eabca44f30d1d2d966083f8c8bbb",
                "thumb_800_w": 800,
                "thumb_800_h": 442,
                "thumb_960": "https:\/\/files.slack.com\/files-tmb\/TUU48M0T1-F0106LVU15X-1fe2e60d1e\/screenshot_from_2020-03-21_13.49.21_960.jpg?t=xoxe-980144714919-1031585465028-1034106672247-1815eabca44f30d1d2d966083f8c8bbb",
                "thumb_960_w": 960,
                "thumb_960_h": 531,
                "thumb_1024": "https:\/\/files.slack.com\/files-tmb\/TUU48M0T1-F0106LVU15X-1fe2e60d1e\/screenshot_from_2020-03-21_13.49.21_1024.jpg?t=xoxe-980144714919-1031585465028-1034106672247-1815eabca44f30d1d2d966083f8c8bbb",
                "thumb_1024_w": 1024,
                "thumb_1024_h": 566,
                "image_exif_rotation": 1,
                "original_w": 1029,
                "original_h": 569,
                "thumb_tiny": "AwAaADDR4yaXimscUZpDsO4o4puaAaLhYdxS0wHpTufSmA1sjsTTdx\/umpKKBXI9x\/umjcf7pqSigdyPdz901KaSigR\/\/9k=",
                "permalink": "https:\/\/open-covid19.slack.com\/files\/U0108DWH5NH\/F0106LVU15X\/screenshot_from_2020-03-21_13.49.21.jpeg",
                "permalink_public": "https:\/\/slack-files.com\/TUU48M0T1-F0106LVU15X-b8a4e1864f",
                "is_starred": false,
                "has_rich_preview": false
            }
        ],
        "upload": true,
        "user": "U0108DWH5NH",
        "display_as_bot": false,
        "ts": "1584795041.088800",
        "client_msg_id": "0b676fda-8468-4eaa-b215-1c2f212e3808"
    },
    {
        "client_msg_id": "ba6719ce-04cf-46e2-bf1d-1cf67efb7d5d",
        "type": "message",
        "text": "How about using RAMPS 1.3 electronics (3D printer board) along with arduino Mega and it's LCD as a control module? It is widely available, cheap and has many features ready, like power FET's. It could save us precious design &amp; lead time",
        "user": "U010B4EJG2C",
        "ts": "1584796297.090900",
        "team": "TUU48M0T1",
        "user_team": "TUU48M0T1",
        "source_team": "TUU48M0T1",
        "user_profile": {
            "avatar_hash": "5c9626d7b328",
            "image_72": "https:\/\/avatars.slack-edge.com\/2020-03-19\/1011171782821_5c9626d7b328e5dc84ea_72.jpg",
            "first_name": "Adam",
            "real_name": "Adam Krovina",
            "display_name": "Adam Krovina",
            "team": "TUU48M0T1",
            "name": "adam",
            "is_restricted": false,
            "is_ultra_restricted": false
        },
        "blocks": [
            {
                "type": "rich_text",
                "block_id": "9Lsrz",
                "elements": [
                    {
                        "type": "rich_text_section",
                        "elements": [
                            {
                                "type": "text",
                                "text": "How about using RAMPS 1.3 electronics (3D printer board) along with arduino Mega and it's LCD as a control module? It is widely available, cheap and has many features ready, like power FET's. It could save us precious design & lead time"
                            }
                        ]
                    }
                ]
            }
        ],
        "thread_ts": "1584796297.090900",
        "reply_count": 7,
        "reply_users_count": 3,
        "latest_reply": "1584891257.111800",
        "reply_users": [
            "U0108DWH5NH",
            "U010B4EJG2C",
            "U0106PLV8PJ"
        ],
        "replies": [
            {
                "user": "U0108DWH5NH",
                "ts": "1584796542.091000"
            },
            {
                "user": "U0108DWH5NH",
                "ts": "1584796609.091300"
            },
            {
                "user": "U010B4EJG2C",
                "ts": "1584796613.091500"
            },
            {
                "user": "U010B4EJG2C",
                "ts": "1584796674.091700"
            },
            {
                "user": "U0106PLV8PJ",
                "ts": "1584891221.111400"
            },
            {
                "user": "U0106PLV8PJ",
                "ts": "1584891231.111600"
            },
            {
                "user": "U0106PLV8PJ",
                "ts": "1584891257.111800"
            }
        ],
        "subscribed": false
    },
    {
        "client_msg_id": "4802f19a-54c6-490a-ac56-7b1df7c2afb3",
        "type": "message",
        "text": "I vote for arduino connected via serial tty to android tablet.",
        "user": "U0108DWH5NH",
        "ts": "1584796542.091000",
        "team": "TUU48M0T1",
        "user_team": "TUU48M0T1",
        "source_team": "TUU48M0T1",
        "user_profile": {
            "avatar_hash": "gd582b07cb4c",
            "image_72": "https:\/\/secure.gravatar.com\/avatar\/d582b07cb4cff8ecfdf7095f4f4eefc5.jpg?s=72&d=https%3A%2F%2Fa.slack-edge.com%2Fdf10d%2Fimg%2Favatars%2Fava_0025-72.png",
            "first_name": "",
            "real_name": "Juraj Marak",
            "display_name": "Juraj Marak",
            "team": "TUU48M0T1",
            "name": "kukulo2011",
            "is_restricted": false,
            "is_ultra_restricted": false
        },
        "blocks": [
            {
                "type": "rich_text",
                "block_id": "g2x+5",
                "elements": [
                    {
                        "type": "rich_text_section",
                        "elements": [
                            {
                                "type": "text",
                                "text": "I vote for arduino connected via serial tty to android tablet."
                            }
                        ]
                    }
                ]
            }
        ],
        "thread_ts": "1584796297.090900",
        "parent_user_id": "U010B4EJG2C"
    },
    {
        "client_msg_id": "2a6c9857-cd33-4fde-857e-43e1970543e8",
        "type": "message",
        "text": "Tablet could be running special android app.",
        "user": "U0108DWH5NH",
        "ts": "1584796609.091300",
        "team": "TUU48M0T1",
        "user_team": "TUU48M0T1",
        "source_team": "TUU48M0T1",
        "user_profile": {
            "avatar_hash": "gd582b07cb4c",
            "image_72": "https:\/\/secure.gravatar.com\/avatar\/d582b07cb4cff8ecfdf7095f4f4eefc5.jpg?s=72&d=https%3A%2F%2Fa.slack-edge.com%2Fdf10d%2Fimg%2Favatars%2Fava_0025-72.png",
            "first_name": "",
            "real_name": "Juraj Marak",
            "display_name": "Juraj Marak",
            "team": "TUU48M0T1",
            "name": "kukulo2011",
            "is_restricted": false,
            "is_ultra_restricted": false
        },
        "blocks": [
            {
                "type": "rich_text",
                "block_id": "TFc",
                "elements": [
                    {
                        "type": "rich_text_section",
                        "elements": [
                            {
                                "type": "text",
                                "text": "Tablet could be running special android app."
                            }
                        ]
                    }
                ]
            }
        ],
        "thread_ts": "1584796297.090900",
        "parent_user_id": "U010B4EJG2C"
    },
    {
        "client_msg_id": "8a9ad909-ab78-43bc-927f-ae8a3d501b8b",
        "type": "message",
        "text": "I have been thinking about this a while. I think it would be clumsy to use and unstable",
        "user": "U010B4EJG2C",
        "ts": "1584796613.091500",
        "team": "TUU48M0T1",
        "user_team": "TUU48M0T1",
        "source_team": "TUU48M0T1",
        "user_profile": {
            "avatar_hash": "5c9626d7b328",
            "image_72": "https:\/\/avatars.slack-edge.com\/2020-03-19\/1011171782821_5c9626d7b328e5dc84ea_72.jpg",
            "first_name": "Adam",
            "real_name": "Adam Krovina",
            "display_name": "Adam Krovina",
            "team": "TUU48M0T1",
            "name": "adam",
            "is_restricted": false,
            "is_ultra_restricted": false
        },
        "blocks": [
            {
                "type": "rich_text",
                "block_id": "bg3z",
                "elements": [
                    {
                        "type": "rich_text_section",
                        "elements": [
                            {
                                "type": "text",
                                "text": "I have been thinking about this a while. I think it would be clumsy to use and unstable"
                            }
                        ]
                    }
                ]
            }
        ],
        "thread_ts": "1584796297.090900",
        "parent_user_id": "U010B4EJG2C"
    },
    {
        "client_msg_id": "9354a3fb-8e0c-4e46-b2cd-af1d988de78f",
        "type": "message",
        "text": "But it can be optional. Are you in for making the app?",
        "user": "U010B4EJG2C",
        "ts": "1584796674.091700",
        "team": "TUU48M0T1",
        "user_team": "TUU48M0T1",
        "source_team": "TUU48M0T1",
        "user_profile": {
            "avatar_hash": "5c9626d7b328",
            "image_72": "https:\/\/avatars.slack-edge.com\/2020-03-19\/1011171782821_5c9626d7b328e5dc84ea_72.jpg",
            "first_name": "Adam",
            "real_name": "Adam Krovina",
            "display_name": "Adam Krovina",
            "team": "TUU48M0T1",
            "name": "adam",
            "is_restricted": false,
            "is_ultra_restricted": false
        },
        "blocks": [
            {
                "type": "rich_text",
                "block_id": "coh",
                "elements": [
                    {
                        "type": "rich_text_section",
                        "elements": [
                            {
                                "type": "text",
                                "text": "But it can be optional. Are you in for making the app?"
                            }
                        ]
                    }
                ]
            }
        ],
        "thread_ts": "1584796297.090900",
        "parent_user_id": "U010B4EJG2C"
    },
    {
        "type": "message",
        "text": "",
        "user": "UV6870881",
        "ts": "1584801941.092200",
        "team": "TUU48M0T1",
        "user_team": "TUU48M0T1",
        "source_team": "TUU48M0T1",
        "user_profile": {
            "avatar_hash": "gbbbbcc3accd",
            "image_72": "https:\/\/secure.gravatar.com\/avatar\/bbbbcc3accdddb02dfb1c03a4a65b994.jpg?s=72&d=https%3A%2F%2Fa.slack-edge.com%2Fdf10d%2Fimg%2Favatars%2Fava_0011-72.png",
            "first_name": "Quant",
            "real_name": "Quant",
            "display_name": "",
            "team": "TUU48M0T1",
            "name": "admin",
            "is_restricted": false,
            "is_ultra_restricted": false
        },
        "attachments": [
            {
                "fallback": "[March 20th, 2020 11:41 AM] eyesmo: The mHub manufacturing accelerator in Chicago is putting together a team to work on building and funding low-cost ventilators; OpenCOVID19 people should reach out and connect with them! <https:\/\/cprcovid19.com\/blog\/31727>",
                "ts": "1584718890.037100",
                "author_id": "UUNGFHSV8",
                "author_subname": "Isaac Larkin",
                "channel_id": "CV474R31U",
                "channel_name": "prgm-funding-team",
                "is_msg_unfurl": true,
                "is_thread_root_unfurl": true,
                "text": "The mHub manufacturing accelerator in Chicago is putting together a team to work on building and funding low-cost ventilators; OpenCOVID19 people should reach out and connect with them! <https:\/\/cprcovid19.com\/blog\/31727>",
                "author_name": "Isaac Larkin",
                "author_link": "https:\/\/open-covid19.slack.com\/team\/UUNGFHSV8",
                "author_icon": "https:\/\/avatars.slack-edge.com\/2020-03-07\/987349161984_1c55ee32397a85a87ec4_48.png",
                "mrkdwn_in": [
                    "text"
                ],
                "color": "D0D0D0",
                "from_url": "https:\/\/open-covid19.slack.com\/archives\/CV474R31U\/p1584718890037100?thread_ts=1584718890037100&cid=CV474R31U",
                "is_share": true,
                "footer": "Thread in #prgm-funding-team"
            }
        ],
        "blocks": [
            {
                "type": "rich_text",
                "block_id": "rxNh",
                "elements": [
                    {
                        "type": "rich_text_section",
                        "elements": []
                    }
                ]
            }
        ]
    },
    {
        "client_msg_id": "65589232-5A86-4806-B300-806D3F57E58E",
        "type": "message",
        "text": "Open source design from Prakash lab of ‘universal’ remote control for mechanical ventilators to reduce the need for healthcare workers to go into and out of patients’ rooms to adjust the ventilator controls <https:\/\/docs.google.com\/document\/d\/1Z44YpbulrfZ0txfAJZJqTHFGj67I7Y-cv655t-TL5Mc\/mobilebasic|https:\/\/docs.google.com\/document\/d\/1Z44YpbulrfZ0txfAJZJqTHFGj67I7Y-cv655t-TL5Mc\/mobilebasic>",
        "user": "UUNGFHSV8",
        "ts": "1584810241.094600",
        "team": "TUU48M0T1",
        "user_team": "TUU48M0T1",
        "source_team": "TUU48M0T1",
        "user_profile": {
            "avatar_hash": "1c55ee32397a",
            "image_72": "https:\/\/avatars.slack-edge.com\/2020-03-07\/987349161984_1c55ee32397a85a87ec4_72.png",
            "first_name": "Isaac",
            "real_name": "Isaac Larkin",
            "display_name": "Isaac Larkin",
            "team": "TUU48M0T1",
            "name": "eyesmo",
            "is_restricted": false,
            "is_ultra_restricted": false
        },
        "blocks": [
            {
                "type": "rich_text",
                "block_id": "TPRv",
                "elements": [
                    {
                        "type": "rich_text_section",
                        "elements": [
                            {
                                "type": "text",
                                "text": "Open source design from Prakash lab of ‘universal’ remote control for mechanical ventilators to reduce the need for healthcare workers to go into and out of patients’ rooms to adjust the ventilator controls "
                            },
                            {
                                "type": "link",
                                "url": "https:\/\/docs.google.com\/document\/d\/1Z44YpbulrfZ0txfAJZJqTHFGj67I7Y-cv655t-TL5Mc\/mobilebasic",
                                "text": "https:\/\/docs.google.com\/document\/d\/1Z44YpbulrfZ0txfAJZJqTHFGj67I7Y-cv655t-TL5Mc\/mobilebasic"
                            }
                        ]
                    }
                ]
            }
        ]
    },
    {
        "client_msg_id": "C33E21E2-F673-4B11-B993-593BF7B828FE",
        "type": "message",
        "text": "I would also look into what some doctors did in Italy, allowing for one ventilator to be used by multiple patients hacking the tubes. \nIf this is viable than it could mean an almost instant expansion of already verified and graded medical instruments.",
        "user": "UV2P3AQEN",
        "ts": "1584810498.096000",
        "team": "TUU48M0T1",
        "user_team": "TUU48M0T1",
        "source_team": "TUU48M0T1",
        "user_profile": {
            "avatar_hash": "82d977ce9645",
            "image_72": "https:\/\/avatars.slack-edge.com\/2020-03-16\/1003452392327_82d977ce9645ebc30917_72.jpg",
            "first_name": "Antonio",
            "real_name": "Antonio Mangiapane",
            "display_name": "Antonio Mangiapane",
            "team": "TUU48M0T1",
            "name": "antonio.mangiapane29",
            "is_restricted": false,
            "is_ultra_restricted": false
        },
        "edited": {
            "user": "UV2P3AQEN",
            "ts": "1584810942.000000"
        },
        "blocks": [
            {
                "type": "rich_text",
                "block_id": "+tnWr",
                "elements": [
                    {
                        "type": "rich_text_section",
                        "elements": [
                            {
                                "type": "text",
                                "text": "I would also look into what some doctors did in Italy, allowing for one ventilator to be used by multiple patients hacking the tubes. \n"
                            },
                            {
                                "type": "text",
                                "text": "If this is viable than it could mean an almost instant expansion of already verified and graded medical instruments."
                            }
                        ]
                    }
                ]
            }
        ],
        "thread_ts": "1584810498.096000",
        "reply_count": 6,
        "reply_users_count": 3,
        "latest_reply": "1585048379.119200",
        "reply_users": [
            "U0102NEMRTR",
            "UV2P3AQEN",
            "U010HTBUHS9"
        ],
        "replies": [
            {
                "user": "U0102NEMRTR",
                "ts": "1584965143.116700"
            },
            {
                "user": "UV2P3AQEN",
                "ts": "1584965376.116900"
            },
            {
                "user": "U010HTBUHS9",
                "ts": "1584987952.117200"
            },
            {
                "user": "UV2P3AQEN",
                "ts": "1584988532.117400"
            },
            {
                "user": "U010HTBUHS9",
                "ts": "1585013996.117700"
            },
            {
                "user": "UV2P3AQEN",
                "ts": "1585048379.119200"
            }
        ],
        "subscribed": false
    },
    {
        "client_msg_id": "5018557a-207d-44ee-9d60-b91dac69c781",
        "type": "message",
        "text": "We will need to add networking to the controls, suggest orange Pi Zero, can communicate via serial tty with arduino board.",
        "user": "U0108DWH5NH",
        "ts": "1584810768.096100",
        "team": "TUU48M0T1",
        "user_team": "TUU48M0T1",
        "source_team": "TUU48M0T1",
        "user_profile": {
            "avatar_hash": "gd582b07cb4c",
            "image_72": "https:\/\/secure.gravatar.com\/avatar\/d582b07cb4cff8ecfdf7095f4f4eefc5.jpg?s=72&d=https%3A%2F%2Fa.slack-edge.com%2Fdf10d%2Fimg%2Favatars%2Fava_0025-72.png",
            "first_name": "",
            "real_name": "Juraj Marak",
            "display_name": "Juraj Marak",
            "team": "TUU48M0T1",
            "name": "kukulo2011",
            "is_restricted": false,
            "is_ultra_restricted": false
        },
        "blocks": [
            {
                "type": "rich_text",
                "block_id": "J0M",
                "elements": [
                    {
                        "type": "rich_text_section",
                        "elements": [
                            {
                                "type": "text",
                                "text": "We will need to add networking to the controls, suggest orange Pi Zero, can communicate via serial tty with arduino board."
                            }
                        ]
                    }
                ]
            }
        ],
        "thread_ts": "1584747678.082100",
        "parent_user_id": "U010B4EJG2C"
    },
    {
        "client_msg_id": "1665396c-029e-4f1e-9d70-4b6c7d36de70",
        "type": "message",
        "text": "Once the communication is set up we could connect via USB or via tx, rx, gnd pins of Orange Pi Zero.",
        "user": "U0108DWH5NH",
        "ts": "1584810853.096300",
        "team": "TUU48M0T1",
        "user_team": "TUU48M0T1",
        "source_team": "TUU48M0T1",
        "user_profile": {
            "avatar_hash": "gd582b07cb4c",
            "image_72": "https:\/\/secure.gravatar.com\/avatar\/d582b07cb4cff8ecfdf7095f4f4eefc5.jpg?s=72&d=https%3A%2F%2Fa.slack-edge.com%2Fdf10d%2Fimg%2Favatars%2Fava_0025-72.png",
            "first_name": "",
            "real_name": "Juraj Marak",
            "display_name": "Juraj Marak",
            "team": "TUU48M0T1",
            "name": "kukulo2011",
            "is_restricted": false,
            "is_ultra_restricted": false
        },
        "blocks": [
            {
                "type": "rich_text",
                "block_id": "IQYR",
                "elements": [
                    {
                        "type": "rich_text_section",
                        "elements": [
                            {
                                "type": "text",
                                "text": "Once the communication is set up we could connect via USB or via tx, rx, gnd pins of Orange Pi Zero."
                            }
                        ]
                    }
                ]
            }
        ],
        "thread_ts": "1584747678.082100",
        "parent_user_id": "U010B4EJG2C"
    },
    {
        "client_msg_id": "e941e7a7-dee3-43dc-9bcf-d4ea839cc113",
        "type": "message",
        "text": "We had a chat with Adam this afternoon and agreed followings:",
        "user": "U0108DWH5NH",
        "ts": "1584811011.097200",
        "team": "TUU48M0T1",
        "user_team": "TUU48M0T1",
        "source_team": "TUU48M0T1",
        "user_profile": {
            "avatar_hash": "gd582b07cb4c",
            "image_72": "https:\/\/secure.gravatar.com\/avatar\/d582b07cb4cff8ecfdf7095f4f4eefc5.jpg?s=72&d=https%3A%2F%2Fa.slack-edge.com%2Fdf10d%2Fimg%2Favatars%2Fava_0025-72.png",
            "first_name": "",
            "real_name": "Juraj Marak",
            "display_name": "Juraj Marak",
            "team": "TUU48M0T1",
            "name": "kukulo2011",
            "is_restricted": false,
            "is_ultra_restricted": false
        },
        "blocks": [
            {
                "type": "rich_text",
                "block_id": "aBo8",
                "elements": [
                    {
                        "type": "rich_text_section",
                        "elements": [
                            {
                                "type": "text",
                                "text": "We had a chat with Adam this afternoon and agreed followings:"
                            }
                        ]
                    }
                ]
            }
        ]
    },
    {
        "client_msg_id": "5575d833-7009-4ab7-bd3f-26249c88a7a6",
        "type": "message",
        "text": "The part list will be maintained here: <https:\/\/docs.google.com\/spreadsheets\/d\/1e6oxAnrzavMkIw7JGMUZ8sZ8P-_ldWDLiTU5YB8n9-o\/edit?ts=5e762355#gid=0>",
        "user": "U0108DWH5NH",
        "ts": "1584811053.097700",
        "team": "TUU48M0T1",
        "user_team": "TUU48M0T1",
        "source_team": "TUU48M0T1",
        "user_profile": {
            "avatar_hash": "gd582b07cb4c",
            "image_72": "https:\/\/secure.gravatar.com\/avatar\/d582b07cb4cff8ecfdf7095f4f4eefc5.jpg?s=72&d=https%3A%2F%2Fa.slack-edge.com%2Fdf10d%2Fimg%2Favatars%2Fava_0025-72.png",
            "first_name": "",
            "real_name": "Juraj Marak",
            "display_name": "Juraj Marak",
            "team": "TUU48M0T1",
            "name": "kukulo2011",
            "is_restricted": false,
            "is_ultra_restricted": false
        },
        "blocks": [
            {
                "type": "rich_text",
                "block_id": "FLz",
                "elements": [
                    {
                        "type": "rich_text_section",
                        "elements": [
                            {
                                "type": "text",
                                "text": "The part list will be maintained here: "
                            },
                            {
                                "type": "link",
                                "url": "https:\/\/docs.google.com\/spreadsheets\/d\/1e6oxAnrzavMkIw7JGMUZ8sZ8P-_ldWDLiTU5YB8n9-o\/edit?ts=5e762355#gid=0"
                            }
                        ]
                    }
                ]
            }
        ]
    },
    {
        "client_msg_id": "83be0f4d-c841-4d17-93b1-85bc217c4921",
        "type": "message",
        "text": "Currently one design has been chosen for the development, the schema is in the part list document.",
        "user": "U0108DWH5NH",
        "ts": "1584811122.099000",
        "team": "TUU48M0T1",
        "user_team": "TUU48M0T1",
        "source_team": "TUU48M0T1",
        "user_profile": {
            "avatar_hash": "gd582b07cb4c",
            "image_72": "https:\/\/secure.gravatar.com\/avatar\/d582b07cb4cff8ecfdf7095f4f4eefc5.jpg?s=72&d=https%3A%2F%2Fa.slack-edge.com%2Fdf10d%2Fimg%2Favatars%2Fava_0025-72.png",
            "first_name": "",
            "real_name": "Juraj Marak",
            "display_name": "Juraj Marak",
            "team": "TUU48M0T1",
            "name": "kukulo2011",
            "is_restricted": false,
            "is_ultra_restricted": false
        },
        "blocks": [
            {
                "type": "rich_text",
                "block_id": "cRe",
                "elements": [
                    {
                        "type": "rich_text_section",
                        "elements": [
                            {
                                "type": "text",
                                "text": "Currently one design has been chosen for the development, the schema is in the part list document."
                            }
                        ]
                    }
                ]
            }
        ]
    },
    {
        "client_msg_id": "edf4e7ae-0073-41ff-82fb-89eb3af276ca",
        "type": "message",
        "text": "The steering unit will be Arduino Mega with standard 3D printer power supply with backup of approx 50Ah battery (a car battery is the closest and most stantard which can operate the device for approx 180 minutes.",
        "user": "U0108DWH5NH",
        "ts": "1584811248.101400",
        "team": "TUU48M0T1",
        "user_team": "TUU48M0T1",
        "source_team": "TUU48M0T1",
        "user_profile": {
            "avatar_hash": "gd582b07cb4c",
            "image_72": "https:\/\/secure.gravatar.com\/avatar\/d582b07cb4cff8ecfdf7095f4f4eefc5.jpg?s=72&d=https%3A%2F%2Fa.slack-edge.com%2Fdf10d%2Fimg%2Favatars%2Fava_0025-72.png",
            "first_name": "",
            "real_name": "Juraj Marak",
            "display_name": "Juraj Marak",
            "team": "TUU48M0T1",
            "name": "kukulo2011",
            "is_restricted": false,
            "is_ultra_restricted": false
        },
        "blocks": [
            {
                "type": "rich_text",
                "block_id": "sbeV",
                "elements": [
                    {
                        "type": "rich_text_section",
                        "elements": [
                            {
                                "type": "text",
                                "text": "The steering unit will be Arduino Mega with standard 3D printer power supply with backup of approx 50Ah battery (a car battery is the closest and most stantard which can operate the device for approx 180 minutes."
                            }
                        ]
                    }
                ]
            }
        ]
    },
    {
        "client_msg_id": "0d5e36e1-ad1b-426e-a549-0275a600c378",
        "type": "message",
        "text": "The Arduino Mega will supply the data via serial protocol in packets. The packeting protocol has to be defined. The serial connection will be via USB and Tx Rx serial connection of the board.",
        "user": "U0108DWH5NH",
        "ts": "1584811379.104500",
        "team": "TUU48M0T1",
        "user_team": "TUU48M0T1",
        "source_team": "TUU48M0T1",
        "user_profile": {
            "avatar_hash": "gd582b07cb4c",
            "image_72": "https:\/\/secure.gravatar.com\/avatar\/d582b07cb4cff8ecfdf7095f4f4eefc5.jpg?s=72&d=https%3A%2F%2Fa.slack-edge.com%2Fdf10d%2Fimg%2Favatars%2Fava_0025-72.png",
            "first_name": "",
            "real_name": "Juraj Marak",
            "display_name": "Juraj Marak",
            "team": "TUU48M0T1",
            "name": "kukulo2011",
            "is_restricted": false,
            "is_ultra_restricted": false
        },
        "blocks": [
            {
                "type": "rich_text",
                "block_id": "0C8d",
                "elements": [
                    {
                        "type": "rich_text_section",
                        "elements": [
                            {
                                "type": "text",
                                "text": "The Arduino Mega will supply the data via serial protocol in packets. The packeting protocol has to be defined. The serial connection will be via USB and Tx Rx serial connection of the board."
                            }
                        ]
                    }
                ]
            }
        ]
    },
    {
        "client_msg_id": "b5d6fa9d-7215-4ec8-a259-7b07b66433e4",
        "type": "message",
        "text": "I propose a second board for networking connection - Orange Pi Zero running Armbian and providing web interface via network to a network monitor.",
        "user": "U0108DWH5NH",
        "ts": "1584811459.107300",
        "team": "TUU48M0T1",
        "user_team": "TUU48M0T1",
        "source_team": "TUU48M0T1",
        "user_profile": {
            "avatar_hash": "gd582b07cb4c",
            "image_72": "https:\/\/secure.gravatar.com\/avatar\/d582b07cb4cff8ecfdf7095f4f4eefc5.jpg?s=72&d=https%3A%2F%2Fa.slack-edge.com%2Fdf10d%2Fimg%2Favatars%2Fava_0025-72.png",
            "first_name": "",
            "real_name": "Juraj Marak",
            "display_name": "Juraj Marak",
            "team": "TUU48M0T1",
            "name": "kukulo2011",
            "is_restricted": false,
            "is_ultra_restricted": false
        },
        "blocks": [
            {
                "type": "rich_text",
                "block_id": "ODKR",
                "elements": [
                    {
                        "type": "rich_text_section",
                        "elements": [
                            {
                                "type": "text",
                                "text": "I propose a second board for networking connection - Orange Pi Zero running Armbian and providing web interface via network to a network monitor."
                            }
                        ]
                    }
                ]
            }
        ]
    },
    {
        "client_msg_id": "E4D11E2B-315A-4B45-97A3-25D9CC14D69D",
        "type": "message",
        "text": "@channel let me just remind everyone that the first hardware-team call is scheduled for 7 PM (CET), which is 35 minutes from now. It would be good to gather feedback from the activity developed regarding the ventilator project.",
        "user": "UV2P3AQEN",
        "ts": "1584811496.108300",
        "team": "TUU48M0T1",
        "user_team": "TUU48M0T1",
        "source_team": "TUU48M0T1",
        "user_profile": {
            "avatar_hash": "82d977ce9645",
            "image_72": "https:\/\/avatars.slack-edge.com\/2020-03-16\/1003452392327_82d977ce9645ebc30917_72.jpg",
            "first_name": "Antonio",
            "real_name": "Antonio Mangiapane",
            "display_name": "Antonio Mangiapane",
            "team": "TUU48M0T1",
            "name": "antonio.mangiapane29",
            "is_restricted": false,
            "is_ultra_restricted": false
        },
        "blocks": [
            {
                "type": "rich_text",
                "block_id": "Xpku7",
                "elements": [
                    {
                        "type": "rich_text_section",
                        "elements": [
                            {
                                "type": "text",
                                "text": "@channel"
                            },
                            {
                                "type": "text",
                                "text": " let me just remind everyone that the first hardware-team call is scheduled for 7 PM (CET), which is 35 minutes from now. It would be good to gather feedback from the activity developed regarding the ventilator project."
                            }
                        ]
                    }
                ]
            }
        ],
        "thread_ts": "1584811496.108300",
        "reply_count": 1,
        "reply_users_count": 1,
        "latest_reply": "1584812220.109500",
        "reply_users": [
            "U0108DWH5NH"
        ],
        "replies": [
            {
                "user": "U0108DWH5NH",
                "ts": "1584812220.109500"
            }
        ],
        "subscribed": false
    },
    {
        "client_msg_id": "01ab63ae-3fdc-40ac-b9c7-fe04f74dbbe0",
        "type": "message",
        "text": "For USB connection there is need to develop an android application for monitoring the patient via touch screen next to the ventilator device.",
        "user": "U0108DWH5NH",
        "ts": "1584811670.109400",
        "team": "TUU48M0T1",
        "user_team": "TUU48M0T1",
        "source_team": "TUU48M0T1",
        "user_profile": {
            "avatar_hash": "gd582b07cb4c",
            "image_72": "https:\/\/secure.gravatar.com\/avatar\/d582b07cb4cff8ecfdf7095f4f4eefc5.jpg?s=72&d=https%3A%2F%2Fa.slack-edge.com%2Fdf10d%2Fimg%2Favatars%2Fava_0025-72.png",
            "first_name": "",
            "real_name": "Juraj Marak",
            "display_name": "Juraj Marak",
            "team": "TUU48M0T1",
            "name": "kukulo2011",
            "is_restricted": false,
            "is_ultra_restricted": false
        },
        "blocks": [
            {
                "type": "rich_text",
                "block_id": "ES8",
                "elements": [
                    {
                        "type": "rich_text_section",
                        "elements": [
                            {
                                "type": "text",
                                "text": "For USB connection there is need to develop an android application for monitoring the patient via touch screen next to the ventilator device."
                            }
                        ]
                    }
                ]
            }
        ]
    },
    {
        "client_msg_id": "693e8227-fb6c-4df4-83ff-851a391983a4",
        "type": "message",
        "text": "Sure",
        "user": "U0108DWH5NH",
        "ts": "1584812220.109500",
        "team": "TUU48M0T1",
        "user_team": "TUU48M0T1",
        "source_team": "TUU48M0T1",
        "user_profile": {
            "avatar_hash": "gd582b07cb4c",
            "image_72": "https:\/\/secure.gravatar.com\/avatar\/d582b07cb4cff8ecfdf7095f4f4eefc5.jpg?s=72&d=https%3A%2F%2Fa.slack-edge.com%2Fdf10d%2Fimg%2Favatars%2Fava_0025-72.png",
            "first_name": "",
            "real_name": "Juraj Marak",
            "display_name": "Juraj Marak",
            "team": "TUU48M0T1",
            "name": "kukulo2011",
            "is_restricted": false,
            "is_ultra_restricted": false
        },
        "blocks": [
            {
                "type": "rich_text",
                "block_id": "XOCuO",
                "elements": [
                    {
                        "type": "rich_text_section",
                        "elements": [
                            {
                                "type": "text",
                                "text": "Sure"
                            }
                        ]
                    }
                ]
            }
        ],
        "thread_ts": "1584811496.108300",
        "parent_user_id": "UV2P3AQEN"
    },
    {
        "client_msg_id": "6bdbee1d-d9f4-455f-bbf6-250e13141b02",
        "type": "message",
        "text": "There is a preliminary of updated Requirements: <https:\/\/cdn.fs.agorize.com\/RB13ohsKTmKYMI7k9XZb>",
        "user": "U010B4EJG2C",
        "ts": "1584812721.110000",
        "team": "TUU48M0T1",
        "user_team": "TUU48M0T1",
        "source_team": "TUU48M0T1",
        "user_profile": {
            "avatar_hash": "5c9626d7b328",
            "image_72": "https:\/\/avatars.slack-edge.com\/2020-03-19\/1011171782821_5c9626d7b328e5dc84ea_72.jpg",
            "first_name": "Adam",
            "real_name": "Adam Krovina",
            "display_name": "Adam Krovina",
            "team": "TUU48M0T1",
            "name": "adam",
            "is_restricted": false,
            "is_ultra_restricted": false
        },
        "blocks": [
            {
                "type": "rich_text",
                "block_id": "nikF",
                "elements": [
                    {
                        "type": "rich_text_section",
                        "elements": [
                            {
                                "type": "text",
                                "text": "There is a preliminary of updated Requirements: "
                            },
                            {
                                "type": "link",
                                "url": "https:\/\/cdn.fs.agorize.com\/RB13ohsKTmKYMI7k9XZb"
                            }
                        ]
                    }
                ]
            }
        ],
        "reactions": [
            {
                "name": "+1",
                "users": [
                    "UV2P3AQEN"
                ],
                "count": 1
            }
        ]
    }
]