[
    {
        "type": "message",
        "subtype": "channel_join",
        "ts": "1584547329.000200",
        "user": "U0108DWH5NH",
        "text": "<@U0108DWH5NH> has joined the channel"
    },
    {
        "type": "message",
        "subtype": "channel_purpose",
        "ts": "1584547330.000300",
        "user": "U0108DWH5NH",
        "text": "<@U0108DWH5NH> set the channel purpose: Covid-19 Ventilator",
        "purpose": "Covid-19 Ventilator"
    },
    {
        "client_msg_id": "774f2bb5-aa36-456c-a304-d93cf37f26bf",
        "type": "message",
        "text": "<https:\/\/www.instructables.com\/id\/The-Pandemic-Ventilator\/>   is a good base to start. Instead of PLC, the Arduino could be used with usb port connected with OTG USB cable to tablet or old phone.\nThe communication from Arduino could be via tty serial and an android app could send monitoring data and back could be sent serial keystrokes for steering the unit\nThe power supply could be a computer power supply which can supply +12V for the solenoid valves and +5V for Arduino and USB phone.",
        "user": "U0108DWH5NH",
        "ts": "1584547356.000500",
        "team": "TUU48M0T1",
        "user_team": "TUU48M0T1",
        "source_team": "TUU48M0T1",
        "user_profile": {
            "avatar_hash": "gd582b07cb4c",
            "image_72": "https:\/\/secure.gravatar.com\/avatar\/d582b07cb4cff8ecfdf7095f4f4eefc5.jpg?s=72&d=https%3A%2F%2Fa.slack-edge.com%2Fdf10d%2Fimg%2Favatars%2Fava_0025-72.png",
            "first_name": "",
            "real_name": "Juraj Marak",
            "display_name": "Juraj Marak",
            "team": "TUU48M0T1",
            "name": "kukulo2011",
            "is_restricted": false,
            "is_ultra_restricted": false
        },
        "attachments": [
            {
                "service_name": "Instructables",
                "title": "The Pandemic Ventilator",
                "title_link": "https:\/\/www.instructables.com\/id\/The-Pandemic-Ventilator\/",
                "text": "The Pandemic Ventilator: Assembly instructions for a DIY Ventilator prototype.This could be useful in an Avian Flu pandemic.Constructed with commonly available components.Many of us modify, hack, re-purpose, and DIY to save money, build something unique, create art, or sh...",
                "fallback": "Instructables: The Pandemic Ventilator",
                "image_url": "https:\/\/cdn.instructables.com\/F4M\/LUIM\/FAKWQ638\/F4MLUIMFAKWQ638.LARGE.jpg?auto=webp&&frame=1",
                "image_width": 333,
                "image_height": 250,
                "from_url": "https:\/\/www.instructables.com\/id\/The-Pandemic-Ventilator\/",
                "image_bytes": 33380,
                "service_icon": "https:\/\/www.instructables.com\/favicon.ico",
                "id": 1,
                "original_url": "https:\/\/www.instructables.com\/id\/The-Pandemic-Ventilator\/"
            }
        ],
        "blocks": [
            {
                "type": "rich_text",
                "block_id": "dQoBU",
                "elements": [
                    {
                        "type": "rich_text_section",
                        "elements": [
                            {
                                "type": "link",
                                "url": "https:\/\/www.instructables.com\/id\/The-Pandemic-Ventilator\/"
                            },
                            {
                                "type": "text",
                                "text": "   is a good base to start. Instead of PLC, the Arduino could be used with usb port connected with OTG USB cable to tablet or old phone.\nThe communication from Arduino could be via tty serial and an android app could send monitoring data and back could be sent serial keystrokes for steering the unit\nThe power supply could be a computer power supply which can supply +12V for the solenoid valves and +5V for Arduino and USB phone."
                            }
                        ]
                    }
                ]
            }
        ],
        "thread_ts": "1584547356.000500",
        "reply_count": 13,
        "reply_users_count": 2,
        "latest_reply": "1584554647.010100",
        "reply_users": [
            "U0107NS25A4",
            "U0108DWH5NH"
        ],
        "replies": [
            {
                "user": "U0107NS25A4",
                "ts": "1584552401.002200"
            },
            {
                "user": "U0108DWH5NH",
                "ts": "1584553214.002600"
            },
            {
                "user": "U0108DWH5NH",
                "ts": "1584553340.002800"
            },
            {
                "user": "U0107NS25A4",
                "ts": "1584553727.003200"
            },
            {
                "user": "U0108DWH5NH",
                "ts": "1584553733.003400"
            },
            {
                "user": "U0108DWH5NH",
                "ts": "1584553905.003800"
            },
            {
                "user": "U0108DWH5NH",
                "ts": "1584554061.004100"
            },
            {
                "user": "U0108DWH5NH",
                "ts": "1584554080.004300"
            },
            {
                "user": "U0107NS25A4",
                "ts": "1584554205.006100"
            },
            {
                "user": "U0108DWH5NH",
                "ts": "1584554610.009200"
            },
            {
                "user": "U0108DWH5NH",
                "ts": "1584554620.009700"
            },
            {
                "user": "U0108DWH5NH",
                "ts": "1584554630.009900"
            },
            {
                "user": "U0108DWH5NH",
                "ts": "1584554647.010100"
            }
        ],
        "subscribed": false
    },
    {
        "client_msg_id": "c58c18d0-be8c-4597-a402-a44183b61236",
        "type": "message",
        "text": "I would need details on the commercially available units, what is missing from this schema.",
        "user": "U0108DWH5NH",
        "ts": "1584547375.000800",
        "team": "TUU48M0T1",
        "user_team": "TUU48M0T1",
        "source_team": "TUU48M0T1",
        "user_profile": {
            "avatar_hash": "gd582b07cb4c",
            "image_72": "https:\/\/secure.gravatar.com\/avatar\/d582b07cb4cff8ecfdf7095f4f4eefc5.jpg?s=72&d=https%3A%2F%2Fa.slack-edge.com%2Fdf10d%2Fimg%2Favatars%2Fava_0025-72.png",
            "first_name": "",
            "real_name": "Juraj Marak",
            "display_name": "Juraj Marak",
            "team": "TUU48M0T1",
            "name": "kukulo2011",
            "is_restricted": false,
            "is_ultra_restricted": false
        },
        "blocks": [
            {
                "type": "rich_text",
                "block_id": "6sHS",
                "elements": [
                    {
                        "type": "rich_text_section",
                        "elements": [
                            {
                                "type": "text",
                                "text": "I would need details on the commercially available units, what is missing from this schema."
                            }
                        ]
                    }
                ]
            }
        ]
    },
    {
        "type": "message",
        "subtype": "channel_join",
        "ts": "1584551200.001000",
        "user": "U0107NS25A4",
        "text": "<@U0107NS25A4> has joined the channel"
    },
    {
        "client_msg_id": "edfc9b0a-316d-4a02-ad67-205c6c0744c8",
        "type": "message",
        "text": "<https:\/\/docs.google.com\/document\/d\/1RDihfZIOEYs60kPEIVDe7gmsxdYgUosF9sr45mgFxY8\/>",
        "user": "U0107NS25A4",
        "ts": "1584551398.001600",
        "team": "TUU48M0T1",
        "user_team": "TUU48M0T1",
        "source_team": "TUU48M0T1",
        "user_profile": {
            "avatar_hash": "g59a46c49b36",
            "image_72": "https:\/\/secure.gravatar.com\/avatar\/59a46c49b36e636ad0775c910915ee3b.jpg?s=72&d=https%3A%2F%2Fa.slack-edge.com%2Fdf10d%2Fimg%2Favatars%2Fava_0012-72.png",
            "first_name": "jmunsch",
            "real_name": "jmunsch",
            "display_name": "jmunsch",
            "team": "TUU48M0T1",
            "name": "james.a.munsch",
            "is_restricted": false,
            "is_ultra_restricted": false
        },
        "blocks": [
            {
                "type": "rich_text",
                "block_id": "rHz",
                "elements": [
                    {
                        "type": "rich_text_section",
                        "elements": [
                            {
                                "type": "link",
                                "url": "https:\/\/docs.google.com\/document\/d\/1RDihfZIOEYs60kPEIVDe7gmsxdYgUosF9sr45mgFxY8\/"
                            }
                        ]
                    }
                ]
            }
        ]
    },
    {
        "type": "message",
        "subtype": "channel_join",
        "ts": "1584551430.001900",
        "user": "UUNGFHSV8",
        "text": "<@UUNGFHSV8> has joined the channel"
    },
    {
        "type": "message",
        "subtype": "channel_join",
        "ts": "1584551810.002100",
        "user": "U01016B7KPY",
        "text": "<@U01016B7KPY> has joined the channel"
    },
    {
        "client_msg_id": "7c339e6e-ab2d-4b55-a408-b58e8895682a",
        "type": "message",
        "text": "<@U0108DWH5NH> What are your thoughts on the bag valve mask version in the google doc?\n\nalso saw this: <https:\/\/github.com\/jcl5m1\/ventilator>\n\nalso, wondering if a system like ( <https:\/\/www.instructables.com\/id\/How-To-Make-A-PVC-Water-Air-Vacuum-Pump\/> ) could be used, where the outlet is filtered through a 5 gallon bucket, or columnar venturi scrubber, of some sort to capture aerosol particulate, other unsafe vapors, etc\n\n2 of these ( pump and vacuum ):\n<https:\/\/en.wikipedia.org\/wiki\/Slider-crank_linkage>\n\n2 of these ( pump and vacuum ):\n<https:\/\/www.instructables.com\/id\/How-To-Make-A-PVC-Water-Air-Vacuum-Pump\/>\n\n2 - 5 gallon food grade buckets with sealable lids\n\n.95% saline solution ( chlorinated water? ) for usage in the 5 gallon buckets\n\na pipe for slider crank ( 2 x 4 plank ? ) both ends of the tube, on either end\n\nAlso saw mention of the Mark Bird 7 and 8 as possible candidates for reverse engineering\n\n<https:\/\/en.wikipedia.org\/wiki\/Forrest_Bird#\/media\/File:Bird_Mark_8_Medical_respirator1.JPG>\n\n<http:\/\/www.freepatentsonline.com\/20190336713.pdf>\n\n<https:\/\/www.ebay.com\/c\/1077897064>\n\n<https:\/\/patents.google.com\/patent\/US3191596A\/>",
        "user": "U0107NS25A4",
        "ts": "1584552401.002200",
        "team": "TUU48M0T1",
        "user_team": "TUU48M0T1",
        "source_team": "TUU48M0T1",
        "user_profile": {
            "avatar_hash": "g59a46c49b36",
            "image_72": "https:\/\/secure.gravatar.com\/avatar\/59a46c49b36e636ad0775c910915ee3b.jpg?s=72&d=https%3A%2F%2Fa.slack-edge.com%2Fdf10d%2Fimg%2Favatars%2Fava_0012-72.png",
            "first_name": "jmunsch",
            "real_name": "jmunsch",
            "display_name": "jmunsch",
            "team": "TUU48M0T1",
            "name": "james.a.munsch",
            "is_restricted": false,
            "is_ultra_restricted": false
        },
        "edited": {
            "user": "U0107NS25A4",
            "ts": "1584552410.000000"
        },
        "blocks": [
            {
                "type": "rich_text",
                "block_id": "wK8H0",
                "elements": [
                    {
                        "type": "rich_text_section",
                        "elements": [
                            {
                                "type": "user",
                                "user_id": "U0108DWH5NH"
                            },
                            {
                                "type": "text",
                                "text": " What are your thoughts on the bag valve mask version in the google doc?\n\nalso saw this: "
                            },
                            {
                                "type": "link",
                                "url": "https:\/\/github.com\/jcl5m1\/ventilator"
                            },
                            {
                                "type": "text",
                                "text": "\n\nalso, wondering if a system like ( "
                            },
                            {
                                "type": "link",
                                "url": "https:\/\/www.instructables.com\/id\/How-To-Make-A-PVC-Water-Air-Vacuum-Pump\/"
                            },
                            {
                                "type": "text",
                                "text": " ) could be used, where the outlet is filtered through a 5 gallon bucket, or columnar venturi scrubber, of some sort to capture aerosol particulate, other unsafe vapors, etc\n\n2 of these ( pump and vacuum ):\n"
                            },
                            {
                                "type": "link",
                                "url": "https:\/\/en.wikipedia.org\/wiki\/Slider-crank_linkage"
                            },
                            {
                                "type": "text",
                                "text": "\n\n2 of these ( pump and vacuum ):\n"
                            },
                            {
                                "type": "link",
                                "url": "https:\/\/www.instructables.com\/id\/How-To-Make-A-PVC-Water-Air-Vacuum-Pump\/"
                            },
                            {
                                "type": "text",
                                "text": "\n\n2 - 5 gallon food grade buckets with sealable lids\n\n.95% saline solution ( chlorinated water? ) for usage in the 5 gallon buckets\n\na pipe for slider crank ( 2 x 4 plank ? ) both ends of the tube, on either end\n\nAlso saw mention of the Mark Bird 7 and 8 as possible candidates for reverse engineering\n\n"
                            },
                            {
                                "type": "link",
                                "url": "https:\/\/en.wikipedia.org\/wiki\/Forrest_Bird#\/media\/File:Bird_Mark_8_Medical_respirator1.JPG"
                            },
                            {
                                "type": "text",
                                "text": "\n\n"
                            },
                            {
                                "type": "link",
                                "url": "http:\/\/www.freepatentsonline.com\/20190336713.pdf"
                            },
                            {
                                "type": "text",
                                "text": "\n\n"
                            },
                            {
                                "type": "link",
                                "url": "https:\/\/www.ebay.com\/c\/1077897064"
                            },
                            {
                                "type": "text",
                                "text": "\n\n"
                            },
                            {
                                "type": "link",
                                "url": "https:\/\/patents.google.com\/patent\/US3191596A\/"
                            }
                        ]
                    }
                ]
            }
        ],
        "thread_ts": "1584547356.000500",
        "parent_user_id": "U0108DWH5NH"
    },
    {
        "client_msg_id": "bee48caa-e9c6-4a5f-a26c-3ab890cf5585",
        "type": "message",
        "text": "<https:\/\/patents.google.com\/patent\/US3191596A> can be used without restriction now, it is over 20 years old, mechanical one",
        "user": "U0108DWH5NH",
        "ts": "1584553214.002600",
        "team": "TUU48M0T1",
        "user_team": "TUU48M0T1",
        "source_team": "TUU48M0T1",
        "user_profile": {
            "avatar_hash": "gd582b07cb4c",
            "image_72": "https:\/\/secure.gravatar.com\/avatar\/d582b07cb4cff8ecfdf7095f4f4eefc5.jpg?s=72&d=https%3A%2F%2Fa.slack-edge.com%2Fdf10d%2Fimg%2Favatars%2Fava_0025-72.png",
            "first_name": "",
            "real_name": "Juraj Marak",
            "display_name": "Juraj Marak",
            "team": "TUU48M0T1",
            "name": "kukulo2011",
            "is_restricted": false,
            "is_ultra_restricted": false
        },
        "blocks": [
            {
                "type": "rich_text",
                "block_id": "enu8",
                "elements": [
                    {
                        "type": "rich_text_section",
                        "elements": [
                            {
                                "type": "link",
                                "url": "https:\/\/patents.google.com\/patent\/US3191596A"
                            },
                            {
                                "type": "text",
                                "text": " can be used without restriction now, it is over 20 years old, mechanical one"
                            }
                        ]
                    }
                ]
            }
        ],
        "thread_ts": "1584547356.000500",
        "parent_user_id": "U0108DWH5NH"
    },
    {
        "client_msg_id": "35902630-4b13-4039-8234-cabb96302b54",
        "type": "message",
        "text": "The link in google doc is invalid.",
        "user": "U0108DWH5NH",
        "ts": "1584553340.002800",
        "team": "TUU48M0T1",
        "user_team": "TUU48M0T1",
        "source_team": "TUU48M0T1",
        "user_profile": {
            "avatar_hash": "gd582b07cb4c",
            "image_72": "https:\/\/secure.gravatar.com\/avatar\/d582b07cb4cff8ecfdf7095f4f4eefc5.jpg?s=72&d=https%3A%2F%2Fa.slack-edge.com%2Fdf10d%2Fimg%2Favatars%2Fava_0025-72.png",
            "first_name": "",
            "real_name": "Juraj Marak",
            "display_name": "Juraj Marak",
            "team": "TUU48M0T1",
            "name": "kukulo2011",
            "is_restricted": false,
            "is_ultra_restricted": false
        },
        "blocks": [
            {
                "type": "rich_text",
                "block_id": "c=9=",
                "elements": [
                    {
                        "type": "rich_text_section",
                        "elements": [
                            {
                                "type": "text",
                                "text": "The link in google doc is invalid."
                            }
                        ]
                    }
                ]
            }
        ],
        "thread_ts": "1584547356.000500",
        "parent_user_id": "U0108DWH5NH"
    },
    {
        "type": "message",
        "subtype": "channel_join",
        "ts": "1584553423.003100",
        "user": "U0100EPL9RT",
        "text": "<@U0100EPL9RT> has joined the channel"
    },
    {
        "client_msg_id": "28faf856-0517-4dcf-b820-9324737ee1e3",
        "type": "message",
        "text": "<@U0108DWH5NH> ah which link is broken?",
        "user": "U0107NS25A4",
        "ts": "1584553727.003200",
        "team": "TUU48M0T1",
        "user_team": "TUU48M0T1",
        "source_team": "TUU48M0T1",
        "user_profile": {
            "avatar_hash": "g59a46c49b36",
            "image_72": "https:\/\/secure.gravatar.com\/avatar\/59a46c49b36e636ad0775c910915ee3b.jpg?s=72&d=https%3A%2F%2Fa.slack-edge.com%2Fdf10d%2Fimg%2Favatars%2Fava_0012-72.png",
            "first_name": "jmunsch",
            "real_name": "jmunsch",
            "display_name": "jmunsch",
            "team": "TUU48M0T1",
            "name": "james.a.munsch",
            "is_restricted": false,
            "is_ultra_restricted": false
        },
        "blocks": [
            {
                "type": "rich_text",
                "block_id": "1\/9n0",
                "elements": [
                    {
                        "type": "rich_text_section",
                        "elements": [
                            {
                                "type": "user",
                                "user_id": "U0108DWH5NH"
                            },
                            {
                                "type": "text",
                                "text": " ah which link is broken?"
                            }
                        ]
                    }
                ]
            }
        ],
        "thread_ts": "1584547356.000500",
        "parent_user_id": "U0108DWH5NH"
    },
    {
        "client_msg_id": "d54278bb-3a01-4243-8a93-ce236ea53870",
        "type": "message",
        "text": "The <https:\/\/github.com\/jcl5m1\/ventilator> seems to be quite good one.",
        "user": "U0108DWH5NH",
        "ts": "1584553733.003400",
        "team": "TUU48M0T1",
        "user_team": "TUU48M0T1",
        "source_team": "TUU48M0T1",
        "user_profile": {
            "avatar_hash": "gd582b07cb4c",
            "image_72": "https:\/\/secure.gravatar.com\/avatar\/d582b07cb4cff8ecfdf7095f4f4eefc5.jpg?s=72&d=https%3A%2F%2Fa.slack-edge.com%2Fdf10d%2Fimg%2Favatars%2Fava_0025-72.png",
            "first_name": "",
            "real_name": "Juraj Marak",
            "display_name": "Juraj Marak",
            "team": "TUU48M0T1",
            "name": "kukulo2011",
            "is_restricted": false,
            "is_ultra_restricted": false
        },
        "blocks": [
            {
                "type": "rich_text",
                "block_id": "OCzr",
                "elements": [
                    {
                        "type": "rich_text_section",
                        "elements": [
                            {
                                "type": "text",
                                "text": "The "
                            },
                            {
                                "type": "link",
                                "url": "https:\/\/github.com\/jcl5m1\/ventilator"
                            },
                            {
                                "type": "text",
                                "text": " seems to be quite good one."
                            }
                        ]
                    }
                ]
            }
        ],
        "thread_ts": "1584547356.000500",
        "parent_user_id": "U0108DWH5NH"
    },
    {
        "type": "message",
        "subtype": "channel_join",
        "ts": "1584553814.003700",
        "user": "UUNQ7H1MG",
        "text": "<@UUNQ7H1MG> has joined the channel"
    },
    {
        "client_msg_id": "388a4809-b4c3-4eb9-a285-4a6cb23e9b84",
        "type": "message",
        "text": "I am pretty sure that arduino is too small to analyze the breath frequency and back load. My idea would be to connect a smartphone or tablet and communicate with arduino with serial tty, this would be a quite easy task to accomplish.",
        "user": "U0108DWH5NH",
        "ts": "1584553905.003800",
        "team": "TUU48M0T1",
        "user_team": "TUU48M0T1",
        "source_team": "TUU48M0T1",
        "user_profile": {
            "avatar_hash": "gd582b07cb4c",
            "image_72": "https:\/\/secure.gravatar.com\/avatar\/d582b07cb4cff8ecfdf7095f4f4eefc5.jpg?s=72&d=https%3A%2F%2Fa.slack-edge.com%2Fdf10d%2Fimg%2Favatars%2Fava_0025-72.png",
            "first_name": "",
            "real_name": "Juraj Marak",
            "display_name": "Juraj Marak",
            "team": "TUU48M0T1",
            "name": "kukulo2011",
            "is_restricted": false,
            "is_ultra_restricted": false
        },
        "blocks": [
            {
                "type": "rich_text",
                "block_id": "up8",
                "elements": [
                    {
                        "type": "rich_text_section",
                        "elements": [
                            {
                                "type": "text",
                                "text": "I am pretty sure that arduino is too small to analyze the breath frequency and back load. My idea would be to connect a smartphone or tablet and communicate with arduino with serial tty, this would be a quite easy task to accomplish."
                            }
                        ]
                    }
                ]
            }
        ],
        "thread_ts": "1584547356.000500",
        "parent_user_id": "U0108DWH5NH",
        "reactions": [
            {
                "name": "heavy_plus_sign",
                "users": [
                    "U0107NS25A4"
                ],
                "count": 1
            }
        ]
    },
    {
        "type": "message",
        "subtype": "channel_topic",
        "ts": "1584553946.004000",
        "user": "U0107NS25A4",
        "text": "<@U0107NS25A4> set the channel topic: Discussion of potential ventilator projects and designs.",
        "topic": "Discussion of potential ventilator projects and designs."
    },
    {
        "client_msg_id": "40b383cf-51cc-48a1-8ee7-07e138f683a1",
        "type": "message",
        "text": "You have space after the https ,",
        "user": "U0108DWH5NH",
        "ts": "1584554061.004100",
        "team": "TUU48M0T1",
        "user_team": "TUU48M0T1",
        "source_team": "TUU48M0T1",
        "user_profile": {
            "avatar_hash": "gd582b07cb4c",
            "image_72": "https:\/\/secure.gravatar.com\/avatar\/d582b07cb4cff8ecfdf7095f4f4eefc5.jpg?s=72&d=https%3A%2F%2Fa.slack-edge.com%2Fdf10d%2Fimg%2Favatars%2Fava_0025-72.png",
            "first_name": "",
            "real_name": "Juraj Marak",
            "display_name": "Juraj Marak",
            "team": "TUU48M0T1",
            "name": "kukulo2011",
            "is_restricted": false,
            "is_ultra_restricted": false
        },
        "blocks": [
            {
                "type": "rich_text",
                "block_id": "jtwRV",
                "elements": [
                    {
                        "type": "rich_text_section",
                        "elements": [
                            {
                                "type": "text",
                                "text": "You have space after the https ,"
                            }
                        ]
                    }
                ]
            }
        ],
        "thread_ts": "1584547356.000500",
        "parent_user_id": "U0108DWH5NH"
    },
    {
        "client_msg_id": "8e08c397-a953-4ca9-85d0-c01c0c178c71",
        "type": "message",
        "text": "that is why it is showing an invalid link",
        "user": "U0108DWH5NH",
        "ts": "1584554080.004300",
        "team": "TUU48M0T1",
        "user_team": "TUU48M0T1",
        "source_team": "TUU48M0T1",
        "user_profile": {
            "avatar_hash": "gd582b07cb4c",
            "image_72": "https:\/\/secure.gravatar.com\/avatar\/d582b07cb4cff8ecfdf7095f4f4eefc5.jpg?s=72&d=https%3A%2F%2Fa.slack-edge.com%2Fdf10d%2Fimg%2Favatars%2Fava_0025-72.png",
            "first_name": "",
            "real_name": "Juraj Marak",
            "display_name": "Juraj Marak",
            "team": "TUU48M0T1",
            "name": "kukulo2011",
            "is_restricted": false,
            "is_ultra_restricted": false
        },
        "blocks": [
            {
                "type": "rich_text",
                "block_id": "APyTO",
                "elements": [
                    {
                        "type": "rich_text_section",
                        "elements": [
                            {
                                "type": "text",
                                "text": "that is why it is showing an invalid link"
                            }
                        ]
                    }
                ]
            }
        ],
        "thread_ts": "1584547356.000500",
        "parent_user_id": "U0108DWH5NH"
    },
    {
        "client_msg_id": "e0d714c5-e9f5-4fa5-bd27-1d76a4c4aaee",
        "type": "message",
        "text": "<@U0108DWH5NH> which link is it, and where is it located. I can try to update it.",
        "user": "U0107NS25A4",
        "ts": "1584554205.006100",
        "team": "TUU48M0T1",
        "user_team": "TUU48M0T1",
        "source_team": "TUU48M0T1",
        "user_profile": {
            "avatar_hash": "g59a46c49b36",
            "image_72": "https:\/\/secure.gravatar.com\/avatar\/59a46c49b36e636ad0775c910915ee3b.jpg?s=72&d=https%3A%2F%2Fa.slack-edge.com%2Fdf10d%2Fimg%2Favatars%2Fava_0012-72.png",
            "first_name": "jmunsch",
            "real_name": "jmunsch",
            "display_name": "jmunsch",
            "team": "TUU48M0T1",
            "name": "james.a.munsch",
            "is_restricted": false,
            "is_ultra_restricted": false
        },
        "blocks": [
            {
                "type": "rich_text",
                "block_id": "=pST",
                "elements": [
                    {
                        "type": "rich_text_section",
                        "elements": [
                            {
                                "type": "user",
                                "user_id": "U0108DWH5NH"
                            },
                            {
                                "type": "text",
                                "text": " which link is it, and where is it located. I can try to update it."
                            }
                        ]
                    }
                ]
            }
        ],
        "thread_ts": "1584547356.000500",
        "parent_user_id": "U0108DWH5NH"
    },
    {
        "client_msg_id": "79113f46-2045-4461-b07f-d17f81a27165",
        "type": "message",
        "text": "The <https:\/\/github.com\/jcl5m1\/ventilator> is a good one whereas the <https:\/\/patents.google.com\/patent\/US3191596A\/> is a mechanical version. The pure mechanical would require fine-tuning the volume, valves, etc. This would consume too much time to develop. Here would come the arduino with the back load analysis handy. The question is the availability of the blower. This will be the weakest link in the chain.",
        "user": "U0108DWH5NH",
        "ts": "1584554425.008300",
        "team": "TUU48M0T1",
        "user_team": "TUU48M0T1",
        "source_team": "TUU48M0T1",
        "user_profile": {
            "avatar_hash": "gd582b07cb4c",
            "image_72": "https:\/\/secure.gravatar.com\/avatar\/d582b07cb4cff8ecfdf7095f4f4eefc5.jpg?s=72&d=https%3A%2F%2Fa.slack-edge.com%2Fdf10d%2Fimg%2Favatars%2Fava_0025-72.png",
            "first_name": "",
            "real_name": "Juraj Marak",
            "display_name": "Juraj Marak",
            "team": "TUU48M0T1",
            "name": "kukulo2011",
            "is_restricted": false,
            "is_ultra_restricted": false
        },
        "attachments": [
            {
                "fallback": "jcl5m1\/ventilator",
                "text": "Low-Cost Open Source Ventilator",
                "title": "jcl5m1\/ventilator",
                "footer": "<https:\/\/github.com\/jcl5m1\/ventilator|jcl5m1\/ventilator>",
                "id": 1,
                "footer_icon": "https:\/\/github.githubassets.com\/favicon.ico",
                "ts": 1584356933,
                "color": "24292f",
                "fields": [
                    {
                        "title": "Stars",
                        "value": "486",
                        "short": true
                    },
                    {
                        "title": "Language",
                        "value": "C++",
                        "short": true
                    }
                ],
                "mrkdwn_in": [
                    "text",
                    "fields"
                ],
                "bot_id": "BUW789DM0",
                "app_unfurl_url": "https:\/\/github.com\/jcl5m1\/ventilator",
                "is_app_unfurl": true
            }
        ],
        "blocks": [
            {
                "type": "rich_text",
                "block_id": "KMV",
                "elements": [
                    {
                        "type": "rich_text_section",
                        "elements": [
                            {
                                "type": "text",
                                "text": "The "
                            },
                            {
                                "type": "link",
                                "url": "https:\/\/github.com\/jcl5m1\/ventilator"
                            },
                            {
                                "type": "text",
                                "text": " is a good one whereas the "
                            },
                            {
                                "type": "link",
                                "url": "https:\/\/patents.google.com\/patent\/US3191596A\/"
                            },
                            {
                                "type": "text",
                                "text": " is a mechanical version. The pure mechanical would require fine-tuning the volume, valves, etc. This would consume too much time to develop. Here would come the arduino with the back load analysis handy. The question is the availability of the blower. This will be the weakest link in the chain."
                            }
                        ]
                    }
                ]
            }
        ],
        "reactions": [
            {
                "name": "heavy_plus_sign",
                "users": [
                    "U0107NS25A4"
                ],
                "count": 1
            }
        ]
    },
    {
        "client_msg_id": "bd728562-38d9-4a66-b7d5-4f65f4ec4a8b",
        "type": "message",
        "text": "The question is whether the <https:\/\/github.com\/jcl5m1\/ventilator> would be enough?",
        "user": "U0108DWH5NH",
        "ts": "1584554541.009100",
        "team": "TUU48M0T1",
        "user_team": "TUU48M0T1",
        "source_team": "TUU48M0T1",
        "user_profile": {
            "avatar_hash": "gd582b07cb4c",
            "image_72": "https:\/\/secure.gravatar.com\/avatar\/d582b07cb4cff8ecfdf7095f4f4eefc5.jpg?s=72&d=https%3A%2F%2Fa.slack-edge.com%2Fdf10d%2Fimg%2Favatars%2Fava_0025-72.png",
            "first_name": "",
            "real_name": "Juraj Marak",
            "display_name": "Juraj Marak",
            "team": "TUU48M0T1",
            "name": "kukulo2011",
            "is_restricted": false,
            "is_ultra_restricted": false
        },
        "blocks": [
            {
                "type": "rich_text",
                "block_id": "5v2",
                "elements": [
                    {
                        "type": "rich_text_section",
                        "elements": [
                            {
                                "type": "text",
                                "text": "The question is whether the "
                            },
                            {
                                "type": "link",
                                "url": "https:\/\/github.com\/jcl5m1\/ventilator"
                            },
                            {
                                "type": "text",
                                "text": " would be enough?"
                            }
                        ]
                    }
                ]
            }
        ]
    },
    {
        "client_msg_id": "b6f6d714-1872-4768-8aca-8a5b725d9354",
        "type": "message",
        "text": "<https:\/\/docs.google.com\/document\/d\/1RDihfZIOEYs60kPEIVDe7gmsxdYgUosF9sr45mgFxY8\/preview#>",
        "user": "U0108DWH5NH",
        "ts": "1584554610.009200",
        "team": "TUU48M0T1",
        "user_team": "TUU48M0T1",
        "source_team": "TUU48M0T1",
        "user_profile": {
            "avatar_hash": "gd582b07cb4c",
            "image_72": "https:\/\/secure.gravatar.com\/avatar\/d582b07cb4cff8ecfdf7095f4f4eefc5.jpg?s=72&d=https%3A%2F%2Fa.slack-edge.com%2Fdf10d%2Fimg%2Favatars%2Fava_0025-72.png",
            "first_name": "",
            "real_name": "Juraj Marak",
            "display_name": "Juraj Marak",
            "team": "TUU48M0T1",
            "name": "kukulo2011",
            "is_restricted": false,
            "is_ultra_restricted": false
        },
        "blocks": [
            {
                "type": "rich_text",
                "block_id": "HRO",
                "elements": [
                    {
                        "type": "rich_text_section",
                        "elements": [
                            {
                                "type": "link",
                                "url": "https:\/\/docs.google.com\/document\/d\/1RDihfZIOEYs60kPEIVDe7gmsxdYgUosF9sr45mgFxY8\/preview#"
                            }
                        ]
                    }
                ]
            }
        ],
        "thread_ts": "1584547356.000500",
        "parent_user_id": "U0108DWH5NH"
    },
    {
        "client_msg_id": "98a2898b-044c-435e-960a-0cb2a20f4f06",
        "type": "message",
        "text": "Link al documento actualizado:",
        "user": "U0108DWH5NH",
        "ts": "1584554620.009700",
        "team": "TUU48M0T1",
        "user_team": "TUU48M0T1",
        "source_team": "TUU48M0T1",
        "user_profile": {
            "avatar_hash": "gd582b07cb4c",
            "image_72": "https:\/\/secure.gravatar.com\/avatar\/d582b07cb4cff8ecfdf7095f4f4eefc5.jpg?s=72&d=https%3A%2F%2Fa.slack-edge.com%2Fdf10d%2Fimg%2Favatars%2Fava_0025-72.png",
            "first_name": "",
            "real_name": "Juraj Marak",
            "display_name": "Juraj Marak",
            "team": "TUU48M0T1",
            "name": "kukulo2011",
            "is_restricted": false,
            "is_ultra_restricted": false
        },
        "blocks": [
            {
                "type": "rich_text",
                "block_id": "0OwS",
                "elements": [
                    {
                        "type": "rich_text_section",
                        "elements": [
                            {
                                "type": "text",
                                "text": "Link al documento actualizado:"
                            }
                        ]
                    }
                ]
            }
        ],
        "thread_ts": "1584547356.000500",
        "parent_user_id": "U0108DWH5NH"
    },
    {
        "client_msg_id": "ccd7493f-ea6f-40f1-ae78-d9a0f930b88e",
        "type": "message",
        "text": "https :&lt;\/\/docs.google.com\/document\/d\/1RDihfZIOEYs60kPEIVDe7gmsxdYgUosF9sr45mgFxY8\/edit#&gt;",
        "user": "U0108DWH5NH",
        "ts": "1584554630.009900",
        "team": "TUU48M0T1",
        "user_team": "TUU48M0T1",
        "source_team": "TUU48M0T1",
        "user_profile": {
            "avatar_hash": "gd582b07cb4c",
            "image_72": "https:\/\/secure.gravatar.com\/avatar\/d582b07cb4cff8ecfdf7095f4f4eefc5.jpg?s=72&d=https%3A%2F%2Fa.slack-edge.com%2Fdf10d%2Fimg%2Favatars%2Fava_0025-72.png",
            "first_name": "",
            "real_name": "Juraj Marak",
            "display_name": "Juraj Marak",
            "team": "TUU48M0T1",
            "name": "kukulo2011",
            "is_restricted": false,
            "is_ultra_restricted": false
        },
        "blocks": [
            {
                "type": "rich_text",
                "block_id": "h9rl",
                "elements": [
                    {
                        "type": "rich_text_section",
                        "elements": [
                            {
                                "type": "text",
                                "text": "https :"
                            },
                            {
                                "type": "link",
                                "url": "\/\/docs.google.com\/document\/d\/1RDihfZIOEYs60kPEIVDe7gmsxdYgUosF9sr45mgFxY8\/edit#"
                            }
                        ]
                    }
                ]
            }
        ],
        "thread_ts": "1584547356.000500",
        "parent_user_id": "U0108DWH5NH"
    },
    {
        "client_msg_id": "b9fd0e65-668e-40ea-a967-39457f2501ca",
        "type": "message",
        "text": "After https is a space.",
        "user": "U0108DWH5NH",
        "ts": "1584554647.010100",
        "team": "TUU48M0T1",
        "user_team": "TUU48M0T1",
        "source_team": "TUU48M0T1",
        "user_profile": {
            "avatar_hash": "gd582b07cb4c",
            "image_72": "https:\/\/secure.gravatar.com\/avatar\/d582b07cb4cff8ecfdf7095f4f4eefc5.jpg?s=72&d=https%3A%2F%2Fa.slack-edge.com%2Fdf10d%2Fimg%2Favatars%2Fava_0025-72.png",
            "first_name": "",
            "real_name": "Juraj Marak",
            "display_name": "Juraj Marak",
            "team": "TUU48M0T1",
            "name": "kukulo2011",
            "is_restricted": false,
            "is_ultra_restricted": false
        },
        "blocks": [
            {
                "type": "rich_text",
                "block_id": "uhns",
                "elements": [
                    {
                        "type": "rich_text_section",
                        "elements": [
                            {
                                "type": "text",
                                "text": "After https is a space."
                            }
                        ]
                    }
                ]
            }
        ],
        "thread_ts": "1584547356.000500",
        "parent_user_id": "U0108DWH5NH"
    },
    {
        "client_msg_id": "df44d4c5-876f-4131-810c-213df17dc6f1",
        "type": "message",
        "text": "Specification: <https:\/\/www.britishchambers.org.uk\/media\/get\/Specification%20For%20RMVS%20Challenge.pdf>",
        "user": "U0108DWH5NH",
        "ts": "1584555752.010700",
        "team": "TUU48M0T1",
        "user_team": "TUU48M0T1",
        "source_team": "TUU48M0T1",
        "user_profile": {
            "avatar_hash": "gd582b07cb4c",
            "image_72": "https:\/\/secure.gravatar.com\/avatar\/d582b07cb4cff8ecfdf7095f4f4eefc5.jpg?s=72&d=https%3A%2F%2Fa.slack-edge.com%2Fdf10d%2Fimg%2Favatars%2Fava_0025-72.png",
            "first_name": "",
            "real_name": "Juraj Marak",
            "display_name": "Juraj Marak",
            "team": "TUU48M0T1",
            "name": "kukulo2011",
            "is_restricted": false,
            "is_ultra_restricted": false
        },
        "blocks": [
            {
                "type": "rich_text",
                "block_id": "LlzV",
                "elements": [
                    {
                        "type": "rich_text_section",
                        "elements": [
                            {
                                "type": "text",
                                "text": "Specification: "
                            },
                            {
                                "type": "link",
                                "url": "https:\/\/www.britishchambers.org.uk\/media\/get\/Specification%20For%20RMVS%20Challenge.pdf"
                            }
                        ]
                    }
                ]
            }
        ],
        "thread_ts": "1584555752.010700",
        "reply_count": 1,
        "reply_users_count": 1,
        "latest_reply": "1584559230.013500",
        "reply_users": [
            "U0107NS25A4"
        ],
        "replies": [
            {
                "user": "U0107NS25A4",
                "ts": "1584559230.013500"
            }
        ],
        "subscribed": false,
        "reactions": [
            {
                "name": "heart",
                "users": [
                    "U0107NS25A4"
                ],
                "count": 1
            }
        ]
    },
    {
        "client_msg_id": "a02a591b-c7bd-4656-89f2-56d29ab3865f",
        "type": "message",
        "text": "I wrote a message to a local medical supplier in Slovakia, which is doing the ventilators here about the open source development, we will need their help here.",
        "user": "U0108DWH5NH",
        "ts": "1584558545.012400",
        "team": "TUU48M0T1",
        "user_team": "TUU48M0T1",
        "source_team": "TUU48M0T1",
        "user_profile": {
            "avatar_hash": "gd582b07cb4c",
            "image_72": "https:\/\/secure.gravatar.com\/avatar\/d582b07cb4cff8ecfdf7095f4f4eefc5.jpg?s=72&d=https%3A%2F%2Fa.slack-edge.com%2Fdf10d%2Fimg%2Favatars%2Fava_0025-72.png",
            "first_name": "",
            "real_name": "Juraj Marak",
            "display_name": "Juraj Marak",
            "team": "TUU48M0T1",
            "name": "kukulo2011",
            "is_restricted": false,
            "is_ultra_restricted": false
        },
        "blocks": [
            {
                "type": "rich_text",
                "block_id": "OyYH2",
                "elements": [
                    {
                        "type": "rich_text_section",
                        "elements": [
                            {
                                "type": "text",
                                "text": "I wrote a message to a local medical supplier in Slovakia, which is doing the ventilators here about the open source development, we will need their help here."
                            }
                        ]
                    }
                ]
            }
        ]
    },
    {
        "client_msg_id": "f6931516-037a-4783-887e-24d97ab9a9fd",
        "type": "message",
        "text": "I hope an answer from them at least in the development questions.",
        "user": "U0108DWH5NH",
        "ts": "1584558600.013300",
        "team": "TUU48M0T1",
        "user_team": "TUU48M0T1",
        "source_team": "TUU48M0T1",
        "user_profile": {
            "avatar_hash": "gd582b07cb4c",
            "image_72": "https:\/\/secure.gravatar.com\/avatar\/d582b07cb4cff8ecfdf7095f4f4eefc5.jpg?s=72&d=https%3A%2F%2Fa.slack-edge.com%2Fdf10d%2Fimg%2Favatars%2Fava_0025-72.png",
            "first_name": "",
            "real_name": "Juraj Marak",
            "display_name": "Juraj Marak",
            "team": "TUU48M0T1",
            "name": "kukulo2011",
            "is_restricted": false,
            "is_ultra_restricted": false
        },
        "blocks": [
            {
                "type": "rich_text",
                "block_id": "l2J3v",
                "elements": [
                    {
                        "type": "rich_text_section",
                        "elements": [
                            {
                                "type": "text",
                                "text": "I hope an answer from them at least in the development questions."
                            }
                        ]
                    }
                ]
            }
        ],
        "reactions": [
            {
                "name": "heavy_plus_sign",
                "users": [
                    "U0107NS25A4"
                ],
                "count": 1
            }
        ]
    },
    {
        "type": "message",
        "text": "this looked interesting from the article shared, and the link : ( <https:\/\/onlinelibrary.wiley.com\/doi\/full\/10.1111\/j.1365-2044.2009.06207.x> )",
        "files": [
            {
                "id": "FVCBT200K",
                "created": 1584559226,
                "timestamp": 1584559226,
                "name": "Screenshot from 2020-03-18 14-19-03.png",
                "title": "Screenshot from 2020-03-18 14-19-03.png",
                "mimetype": "image\/png",
                "filetype": "png",
                "pretty_type": "PNG",
                "user": "U0107NS25A4",
                "editable": false,
                "size": 194458,
                "mode": "hosted",
                "is_external": false,
                "external_type": "",
                "is_public": true,
                "public_url_shared": false,
                "display_as_bot": false,
                "username": "",
                "url_private": "https:\/\/files.slack.com\/files-pri\/TUU48M0T1-FVCBT200K\/screenshot_from_2020-03-18_14-19-03.png?t=xoxe-980144714919-1031585465028-1034106672247-1815eabca44f30d1d2d966083f8c8bbb",
                "url_private_download": "https:\/\/files.slack.com\/files-pri\/TUU48M0T1-FVCBT200K\/download\/screenshot_from_2020-03-18_14-19-03.png?t=xoxe-980144714919-1031585465028-1034106672247-1815eabca44f30d1d2d966083f8c8bbb",
                "thumb_64": "https:\/\/files.slack.com\/files-tmb\/TUU48M0T1-FVCBT200K-62b09d2527\/screenshot_from_2020-03-18_14-19-03_64.png?t=xoxe-980144714919-1031585465028-1034106672247-1815eabca44f30d1d2d966083f8c8bbb",
                "thumb_80": "https:\/\/files.slack.com\/files-tmb\/TUU48M0T1-FVCBT200K-62b09d2527\/screenshot_from_2020-03-18_14-19-03_80.png?t=xoxe-980144714919-1031585465028-1034106672247-1815eabca44f30d1d2d966083f8c8bbb",
                "thumb_360": "https:\/\/files.slack.com\/files-tmb\/TUU48M0T1-FVCBT200K-62b09d2527\/screenshot_from_2020-03-18_14-19-03_360.png?t=xoxe-980144714919-1031585465028-1034106672247-1815eabca44f30d1d2d966083f8c8bbb",
                "thumb_360_w": 346,
                "thumb_360_h": 360,
                "thumb_480": "https:\/\/files.slack.com\/files-tmb\/TUU48M0T1-FVCBT200K-62b09d2527\/screenshot_from_2020-03-18_14-19-03_480.png?t=xoxe-980144714919-1031585465028-1034106672247-1815eabca44f30d1d2d966083f8c8bbb",
                "thumb_480_w": 462,
                "thumb_480_h": 480,
                "thumb_160": "https:\/\/files.slack.com\/files-tmb\/TUU48M0T1-FVCBT200K-62b09d2527\/screenshot_from_2020-03-18_14-19-03_160.png?t=xoxe-980144714919-1031585465028-1034106672247-1815eabca44f30d1d2d966083f8c8bbb",
                "thumb_720": "https:\/\/files.slack.com\/files-tmb\/TUU48M0T1-FVCBT200K-62b09d2527\/screenshot_from_2020-03-18_14-19-03_720.png?t=xoxe-980144714919-1031585465028-1034106672247-1815eabca44f30d1d2d966083f8c8bbb",
                "thumb_720_w": 693,
                "thumb_720_h": 720,
                "image_exif_rotation": 1,
                "original_w": 739,
                "original_h": 768,
                "thumb_tiny": "AwAwAC7TpOaWo2RC67gCe2aAHjPc01t+flKj6ilViSc0Ecjkj+tACjPc0tMBO8jtT6AEY4xSbh6UP2ptADtw9DSFqSigBc08dKjp44FACP2ptOftTaACil2n0owfSgBKeOlNwfSnDpQB\/9k=",
                "permalink": "https:\/\/open-covid19.slack.com\/files\/U0107NS25A4\/FVCBT200K\/screenshot_from_2020-03-18_14-19-03.png",
                "permalink_public": "https:\/\/slack-files.com\/TUU48M0T1-FVCBT200K-9dfa0d0f76",
                "is_starred": false,
                "has_rich_preview": false
            }
        ],
        "upload": true,
        "blocks": [
            {
                "type": "rich_text",
                "block_id": "Y8B8c",
                "elements": [
                    {
                        "type": "rich_text_section",
                        "elements": [
                            {
                                "type": "text",
                                "text": "this looked interesting from the article shared, and the link : ( "
                            },
                            {
                                "type": "link",
                                "url": "https:\/\/onlinelibrary.wiley.com\/doi\/full\/10.1111\/j.1365-2044.2009.06207.x"
                            },
                            {
                                "type": "text",
                                "text": " )"
                            }
                        ]
                    }
                ]
            }
        ],
        "user": "U0107NS25A4",
        "display_as_bot": false,
        "ts": "1584559230.013500",
        "client_msg_id": "95f4d002-b5ee-46f1-880e-4686b22e6005",
        "thread_ts": "1584555752.010700",
        "parent_user_id": "U0108DWH5NH"
    },
    {
        "type": "message",
        "subtype": "channel_join",
        "ts": "1584559477.014000",
        "user": "U0102NEMRTR",
        "text": "<@U0102NEMRTR> has joined the channel"
    },
    {
        "client_msg_id": "7b587f7c-ba90-431b-856f-a43472e1730e",
        "type": "message",
        "text": "People here should definitely also join the OpenAir project on JOGL, which sees to have a ton of momentum around building Open ventilators and oxygen concentrators, including a slack with 9000 members: <https:\/\/app.jogl.io\/project\/121>",
        "user": "U0102NEMRTR",
        "ts": "1584559883.015500",
        "team": "TUU48M0T1",
        "user_team": "TUU48M0T1",
        "source_team": "TUU48M0T1",
        "user_profile": {
            "avatar_hash": "g6072d132593",
            "image_72": "https:\/\/secure.gravatar.com\/avatar\/6072d132593acb6de99356666ff0ed9e.jpg?s=72&d=https%3A%2F%2Fa.slack-edge.com%2Fdf10d%2Fimg%2Favatars%2Fava_0008-72.png",
            "first_name": "",
            "real_name": "Patrik D'haeseleer",
            "display_name": "Patrik D'haeseleer",
            "team": "TUU48M0T1",
            "name": "patrikd",
            "is_restricted": false,
            "is_ultra_restricted": false
        },
        "attachments": [
            {
                "title": "JOGL - Just One Giant Lab",
                "title_link": "https:\/\/app.jogl.io\/project\/121",
                "text": "JOGL helps sync humanity onto solving our most important social &amp; environmental problems using open science, responsible innovation &amp; continuous learning.",
                "fallback": "JOGL - Just One Giant Lab",
                "thumb_url": "https:\/\/app.jogl.io\/planet.jpg",
                "from_url": "https:\/\/app.jogl.io\/project\/121",
                "thumb_width": 2049,
                "thumb_height": 1011,
                "service_icon": "https:\/\/app.jogl.io\/favicon.ico",
                "service_name": "app.jogl.io",
                "id": 1,
                "original_url": "https:\/\/app.jogl.io\/project\/121"
            }
        ],
        "blocks": [
            {
                "type": "rich_text",
                "block_id": "7lj6",
                "elements": [
                    {
                        "type": "rich_text_section",
                        "elements": [
                            {
                                "type": "text",
                                "text": "People here should definitely also join the OpenAir project on JOGL, which sees to have a ton of momentum around building Open ventilators and oxygen concentrators, including a slack with 9000 members: "
                            },
                            {
                                "type": "link",
                                "url": "https:\/\/app.jogl.io\/project\/121"
                            }
                        ]
                    }
                ]
            }
        ]
    },
    {
        "client_msg_id": "e34565c6-8a85-451f-87b1-4a0a42e034ee",
        "type": "message",
        "text": "Most of the DIY ventilator designs center around automating a <https:\/\/en.wikipedia.org\/wiki\/Bag_valve_mask|Bag Valve Mask> - a manual ventilator. May want to order or get one of those to start your design. They still seem to be available from suppliers, and may be of use keeping a loved one alive in the future (if you are able to put in a huge amount of manual effort).",
        "user": "U0102NEMRTR",
        "ts": "1584560183.018500",
        "team": "TUU48M0T1",
        "user_team": "TUU48M0T1",
        "source_team": "TUU48M0T1",
        "user_profile": {
            "avatar_hash": "g6072d132593",
            "image_72": "https:\/\/secure.gravatar.com\/avatar\/6072d132593acb6de99356666ff0ed9e.jpg?s=72&d=https%3A%2F%2Fa.slack-edge.com%2Fdf10d%2Fimg%2Favatars%2Fava_0008-72.png",
            "first_name": "",
            "real_name": "Patrik D'haeseleer",
            "display_name": "Patrik D'haeseleer",
            "team": "TUU48M0T1",
            "name": "patrikd",
            "is_restricted": false,
            "is_ultra_restricted": false
        },
        "attachments": [
            {
                "image_url": "https:\/\/upload.wikimedia.org\/wikipedia\/commons\/thumb\/a\/ab\/Ballon_ventilation_1.jpg\/1200px-Ballon_ventilation_1.jpg",
                "image_width": 1200,
                "image_height": 900,
                "image_bytes": 160366,
                "title": "Bag valve mask",
                "title_link": "https:\/\/en.wikipedia.org\/wiki\/Bag_valve_mask",
                "from_url": "https:\/\/en.wikipedia.org\/wiki\/Bag_valve_mask",
                "author_name": "Wikipedia",
                "author_link": "https:\/\/en.wikipedia.org\/",
                "text": "A bag valve mask (BVM), sometimes known by the proprietary name Ambu bag or generically as a manual resuscitator or \"self-inflating bag\", is a hand-held device commonly used to provide positive pressure ventilation to patients who are not breathing or not breathing adequately.  The device is a required part of resuscitation kits for trained professionals in out-of-hospital settings (such as ambulance crews) and is also frequently used in hospitals as part of standard equipment found on a crash cart, in emergency rooms or other critical care settings.  Underscoring the frequency and prominence of BVM use in the United States, the American Heart Association (AHA) Guidelines for Cardiopulmonary Resuscitation and Emergency Cardiac Care recommend that \"all healthcare providers should be familiar with the use of the bag-mask device.\"  Manual resuscitators are also used within the hospital for temporary ventilation of patients dependent on mechanical ventilators when the mechanical ventilator needs to be examined for possible malfunction or when ventilator-dependent patients are transported within the hospital.  Two principal types of manual resuscitators exist; one version is self-filling with air, although additional oxygen (O2) can be added but is not necessary for the device to function.  The other principal type of manual resuscitator (flow-inflation) is heavily used in non-emergency applications in the operating room to ventilate patients during anesthesia induction and recovery.\nUse of manual resuscitators to ventilate a patient is frequently called \"bagging\" the patient   and is regularly necessary in medical emergencies when the patient's breathing is insufficient (respiratory failure) or has ceased completely (respiratory arrest).  Use of the manual resuscitator force-feeds air or oxygen into the lungs in order to inflate them under pressure, thus constituting a means to manually provide positive-pressure ventilation.  It is used by professional rescuers in preference to mouth-to-mouth ventilation, either directly or through an adjunct such as a pocket mask.",
                "fallback": "wikipedia: Bag valve mask",
                "service_icon": "https:\/\/a.slack-edge.com\/80588\/img\/unfurl_icons\/wikipedia.png",
                "id": 1,
                "original_url": "https:\/\/en.wikipedia.org\/wiki\/Bag_valve_mask"
            }
        ],
        "blocks": [
            {
                "type": "rich_text",
                "block_id": "wnz",
                "elements": [
                    {
                        "type": "rich_text_section",
                        "elements": [
                            {
                                "type": "text",
                                "text": "Most of the DIY ventilator designs center around automating a "
                            },
                            {
                                "type": "link",
                                "url": "https:\/\/en.wikipedia.org\/wiki\/Bag_valve_mask",
                                "text": "Bag Valve Mask"
                            },
                            {
                                "type": "text",
                                "text": " - a manual ventilator. May want to order or get one of those to start your design. They still seem to be available from suppliers, and may be of use keeping a loved one alive in the future (if you are able to put in a huge amount of manual effort)."
                            }
                        ]
                    }
                ]
            }
        ],
        "thread_ts": "1584560183.018500",
        "reply_count": 1,
        "reply_users_count": 1,
        "latest_reply": "1584561705.018800",
        "reply_users": [
            "U0107NS25A4"
        ],
        "replies": [
            {
                "user": "U0107NS25A4",
                "ts": "1584561705.018800"
            }
        ],
        "subscribed": false,
        "reactions": [
            {
                "name": "heavy_plus_sign",
                "users": [
                    "U0107NS25A4"
                ],
                "count": 1
            }
        ]
    },
    {
        "client_msg_id": "e966c1c3-0637-40f8-bd44-11f353fb2c7d",
        "type": "message",
        "text": "There was a study linked in one of the previous links about an automated bag ventilator, that I was looking at : ( <https:\/\/onlinelibrary.wiley.com\/doi\/full\/10.1111\/j.1365-2044.2009.06207.x> ) ( <https:\/\/www.britishchambers.org.uk\/media\/get\/Specification%20For%20RMVS%20Challenge.pdf> )",
        "user": "U0107NS25A4",
        "ts": "1584561705.018800",
        "team": "TUU48M0T1",
        "user_team": "TUU48M0T1",
        "source_team": "TUU48M0T1",
        "user_profile": {
            "avatar_hash": "g59a46c49b36",
            "image_72": "https:\/\/secure.gravatar.com\/avatar\/59a46c49b36e636ad0775c910915ee3b.jpg?s=72&d=https%3A%2F%2Fa.slack-edge.com%2Fdf10d%2Fimg%2Favatars%2Fava_0012-72.png",
            "first_name": "jmunsch",
            "real_name": "jmunsch",
            "display_name": "jmunsch",
            "team": "TUU48M0T1",
            "name": "james.a.munsch",
            "is_restricted": false,
            "is_ultra_restricted": false
        },
        "blocks": [
            {
                "type": "rich_text",
                "block_id": "SQXi",
                "elements": [
                    {
                        "type": "rich_text_section",
                        "elements": [
                            {
                                "type": "text",
                                "text": "There was a study linked in one of the previous links about an automated bag ventilator, that I was looking at : ( "
                            },
                            {
                                "type": "link",
                                "url": "https:\/\/onlinelibrary.wiley.com\/doi\/full\/10.1111\/j.1365-2044.2009.06207.x"
                            },
                            {
                                "type": "text",
                                "text": " ) ( "
                            },
                            {
                                "type": "link",
                                "url": "https:\/\/www.britishchambers.org.uk\/media\/get\/Specification%20For%20RMVS%20Challenge.pdf"
                            },
                            {
                                "type": "text",
                                "text": " )"
                            }
                        ]
                    }
                ]
            }
        ],
        "thread_ts": "1584560183.018500",
        "parent_user_id": "U0102NEMRTR"
    },
    {
        "type": "message",
        "subtype": "channel_join",
        "ts": "1584563560.019200",
        "user": "U0109G7NH0D",
        "text": "<@U0109G7NH0D> has joined the channel"
    },
    {
        "type": "message",
        "subtype": "channel_join",
        "ts": "1584565817.019400",
        "user": "UV8FL0JCA",
        "text": "<@UV8FL0JCA> has joined the channel"
    },
    {
        "client_msg_id": "b119dd7b-1e8a-428b-bc0c-4a0a0edf21c3",
        "type": "message",
        "text": "Hi all, I’m glad to find this channel. I’d love to help here if I can… I put together my own summary of all the open-source COVID-19 solutions I could find which were working on ventilators, PPE solutions, etc. The purpose of this summary is to be an image-heavy skimmable reference of these projects. I made it because I know that the medical community is super short on time, so I figured images would be much easier to skim to get a sense of what’s out there. Let me know if a similar doc exists somewhere else or if I could help move this to a more helpful place. <https:\/\/docs.google.com\/document\/d\/1DczBWaHiMBxT4umAzhgwTpK5ldzxBYP7MwfbBu_4I_U\/edit#heading=h.u90jt5a56zn6>",
        "user": "UV8FL0JCA",
        "ts": "1584567640.019900",
        "team": "TUU48M0T1",
        "user_team": "TUU48M0T1",
        "source_team": "TUU48M0T1",
        "user_profile": {
            "avatar_hash": "920c820f5900",
            "image_72": "https:\/\/avatars.slack-edge.com\/2020-03-17\/1009529536646_920c820f5900215fb339_72.jpg",
            "first_name": "Eric",
            "real_name": "Eric Chaves",
            "display_name": "Eric Chaves",
            "team": "TUU48M0T1",
            "name": "eric.chaves.llc",
            "is_restricted": false,
            "is_ultra_restricted": false
        },
        "blocks": [
            {
                "type": "rich_text",
                "block_id": "p=k",
                "elements": [
                    {
                        "type": "rich_text_section",
                        "elements": [
                            {
                                "type": "text",
                                "text": "Hi all, I’m glad to find this channel. I’d love to help here if I can… I put together my own summary of all the open-source COVID-19 solutions I could find which were working on ventilators, PPE solutions, etc. The purpose of this summary is to be an image-heavy skimmable reference of these projects. I made it because I know that the medical community is super short on time, so I figured images would be much easier to skim to get a sense of what’s out there. Let me know if a similar doc exists somewhere else or if I could help move this to a more helpful place. "
                            },
                            {
                                "type": "link",
                                "url": "https:\/\/docs.google.com\/document\/d\/1DczBWaHiMBxT4umAzhgwTpK5ldzxBYP7MwfbBu_4I_U\/edit#heading=h.u90jt5a56zn6"
                            }
                        ]
                    }
                ]
            }
        ],
        "reactions": [
            {
                "name": "heavy_plus_sign",
                "users": [
                    "U0107NS25A4",
                    "UV6870881"
                ],
                "count": 2
            }
        ]
    },
    {
        "type": "message",
        "text": "This could be the principle for the bag valve mask version.",
        "files": [
            {
                "id": "F0109P4QQ2Y",
                "created": 1584568003,
                "timestamp": 1584568003,
                "name": "Draft_Bag_valve_mask.jpg",
                "title": "Draft_Bag_valve_mask.jpg",
                "mimetype": "image\/jpeg",
                "filetype": "jpg",
                "pretty_type": "JPEG",
                "user": "U0108DWH5NH",
                "editable": false,
                "size": 2982068,
                "mode": "hosted",
                "is_external": false,
                "external_type": "",
                "is_public": true,
                "public_url_shared": false,
                "display_as_bot": false,
                "username": "",
                "url_private": "https:\/\/files.slack.com\/files-pri\/TUU48M0T1-F0109P4QQ2Y\/draft_bag_valve_mask.jpg?t=xoxe-980144714919-1031585465028-1034106672247-1815eabca44f30d1d2d966083f8c8bbb",
                "url_private_download": "https:\/\/files.slack.com\/files-pri\/TUU48M0T1-F0109P4QQ2Y\/download\/draft_bag_valve_mask.jpg?t=xoxe-980144714919-1031585465028-1034106672247-1815eabca44f30d1d2d966083f8c8bbb",
                "thumb_64": "https:\/\/files.slack.com\/files-tmb\/TUU48M0T1-F0109P4QQ2Y-9eea1d4516\/draft_bag_valve_mask_64.jpg?t=xoxe-980144714919-1031585465028-1034106672247-1815eabca44f30d1d2d966083f8c8bbb",
                "thumb_80": "https:\/\/files.slack.com\/files-tmb\/TUU48M0T1-F0109P4QQ2Y-9eea1d4516\/draft_bag_valve_mask_80.jpg?t=xoxe-980144714919-1031585465028-1034106672247-1815eabca44f30d1d2d966083f8c8bbb",
                "thumb_360": "https:\/\/files.slack.com\/files-tmb\/TUU48M0T1-F0109P4QQ2Y-9eea1d4516\/draft_bag_valve_mask_360.jpg?t=xoxe-980144714919-1031585465028-1034106672247-1815eabca44f30d1d2d966083f8c8bbb",
                "thumb_360_w": 271,
                "thumb_360_h": 360,
                "thumb_480": "https:\/\/files.slack.com\/files-tmb\/TUU48M0T1-F0109P4QQ2Y-9eea1d4516\/draft_bag_valve_mask_480.jpg?t=xoxe-980144714919-1031585465028-1034106672247-1815eabca44f30d1d2d966083f8c8bbb",
                "thumb_480_w": 361,
                "thumb_480_h": 480,
                "thumb_160": "https:\/\/files.slack.com\/files-tmb\/TUU48M0T1-F0109P4QQ2Y-9eea1d4516\/draft_bag_valve_mask_160.jpg?t=xoxe-980144714919-1031585465028-1034106672247-1815eabca44f30d1d2d966083f8c8bbb",
                "thumb_720": "https:\/\/files.slack.com\/files-tmb\/TUU48M0T1-F0109P4QQ2Y-9eea1d4516\/draft_bag_valve_mask_720.jpg?t=xoxe-980144714919-1031585465028-1034106672247-1815eabca44f30d1d2d966083f8c8bbb",
                "thumb_720_w": 541,
                "thumb_720_h": 720,
                "thumb_800": "https:\/\/files.slack.com\/files-tmb\/TUU48M0T1-F0109P4QQ2Y-9eea1d4516\/draft_bag_valve_mask_800.jpg?t=xoxe-980144714919-1031585465028-1034106672247-1815eabca44f30d1d2d966083f8c8bbb",
                "thumb_800_w": 800,
                "thumb_800_h": 1064,
                "thumb_960": "https:\/\/files.slack.com\/files-tmb\/TUU48M0T1-F0109P4QQ2Y-9eea1d4516\/draft_bag_valve_mask_960.jpg?t=xoxe-980144714919-1031585465028-1034106672247-1815eabca44f30d1d2d966083f8c8bbb",
                "thumb_960_w": 722,
                "thumb_960_h": 960,
                "thumb_1024": "https:\/\/files.slack.com\/files-tmb\/TUU48M0T1-F0109P4QQ2Y-9eea1d4516\/draft_bag_valve_mask_1024.jpg?t=xoxe-980144714919-1031585465028-1034106672247-1815eabca44f30d1d2d966083f8c8bbb",
                "thumb_1024_w": 770,
                "thumb_1024_h": 1024,
                "image_exif_rotation": 8,
                "original_w": 4640,
                "original_h": 3488,
                "thumb_tiny": "AwAwACSVEDDJpfLX3oj+5+NOpAN2L70nlj1NOop2Ajb5TikzSyfe\/CmVIyZD8gpc1Gh+QU7NUIdmim0tADH+9Tac\/Wm0hix8xKfUU6o45EESDevAHen5HqKYhc0ZpPxpRQAjdaSlNFAH\/9k=",
                "permalink": "https:\/\/open-covid19.slack.com\/files\/U0108DWH5NH\/F0109P4QQ2Y\/draft_bag_valve_mask.jpg",
                "permalink_public": "https:\/\/slack-files.com\/TUU48M0T1-F0109P4QQ2Y-0aa8f45572",
                "is_starred": false,
                "has_rich_preview": false
            }
        ],
        "upload": true,
        "blocks": [
            {
                "type": "rich_text",
                "block_id": "kYIax",
                "elements": [
                    {
                        "type": "rich_text_section",
                        "elements": [
                            {
                                "type": "text",
                                "text": "This could be the principle for the bag valve mask version."
                            }
                        ]
                    }
                ]
            }
        ],
        "user": "U0108DWH5NH",
        "display_as_bot": false,
        "ts": "1584568043.020000",
        "client_msg_id": "f97e07a5-ddd5-486a-b82b-cf5de80e487f",
        "reactions": [
            {
                "name": "heavy_plus_sign",
                "users": [
                    "U0107NS25A4"
                ],
                "count": 1
            }
        ]
    },
    {
        "client_msg_id": "716f08cf-bd8a-4257-8258-675b5e988659",
        "type": "message",
        "text": "<@UV8FL0JCA> Thanks for putting together the document. Happen to know if any of those designs for the ventilators have a bill of materials for the various designs? Wondering if there will be any sourcing issues?",
        "user": "U0107NS25A4",
        "ts": "1584568953.022000",
        "team": "TUU48M0T1",
        "user_team": "TUU48M0T1",
        "source_team": "TUU48M0T1",
        "user_profile": {
            "avatar_hash": "g59a46c49b36",
            "image_72": "https:\/\/secure.gravatar.com\/avatar\/59a46c49b36e636ad0775c910915ee3b.jpg?s=72&d=https%3A%2F%2Fa.slack-edge.com%2Fdf10d%2Fimg%2Favatars%2Fava_0012-72.png",
            "first_name": "jmunsch",
            "real_name": "jmunsch",
            "display_name": "jmunsch",
            "team": "TUU48M0T1",
            "name": "james.a.munsch",
            "is_restricted": false,
            "is_ultra_restricted": false
        },
        "blocks": [
            {
                "type": "rich_text",
                "block_id": "C\/r",
                "elements": [
                    {
                        "type": "rich_text_section",
                        "elements": [
                            {
                                "type": "user",
                                "user_id": "UV8FL0JCA"
                            },
                            {
                                "type": "text",
                                "text": " Thanks for putting together the document. Happen to know if any of those designs for the ventilators have a bill of materials for the various designs? Wondering if there will be any sourcing issues?"
                            }
                        ]
                    }
                ]
            }
        ],
        "thread_ts": "1584568953.022000",
        "reply_count": 5,
        "reply_users_count": 2,
        "latest_reply": "1584569280.022900",
        "reply_users": [
            "UV8FL0JCA",
            "U0107NS25A4"
        ],
        "replies": [
            {
                "user": "UV8FL0JCA",
                "ts": "1584569076.022100"
            },
            {
                "user": "U0107NS25A4",
                "ts": "1584569227.022300"
            },
            {
                "user": "UV8FL0JCA",
                "ts": "1584569229.022500"
            },
            {
                "user": "UV8FL0JCA",
                "ts": "1584569278.022700"
            },
            {
                "user": "U0107NS25A4",
                "ts": "1584569280.022900"
            }
        ],
        "subscribed": false
    },
    {
        "client_msg_id": "241c3e28-c55e-471b-bf29-0c3dee7fc715",
        "type": "message",
        "text": "I think it varies by project for sure. What I’m trying to do now is to talk with doctors, and think through the feasibility of the various options to decide what would be best to work on for our immediate short-term crisis…",
        "user": "UV8FL0JCA",
        "ts": "1584569076.022100",
        "team": "TUU48M0T1",
        "user_team": "TUU48M0T1",
        "source_team": "TUU48M0T1",
        "user_profile": {
            "avatar_hash": "920c820f5900",
            "image_72": "https:\/\/avatars.slack-edge.com\/2020-03-17\/1009529536646_920c820f5900215fb339_72.jpg",
            "first_name": "Eric",
            "real_name": "Eric Chaves",
            "display_name": "Eric Chaves",
            "team": "TUU48M0T1",
            "name": "eric.chaves.llc",
            "is_restricted": false,
            "is_ultra_restricted": false
        },
        "blocks": [
            {
                "type": "rich_text",
                "block_id": "32W",
                "elements": [
                    {
                        "type": "rich_text_section",
                        "elements": [
                            {
                                "type": "text",
                                "text": "I think it varies by project for sure. What I’m trying to do now is to talk with doctors, and think through the feasibility of the various options to decide what would be best to work on for our immediate short-term crisis…"
                            }
                        ]
                    }
                ]
            }
        ],
        "thread_ts": "1584568953.022000",
        "parent_user_id": "U0107NS25A4"
    },
    {
        "client_msg_id": "18359938-1b2e-4e7d-86b5-b61927cdcdb3",
        "type": "message",
        "text": "<@UV8FL0JCA> there was a study that has some data that they might be able to verify via  for some of the bag ventilators here: <https:\/\/onlinelibrary.wiley.com\/doi\/full\/10.1111\/j.1365-2044.2009.06207.x>\n\nmight be of use when you talk with them",
        "user": "U0107NS25A4",
        "ts": "1584569227.022300",
        "team": "TUU48M0T1",
        "user_team": "TUU48M0T1",
        "source_team": "TUU48M0T1",
        "user_profile": {
            "avatar_hash": "g59a46c49b36",
            "image_72": "https:\/\/secure.gravatar.com\/avatar\/59a46c49b36e636ad0775c910915ee3b.jpg?s=72&d=https%3A%2F%2Fa.slack-edge.com%2Fdf10d%2Fimg%2Favatars%2Fava_0012-72.png",
            "first_name": "jmunsch",
            "real_name": "jmunsch",
            "display_name": "jmunsch",
            "team": "TUU48M0T1",
            "name": "james.a.munsch",
            "is_restricted": false,
            "is_ultra_restricted": false
        },
        "blocks": [
            {
                "type": "rich_text",
                "block_id": "quf",
                "elements": [
                    {
                        "type": "rich_text_section",
                        "elements": [
                            {
                                "type": "user",
                                "user_id": "UV8FL0JCA"
                            },
                            {
                                "type": "text",
                                "text": " there was a study that has some data that they might be able to verify via  for some of the bag ventilators here: "
                            },
                            {
                                "type": "link",
                                "url": "https:\/\/onlinelibrary.wiley.com\/doi\/full\/10.1111\/j.1365-2044.2009.06207.x"
                            },
                            {
                                "type": "text",
                                "text": "\n\nmight be of use when you talk with them"
                            }
                        ]
                    }
                ]
            }
        ],
        "thread_ts": "1584568953.022000",
        "parent_user_id": "U0107NS25A4"
    },
    {
        "client_msg_id": "0fdc9997-67f7-47f0-b8d7-b22d276c528d",
        "type": "message",
        "text": "I understand that there are so many roadblocks to this challenge - e.g. Good manufacturing practices (GMP), patents on any parts, etc. So it seems the trick might be to create something which bypasses as much of that as possible.",
        "user": "UV8FL0JCA",
        "ts": "1584569229.022500",
        "team": "TUU48M0T1",
        "user_team": "TUU48M0T1",
        "source_team": "TUU48M0T1",
        "user_profile": {
            "avatar_hash": "920c820f5900",
            "image_72": "https:\/\/avatars.slack-edge.com\/2020-03-17\/1009529536646_920c820f5900215fb339_72.jpg",
            "first_name": "Eric",
            "real_name": "Eric Chaves",
            "display_name": "Eric Chaves",
            "team": "TUU48M0T1",
            "name": "eric.chaves.llc",
            "is_restricted": false,
            "is_ultra_restricted": false
        },
        "blocks": [
            {
                "type": "rich_text",
                "block_id": "4KtD",
                "elements": [
                    {
                        "type": "rich_text_section",
                        "elements": [
                            {
                                "type": "text",
                                "text": "I understand that there are so many roadblocks to this challenge - e.g. Good manufacturing practices (GMP), patents on any parts, etc. So it seems the trick might be to create something which bypasses as much of that as possible."
                            }
                        ]
                    }
                ]
            }
        ],
        "thread_ts": "1584568953.022000",
        "parent_user_id": "U0107NS25A4"
    },
    {
        "client_msg_id": "67a62f33-81e4-4dfd-984c-337ba49cb56d",
        "type": "message",
        "text": "<@U0107NS25A4> that’s great, thanks, ill add that!",
        "user": "UV8FL0JCA",
        "ts": "1584569278.022700",
        "team": "TUU48M0T1",
        "user_team": "TUU48M0T1",
        "source_team": "TUU48M0T1",
        "user_profile": {
            "avatar_hash": "920c820f5900",
            "image_72": "https:\/\/avatars.slack-edge.com\/2020-03-17\/1009529536646_920c820f5900215fb339_72.jpg",
            "first_name": "Eric",
            "real_name": "Eric Chaves",
            "display_name": "Eric Chaves",
            "team": "TUU48M0T1",
            "name": "eric.chaves.llc",
            "is_restricted": false,
            "is_ultra_restricted": false
        },
        "blocks": [
            {
                "type": "rich_text",
                "block_id": "56pOw",
                "elements": [
                    {
                        "type": "rich_text_section",
                        "elements": [
                            {
                                "type": "user",
                                "user_id": "U0107NS25A4"
                            },
                            {
                                "type": "text",
                                "text": " that’s great, thanks, ill add that!"
                            }
                        ]
                    }
                ]
            }
        ],
        "thread_ts": "1584568953.022000",
        "parent_user_id": "U0107NS25A4",
        "reactions": [
            {
                "name": "heavy_plus_sign",
                "users": [
                    "U0107NS25A4"
                ],
                "count": 1
            }
        ]
    },
    {
        "client_msg_id": "7beaaa6a-388e-4aca-a322-1ff8f0466998",
        "type": "message",
        "text": "I pinned a couple links which have some of the design specs, and other preliminary research\/feasibility.",
        "user": "U0107NS25A4",
        "ts": "1584569280.022900",
        "team": "TUU48M0T1",
        "user_team": "TUU48M0T1",
        "source_team": "TUU48M0T1",
        "user_profile": {
            "avatar_hash": "g59a46c49b36",
            "image_72": "https:\/\/secure.gravatar.com\/avatar\/59a46c49b36e636ad0775c910915ee3b.jpg?s=72&d=https%3A%2F%2Fa.slack-edge.com%2Fdf10d%2Fimg%2Favatars%2Fava_0012-72.png",
            "first_name": "jmunsch",
            "real_name": "jmunsch",
            "display_name": "jmunsch",
            "team": "TUU48M0T1",
            "name": "james.a.munsch",
            "is_restricted": false,
            "is_ultra_restricted": false
        },
        "blocks": [
            {
                "type": "rich_text",
                "block_id": "shA2",
                "elements": [
                    {
                        "type": "rich_text_section",
                        "elements": [
                            {
                                "type": "text",
                                "text": "I pinned a couple links which have some of the design specs, and other preliminary research\/feasibility."
                            }
                        ]
                    }
                ]
            }
        ],
        "thread_ts": "1584568953.022000",
        "parent_user_id": "U0107NS25A4"
    },
    {
        "type": "message",
        "subtype": "channel_join",
        "ts": "1584573707.023300",
        "user": "UV3T7JS4A",
        "text": "<@UV3T7JS4A> has joined the channel"
    },
    {
        "type": "message",
        "subtype": "channel_join",
        "ts": "1584575208.023500",
        "user": "UV2P3AQEN",
        "text": "<@UV2P3AQEN> has joined the channel"
    },
    {
        "client_msg_id": "902bc230-1c9c-405d-b92c-c9f976a9846f",
        "type": "message",
        "text": "<https:\/\/gitlab.com\/TrevorSmale\/OSV-OpenLung>",
        "user": "U0107NS25A4",
        "ts": "1584575738.023700",
        "team": "TUU48M0T1",
        "user_team": "TUU48M0T1",
        "source_team": "TUU48M0T1",
        "user_profile": {
            "avatar_hash": "g59a46c49b36",
            "image_72": "https:\/\/secure.gravatar.com\/avatar\/59a46c49b36e636ad0775c910915ee3b.jpg?s=72&d=https%3A%2F%2Fa.slack-edge.com%2Fdf10d%2Fimg%2Favatars%2Fava_0012-72.png",
            "first_name": "jmunsch",
            "real_name": "jmunsch",
            "display_name": "jmunsch",
            "team": "TUU48M0T1",
            "name": "james.a.munsch",
            "is_restricted": false,
            "is_ultra_restricted": false
        },
        "attachments": [
            {
                "service_name": "GitLab",
                "title": "Trevor Smale \/ Open Source Ventilator - OpenLung BVM Ventilator",
                "title_link": "https:\/\/gitlab.com\/TrevorSmale\/OSV-OpenLung",
                "text": "An [IN PROGRESS] open-source quick deployment ventilator design that utilizes a bag valve mask (BVM or Ambu-bag) as a core component. An open collaboration with <http:\/\/opensourceventilator.ie\/>. Read more below.",
                "fallback": "GitLab: Trevor Smale \/ Open Source Ventilator - OpenLung BVM Ventilator",
                "thumb_url": "https:\/\/gitlab.com\/uploads\/-\/system\/project\/avatar\/17454594\/2SMFUJwW_400x400.jpg",
                "from_url": "https:\/\/gitlab.com\/TrevorSmale\/OSV-OpenLung",
                "thumb_width": 400,
                "thumb_height": 400,
                "service_icon": "https:\/\/assets.gitlab-static.net\/assets\/touch-icon-iphone-5a9cee0e8a51212e70b90c87c12f382c428870c0ff67d1eb034d884b78d2dae7.png",
                "id": 1,
                "original_url": "https:\/\/gitlab.com\/TrevorSmale\/OSV-OpenLung"
            }
        ],
        "blocks": [
            {
                "type": "rich_text",
                "block_id": "hP4nM",
                "elements": [
                    {
                        "type": "rich_text_section",
                        "elements": [
                            {
                                "type": "link",
                                "url": "https:\/\/gitlab.com\/TrevorSmale\/OSV-OpenLung"
                            }
                        ]
                    }
                ]
            }
        ]
    },
    {
        "type": "message",
        "subtype": "channel_join",
        "ts": "1584577570.024100",
        "user": "UVADMLUB0",
        "text": "<@UVADMLUB0> has joined the channel"
    },
    {
        "type": "message",
        "subtype": "channel_join",
        "ts": "1584578107.024300",
        "user": "UURGMNE3T",
        "text": "<@UURGMNE3T> has joined the channel"
    },
    {
        "type": "message",
        "subtype": "channel_join",
        "ts": "1584580065.024500",
        "user": "U0109B6RAJ0",
        "text": "<@U0109B6RAJ0> has joined the channel"
    },
    {
        "type": "message",
        "subtype": "channel_join",
        "ts": "1584580764.024700",
        "user": "U0109KDBBKQ",
        "text": "<@U0109KDBBKQ> has joined the channel"
    },
    {
        "client_msg_id": "3638a1e7-b1bb-43ed-b26b-a418cfd13874",
        "type": "message",
        "text": "These Rice students made a very slick automated bag-mask ventilator just last year: <https:\/\/www.futurity.org\/bag-valve-masks-device-2055862-2\/>",
        "user": "U0109KDBBKQ",
        "ts": "1584596915.025700",
        "team": "TUU48M0T1",
        "user_team": "TUU48M0T1",
        "source_team": "TUU48M0T1",
        "user_profile": {
            "avatar_hash": "g64763dd2790",
            "image_72": "https:\/\/secure.gravatar.com\/avatar\/64763dd279067cb666e574e21f4d2115.jpg?s=72&d=https%3A%2F%2Fa.slack-edge.com%2Fdf10d%2Fimg%2Favatars%2Fava_0002-72.png",
            "first_name": "",
            "real_name": "Josh Benson",
            "display_name": "Josh Benson",
            "team": "TUU48M0T1",
            "name": "bensonjosha",
            "is_restricted": false,
            "is_ultra_restricted": false
        },
        "attachments": [
            {
                "service_name": "Futurity",
                "title": "Device auto-squeezes bag valve masks to save lives - Futurity",
                "title_link": "https:\/\/www.futurity.org\/bag-valve-masks-device-2055862-2\/",
                "text": "A new device could be useful in developing countries where some family members squeeze intubation bags for hours on end to keep loved ones alive.",
                "fallback": "Futurity: Device auto-squeezes bag valve masks to save lives - Futurity",
                "image_url": "https:\/\/www.futurity.org\/wp\/wp-content\/uploads\/2019\/05\/bag-valve-mask-device_1600.jpg",
                "image_width": 437,
                "image_height": 250,
                "ts": 1557261439,
                "from_url": "https:\/\/www.futurity.org\/bag-valve-masks-device-2055862-2\/",
                "image_bytes": 258753,
                "service_icon": "https:\/\/www.futurity.org\/wp\/wp-content\/uploads\/2018\/08\/futurity_ico.png",
                "id": 1,
                "original_url": "https:\/\/www.futurity.org\/bag-valve-masks-device-2055862-2\/"
            }
        ],
        "blocks": [
            {
                "type": "rich_text",
                "block_id": "\/g4D",
                "elements": [
                    {
                        "type": "rich_text_section",
                        "elements": [
                            {
                                "type": "text",
                                "text": "These Rice students made a very slick automated bag-mask ventilator just last year: "
                            },
                            {
                                "type": "link",
                                "url": "https:\/\/www.futurity.org\/bag-valve-masks-device-2055862-2\/"
                            }
                        ]
                    }
                ]
            }
        ]
    }
]